A02655-001,https://iiif.archive.org/iiif/briefetruereport00harr$11
A02655-002,https://iiif.archive.org/iiif/briefetruereport00harr$13
A02655-003,https://iiif.archive.org/iiif/briefetruereport00harr$14
A02655-004,https://iiif.archive.org/iiif/briefetruereport00harr$15
A02655-005,https://iiif.archive.org/iiif/briefetruereport00harr$16
A02655-006,https://iiif.archive.org/iiif/briefetruereport00harr$17
A02655-007,https://iiif.archive.org/iiif/briefetruereport00harr$18
A02655-008,https://iiif.archive.org/iiif/briefetruereport00harr$19
A02655-009,https://iiif.archive.org/iiif/briefetruereport00harr$20
A02655-010,https://iiif.archive.org/iiif/briefetruereport00harr$21
A02655-011,https://iiif.archive.org/iiif/briefetruereport00harr$22
A02655-012,https://iiif.archive.org/iiif/briefetruereport00harr$23
A02655-013,https://iiif.archive.org/iiif/briefetruereport00harr$24
A02655-014,https://iiif.archive.org/iiif/briefetruereport00harr$25
A02655-015,https://iiif.archive.org/iiif/briefetruereport00harr$26
A02655-016,https://iiif.archive.org/iiif/briefetruereport00harr$27
A02655-017,https://iiif.archive.org/iiif/briefetruereport00harr$28
A02655-018,https://iiif.archive.org/iiif/briefetruereport00harr$29
A02655-019,https://iiif.archive.org/iiif/briefetruereport00harr$30
A02655-020,https://iiif.archive.org/iiif/briefetruereport00harr$31
A02655-021,https://iiif.archive.org/iiif/briefetruereport00harr$32
A02655-022,https://iiif.archive.org/iiif/briefetruereport00harr$33
A02655-023,https://iiif.archive.org/iiif/briefetruereport00harr$34
A02655-024,https://iiif.archive.org/iiif/briefetruereport00harr$35
A02655-025,https://iiif.archive.org/iiif/briefetruereport00harr$36
A02655-026,https://iiif.archive.org/iiif/briefetruereport00harr$37
A02655-027,https://iiif.archive.org/iiif/briefetruereport00harr$38
A02655-028,https://iiif.archive.org/iiif/briefetruereport00harr$39
A02655-029,https://iiif.archive.org/iiif/briefetruereport00harr$40
A02655-030,https://iiif.archive.org/iiif/briefetruereport00harr$41
A02655-031,https://iiif.archive.org/iiif/briefetruereport00harr$42
A02655-032,https://iiif.archive.org/iiif/briefetruereport00harr$43
A02655-033,https://iiif.archive.org/iiif/briefetruereport00harr$45
A02655-034,https://iiif.archive.org/iiif/briefetruereport00harr$47
A02655-035,https://iiif.archive.org/iiif/briefetruereport00harr$48
A02655-036,https://iiif.archive.org/iiif/briefetruereport00harr$10
A02655-037,https://iiif.archive.org/iiif/briefetruereport00harr$49
A02655-037-a,https://iiif.archive.org/iiif/briefetruereport00harr$52
A02655-037-b,https://iiif.archive.org/iiif/briefetruereport00harr$53
A02655-038,https://iiif.archive.org/iiif/briefetruereport00harr$55
A02655-039,https://iiif.archive.org/iiif/briefetruereport00harr$57
A02655-040,https://iiif.archive.org/iiif/briefetruereport00harr$59
A02655-041,https://iiif.archive.org/iiif/briefetruereport00harr$61
A02655-042,https://iiif.archive.org/iiif/briefetruereport00harr$63
A02655-043,https://iiif.archive.org/iiif/briefetruereport00harr$65
A02655-044,https://iiif.archive.org/iiif/briefetruereport00harr$67
A02655-045,https://iiif.archive.org/iiif/briefetruereport00harr$69
A02655-046,https://iiif.archive.org/iiif/briefetruereport00harr$71
A02655-047,https://iiif.archive.org/iiif/briefetruereport00harr$73
A02655-048,https://iiif.archive.org/iiif/briefetruereport00harr$75
A02655-049,https://iiif.archive.org/iiif/briefetruereport00harr$78
A02655-050,https://iiif.archive.org/iiif/briefetruereport00harr$79
A02655-051,https://iiif.archive.org/iiif/briefetruereport00harr$81
A02655-052,https://iiif.archive.org/iiif/briefetruereport00harr$83
A02655-053,https://iiif.archive.org/iiif/briefetruereport00harr$85
A02655-054,https://iiif.archive.org/iiif/briefetruereport00harr$88
A02655-055,https://iiif.archive.org/iiif/briefetruereport00harr$89
A02655-056,https://iiif.archive.org/iiif/briefetruereport00harr$92
A02655-057,https://iiif.archive.org/iiif/briefetruereport00harr$93
A02655-058,https://iiif.archive.org/iiif/briefetruereport00harr$96
A02655-059,https://iiif.archive.org/iiif/briefetruereport00harr$97
A02655-060,https://iiif.archive.org/iiif/briefetruereport00harr$100
A02655-061,https://iiif.archive.org/iiif/briefetruereport00harr$101
A02655-063,https://iiif.archive.org/iiif/briefetruereport00harr$103
A02655-064,https://iiif.archive.org/iiif/briefetruereport00harr$106
A02655-065,https://iiif.archive.org/iiif/briefetruereport00harr$107
A02655-066,https://iiif.archive.org/iiif/briefetruereport00harr$109
A02655-067,https://iiif.archive.org/iiif/briefetruereport00harr$111
A02655-068,https://iiif.archive.org/iiif/briefetruereport00harr$112
A02655-069,https://iiif.archive.org/iiif/briefetruereport00harr$113
A02655-070,https://iiif.archive.org/iiif/briefetruereport00harr$116
A02655-071,https://iiif.archive.org/iiif/briefetruereport00harr$117
A02655-072,https://iiif.archive.org/iiif/briefetruereport00harr$120
A02655-073,https://iiif.archive.org/iiif/briefetruereport00harr$121
A02655-074,https://iiif.archive.org/iiif/briefetruereport00harr$124
A02655-075,https://iiif.archive.org/iiif/briefetruereport00harr$125
A02655-076,https://iiif.archive.org/iiif/briefetruereport00harr$128
A02655-077,https://iiif.archive.org/iiif/briefetruereport00harr$129
A02655-078,https://iiif.archive.org/iiif/briefetruereport00harr$131
A02655-079,https://iiif.archive.org/iiif/briefetruereport00harr$132
A02655-080,https://iiif.archive.org/iiif/briefetruereport00harr$133
A02655-081,https://iiif.archive.org/iiif/briefetruereport00harr$134
A02655-082,https://iiif.archive.org/iiif/briefetruereport00harr$135
A02655-083,https://iiif.archive.org/iiif/briefetruereport00harr$