A03258-001-a,https://images.digital.library.illinois.edu/iiif/2/fb8fd5d0-1eaa-013a-7ba8-02d0d7bfd6e4-a
A03258-001-b,https://images.digital.library.illinois.edu/iiif/2/fb923d10-1eaa-013a-7ba8-02d0d7bfd6e4-9
A03258-002-a,https://images.digital.library.illinois.edu/iiif/2/fb94bb80-1eaa-013a-7ba8-02d0d7bfd6e4-a
A03258-002-b,https://images.digital.library.illinois.edu/iiif/2/fb972a80-1eaa-013a-7ba8-02d0d7bfd6e4-f
A03258-003-a,https://images.digital.library.illinois.edu/iiif/2/fb999cc0-1eaa-013a-7ba8-02d0d7bfd6e4-b
A03258-003-b,https://images.digital.library.illinois.edu/iiif/2/fb9c0fe0-1eaa-013a-7ba8-02d0d7bfd6e4-6
A03258-004-a,https://images.digital.library.illinois.edu/iiif/2/fb9e8350-1eaa-013a-7ba8-02d0d7bfd6e4-c
A03258-004-b,https://images.digital.library.illinois.edu/iiif/2/fba101c0-1eaa-013a-7ba8-02d0d7bfd6e4-b
A03258-005-a,https://images.digital.library.illinois.edu/iiif/2/fba36180-1eaa-013a-7ba8-02d0d7bfd6e4-5
A03258-005-b,https://images.digital.library.illinois.edu/iiif/2/fba5ba70-1eaa-013a-7ba8-02d0d7bfd6e4-a
A03258-006-a,https://images.digital.library.illinois.edu/iiif/2/fba81c80-1eaa-013a-7ba8-02d0d7bfd6e4-8
A03258-006-b,https://images.digital.library.illinois.edu/iiif/2/fbaa8980-1eaa-013a-7ba8-02d0d7bfd6e4-3
A03258-007-a,https://images.digital.library.illinois.edu/iiif/2/fbad0230-1eaa-013a-7ba8-02d0d7bfd6e4-9
A03258-007-b,https://images.digital.library.illinois.edu/iiif/2/fbb61b70-1eaa-013a-7ba8-02d0d7bfd6e4-f
A03258-008-a,https://images.digital.library.illinois.edu/iiif/2/fbb8bb10-1eaa-013a-7ba8-02d0d7bfd6e4-6
A03258-008-b,https://images.digital.library.illinois.edu/iiif/2/fbbbc7d0-1eaa-013a-7ba8-02d0d7bfd6e4-c
A03258-009-a,https://images.digital.library.illinois.edu/iiif/2/fbbe75e0-1eaa-013a-7ba8-02d0d7bfd6e4-e
A03258-009-b,https://images.digital.library.illinois.edu/iiif/2/fbc134a0-1eaa-013a-7ba8-02d0d7bfd6e4-2
A03258-010-a,https://images.digital.library.illinois.edu/iiif/2/fbc40250-1eaa-013a-7ba8-02d0d7bfd6e4-8
A03258-010-b,https://images.digital.library.illinois.edu/iiif/2/fbc69310-1eaa-013a-7ba8-02d0d7bfd6e4-d
A03258-011-a,https://images.digital.library.illinois.edu/iiif/2/fbc8f580-1eaa-013a-7ba8-02d0d7bfd6e4-7
A03258-011-b,https://images.digital.library.illinois.edu/iiif/2/fbcb5060-1eaa-013a-7ba8-02d0d7bfd6e4-7
A03258-012-a,https://images.digital.library.illinois.edu/iiif/2/fbcdbf00-1eaa-013a-7ba8-02d0d7bfd6e4-4
A03258-012-b,https://images.digital.library.illinois.edu/iiif/2/fbd02760-1eaa-013a-7ba8-02d0d7bfd6e4-2
A03258-013-a,https://images.digital.library.illinois.edu/iiif/2/fbd2d3d0-1eaa-013a-7ba8-02d0d7bfd6e4-4
A03258-013-b,https://images.digital.library.illinois.edu/iiif/2/fbd59260-1eaa-013a-7ba8-02d0d7bfd6e4-b
A03258-014-a,https://images.digital.library.illinois.edu/iiif/2/fbd7f940-1eaa-013a-7ba8-02d0d7bfd6e4-4
A03258-014-b,https://images.digital.library.illinois.edu/iiif/2/fbda6a40-1eaa-013a-7ba8-02d0d7bfd6e4-4
A03258-015-a,https://images.digital.library.illinois.edu/iiif/2/fbdd03b0-1eaa-013a-7ba8-02d0d7bfd6e4-c
A03258-015-b,https://images.digital.library.illinois.edu/iiif/2/fbdf6250-1eaa-013a-7ba8-02d0d7bfd6e4-a
A03258-016-a,https://images.digital.library.illinois.edu/iiif/2/fbe1d560-1eaa-013a-7ba8-02d0d7bfd6e4-8
A03258-016-b,https://images.digital.library.illinois.edu/iiif/2/fbe48430-1eaa-013a-7ba8-02d0d7bfd6e4-c
A03258-017-a,https://images.digital.library.illinois.edu/iiif/2/fbe6df60-1eaa-013a-7ba8-02d0d7bfd6e4-9
A03258-017-b,https://images.digital.library.illinois.edu/iiif/2/fbe95e30-1eaa-013a-7ba8-02d0d7bfd6e4-f
A03258-018-a,https://images.digital.library.illinois.edu/iiif/2/fbebebe0-1eaa-013a-7ba8-02d0d7bfd6e4-d
A03258-018-b,https://images.digital.library.illinois.edu/iiif/2/fbee57b0-1eaa-013a-7ba8-02d0d7bfd6e4-c
A03258-019-a,https://images.digital.library.illinois.edu/iiif/2/fbf0e0e0-1eaa-013a-7ba8-02d0d7bfd6e4-a
A03258-019-b,https://images.digital.library.illinois.edu/iiif/2/fbf35b80-1eaa-013a-7ba8-02d0d7bfd6e4-c
A03258-020-a,https://images.digital.library.illinois.edu/iiif/2/fbf5c700-1eaa-013a-7ba8-02d0d7bfd6e4-2
A03258-020-b,https://images.digital.library.illinois.edu/iiif/2/fbf82400-1eaa-013a-7ba8-02d0d7bfd6e4-b
A03258-021-a,https://images.digital.library.illinois.edu/iiif/2/fbfa96c0-1eaa-013a-7ba8-02d0d7bfd6e4-0
A03258-021-b,https://images.digital.library.illinois.edu/iiif/2/fbfcfc80-1eaa-013a-7ba8-02d0d7bfd6e4-d
A03258-022-a,https://images.digital.library.illinois.edu/iiif/2/fbffea20-1eaa-013a-7ba8-02d0d7bfd6e4-2
A03258-022-b,https://images.digital.library.illinois.edu/iiif/2/fc025480-1eaa-013a-7ba8-02d0d7bfd6e4-a
A03258-023-a,https://images.digital.library.illinois.edu/iiif/2/fc04ba80-1eaa-013a-7ba8-02d0d7bfd6e4-3
A03258-023-b,https://images.digital.library.illinois.edu/iiif/2/fc073470-1eaa-013a-7ba8-02d0d7bfd6e4-3
A03258-024-a,https://images.digital.library.illinois.edu/iiif/2/fc099b90-1eaa-013a-7ba8-02d0d7bfd6e4-7
A03258-024-b,https://images.digital.library.illinois.edu/iiif/2/fc0c0a40-1eaa-013a-7ba8-02d0d7bfd6e4-1
A03258-025-a,https://images.digital.library.illinois.edu/iiif/2/fc0e5ab0-1eaa-013a-7ba8-02d0d7bfd6e4-1
A03258-025-b,https://images.digital.library.illinois.edu/iiif/2/fc10cca0-1eaa-013a-7ba8-02d0d7bfd6e4-3
A03258-026-a,https://images.digital.library.illinois.edu/iiif/2/fc135680-1eaa-013a-7ba8-02d0d7bfd6e4-3
A03258-026-b,https://images.digital.library.illinois.edu/iiif/2/fc15d680-1eaa-013a-7ba8-02d0d7bfd6e4-7
A03258-027-a,https://images.digital.library.illinois.edu/iiif/2/fc187690-1eaa-013a-7ba8-02d0d7bfd6e4-5
A03258-027-b,https://images.digital.library.illinois.edu/iiif/2/fc1af4e0-1eaa-013a-7ba8-02d0d7bfd6e4-8
A03258-028-a,https://images.digital.library.illinois.edu/iiif/2/fc1d6bb0-1eaa-013a-7ba8-02d0d7bfd6e4-f
A03258-028-b,https://images.digital.library.illinois.edu/iiif/2/fc1ff3e0-1eaa-013a-7ba8-02d0d7bfd6e4-0
A03258-029-a,https://images.digital.library.illinois.edu/iiif/2/fc2260d0-1eaa-013a-7ba8-02d0d7bfd6e4-a
A03258-029-b,https://images.digital.library.illinois.edu/iiif/2/fc24ca50-1eaa-013a-7ba8-02d0d7bfd6e4-3
A03258-030-a,https://images.digital.library.illinois.edu/iiif/2/fc2734d0-1eaa-013a-7ba8-02d0d7bfd6e4-b
A03258-030-b,https://images.digital.library.illinois.edu/iiif/2/fc297780-1eaa-013a-7ba8-02d0d7bfd6e4-1
A03258-031-a,https://images.digital.library.illinois.edu/iiif/2/fc30ac40-1eaa-013a-7ba8-02d0d7bfd6e4-9
A03258-031-b,https://images.digital.library.illinois.edu/iiif/2/fc32fe90-1eaa-013a-7ba8-02d0d7bfd6e4-7
A03258-032-a,https://images.digital.library.illinois.edu/iiif/2/fc358ad0-1eaa-013a-7ba8-02d0d7bfd6e4-c
A03258-032-b,https://images.digital.library.illinois.edu/iiif/2/fc386800-1eaa-013a-7ba8-02d0d7bfd6e4-8
A03258-033-a,https://images.digital.library.illinois.edu/iiif/2/fc3adb80-1eaa-013a-7ba8-02d0d7bfd6e4-f
A03258-033-b,https://images.digital.library.illinois.edu/iiif/2/fc3d51b0-1eaa-013a-7ba8-02d0d7bfd6e4-3
A03258-034-a,https://images.digital.library.illinois.edu/iiif/2/fc3fa1f0-1eaa-013a-7ba8-02d0d7bfd6e4-6
A03258-034-b,https://images.digital.library.illinois.edu/iiif/2/fc426330-1eaa-013a-7ba8-02d0d7bfd6e4-c
A03258-035-a,https://images.digital.library.illinois.edu/iiif/2/fc44b6a0-1eaa-013a-7ba8-02d0d7bfd6e4-6
A03258-035-b,https://images.digital.library.illinois.edu/iiif/2/fc46fc00-1eaa-013a-7ba8-02d0d7bfd6e4-b
A03258-035-c,https://images.digital.library.illinois.edu/iiif/2/fc494370-1eaa-013a-7ba8-02d0d7bfd6e4-b
A03258-035-d,https://images.digital.library.illinois.edu/iiif/2/fc4ba4f0-1eaa-013a-7ba8-02d0d7bfd6e4-7
A03258-036-a,https://images.digital.library.illinois.edu/iiif/2/fc4df9d0-1eaa-013a-7ba8-02d0d7bfd6e4-5
A03258-036-b,https://images.digital.library.illinois.edu/iiif/2/fc5089a0-1eaa-013a-7ba8-02d0d7bfd6e4-9
A03258-037-a,https://images.digital.library.illinois.edu/iiif/2/fc52ead0-1eaa-013a-7ba8-02d0d7bfd6e4-a
A03258-037-b,https://images.digital.library.illinois.edu/iiif/2/fc5620c0-1eaa-013a-7ba8-02d0d7bfd6e4-4
A03258-038-a,https://images.digital.library.illinois.edu/iiif/2/fc5887f0-1eaa-013a-7ba8-02d0d7bfd6e4-8
A03258-038-b,https://images.digital.library.illinois.edu/iiif/2/fc5af7d0-1eaa-013a-7ba8-02d0d7bfd6e4-f
A03258-039-a,https://images.digital.library.illinois.edu/iiif/2/fc5d6eb0-1eaa-013a-7ba8-02d0d7bfd6e4-5
A03258-039-b,https://images.digital.library.illinois.edu/iiif/2/fc5fd3b0-1eaa-013a-7ba8-02d0d7bfd6e4-1
A03258-040-a,https://images.digital.library.illinois.edu/iiif/2/fc624ea0-1eaa-013a-7ba8-02d0d7bfd6e4-e
A03258-040-b,https://images.digital.library.illinois.edu/iiif/2/fc64b860-1eaa-013a-7ba8-02d0d7bfd6e4-3
A03258-041-a,https://images.digital.library.illinois.edu/iiif/2/fc672680-1eaa-013a-7ba8-02d0d7bfd6e4-9
A03258-041-b,https://images.digital.library.illinois.edu/iiif/2/fc697a60-1eaa-013a-7ba8-02d0d7bfd6e4-8
