A03804-000,https://iiif.archive.org/iiif/misfortunesofart00hughuoft$9
A03804-001,https://iiif.archive.org/iiif/misfortunesofart00hughuoft$13
A03804-002,https://iiif.archive.org/iiif/misfortunesofart00hughuoft$14
A03804-003,https://iiif.archive.org/iiif/misfortunesofart00hughuoft$17
A03804-004,https://iiif.archive.org/iiif/misfortunesofart00hughuoft$18
A03804-005,https://iiif.archive.org/iiif/misfortunesofart00hughuoft$21
A03804-006-a,https://iiif.archive.org/iiif/misfortunesofart00hughuoft$22
A03804-006-b,https://iiif.archive.org/iiif/misfortunesofart00hughuoft$25
A03804-007-a,https://iiif.archive.org/iiif/misfortunesofart00hughuoft$26
A03804-007-b,https://iiif.archive.org/iiif/misfortunesofart00hughuoft$29
A03804-008-a,https://iiif.archive.org/iiif/misfortunesofart00hughuoft$30
A03804-008-b,https://iiif.archive.org/iiif/misfortunesofart00hughuoft$33
A03804-009-a,https://iiif.archive.org/iiif/misfortunesofart00hughuoft$34
A03804-009-b,https://iiif.archive.org/iiif/misfortunesofart00hughuoft$37
A03804-010-a,https://iiif.archive.org/iiif/misfortunesofart00hughuoft$38
A03804-010-b,https://iiif.archive.org/iiif/misfortunesofart00hughuoft$41
A03804-011-a,https://iiif.archive.org/iiif/misfortunesofart00hughuoft$42
A03804-011-b,https://iiif.archive.org/iiif/misfortunesofart00hughuoft$45
A03804-012-a,https://iiif.archive.org/iiif/misfortunesofart00hughuoft$46
A03804-012-b,https://iiif.archive.org/iiif/misfortunesofart00hughuoft$47
A03804-013-a,https://iiif.archive.org/iiif/misfortunesofart00hughuoft$48
A03804-013-b,https://iiif.archive.org/iiif/misfortunesofart00hughuoft$51
A03804-014-a,https://iiif.archive.org/iiif/misfortunesofart00hughuoft$52
A03804-014-b,https://iiif.archive.org/iiif/misfortunesofart00hughuoft$55
A03804-015-a,https://iiif.archive.org/iiif/misfortunesofart00hughuoft$56
A03804-015-b,https://iiif.archive.org/iiif/misfortunesofart00hughuoft$59
A03804-016-a,https://iiif.archive.org/iiif/misfortunesofart00hughuoft$60
A03804-016-b,https://iiif.archive.org/iiif/misfortunesofart00hughuoft$63
A03804-017-a,https://iiif.archive.org/iiif/misfortunesofart00hughuoft$64
A03804-017-b,https://iiif.archive.org/iiif/misfortunesofart00hughuoft$67
A03804-018-a,https://iiif.archive.org/iiif/misfortunesofart00hughuoft$68
A03804-018-b,https://iiif.archive.org/iiif/misfortunesofart00hughuoft$71
A03804-019-a,https://iiif.archive.org/iiif/misfortunesofart00hughuoft$72
A03804-019-b,https://iiif.archive.org/iiif/misfortunesofart00hughuoft$75
A03804-020-a,https://iiif.archive.org/iiif/misfortunesofart00hughuoft$76
A03804-020-b,https://iiif.archive.org/iiif/misfortunesofart00hughuoft$79
A03804-021-a,https://iiif.archive.org/iiif/misfortunesofart00hughuoft$80
A03804-021-b,https://iiif.archive.org/iiif/misfortunesofart00hughuoft$83
A03804-022-a,https://iiif.archive.org/iiif/misfortunesofart00hughuoft$84
A03804-022-b,https://iiif.archive.org/iiif/misfortunesofart00hughuoft$87
A03804-023-a,https://iiif.archive.org/iiif/misfortunesofart00hughuoft$88
A03804-023-b,https://iiif.archive.org/iiif/misfortunesofart00hughuoft$91
A03804-024-a,https://iiif.archive.org/iiif/misfortunesofart00hughuoft$92
A03804-024-b,https://iiif.archive.org/iiif/misfortunesofart00hughuoft$95
A03804-025-a,https://iiif.archive.org/iiif/misfortunesofart00hughuoft$96
A03804-025-b,https://iiif.archive.org/iiif/misfortunesofart00hughuoft$99
A03804-026-a,https://iiif.archive.org/iiif/misfortunesofart00hughuoft$100
A03804-026-b,https://iiif.archive.org/iiif/misfortunesofart00hughuoft$103
A03804-027-a,https://iiif.archive.org/iiif/misfortunesofart00hughuoft$104
A03804-027-b,https://iiif.archive.org/iiif/misfortunesofart00hughuoft$107
A03804-028-a,https://iiif.archive.org/iiif/misfortunesofart00hughuoft$108
A03804-028-b,https://iiif.archive.org/iiif/misfortunesofart00hughuoft$111
A03804-029-a,https://iiif.archive.org/iiif/misfortunesofart00hughuoft$112
A03804-029-b,https://iiif.archive.org/iiif/misfortunesofart00hughuoft$115
A03804-030-a,https://iiif.archive.org/iiif/misfortunesofart00hughuoft$116
A03804-030-b,https://iiif.archive.org/iiif/misfortunesofart00hughuoft$119
A03804-031-a,https://iiif.archive.org/iiif/misfortunesofart00hughuoft$120
A03804-031-b,https://iiif.archive.org/iiif/misfortunesofart00hughuoft$123
