A04206-001-a,https://hrc.contentdm.oclc.org/digital/iiif/p15878coll17/2371
A04206-001-b,https://hrc.contentdm.oclc.org/digital/iiif/p15878coll17/2372
A04206-002-a,https://hrc.contentdm.oclc.org/digital/iiif/p15878coll17/2373
A04206-002-b,https://hrc.contentdm.oclc.org/digital/iiif/p15878coll17/2374
A04206-003-a,https://hrc.contentdm.oclc.org/digital/iiif/p15878coll17/2375
A04206-003-b,https://hrc.contentdm.oclc.org/digital/iiif/p15878coll17/2376
A04206-004-a,https://hrc.contentdm.oclc.org/digital/iiif/p15878coll17/2377
A04206-004-b,https://hrc.contentdm.oclc.org/digital/iiif/p15878coll17/2378
A04206-005-a,https://hrc.contentdm.oclc.org/digital/iiif/p15878coll17/2379
A04206-005-b,https://hrc.contentdm.oclc.org/digital/iiif/p15878coll17/2380
A04206-006-a,https://hrc.contentdm.oclc.org/digital/iiif/p15878coll17/2381
A04206-006-b,https://hrc.contentdm.oclc.org/digital/iiif/p15878coll17/2382
A04206-007-a,https://hrc.contentdm.oclc.org/digital/iiif/p15878coll17/2383
A04206-007-b,https://hrc.contentdm.oclc.org/digital/iiif/p15878coll17/2384
A04206-008-a,https://hrc.contentdm.oclc.org/digital/iiif/p15878coll17/2385
A04206-008-b,https://hrc.contentdm.oclc.org/digital/iiif/p15878coll17/2386
A04206-009-a,https://hrc.contentdm.oclc.org/digital/iiif/p15878coll17/2387
A04206-009-b,https://hrc.contentdm.oclc.org/digital/iiif/p15878coll17/2388
A04206-010-a,https://hrc.contentdm.oclc.org/digital/iiif/p15878coll17/2389
A04206-010-b,https://hrc.contentdm.oclc.org/digital/iiif/p15878coll17/2390
A04206-011-a,https://hrc.contentdm.oclc.org/digital/iiif/p15878coll17/2391
A04206-011-b,https://hrc.contentdm.oclc.org/digital/iiif/p15878coll17/2392
A04206-012-a,https://hrc.contentdm.oclc.org/digital/iiif/p15878coll17/2393
A04206-012-b,https://hrc.contentdm.oclc.org/digital/iiif/p15878coll17/2394
A04206-013-a,https://hrc.contentdm.oclc.org/digital/iiif/p15878coll17/2395
A04206-013-b,https://hrc.contentdm.oclc.org/digital/iiif/p15878coll17/2396
A04206-014-a,https://hrc.contentdm.oclc.org/digital/iiif/p15878coll17/2397
A04206-014-b,https://hrc.contentdm.oclc.org/digital/iiif/p15878coll17/2398
A04206-015-a,https://hrc.contentdm.oclc.org/digital/iiif/p15878coll17/2399
A04206-015-b,https://hrc.contentdm.oclc.org/digital/iiif/p15878coll17/2400
A04206-016-a,https://hrc.contentdm.oclc.org/digital/iiif/p15878coll17/2401
A04206-016-b,https://hrc.contentdm.oclc.org/digital/iiif/p15878coll17/2402
A04206-017-a,https://hrc.contentdm.oclc.org/digital/iiif/p15878coll17/2403
A04206-017-b,https://hrc.contentdm.oclc.org/digital/iiif/p15878coll17/2404
A04206-018-a,https://hrc.contentdm.oclc.org/digital/iiif/p15878coll17/2405
A04206-018-b,https://hrc.contentdm.oclc.org/digital/iiif/p15878coll17/2406
A04206-019-a,https://hrc.contentdm.oclc.org/digital/iiif/p15878coll17/2407
A04206-019-b,https://hrc.contentdm.oclc.org/digital/iiif/p15878coll17/2408
A04206-020-a,https://hrc.contentdm.oclc.org/digital/iiif/p15878coll17/2409
A04206-020-b,https://hrc.contentdm.oclc.org/digital/iiif/p15878coll17/2410
A04206-021-a,https://hrc.contentdm.oclc.org/digital/iiif/p15878coll17/2411
A04206-021-b,https://hrc.contentdm.oclc.org/digital/iiif/p15878coll17/2412
A04206-022-a,https://hrc.contentdm.oclc.org/digital/iiif/p15878coll17/2413
A04206-022-b,https://hrc.contentdm.oclc.org/digital/iiif/p15878coll17/2414
A04206-023-a,https://hrc.contentdm.oclc.org/digital/iiif/p15878coll17/2415
A04206-023-b,https://hrc.contentdm.oclc.org/digital/iiif/p15878coll17/2416
A04206-024-a,https://hrc.contentdm.oclc.org/digital/iiif/p15878coll17/2417
A04206-024-b,https://hrc.contentdm.oclc.org/digital/iiif/p15878coll17/2418
A04206-025-a,https://hrc.contentdm.oclc.org/digital/iiif/p15878coll17/2419
A04206-025-b,https://hrc.contentdm.oclc.org/digital/iiif/p15878coll17/2420
A04206-026-a,https://hrc.contentdm.oclc.org/digital/iiif/p15878coll17/2421
A04206-026-b,https://hrc.contentdm.oclc.org/digital/iiif/p15878coll17/2422
A04206-027-a,https://hrc.contentdm.oclc.org/digital/iiif/p15878coll17/2423
A04206-027-b,https://hrc.contentdm.oclc.org/digital/iiif/p15878coll17/2424
A04206-028-a,https://hrc.contentdm.oclc.org/digital/iiif/p15878coll17/2425
A04206-028-b,https://hrc.contentdm.oclc.org/digital/iiif/p15878coll17/2426
A04206-029-a,https://hrc.contentdm.oclc.org/digital/iiif/p15878coll17/2427
A04206-029-b,https://hrc.contentdm.oclc.org/digital/iiif/p15878coll17/2428
