A04632-148-a,https://iiif.archive.org/iiif/workesofbeniamin00jons$289
A04632-149-b,https://iiif.archive.org/iiif/workesofbeniamin00jons$291
A04632-150-a,https://iiif.archive.org/iiif/workesofbeniamin00jons$292
A04632-150-b,https://iiif.archive.org/iiif/workesofbeniamin00jons$293
A04632-151-a,https://iiif.archive.org/iiif/workesofbeniamin00jons$294
A04632-151-b,https://iiif.archive.org/iiif/workesofbeniamin00jons$295
A04632-152-a,https://iiif.archive.org/iiif/workesofbeniamin00jons$296
A04632-152-b,https://iiif.archive.org/iiif/workesofbeniamin00jons$297
A04632-153-a,https://iiif.archive.org/iiif/workesofbeniamin00jons$298
A04632-153-b,https://iiif.archive.org/iiif/workesofbeniamin00jons$299
A04632-154-a,https://iiif.archive.org/iiif/workesofbeniamin00jons$300
A04632-154-b,https://iiif.archive.org/iiif/workesofbeniamin00jons$301
A04632-155-a,https://iiif.archive.org/iiif/workesofbeniamin00jons$302
A04632-155-b,https://iiif.archive.org/iiif/workesofbeniamin00jons$303
A04632-156-a,https://iiif.archive.org/iiif/workesofbeniamin00jons$304
A04632-156-b,https://iiif.archive.org/iiif/workesofbeniamin00jons$305
A04632-157-a,https://iiif.archive.org/iiif/workesofbeniamin00jons$306
A04632-157-b,https://iiif.archive.org/iiif/workesofbeniamin00jons$307
A04632-158-a,https://iiif.archive.org/iiif/workesofbeniamin00jons$308
A04632-158-b,https://iiif.archive.org/iiif/workesofbeniamin00jons$309
A04632-160-a,https://iiif.archive.org/iiif/workesofbeniamin00jons$310
A04632-160-b,https://iiif.archive.org/iiif/workesofbeniamin00jons$311
A04632-161-a,https://iiif.archive.org/iiif/workesofbeniamin00jons$312
A04632-161-b,https://iiif.archive.org/iiif/workesofbeniamin00jons$313
A04632-162-a,https://iiif.archive.org/iiif/workesofbeniamin00jons$314
A04632-162-b,https://iiif.archive.org/iiif/workesofbeniamin00jons$315
A04632-163-a,https://iiif.archive.org/iiif/workesofbeniamin00jons$316
A04632-163-b,https://iiif.archive.org/iiif/workesofbeniamin00jons$317
A04632-164-a,https://iiif.archive.org/iiif/workesofbeniamin00jons$318
A04632-164-b,https://iiif.archive.org/iiif/workesofbeniamin00jons$319
A04632-165-a,https://iiif.archive.org/iiif/workesofbeniamin00jons$320
A04632-165-b,https://iiif.archive.org/iiif/workesofbeniamin00jons$321
A04632-166-a,https://iiif.archive.org/iiif/workesofbeniamin00jons$322
A04632-166-b,https://iiif.archive.org/iiif/workesofbeniamin00jons$323
A04632-167-a,https://iiif.archive.org/iiif/workesofbeniamin00jons$324
A04632-167-b,https://iiif.archive.org/iiif/workesofbeniamin00jons$325
A04632-168-a,https://iiif.archive.org/iiif/workesofbeniamin00jons$326
A04632-168-b,https://iiif.archive.org/iiif/workesofbeniamin00jons$327
A04632-169-a,https://iiif.archive.org/iiif/workesofbeniamin00jons$328
A04632-169-b,https://iiif.archive.org/iiif/workesofbeniamin00jons$329
A04632-170-a,https://iiif.archive.org/iiif/workesofbeniamin00jons$330
A04632-170-b,https://iiif.archive.org/iiif/workesofbeniamin00jons$331
A04632-171-a,https://iiif.archive.org/iiif/workesofbeniamin00jons$332
A04632-171-b,https://iiif.archive.org/iiif/workesofbeniamin00jons$333
A04632-172-a,https://iiif.archive.org/iiif/workesofbeniamin00jons$334
A04632-172-b,https://iiif.archive.org/iiif/workesofbeniamin00jons$335
A04632-173-a,https://iiif.archive.org/iiif/workesofbeniamin00jons$336
A04632-173-b,https://iiif.archive.org/iiif/workesofbeniamin00jons$337
A04632-174-a,https://iiif.archive.org/iiif/workesofbeniamin00jons$338
A04632-174-b,https://iiif.archive.org/iiif/workesofbeniamin00jons$339
A04632-175-a,https://iiif.archive.org/iiif/workesofbeniamin00jons$340
A04632-175-b,https://iiif.archive.org/iiif/workesofbeniamin00jons$341
A04632-176-a,https://iiif.archive.org/iiif/workesofbeniamin00jons$342
A04632-176-b,https://iiif.archive.org/iiif/workesofbeniamin00jons$343
A04632-177-a,https://iiif.archive.org/iiif/workesofbeniamin00jons$344
A04632-177-b,https://iiif.archive.org/iiif/workesofbeniamin00jons$345
A04632-178-a,https://iiif.archive.org/iiif/workesofbeniamin00jons$346
A04632-178-b,https://iiif.archive.org/iiif/workesofbeniamin00jons$347
A04632-179-a,https://iiif.archive.org/iiif/workesofbeniamin00jons$348
A04632-179-b,https://iiif.archive.org/iiif/workesofbeniamin00jons$349
A04632-180-a,https://iiif.archive.org/iiif/workesofbeniamin00jons$350
A04632-180-b,https://iiif.archive.org/iiif/workesofbeniamin00jons$351
A04632-181-a,https://iiif.archive.org/iiif/workesofbeniamin00jons$352
A04632-181-b,https://iiif.archive.org/iiif/workesofbeniamin00jons$353
A04632-182-a,https://iiif.archive.org/iiif/workesofbeniamin00jons$354
A04632-182-b,https://iiif.archive.org/iiif/workesofbeniamin00jons$355
A04632-183-a,https://iiif.archive.org/iiif/workesofbeniamin00jons$356
A04632-183-b,https://iiif.archive.org/iiif/workesofbeniamin00jons$357
A04632-184-a,https://iiif.archive.org/iiif/workesofbeniamin00jons$358
A04632-184-b,https://iiif.archive.org/iiif/workesofbeniamin00jons$359
A04632-185-a,https://iiif.archive.org/iiif/workesofbeniamin00jons$360
A04632-185-b,https://iiif.archive.org/iiif/workesofbeniamin00jons$361
A04632-186-a,https://iiif.archive.org/iiif/workesofbeniamin00jons$362
A04632-186-b,https://iiif.archive.org/iiif/workesofbeniamin00jons$363
A04632-187-a,https://iiif.archive.org/iiif/workesofbeniamin00jons$364
A04632-187-b,https://iiif.archive.org/iiif/workesofbeniamin00jons$365
A04632-188-a,https://iiif.archive.org/iiif/workesofbeniamin00jons$366
A04632-188-b,https://iiif.archive.org/iiif/workesofbeniamin00jons$367
A04632-189-a,https://iiif.archive.org/iiif/workesofbeniamin00jons$368
A04632-189-b,https://iiif.archive.org/iiif/workesofbeniamin00jons$369
A04632-190-a,https://iiif.archive.org/iiif/workesofbeniamin00jons$370
A04632-190-b,https://iiif.archive.org/iiif/workesofbeniamin00jons$371
A04632-191-a,https://iiif.archive.org/iiif/workesofbeniamin00jons$372
