A04604-001-a,https://iiif.archive.org/iiif/adrastaorwomanss00jone$8
A04604-001-b,https://iiif.archive.org/iiif/adrastaorwomanss00jone$9
A04604-002-a,https://iiif.archive.org/iiif/adrastaorwomanss00jone$10
A04604-002-b,https://iiif.archive.org/iiif/adrastaorwomanss00jone$11
A04604-003-a,https://iiif.archive.org/iiif/adrastaorwomanss00jone$12
A04604-003-b,https://iiif.archive.org/iiif/adrastaorwomanss00jone$13
A04604-004-a,https://iiif.archive.org/iiif/adrastaorwomanss00jone$14
A04604-004-b,https://iiif.archive.org/iiif/adrastaorwomanss00jone$15
A04604-005-a,https://iiif.archive.org/iiif/adrastaorwomanss00jone$16
A04604-005-b,https://iiif.archive.org/iiif/adrastaorwomanss00jone$17
A04604-006-a,https://iiif.archive.org/iiif/adrastaorwomanss00jone$18
A04604-006-b,https://iiif.archive.org/iiif/adrastaorwomanss00jone$19
A04604-007-a,https://iiif.archive.org/iiif/adrastaorwomanss00jone$20
A04604-007-b,https://iiif.archive.org/iiif/adrastaorwomanss00jone$21
A04604-008-a,https://iiif.archive.org/iiif/adrastaorwomanss00jone$22
A04604-008-b,https://iiif.archive.org/iiif/adrastaorwomanss00jone$23
A04604-009-a,https://iiif.archive.org/iiif/adrastaorwomanss00jone$24
A04604-009-b,https://iiif.archive.org/iiif/adrastaorwomanss00jone$25
A04604-010-a,https://iiif.archive.org/iiif/adrastaorwomanss00jone$26
A04604-010-b,https://iiif.archive.org/iiif/adrastaorwomanss00jone$27
A04604-011-a,https://iiif.archive.org/iiif/adrastaorwomanss00jone$28
A04604-011-b,https://iiif.archive.org/iiif/adrastaorwomanss00jone$29
A04604-012-a,https://iiif.archive.org/iiif/adrastaorwomanss00jone$30
A04604-012-b,https://iiif.archive.org/iiif/adrastaorwomanss00jone$31
A04604-013-a,https://iiif.archive.org/iiif/adrastaorwomanss00jone$32
A04604-013-b,https://iiif.archive.org/iiif/adrastaorwomanss00jone$33
A04604-014-a,https://iiif.archive.org/iiif/adrastaorwomanss00jone$34
A04604-014-b,https://iiif.archive.org/iiif/adrastaorwomanss00jone$35
A04604-015-a,https://iiif.archive.org/iiif/adrastaorwomanss00jone$36
A04604-015-b,https://iiif.archive.org/iiif/adrastaorwomanss00jone$37
A04604-016-a,https://iiif.archive.org/iiif/adrastaorwomanss00jone$38
A04604-016-b,https://iiif.archive.org/iiif/adrastaorwomanss00jone$39
A04604-017-a,https://iiif.archive.org/iiif/adrastaorwomanss00jone$40
A04604-017-b,https://iiif.archive.org/iiif/adrastaorwomanss00jone$41
A04604-018-a,https://iiif.archive.org/iiif/adrastaorwomanss00jone$42
A04604-018-b,https://iiif.archive.org/iiif/adrastaorwomanss00jone$43
A04604-019-a,https://iiif.archive.org/iiif/adrastaorwomanss00jone$44
A04604-019-b,https://iiif.archive.org/iiif/adrastaorwomanss00jone$45
A04604-020-a,https://iiif.archive.org/iiif/adrastaorwomanss00jone$46
A04604-020-b,https://iiif.archive.org/iiif/adrastaorwomanss00jone$47
A04604-021-a,https://iiif.archive.org/iiif/adrastaorwomanss00jone$48
A04604-021-b,https://iiif.archive.org/iiif/adrastaorwomanss00jone$49
A04604-022-a,https://iiif.archive.org/iiif/adrastaorwomanss00jone$50
A04604-022-b,https://iiif.archive.org/iiif/adrastaorwomanss00jone$51
A04604-023-a,https://iiif.archive.org/iiif/adrastaorwomanss00jone$52
A04604-023-b,https://iiif.archive.org/iiif/adrastaorwomanss00jone$53
A04604-024-a,https://iiif.archive.org/iiif/adrastaorwomanss00jone$54
A04604-024-b,https://iiif.archive.org/iiif/adrastaorwomanss00jone$55
A04604-025-a,https://iiif.archive.org/iiif/adrastaorwomanss00jone$56
A04604-025-b,https://iiif.archive.org/iiif/adrastaorwomanss00jone$57
A04604-026-a,https://iiif.archive.org/iiif/adrastaorwomanss00jone$58
A04604-026-b,https://iiif.archive.org/iiif/adrastaorwomanss00jone$59
A04604-027-a,https://iiif.archive.org/iiif/adrastaorwomanss00jone$60
A04604-027-b,https://iiif.archive.org/iiif/adrastaorwomanss00jone$61
A04604-028-a,https://iiif.archive.org/iiif/adrastaorwomanss00jone$62
A04604-028-b,https://iiif.archive.org/iiif/adrastaorwomanss00jone$63
A04604-029-a,https://iiif.archive.org/iiif/adrastaorwomanss00jone$64
A04604-029-b,https://iiif.archive.org/iiif/adrastaorwomanss00jone$65
A04604-030-a,https://iiif.archive.org/iiif/adrastaorwomanss00jone$66
A04604-030-b,https://iiif.archive.org/iiif/adrastaorwomanss00jone$67
A04604-031-a,https://iiif.archive.org/iiif/adrastaorwomanss00jone$68
A04604-031-b,https://iiif.archive.org/iiif/adrastaorwomanss00jone$69
A04604-032-a,https://iiif.archive.org/iiif/adrastaorwomanss00jone$70
A04604-032-b,https://iiif.archive.org/iiif/adrastaorwomanss00jone$71
A04604-033-a,https://iiif.archive.org/iiif/adrastaorwomanss00jone$72
A04604-033-b,https://iiif.archive.org/iiif/adrastaorwomanss00jone$73
A04604-034-a,https://iiif.archive.org/iiif/adrastaorwomanss00jone$74
A04604-034-b,https://iiif.archive.org/iiif/adrastaorwomanss00jone$75
A04604-035-a,https://iiif.archive.org/iiif/adrastaorwomanss00jone$76
A04604-035-b,https://iiif.archive.org/iiif/adrastaorwomanss00jone$77
A04604-036-a,https://iiif.archive.org/iiif/adrastaorwomanss00jone$78
A04604-036-b,https://iiif.archive.org/iiif/adrastaorwomanss00jone$79
A04604-037-a,https://iiif.archive.org/iiif/adrastaorwomanss00jone$80
A04604-037-b,https://iiif.archive.org/iiif/adrastaorwomanss00jone$81
A04604-038-a,https://iiif.archive.org/iiif/adrastaorwomanss00jone$82
A04604-038-b,https://iiif.archive.org/iiif/adrastaorwomanss00jone$83
A04604-039-a,https://iiif.archive.org/iiif/adrastaorwomanss00jone$84
A04604-039-b,https://iiif.archive.org/iiif/adrastaorwomanss00jone$85
A04604-040-a,https://iiif.archive.org/iiif/adrastaorwomanss00jone$86
A04604-040-b,https://iiif.archive.org/iiif/adrastaorwomanss00jone$87
A04604-041-a,https://iiif.archive.org/iiif/adrastaorwomanss00jone$88
A04604-041-b,https://iiif.archive.org/iiif/adrastaorwomanss00jone$89
A04604-042-a,https://iiif.archive.org/iiif/adrastaorwomanss00jone$90
A04604-042-b,https://iiif.archive.org/iiif/adrastaorwomanss00jone$91
A04604-043-a,https://iiif.archive.org/iiif/adrastaorwomanss00jone$92
A04604-043-b,https://iiif.archive.org/iiif/adrastaorwomanss00jone$93
A04604-044-a,https://iiif.archive.org/iiif/adrastaorwomanss00jone$94
A04604-044-b,https://iiif.archive.org/iiif/adrastaorwomanss00jone$95
A04604-045-a,https://iiif.archive.org/iiif/adrastaorwomanss00jone$96
A04604-045-b,https://iiif.archive.org/iiif/adrastaorwomanss00jone$97
