A04923-001-b,https://iiif.archive.org/iiif//appellationofioh00knox$9
A04923-002-b,https://iiif.archive.org/iiif//appellationofioh00knox$11
A04923-003-a,https://iiif.archive.org/iiif//appellationofioh00knox$12
A04923-003-b,https://iiif.archive.org/iiif//appellationofioh00knox$13
A04923-004-a,https://iiif.archive.org/iiif//appellationofioh00knox$14
A04923-004-b,https://iiif.archive.org/iiif//appellationofioh00knox$15
A04923-005-a,https://iiif.archive.org/iiif//appellationofioh00knox$16
A04923-005-b,https://iiif.archive.org/iiif//appellationofioh00knox$17
A04923-006-a,https://iiif.archive.org/iiif//appellationofioh00knox$18
A04923-006-b,https://iiif.archive.org/iiif//appellationofioh00knox$19
A04923-007-a,https://iiif.archive.org/iiif//appellationofioh00knox$20
A04923-007-b,https://iiif.archive.org/iiif//appellationofioh00knox$21
A04923-008-a,https://iiif.archive.org/iiif//appellationofioh00knox$22
A04923-008-b,https://iiif.archive.org/iiif//appellationofioh00knox$23
A04923-009-a,https://iiif.archive.org/iiif//appellationofioh00knox$24
A04923-009-b,https://iiif.archive.org/iiif//appellationofioh00knox$25
A04923-010-a,https://iiif.archive.org/iiif//appellationofioh00knox$26
A04923-010-b,https://iiif.archive.org/iiif//appellationofioh00knox$27
A04923-011-a,https://iiif.archive.org/iiif//appellationofioh00knox$28
A04923-011-b,https://iiif.archive.org/iiif//appellationofioh00knox$29
A04923-012-a,https://iiif.archive.org/iiif//appellationofioh00knox$30
A04923-012-b,https://iiif.archive.org/iiif//appellationofioh00knox$31
A04923-013-a,https://iiif.archive.org/iiif//appellationofioh00knox$32
A04923-013-b,https://iiif.archive.org/iiif//appellationofioh00knox$33
A04923-015-a,https://iiif.archive.org/iiif//appellationofioh00knox$34
A04923-015-b,https://iiif.archive.org/iiif//appellationofioh00knox$35
A04923-016-a,https://iiif.archive.org/iiif//appellationofioh00knox$36
A04923-016-b,https://iiif.archive.org/iiif//appellationofioh00knox$37
A04923-017-a,https://iiif.archive.org/iiif//appellationofioh00knox$38
A04923-017-b,https://iiif.archive.org/iiif//appellationofioh00knox$39
A04923-018-a,https://iiif.archive.org/iiif//appellationofioh00knox$40
A04923-018-b,https://iiif.archive.org/iiif//appellationofioh00knox$41
A04923-019-a,https://iiif.archive.org/iiif//appellationofioh00knox$42
A04923-019-b,https://iiif.archive.org/iiif//appellationofioh00knox$43
A04923-020-a,https://iiif.archive.org/iiif//appellationofioh00knox$44
A04923-020-b,https://iiif.archive.org/iiif//appellationofioh00knox$45
A04923-021-a,https://iiif.archive.org/iiif//appellationofioh00knox$46
A04923-021-b,https://iiif.archive.org/iiif//appellationofioh00knox$47
A04923-022-a,https://iiif.archive.org/iiif//appellationofioh00knox$48
A04923-022-b,https://iiif.archive.org/iiif//appellationofioh00knox$49
A04923-023-a,https://iiif.archive.org/iiif//appellationofioh00knox$50
A04923-023-b,https://iiif.archive.org/iiif//appellationofioh00knox$51
A04923-024-a,https://iiif.archive.org/iiif//appellationofioh00knox$52
A04923-024-b,https://iiif.archive.org/iiif//appellationofioh00knox$53
A04923-025-a,https://iiif.archive.org/iiif//appellationofioh00knox$54
A04923-025-b,https://iiif.archive.org/iiif//appellationofioh00knox$55
A04923-026-a,https://iiif.archive.org/iiif//appellationofioh00knox$56
A04923-026-b,https://iiif.archive.org/iiif//appellationofioh00knox$57
A04923-027-a,https://iiif.archive.org/iiif//appellationofioh00knox$58
A04923-027-b,https://iiif.archive.org/iiif//appellationofioh00knox$59
A04923-028-a,https://iiif.archive.org/iiif//appellationofioh00knox$60
A04923-028-b,https://iiif.archive.org/iiif//appellationofioh00knox$61
A04923-029-a,https://iiif.archive.org/iiif//appellationofioh00knox$62
A04923-029-b,https://iiif.archive.org/iiif//appellationofioh00knox$63
A04923-030-a,https://iiif.archive.org/iiif//appellationofioh00knox$64
A04923-030-b,https://iiif.archive.org/iiif//appellationofioh00knox$65
A04923-031-a,https://iiif.archive.org/iiif//appellationofioh00knox$66
A04923-031-b,https://iiif.archive.org/iiif//appellationofioh00knox$67
A04923-032-a,https://iiif.archive.org/iiif//appellationofioh00knox$68
A04923-032-b,https://iiif.archive.org/iiif//appellationofioh00knox$69
A04923-033-a,https://iiif.archive.org/iiif//appellationofioh00knox$70
A04923-033-b,https://iiif.archive.org/iiif//appellationofioh00knox$71
A04923-034-a,https://iiif.archive.org/iiif//appellationofioh00knox$72
A04923-034-b,https://iiif.archive.org/iiif//appellationofioh00knox$73
A04923-035-a,https://iiif.archive.org/iiif//appellationofioh00knox$74
A04923-035-b,https://iiif.archive.org/iiif//appellationofioh00knox$75
A04923-036-a,https://iiif.archive.org/iiif//appellationofioh00knox$76
A04923-036-b,https://iiif.archive.org/iiif//appellationofioh00knox$77
A04923-037-a,https://iiif.archive.org/iiif//appellationofioh00knox$78
A04923-037-b,https://iiif.archive.org/iiif//appellationofioh00knox$79
A04923-038-a,https://iiif.archive.org/iiif//appellationofioh00knox$80
A04923-038-b,https://iiif.archive.org/iiif//appellationofioh00knox$81
A04923-039-a,https://iiif.archive.org/iiif//appellationofioh00knox$82
A04923-039-b,https://iiif.archive.org/iiif//appellationofioh00knox$83
A04923-040-a,https://iiif.archive.org/iiif//appellationofioh00knox$84
A04923-040-b,https://iiif.archive.org/iiif//appellationofioh00knox$85
A04923-041-a,https://iiif.archive.org/iiif//appellationofioh00knox$86
A04923-041-b,https://iiif.archive.org/iiif//appellationofioh00knox$87
A04923-042-a,https://iiif.archive.org/iiif//appellationofioh00knox$88
A04923-042-b,https://iiif.archive.org/iiif//appellationofioh00knox$89
A04923-043-a,https://iiif.archive.org/iiif//appellationofioh00knox$90
A04923-043-b,https://iiif.archive.org/iiif//appellationofioh00knox$91
A04923-044-a,https://iiif.archive.org/iiif//appellationofioh00knox$92
A04923-044-b,https://iiif.archive.org/iiif//appellationofioh00knox$93
A04923-045-a,https://iiif.archive.org/iiif//appellationofioh00knox$94
A04923-045-b,https://iiif.archive.org/iiif//appellationofioh00knox$95
A04923-046-a,https://iiif.archive.org/iiif//appellationofioh00knox$96
A04923-046-b,https://iiif.archive.org/iiif//appellationofioh00knox$97
A04923-047-a,https://iiif.archive.org/iiif//appellationofioh00knox$98
A04923-047-b,https://iiif.archive.org/iiif//appellationofioh00knox$99
A04923-048-a,https://iiif.archive.org/iiif//appellationofioh00knox$100
A04923-048-b,https://iiif.archive.org/iiif//appellationofioh00knox$101
A04923-049-a,https://iiif.archive.org/iiif//appellationofioh00knox$102
A04923-049-b,https://iiif.archive.org/iiif//appellationofioh00knox$103
A04923-050-a,https://iiif.archive.org/iiif//appellationofioh00knox$104
A04923-050-b,https://iiif.archive.org/iiif//appellationofioh00knox$105
A04923-051-a,https://iiif.archive.org/iiif//appellationofioh00knox$106
A04923-051-b,https://iiif.archive.org/iiif//appellationofioh00knox$107
A04923-052-a,https://iiif.archive.org/iiif//appellationofioh00knox$108
A04923-052-b,https://iiif.archive.org/iiif//appellationofioh00knox$109
A04923-053-a,https://iiif.archive.org/iiif//appellationofioh00knox$110
A04923-053-b,https://iiif.archive.org/iiif//appellationofioh00knox$111
A04923-054-a,https://iiif.archive.org/iiif//appellationofioh00knox$112
A04923-054-b,https://iiif.archive.org/iiif//appellationofioh00knox$113
A04923-055-a,https://iiif.archive.org/iiif//appellationofioh00knox$114
A04923-055-b,https://iiif.archive.org/iiif//appellationofioh00knox$115
A04923-056-a,https://iiif.archive.org/iiif//appellationofioh00knox$116
A04923-056-b,https://iiif.archive.org/iiif//appellationofioh00knox$117
A04923-057-a,https://iiif.archive.org/iiif//appellationofioh00knox$118
A04923-057-b,https://iiif.archive.org/iiif//appellationofioh00knox$119
A04923-058-a,https://iiif.archive.org/iiif//appellationofioh00knox$120
A04923-058-b,https://iiif.archive.org/iiif//appellationofioh00knox$121
A04923-059-a,https://iiif.archive.org/iiif//appellationofioh00knox$122
A04923-059-b,https://iiif.archive.org/iiif//appellationofioh00knox$123
A04923-060-a,https://iiif.archive.org/iiif//appellationofioh00knox$124
A04923-060-b,https://iiif.archive.org/iiif//appellationofioh00knox$125
A04923-061-a,https://iiif.archive.org/iiif//appellationofioh00knox$126
A04923-061-b,https://iiif.archive.org/iiif//appellationofioh00knox$127
A04923-062-a,https://iiif.archive.org/iiif//appellationofioh00knox$128
A04923-062-b,https://iiif.archive.org/iiif//appellationofioh00knox$129
A04923-063-a,https://iiif.archive.org/iiif//appellationofioh00knox$130
A04923-063-b,https://iiif.archive.org/iiif//appellationofioh00knox$131
A04923-064-a,https://iiif.archive.org/iiif//appellationofioh00knox$132
A04923-064-b,https://iiif.archive.org/iiif//appellationofioh00knox$133
A04923-065-a,https://iiif.archive.org/iiif//appellationofioh00knox$134
A04923-065-b,https://iiif.archive.org/iiif//appellationofioh00knox$135
A04923-066-a,https://iiif.archive.org/iiif//appellationofioh00knox$136
A04923-066-b,https://iiif.archive.org/iiif//appellationofioh00knox$137
A04923-067-a,https://iiif.archive.org/iiif//appellationofioh00knox$138
A04923-067-b,https://iiif.archive.org/iiif//appellationofioh00knox$139
A04923-068-a,https://iiif.archive.org/iiif//appellationofioh00knox$140
A04923-068-b,https://iiif.archive.org/iiif//appellationofioh00knox$141
A04923-069-a,https://iiif.archive.org/iiif//appellationofioh00knox$142
A04923-069-b,https://iiif.archive.org/iiif//appellationofioh00knox$143
A04923-070-a,https://iiif.archive.org/iiif//appellationofioh00knox$144
A04923-070-b,https://iiif.archive.org/iiif//appellationofioh00knox$145
A04923-071-a,https://iiif.archive.org/iiif//appellationofioh00knox$146
A04923-071-b,https://iiif.archive.org/iiif//appellationofioh00knox$147
A04923-072-a,https://iiif.archive.org/iiif//appellationofioh00knox$148
A04923-072-b,https://iiif.archive.org/iiif//appellationofioh00knox$149
A04923-073-a,https://iiif.archive.org/iiif//appellationofioh00knox$150
A04923-073-b,https://iiif.archive.org/iiif//appellationofioh00knox$151
A04923-074-a,https://iiif.archive.org/iiif//appellationofioh00knox$152
A04923-074-b,https://iiif.archive.org/iiif//appellationofioh00knox$153
A04923-075-a,https://iiif.archive.org/iiif//appellationofioh00knox$154
A04923-075-b,https://iiif.archive.org/iiif//appellationofioh00knox$155
A04923-076-a,https://iiif.archive.org/iiif//appellationofioh00knox$156
A04923-076-b,https://iiif.archive.org/iiif//appellationofioh00knox$157
A04923-077-a,https://iiif.archive.org/iiif//appellationofioh00knox$158
A04923-077-b,https://iiif.archive.org/iiif//appellationofioh00knox$159
A04923-078-a,https://iiif.archive.org/iiif//appellationofioh00knox$160
A04923-078-b,https://iiif.archive.org/iiif//appellationofioh00knox$161
A04923-079-a,https://iiif.archive.org/iiif//appellationofioh00knox$162
A04923-079-b,https://iiif.archive.org/iiif//appellationofioh00knox$163
A04923-080-a,https://iiif.archive.org/iiif//appellationofioh00knox$164
A04923-080-b,https://iiif.archive.org/iiif//appellationofioh00knox$165
A04923-081-a,https://iiif.archive.org/iiif//appellationofioh00knox$166
A04923-081-b,https://iiif.archive.org/iiif//appellationofioh00knox$167
