A05206-001-a,9999
A05206-001-b,https://iiif.archive.org/iiif/truechroniclehis00greeuoft$015
A05206-002-a,9999
A05206-002-b,https://iiif.archive.org/iiif/truechroniclehis00greeuoft$019
A05206-003-a,https://iiif.archive.org/iiif/truechroniclehis00greeuoft$020
A05206-003-b,https://iiif.archive.org/iiif/truechroniclehis00greeuoft$023
A05206-004-a,https://iiif.archive.org/iiif/truechroniclehis00greeuoft$024
A05206-004-b,https://iiif.archive.org/iiif/truechroniclehis00greeuoft$027
A05206-005-a,https://iiif.archive.org/iiif/truechroniclehis00greeuoft$028
A05206-005-b,https://iiif.archive.org/iiif/truechroniclehis00greeuoft$031
A05206-006-a,https://iiif.archive.org/iiif/truechroniclehis00greeuoft$032
A05206-006-b,https://iiif.archive.org/iiif/truechroniclehis00greeuoft$035
A05206-007-a,https://iiif.archive.org/iiif/truechroniclehis00greeuoft$036
A05206-007-b,https://iiif.archive.org/iiif/truechroniclehis00greeuoft$039
A05206-008-a,https://iiif.archive.org/iiif/truechroniclehis00greeuoft$040
A05206-008-b,https://iiif.archive.org/iiif/truechroniclehis00greeuoft$043
A05206-009-a,https://iiif.archive.org/iiif/truechroniclehis00greeuoft$044
A05206-009-b,https://iiif.archive.org/iiif/truechroniclehis00greeuoft$047
A05206-010-a,https://iiif.archive.org/iiif/truechroniclehis00greeuoft$048
A05206-010-b,https://iiif.archive.org/iiif/truechroniclehis00greeuoft$051
A05206-011-a,https://iiif.archive.org/iiif/truechroniclehis00greeuoft$052
A05206-011-b,https://iiif.archive.org/iiif/truechroniclehis00greeuoft$055
A05206-012-a,https://iiif.archive.org/iiif/truechroniclehis00greeuoft$056
A05206-012-b,https://iiif.archive.org/iiif/truechroniclehis00greeuoft$059
A05206-013-a,https://iiif.archive.org/iiif/truechroniclehis00greeuoft$060
A05206-013-b,https://iiif.archive.org/iiif/truechroniclehis00greeuoft$063
A05206-014-a,https://iiif.archive.org/iiif/truechroniclehis00greeuoft$064
A05206-014-b,https://iiif.archive.org/iiif/truechroniclehis00greeuoft$067
A05206-015-a,https://iiif.archive.org/iiif/truechroniclehis00greeuoft$078
A05206-015-b,https://iiif.archive.org/iiif/truechroniclehis00greeuoft$071
A05206-016-a,https://iiif.archive.org/iiif/truechroniclehis00greeuoft$072
A05206-016-b,https://iiif.archive.org/iiif/truechroniclehis00greeuoft$075
A05206-017-a,https://iiif.archive.org/iiif/truechroniclehis00greeuoft$076
A05206-017-b,https://iiif.archive.org/iiif/truechroniclehis00greeuoft$079
A05206-018-a,https://iiif.archive.org/iiif/truechroniclehis00greeuoft$080
A05206-018-b,https://iiif.archive.org/iiif/truechroniclehis00greeuoft$083
A05206-019-a,https://iiif.archive.org/iiif/truechroniclehis00greeuoft$084
A05206-019-b,https://iiif.archive.org/iiif/truechroniclehis00greeuoft$087
A05206-020-a,https://iiif.archive.org/iiif/truechroniclehis00greeuoft$088
A05206-020-b,https://iiif.archive.org/iiif/truechroniclehis00greeuoft$091
A05206-021-a,https://iiif.archive.org/iiif/truechroniclehis00greeuoft$092
A05206-021-b,https://iiif.archive.org/iiif/truechroniclehis00greeuoft$095
A05206-022-a,https://iiif.archive.org/iiif/truechroniclehis00greeuoft$096
A05206-022-b,https://iiif.archive.org/iiif/truechroniclehis00greeuoft$099
A05206-023-a,https://iiif.archive.org/iiif/truechroniclehis00greeuoft$100
A05206-023-b,https://iiif.archive.org/iiif/truechroniclehis00greeuoft$103
A05206-024-a,https://iiif.archive.org/iiif/truechroniclehis00greeuoft$104
A05206-024-b,https://iiif.archive.org/iiif/truechroniclehis00greeuoft$107
A05206-025-a,https://iiif.archive.org/iiif/truechroniclehis00greeuoft$108
A05206-025-b,https://iiif.archive.org/iiif/truechroniclehis00greeuoft$111
A05206-026-a,https://iiif.archive.org/iiif/truechroniclehis00greeuoft$112
A05206-026-b,https://iiif.archive.org/iiif/truechroniclehis00greeuoft$115
A05206-027-a,https://iiif.archive.org/iiif/truechroniclehis00greeuoft$116
A05206-027-b,https://iiif.archive.org/iiif/truechroniclehis00greeuoft$119
A05206-028-a,https://iiif.archive.org/iiif/truechroniclehis00greeuoft$120
A05206-028-b,https://iiif.archive.org/iiif/truechroniclehis00greeuoft$123
A05206-029-a,https://iiif.archive.org/iiif/truechroniclehis00greeuoft$124
A05206-029-b,https://iiif.archive.org/iiif/truechroniclehis00greeuoft$127
A05206-030-a,https://iiif.archive.org/iiif/truechroniclehis00greeuoft$128
A05206-030-b,https://iiif.archive.org/iiif/truechroniclehis00greeuoft$131
A05206-031-a,https://iiif.archive.org/iiif/truechroniclehis00greeuoft$132
A05206-031-b,https://iiif.archive.org/iiif/truechroniclehis00greeuoft$135
A05206-032-a,https://iiif.archive.org/iiif/truechroniclehis00greeuoft$136
A05206-032-b,https://iiif.archive.org/iiif/truechroniclehis00greeuoft$139
A05206-033-a,https://iiif.archive.org/iiif/truechroniclehis00greeuoft$140
A05206-033-b,https://iiif.archive.org/iiif/truechroniclehis00greeuoft$143
A05206-034-a,https://iiif.archive.org/iiif/truechroniclehis00greeuoft$144
A05206-034-b,https://iiif.archive.org/iiif/truechroniclehis00greeuoft$147
A05206-035-a,https://iiif.archive.org/iiif/truechroniclehis00greeuoft$148
A05206-035-b,https://iiif.archive.org/iiif/truechroniclehis00greeuoft$151
A05206-036-a,https://iiif.archive.org/iiif/truechroniclehis00greeuoft$152
A05206-036-b,https://iiif.archive.org/iiif/truechroniclehis00greeuoft$155
A05206-037-a,https://iiif.archive.org/iiif/truechroniclehis00greeuoft$156
A05206-037-b,9999
