A06270-001-a,9999
A06270-001-b,https://iiif.archive.org/iiif/larumforlondon1600lodguoft$011
A06270-002-a,https://iiif.archive.org/iiif/larumforlondon1600lodguoft$012
A06270-002-b,https://iiif.archive.org/iiif/larumforlondon1600lodguoft$015
A06270-003-a,https://iiif.archive.org/iiif/larumforlondon1600lodguoft$016
A06270-003-b,https://iiif.archive.org/iiif/larumforlondon1600lodguoft$019
A06270-004-a,https://iiif.archive.org/iiif/larumforlondon1600lodguoft$020
A06270-004-b,https://iiif.archive.org/iiif/larumforlondon1600lodguoft$023
A06270-005-a,https://iiif.archive.org/iiif/larumforlondon1600lodguoft$024
A06270-005-b,https://iiif.archive.org/iiif/larumforlondon1600lodguoft$027
A06270-006-a,https://iiif.archive.org/iiif/larumforlondon1600lodguoft$028
A06270-006-b,https://iiif.archive.org/iiif/larumforlondon1600lodguoft$031
A06270-007-a,https://iiif.archive.org/iiif/larumforlondon1600lodguoft$032
A06270-007-b,https://iiif.archive.org/iiif/larumforlondon1600lodguoft$035
A06270-008-a,https://iiif.archive.org/iiif/larumforlondon1600lodguoft$036
A06270-008-b,https://iiif.archive.org/iiif/larumforlondon1600lodguoft$039
A06270-009-a,https://iiif.archive.org/iiif/larumforlondon1600lodguoft$040
A06270-009-b,https://iiif.archive.org/iiif/larumforlondon1600lodguoft$043
A06270-010-a,https://iiif.archive.org/iiif/larumforlondon1600lodguoft$044
A06270-010-b,https://iiif.archive.org/iiif/larumforlondon1600lodguoft$047
A06270-011-a,https://iiif.archive.org/iiif/larumforlondon1600lodguoft$048
A06270-011-b,https://iiif.archive.org/iiif/larumforlondon1600lodguoft$051
A06270-012-a,https://iiif.archive.org/iiif/larumforlondon1600lodguoft$052
A06270-012-b,https://iiif.archive.org/iiif/larumforlondon1600lodguoft$055
A06270-013-a,https://iiif.archive.org/iiif/larumforlondon1600lodguoft$056
A06270-013-b,https://iiif.archive.org/iiif/larumforlondon1600lodguoft$059
A06270-014-a,https://iiif.archive.org/iiif/larumforlondon1600lodguoft$060
A06270-014-b,https://iiif.archive.org/iiif/larumforlondon1600lodguoft$063
A06270-015-a,https://iiif.archive.org/iiif/larumforlondon1600lodguoft$064
A06270-015-b,https://iiif.archive.org/iiif/larumforlondon1600lodguoft$067
A06270-016-a,https://iiif.archive.org/iiif/larumforlondon1600lodguoft$068
A06270-016-b,https://iiif.archive.org/iiif/larumforlondon1600lodguoft$071
A06270-017-a,https://iiif.archive.org/iiif/larumforlondon1600lodguoft$072
A06270-017-b,https://iiif.archive.org/iiif/larumforlondon1600lodguoft$075
A06270-018-a,https://iiif.archive.org/iiif/larumforlondon1600lodguoft$076
A06270-018-b,https://iiif.archive.org/iiif/larumforlondon1600lodguoft$079
A06270-019-a,https://iiif.archive.org/iiif/larumforlondon1600lodguoft$080
A06270-019-b,https://iiif.archive.org/iiif/larumforlondon1600lodguoft$083
A06270-020-a,https://iiif.archive.org/iiif/larumforlondon1600lodguoft$084
A06270-020-b,https://iiif.archive.org/iiif/larumforlondon1600lodguoft$087
A06270-021-a,https://iiif.archive.org/iiif/larumforlondon1600lodguoft$088
A06270-021-b,https://iiif.archive.org/iiif/larumforlondon1600lodguoft$091
A06270-022-a,https://iiif.archive.org/iiif/larumforlondon1600lodguoft$092
A06270-022-b,https://iiif.archive.org/iiif/larumforlondon1600lodguoft$095
A06270-023-a,https://iiif.archive.org/iiif/larumforlondon1600lodguoft$096
A06270-023-b,https://iiif.archive.org/iiif/larumforlondon1600lodguoft$099
A06270-024-a,https://iiif.archive.org/iiif/larumforlondon1600lodguoft$100
A06270-024-b,https://iiif.archive.org/iiif/larumforlondon1600lodguoft$103
A06270-025-a,https://iiif.archive.org/iiif/larumforlondon1600lodguoft$104
A06270-025-b,https://iiif.archive.org/iiif/larumforlondon1600lodguoft$107
A06270-026-a,https://iiif.archive.org/iiif/larumforlondon1600lodguoft$108
A06270-026-b,https://iiif.archive.org/iiif/larumforlondon1600lodguoft$111
