A06742-001-a,NA
A06742-001-b,https://iiif.archive.org/iiif/maidsmetamorphos00unknuoft$011
A06742-002-a,https://iiif.archive.org/iiif/maidsmetamorphos00unknuoft$012
A06742-002-b,https://iiif.archive.org/iiif/maidsmetamorphos00unknuoft$015
A06742-003-a,https://iiif.archive.org/iiif/maidsmetamorphos00unknuoft$016
A06742-003-b,https://iiif.archive.org/iiif/maidsmetamorphos00unknuoft$019
A06742-004-a,https://iiif.archive.org/iiif/maidsmetamorphos00unknuoft$020
A06742-004-b,https://iiif.archive.org/iiif/maidsmetamorphos00unknuoft$023
A06742-005-a,https://iiif.archive.org/iiif/maidsmetamorphos00unknuoft$024
A06742-005-b,https://iiif.archive.org/iiif/maidsmetamorphos00unknuoft$027
A06742-006-a,https://iiif.archive.org/iiif/maidsmetamorphos00unknuoft$028
A06742-006-b,https://iiif.archive.org/iiif/maidsmetamorphos00unknuoft$031
A06742-007-a,https://iiif.archive.org/iiif/maidsmetamorphos00unknuoft$032
A06742-007-b,https://iiif.archive.org/iiif/maidsmetamorphos00unknuoft$035
A06742-008-a,https://iiif.archive.org/iiif/maidsmetamorphos00unknuoft$036
A06742-008-b,https://iiif.archive.org/iiif/maidsmetamorphos00unknuoft$039
A06742-009-a,https://iiif.archive.org/iiif/maidsmetamorphos00unknuoft$040
A06742-009-b,https://iiif.archive.org/iiif/maidsmetamorphos00unknuoft$043
A06742-010-a,https://iiif.archive.org/iiif/maidsmetamorphos00unknuoft$044
A06742-010-b,https://iiif.archive.org/iiif/maidsmetamorphos00unknuoft$047
A06742-011-a,https://iiif.archive.org/iiif/maidsmetamorphos00unknuoft$048
A06742-011-b,https://iiif.archive.org/iiif/maidsmetamorphos00unknuoft$051
A06742-012-a,https://iiif.archive.org/iiif/maidsmetamorphos00unknuoft$052
A06742-012-b,https://iiif.archive.org/iiif/maidsmetamorphos00unknuoft$055
A06742-013-a,https://iiif.archive.org/iiif/maidsmetamorphos00unknuoft$056
A06742-013-b,https://iiif.archive.org/iiif/maidsmetamorphos00unknuoft$059
A06742-014-a,https://iiif.archive.org/iiif/maidsmetamorphos00unknuoft$060
A06742-014-b,https://iiif.archive.org/iiif/maidsmetamorphos00unknuoft$063
A06742-015-a,https://iiif.archive.org/iiif/maidsmetamorphos00unknuoft$064
A06742-015-b,https://iiif.archive.org/iiif/maidsmetamorphos00unknuoft$067
A06742-016-a,https://iiif.archive.org/iiif/maidsmetamorphos00unknuoft$068
A06742-016-b,https://iiif.archive.org/iiif/maidsmetamorphos00unknuoft$071
A06742-017-a,https://iiif.archive.org/iiif/maidsmetamorphos00unknuoft$072
A06742-017-b,https://iiif.archive.org/iiif/maidsmetamorphos00unknuoft$075
A06742-018-a,https://iiif.archive.org/iiif/maidsmetamorphos00unknuoft$076
A06742-018-b,https://iiif.archive.org/iiif/maidsmetamorphos00unknuoft$079
A06742-019-a,https://iiif.archive.org/iiif/maidsmetamorphos00unknuoft$080
A06742-019-b,https://iiif.archive.org/iiif/maidsmetamorphos00unknuoft$083
A06742-021-a,https://iiif.archive.org/iiif/maidsmetamorphos00unknuoft$084
A06742-021-b,https://iiif.archive.org/iiif/maidsmetamorphos00unknuoft$087
A06742-022-a,https://iiif.archive.org/iiif/maidsmetamorphos00unknuoft$088
A06742-022-b,https://iiif.archive.org/iiif/maidsmetamorphos00unknuoft$091
A06742-023-a,https://iiif.archive.org/iiif/maidsmetamorphos00unknuoft$092
A06742-023-b,https://iiif.archive.org/iiif/maidsmetamorphos00unknuoft$095
A06742-024-a,https://iiif.archive.org/iiif/maidsmetamorphos00unknuoft$096
A06742-024-b,https://iiif.archive.org/iiif/maidsmetamorphos00unknuoft$099
A06742-025-a,https://iiif.archive.org/iiif/maidsmetamorphos00unknuoft$100
A06742-025-b,https://iiif.archive.org/iiif/maidsmetamorphos00unknuoft$103
A06742-026-a,https://iiif.archive.org/iiif/maidsmetamorphos00unknuoft$104
A06742-026-b,https://iiif.archive.org/iiif/maidsmetamorphos00unknuoft$107
A06742-027-a,https://iiif.archive.org/iiif/maidsmetamorphos00unknuoft$108
A06742-027-b,https://iiif.archive.org/iiif/maidsmetamorphos00unknuoft$111
A06742-028-a,https://iiif.archive.org/iiif/maidsmetamorphos00unknuoft$112
A06742-028-b,https://iiif.archive.org/iiif/maidsmetamorphos00unknuoft$115
A06742-029-a,https://iiif.archive.org/iiif/maidsmetamorphos00unknuoft$116
A06742-029-b,https://iiif.archive.org/iiif/maidsmetamorphos00unknuoft$117
A06742-030-a,https://iiif.archive.org/iiif/maidsmetamorphos00unknuoft$118
A06742-030-b,https://iiif.archive.org/iiif/maidsmetamorphos00unknuoft$119
