A07092-001-a,https://iiif.archive.org/image/iiif/3/bub_gb_20snAQAAIAAJ%2Fbub_gb_20snAQAAIAAJ_jp2.zip%2Fbub_gb_20snAQAAIAAJ_jp2%2Fbub_gb_20snAQAAIAAJ_0006.jp2
A07092-002-a,https://iiif.archive.org/image/iiif/3/bub_gb_20snAQAAIAAJ%2Fbub_gb_20snAQAAIAAJ_jp2.zip%2Fbub_gb_20snAQAAIAAJ_jp2%2Fbub_gb_20snAQAAIAAJ_0007.jp2
A07092-002-b,https://iiif.archive.org/image/iiif/3/bub_gb_20snAQAAIAAJ%2Fbub_gb_20snAQAAIAAJ_jp2.zip%2Fbub_gb_20snAQAAIAAJ_jp2%2Fbub_gb_20snAQAAIAAJ_0008.jp2
A07092-003-a,https://iiif.archive.org/image/iiif/3/bub_gb_20snAQAAIAAJ%2Fbub_gb_20snAQAAIAAJ_jp2.zip%2Fbub_gb_20snAQAAIAAJ_jp2%2Fbub_gb_20snAQAAIAAJ_0009.jp2
A07092-003-b,https://iiif.archive.org/image/iiif/3/bub_gb_20snAQAAIAAJ%2Fbub_gb_20snAQAAIAAJ_jp2.zip%2Fbub_gb_20snAQAAIAAJ_jp2%2Fbub_gb_20snAQAAIAAJ_0010.jp2
A07092-004-a,https://iiif.archive.org/image/iiif/3/bub_gb_20snAQAAIAAJ%2Fbub_gb_20snAQAAIAAJ_jp2.zip%2Fbub_gb_20snAQAAIAAJ_jp2%2Fbub_gb_20snAQAAIAAJ_0011.jp2
A07092-004-b,https://iiif.archive.org/image/iiif/3/bub_gb_20snAQAAIAAJ%2Fbub_gb_20snAQAAIAAJ_jp2.zip%2Fbub_gb_20snAQAAIAAJ_jp2%2Fbub_gb_20snAQAAIAAJ_0012.jp2
A07092-005-a,https://iiif.archive.org/image/iiif/3/bub_gb_20snAQAAIAAJ%2Fbub_gb_20snAQAAIAAJ_jp2.zip%2Fbub_gb_20snAQAAIAAJ_jp2%2Fbub_gb_20snAQAAIAAJ_0013.jp2
A07092-005-b,https://iiif.archive.org/image/iiif/3/bub_gb_20snAQAAIAAJ%2Fbub_gb_20snAQAAIAAJ_jp2.zip%2Fbub_gb_20snAQAAIAAJ_jp2%2Fbub_gb_20snAQAAIAAJ_0014.jp2
A07092-006-a,https://iiif.archive.org/image/iiif/3/bub_gb_20snAQAAIAAJ%2Fbub_gb_20snAQAAIAAJ_jp2.zip%2Fbub_gb_20snAQAAIAAJ_jp2%2Fbub_gb_20snAQAAIAAJ_0015.jp2
A07092-006-b,https://iiif.archive.org/image/iiif/3/bub_gb_20snAQAAIAAJ%2Fbub_gb_20snAQAAIAAJ_jp2.zip%2Fbub_gb_20snAQAAIAAJ_jp2%2Fbub_gb_20snAQAAIAAJ_0016.jp2
A07092-007-a,https://iiif.archive.org/image/iiif/3/bub_gb_20snAQAAIAAJ%2Fbub_gb_20snAQAAIAAJ_jp2.zip%2Fbub_gb_20snAQAAIAAJ_jp2%2Fbub_gb_20snAQAAIAAJ_0017.jp2
A07092-007-b,https://iiif.archive.org/image/iiif/3/bub_gb_20snAQAAIAAJ%2Fbub_gb_20snAQAAIAAJ_jp2.zip%2Fbub_gb_20snAQAAIAAJ_jp2%2Fbub_gb_20snAQAAIAAJ_0018.jp2
A07092-008-a,https://iiif.archive.org/image/iiif/3/bub_gb_20snAQAAIAAJ%2Fbub_gb_20snAQAAIAAJ_jp2.zip%2Fbub_gb_20snAQAAIAAJ_jp2%2Fbub_gb_20snAQAAIAAJ_0019.jp2
A07092-008-b,https://iiif.archive.org/image/iiif/3/bub_gb_20snAQAAIAAJ%2Fbub_gb_20snAQAAIAAJ_jp2.zip%2Fbub_gb_20snAQAAIAAJ_jp2%2Fbub_gb_20snAQAAIAAJ_0020.jp2
A07092-009-a,https://iiif.archive.org/image/iiif/3/bub_gb_20snAQAAIAAJ%2Fbub_gb_20snAQAAIAAJ_jp2.zip%2Fbub_gb_20snAQAAIAAJ_jp2%2Fbub_gb_20snAQAAIAAJ_0021.jp2
A07092-009-b,https://iiif.archive.org/image/iiif/3/bub_gb_20snAQAAIAAJ%2Fbub_gb_20snAQAAIAAJ_jp2.zip%2Fbub_gb_20snAQAAIAAJ_jp2%2Fbub_gb_20snAQAAIAAJ_0022.jp2
A07092-010-a,https://iiif.archive.org/image/iiif/3/bub_gb_20snAQAAIAAJ%2Fbub_gb_20snAQAAIAAJ_jp2.zip%2Fbub_gb_20snAQAAIAAJ_jp2%2Fbub_gb_20snAQAAIAAJ_0023.jp2
A07092-010-b,https://iiif.archive.org/image/iiif/3/bub_gb_20snAQAAIAAJ%2Fbub_gb_20snAQAAIAAJ_jp2.zip%2Fbub_gb_20snAQAAIAAJ_jp2%2Fbub_gb_20snAQAAIAAJ_0024.jp2
A07092-011-a,https://iiif.archive.org/image/iiif/3/bub_gb_20snAQAAIAAJ%2Fbub_gb_20snAQAAIAAJ_jp2.zip%2Fbub_gb_20snAQAAIAAJ_jp2%2Fbub_gb_20snAQAAIAAJ_0025.jp2
A07092-011-b,https://iiif.archive.org/image/iiif/3/bub_gb_20snAQAAIAAJ%2Fbub_gb_20snAQAAIAAJ_jp2.zip%2Fbub_gb_20snAQAAIAAJ_jp2%2Fbub_gb_20snAQAAIAAJ_0026.jp2
A07092-012-a,https://iiif.archive.org/image/iiif/3/bub_gb_20snAQAAIAAJ%2Fbub_gb_20snAQAAIAAJ_jp2.zip%2Fbub_gb_20snAQAAIAAJ_jp2%2Fbub_gb_20snAQAAIAAJ_0027.jp2
A07092-012-b,https://iiif.archive.org/image/iiif/3/bub_gb_20snAQAAIAAJ%2Fbub_gb_20snAQAAIAAJ_jp2.zip%2Fbub_gb_20snAQAAIAAJ_jp2%2Fbub_gb_20snAQAAIAAJ_0028.jp2
A07092-013-a,https://iiif.archive.org/image/iiif/3/bub_gb_20snAQAAIAAJ%2Fbub_gb_20snAQAAIAAJ_jp2.zip%2Fbub_gb_20snAQAAIAAJ_jp2%2Fbub_gb_20snAQAAIAAJ_0029.jp2
A07092-013-b,https://iiif.archive.org/image/iiif/3/bub_gb_20snAQAAIAAJ%2Fbub_gb_20snAQAAIAAJ_jp2.zip%2Fbub_gb_20snAQAAIAAJ_jp2%2Fbub_gb_20snAQAAIAAJ_0030.jp2
A07092-014-a,https://iiif.archive.org/image/iiif/3/bub_gb_20snAQAAIAAJ%2Fbub_gb_20snAQAAIAAJ_jp2.zip%2Fbub_gb_20snAQAAIAAJ_jp2%2Fbub_gb_20snAQAAIAAJ_0031.jp2
A07092-014-b,https://iiif.archive.org/image/iiif/3/bub_gb_20snAQAAIAAJ%2Fbub_gb_20snAQAAIAAJ_jp2.zip%2Fbub_gb_20snAQAAIAAJ_jp2%2Fbub_gb_20snAQAAIAAJ_0032.jp2
A07092-015-a,https://iiif.archive.org/image/iiif/3/bub_gb_20snAQAAIAAJ%2Fbub_gb_20snAQAAIAAJ_jp2.zip%2Fbub_gb_20snAQAAIAAJ_jp2%2Fbub_gb_20snAQAAIAAJ_0033.jp2
A07092-015-b,https://iiif.archive.org/image/iiif/3/bub_gb_20snAQAAIAAJ%2Fbub_gb_20snAQAAIAAJ_jp2.zip%2Fbub_gb_20snAQAAIAAJ_jp2%2Fbub_gb_20snAQAAIAAJ_0034.jp2
A07092-016-a,https://iiif.archive.org/image/iiif/3/bub_gb_20snAQAAIAAJ%2Fbub_gb_20snAQAAIAAJ_jp2.zip%2Fbub_gb_20snAQAAIAAJ_jp2%2Fbub_gb_20snAQAAIAAJ_0035.jp2
A07092-016-b,https://iiif.archive.org/image/iiif/3/bub_gb_20snAQAAIAAJ%2Fbub_gb_20snAQAAIAAJ_jp2.zip%2Fbub_gb_20snAQAAIAAJ_jp2%2Fbub_gb_20snAQAAIAAJ_0036.jp2
A07092-017-a,https://iiif.archive.org/image/iiif/3/bub_gb_20snAQAAIAAJ%2Fbub_gb_20snAQAAIAAJ_jp2.zip%2Fbub_gb_20snAQAAIAAJ_jp2%2Fbub_gb_20snAQAAIAAJ_0037.jp2
A07092-017-b,https://iiif.archive.org/image/iiif/3/bub_gb_20snAQAAIAAJ%2Fbub_gb_20snAQAAIAAJ_jp2.zip%2Fbub_gb_20snAQAAIAAJ_jp2%2Fbub_gb_20snAQAAIAAJ_0038.jp2
A07092-018-a,https://iiif.archive.org/image/iiif/3/bub_gb_20snAQAAIAAJ%2Fbub_gb_20snAQAAIAAJ_jp2.zip%2Fbub_gb_20snAQAAIAAJ_jp2%2Fbub_gb_20snAQAAIAAJ_0039.jp2
A07092-018-b,https://iiif.archive.org/image/iiif/3/bub_gb_20snAQAAIAAJ%2Fbub_gb_20snAQAAIAAJ_jp2.zip%2Fbub_gb_20snAQAAIAAJ_jp2%2Fbub_gb_20snAQAAIAAJ_0040.jp2
A07092-019-a,https://iiif.archive.org/image/iiif/3/bub_gb_20snAQAAIAAJ%2Fbub_gb_20snAQAAIAAJ_jp2.zip%2Fbub_gb_20snAQAAIAAJ_jp2%2Fbub_gb_20snAQAAIAAJ_0041.jp2
A07092-019-b,https://iiif.archive.org/image/iiif/3/bub_gb_20snAQAAIAAJ%2Fbub_gb_20snAQAAIAAJ_jp2.zip%2Fbub_gb_20snAQAAIAAJ_jp2%2Fbub_gb_20snAQAAIAAJ_0042.jp2
A07092-020-a,https://iiif.archive.org/image/iiif/3/bub_gb_20snAQAAIAAJ%2Fbub_gb_20snAQAAIAAJ_jp2.zip%2Fbub_gb_20snAQAAIAAJ_jp2%2Fbub_gb_20snAQAAIAAJ_0043.jp2
A07092-020-b,https://iiif.archive.org/image/iiif/3/bub_gb_20snAQAAIAAJ%2Fbub_gb_20snAQAAIAAJ_jp2.zip%2Fbub_gb_20snAQAAIAAJ_jp2%2Fbub_gb_20snAQAAIAAJ_0044.jp2
A07092-021-a,https://iiif.archive.org/image/iiif/3/bub_gb_20snAQAAIAAJ%2Fbub_gb_20snAQAAIAAJ_jp2.zip%2Fbub_gb_20snAQAAIAAJ_jp2%2Fbub_gb_20snAQAAIAAJ_0045.jp2
A07092-021-b,https://iiif.archive.org/image/iiif/3/bub_gb_20snAQAAIAAJ%2Fbub_gb_20snAQAAIAAJ_jp2.zip%2Fbub_gb_20snAQAAIAAJ_jp2%2Fbub_gb_20snAQAAIAAJ_0046.jp2
A07092-022-a,https://iiif.archive.org/image/iiif/3/bub_gb_20snAQAAIAAJ%2Fbub_gb_20snAQAAIAAJ_jp2.zip%2Fbub_gb_20snAQAAIAAJ_jp2%2Fbub_gb_20snAQAAIAAJ_0047.jp2
A07092-022-b,https://iiif.archive.org/image/iiif/3/bub_gb_20snAQAAIAAJ%2Fbub_gb_20snAQAAIAAJ_jp2.zip%2Fbub_gb_20snAQAAIAAJ_jp2%2Fbub_gb_20snAQAAIAAJ_0048.jp2
A07092-023-a,https://iiif.archive.org/image/iiif/3/bub_gb_20snAQAAIAAJ%2Fbub_gb_20snAQAAIAAJ_jp2.zip%2Fbub_gb_20snAQAAIAAJ_jp2%2Fbub_gb_20snAQAAIAAJ_0049.jp2
A07092-023-b,https://iiif.archive.org/image/iiif/3/bub_gb_20snAQAAIAAJ%2Fbub_gb_20snAQAAIAAJ_jp2.zip%2Fbub_gb_20snAQAAIAAJ_jp2%2Fbub_gb_20snAQAAIAAJ_0050.jp2
A07092-024-a,https://iiif.archive.org/image/iiif/3/bub_gb_20snAQAAIAAJ%2Fbub_gb_20snAQAAIAAJ_jp2.zip%2Fbub_gb_20snAQAAIAAJ_jp2%2Fbub_gb_20snAQAAIAAJ_0051.jp2
A07092-024-b,https://iiif.archive.org/image/iiif/3/bub_gb_20snAQAAIAAJ%2Fbub_gb_20snAQAAIAAJ_jp2.zip%2Fbub_gb_20snAQAAIAAJ_jp2%2Fbub_gb_20snAQAAIAAJ_0052.jp2
A07092-025-a,https://iiif.archive.org/image/iiif/3/bub_gb_20snAQAAIAAJ%2Fbub_gb_20snAQAAIAAJ_jp2.zip%2Fbub_gb_20snAQAAIAAJ_jp2%2Fbub_gb_20snAQAAIAAJ_0053.jp2
A07092-025-b,https://iiif.archive.org/image/iiif/3/bub_gb_20snAQAAIAAJ%2Fbub_gb_20snAQAAIAAJ_jp2.zip%2Fbub_gb_20snAQAAIAAJ_jp2%2Fbub_gb_20snAQAAIAAJ_0054.jp2
A07092-026-a,https://iiif.archive.org/image/iiif/3/bub_gb_20snAQAAIAAJ%2Fbub_gb_20snAQAAIAAJ_jp2.zip%2Fbub_gb_20snAQAAIAAJ_jp2%2Fbub_gb_20snAQAAIAAJ_0055.jp2
A07092-026-b,https://iiif.archive.org/image/iiif/3/bub_gb_20snAQAAIAAJ%2Fbub_gb_20snAQAAIAAJ_jp2.zip%2Fbub_gb_20snAQAAIAAJ_jp2%2Fbub_gb_20snAQAAIAAJ_0056.jp2
A07092-027-a,https://iiif.archive.org/image/iiif/3/bub_gb_20snAQAAIAAJ%2Fbub_gb_20snAQAAIAAJ_jp2.zip%2Fbub_gb_20snAQAAIAAJ_jp2%2Fbub_gb_20snAQAAIAAJ_0057.jp2
A07092-027-b,https://iiif.archive.org/image/iiif/3/bub_gb_20snAQAAIAAJ%2Fbub_gb_20snAQAAIAAJ_jp2.zip%2Fbub_gb_20snAQAAIAAJ_jp2%2Fbub_gb_20snAQAAIAAJ_0058.jp2
A07092-028-a,https://iiif.archive.org/image/iiif/3/bub_gb_20snAQAAIAAJ%2Fbub_gb_20snAQAAIAAJ_jp2.zip%2Fbub_gb_20snAQAAIAAJ_jp2%2Fbub_gb_20snAQAAIAAJ_0059.jp2
A07092-028-b,https://iiif.archive.org/image/iiif/3/bub_gb_20snAQAAIAAJ%2Fbub_gb_20snAQAAIAAJ_jp2.zip%2Fbub_gb_20snAQAAIAAJ_jp2%2Fbub_gb_20snAQAAIAAJ_0060.jp2
A07092-029-a,https://iiif.archive.org/image/iiif/3/bub_gb_20snAQAAIAAJ%2Fbub_gb_20snAQAAIAAJ_jp2.zip%2Fbub_gb_20snAQAAIAAJ_jp2%2Fbub_gb_20snAQAAIAAJ_0061.jp2
A07092-029-b,https://iiif.archive.org/image/iiif/3/bub_gb_20snAQAAIAAJ%2Fbub_gb_20snAQAAIAAJ_jp2.zip%2Fbub_gb_20snAQAAIAAJ_jp2%2Fbub_gb_20snAQAAIAAJ_0062.jp2
A07092-030-a,https://iiif.archive.org/image/iiif/3/bub_gb_20snAQAAIAAJ%2Fbub_gb_20snAQAAIAAJ_jp2.zip%2Fbub_gb_20snAQAAIAAJ_jp2%2Fbub_gb_20snAQAAIAAJ_0063.jp2
A07092-030-b,https://iiif.archive.org/image/iiif/3/bub_gb_20snAQAAIAAJ%2Fbub_gb_20snAQAAIAAJ_jp2.zip%2Fbub_gb_20snAQAAIAAJ_jp2%2Fbub_gb_20snAQAAIAAJ_0064.jp2
A07092-031-a,https://iiif.archive.org/image/iiif/3/bub_gb_20snAQAAIAAJ%2Fbub_gb_20snAQAAIAAJ_jp2.zip%2Fbub_gb_20snAQAAIAAJ_jp2%2Fbub_gb_20snAQAAIAAJ_0065.jp2
A07092-031-b,https://iiif.archive.org/image/iiif/3/bub_gb_20snAQAAIAAJ%2Fbub_gb_20snAQAAIAAJ_jp2.zip%2Fbub_gb_20snAQAAIAAJ_jp2%2Fbub_gb_20snAQAAIAAJ_0066.jp2
A07092-032-a,https://iiif.archive.org/image/iiif/3/bub_gb_20snAQAAIAAJ%2Fbub_gb_20snAQAAIAAJ_jp2.zip%2Fbub_gb_20snAQAAIAAJ_jp2%2Fbub_gb_20snAQAAIAAJ_0067.jp2
A07092-032-b,https://iiif.archive.org/image/iiif/3/bub_gb_20snAQAAIAAJ%2Fbub_gb_20snAQAAIAAJ_jp2.zip%2Fbub_gb_20snAQAAIAAJ_jp2%2Fbub_gb_20snAQAAIAAJ_0068.jp2
A07092-033-a,https://iiif.archive.org/image/iiif/3/bub_gb_20snAQAAIAAJ%2Fbub_gb_20snAQAAIAAJ_jp2.zip%2Fbub_gb_20snAQAAIAAJ_jp2%2Fbub_gb_20snAQAAIAAJ_0069.jp2
A07092-033-b,https://iiif.archive.org/image/iiif/3/bub_gb_20snAQAAIAAJ%2Fbub_gb_20snAQAAIAAJ_jp2.zip%2Fbub_gb_20snAQAAIAAJ_jp2%2Fbub_gb_20snAQAAIAAJ_0070.jp2
A07092-034-a,https://iiif.archive.org/image/iiif/3/bub_gb_20snAQAAIAAJ%2Fbub_gb_20snAQAAIAAJ_jp2.zip%2Fbub_gb_20snAQAAIAAJ_jp2%2Fbub_gb_20snAQAAIAAJ_0071.jp2
A07092-034-b,https://iiif.archive.org/image/iiif/3/bub_gb_20snAQAAIAAJ%2Fbub_gb_20snAQAAIAAJ_jp2.zip%2Fbub_gb_20snAQAAIAAJ_jp2%2Fbub_gb_20snAQAAIAAJ_0072.jp2
A07092-035-a,https://iiif.archive.org/image/iiif/3/bub_gb_20snAQAAIAAJ%2Fbub_gb_20snAQAAIAAJ_jp2.zip%2Fbub_gb_20snAQAAIAAJ_jp2%2Fbub_gb_20snAQAAIAAJ_0073.jp2
A07092-035-b,https://iiif.archive.org/image/iiif/3/bub_gb_20snAQAAIAAJ%2Fbub_gb_20snAQAAIAAJ_jp2.zip%2Fbub_gb_20snAQAAIAAJ_jp2%2Fbub_gb_20snAQAAIAAJ_0074.jp2
A07092-036-a,https://iiif.archive.org/image/iiif/3/bub_gb_20snAQAAIAAJ%2Fbub_gb_20snAQAAIAAJ_jp2.zip%2Fbub_gb_20snAQAAIAAJ_jp2%2Fbub_gb_20snAQAAIAAJ_0075.jp2
A07092-036-b,https://iiif.archive.org/image/iiif/3/bub_gb_20snAQAAIAAJ%2Fbub_gb_20snAQAAIAAJ_jp2.zip%2Fbub_gb_20snAQAAIAAJ_jp2%2Fbub_gb_20snAQAAIAAJ_0076.jp2
A07092-037-a,https://iiif.archive.org/image/iiif/3/bub_gb_20snAQAAIAAJ%2Fbub_gb_20snAQAAIAAJ_jp2.zip%2Fbub_gb_20snAQAAIAAJ_jp2%2Fbub_gb_20snAQAAIAAJ_0077.jp2
A07092-037-b,https://iiif.archive.org/image/iiif/3/bub_gb_20snAQAAIAAJ%2Fbub_gb_20snAQAAIAAJ_jp2.zip%2Fbub_gb_20snAQAAIAAJ_jp2%2Fbub_gb_20snAQAAIAAJ_0078.jp2
A07092-038-a,https://iiif.archive.org/image/iiif/3/bub_gb_20snAQAAIAAJ%2Fbub_gb_20snAQAAIAAJ_jp2.zip%2Fbub_gb_20snAQAAIAAJ_jp2%2Fbub_gb_20snAQAAIAAJ_0079.jp2
A07092-038-b,https://iiif.archive.org/image/iiif/3/bub_gb_20snAQAAIAAJ%2Fbub_gb_20snAQAAIAAJ_jp2.zip%2Fbub_gb_20snAQAAIAAJ_jp2%2Fbub_gb_20snAQAAIAAJ_0080.jp2
A07092-039-a,https://iiif.archive.org/image/iiif/3/bub_gb_20snAQAAIAAJ%2Fbub_gb_20snAQAAIAAJ_jp2.zip%2Fbub_gb_20snAQAAIAAJ_jp2%2Fbub_gb_20snAQAAIAAJ_0081.jp2
A07092-039-b,https://iiif.archive.org/image/iiif/3/bub_gb_20snAQAAIAAJ%2Fbub_gb_20snAQAAIAAJ_jp2.zip%2Fbub_gb_20snAQAAIAAJ_jp2%2Fbub_gb_20snAQAAIAAJ_0082.jp2
A07092-040-a,https://iiif.archive.org/image/iiif/3/bub_gb_20snAQAAIAAJ%2Fbub_gb_20snAQAAIAAJ_jp2.zip%2Fbub_gb_20snAQAAIAAJ_jp2%2Fbub_gb_20snAQAAIAAJ_0083.jp2
A07092-040-b,https://iiif.archive.org/image/iiif/3/bub_gb_20snAQAAIAAJ%2Fbub_gb_20snAQAAIAAJ_jp2.zip%2Fbub_gb_20snAQAAIAAJ_jp2%2Fbub_gb_20snAQAAIAAJ_0084.jp2
A07092-041-a,https://iiif.archive.org/image/iiif/3/bub_gb_20snAQAAIAAJ%2Fbub_gb_20snAQAAIAAJ_jp2.zip%2Fbub_gb_20snAQAAIAAJ_jp2%2Fbub_gb_20snAQAAIAAJ_0085.jp2
A07092-041-b,https://iiif.archive.org/image/iiif/3/bub_gb_20snAQAAIAAJ%2Fbub_gb_20snAQAAIAAJ_jp2.zip%2Fbub_gb_20snAQAAIAAJ_jp2%2Fbub_gb_20snAQAAIAAJ_0086.jp2
A07092-042-a,https://iiif.archive.org/image/iiif/3/bub_gb_20snAQAAIAAJ%2Fbub_gb_20snAQAAIAAJ_jp2.zip%2Fbub_gb_20snAQAAIAAJ_jp2%2Fbub_gb_20snAQAAIAAJ_0087.jp2
A07092-042-b,https://iiif.archive.org/image/iiif/3/bub_gb_20snAQAAIAAJ%2Fbub_gb_20snAQAAIAAJ_jp2.zip%2Fbub_gb_20snAQAAIAAJ_jp2%2Fbub_gb_20snAQAAIAAJ_0088.jp2
A07092-043-a,https://iiif.archive.org/image/iiif/3/bub_gb_20snAQAAIAAJ%2Fbub_gb_20snAQAAIAAJ_jp2.zip%2Fbub_gb_20snAQAAIAAJ_jp2%2Fbub_gb_20snAQAAIAAJ_0089.jp2
A07092-043-b,https://iiif.archive.org/image/iiif/3/bub_gb_20snAQAAIAAJ%2Fbub_gb_20snAQAAIAAJ_jp2.zip%2Fbub_gb_20snAQAAIAAJ_jp2%2Fbub_gb_20snAQAAIAAJ_0090.jp2
A07092-044-a,https://iiif.archive.org/image/iiif/3/bub_gb_20snAQAAIAAJ%2Fbub_gb_20snAQAAIAAJ_jp2.zip%2Fbub_gb_20snAQAAIAAJ_jp2%2Fbub_gb_20snAQAAIAAJ_0091.jp2
A07092-044-b,https://iiif.archive.org/image/iiif/3/bub_gb_20snAQAAIAAJ%2Fbub_gb_20snAQAAIAAJ_jp2.zip%2Fbub_gb_20snAQAAIAAJ_jp2%2Fbub_gb_20snAQAAIAAJ_0092.jp2
A07092-045-a,https://iiif.archive.org/image/iiif/3/bub_gb_20snAQAAIAAJ%2Fbub_gb_20snAQAAIAAJ_jp2.zip%2Fbub_gb_20snAQAAIAAJ_jp2%2Fbub_gb_20snAQAAIAAJ_0093.jp2
A07092-045-b,https://iiif.archive.org/image/iiif/3/bub_gb_20snAQAAIAAJ%2Fbub_gb_20snAQAAIAAJ_jp2.zip%2Fbub_gb_20snAQAAIAAJ_jp2%2Fbub_gb_20snAQAAIAAJ_0094.jp2
A07092-046-a,https://iiif.archive.org/image/iiif/3/bub_gb_20snAQAAIAAJ%2Fbub_gb_20snAQAAIAAJ_jp2.zip%2Fbub_gb_20snAQAAIAAJ_jp2%2Fbub_gb_20snAQAAIAAJ_0095.jp2
A07092-046-b,https://iiif.archive.org/image/iiif/3/bub_gb_20snAQAAIAAJ%2Fbub_gb_20snAQAAIAAJ_jp2.zip%2Fbub_gb_20snAQAAIAAJ_jp2%2Fbub_gb_20snAQAAIAAJ_0096.jp2
A07092-047-a,https://iiif.archive.org/image/iiif/3/bub_gb_20snAQAAIAAJ%2Fbub_gb_20snAQAAIAAJ_jp2.zip%2Fbub_gb_20snAQAAIAAJ_jp2%2Fbub_gb_20snAQAAIAAJ_0097.jp2
A07092-047-b,https://iiif.archive.org/image/iiif/3/bub_gb_20snAQAAIAAJ%2Fbub_gb_20snAQAAIAAJ_jp2.zip%2Fbub_gb_20snAQAAIAAJ_jp2%2Fbub_gb_20snAQAAIAAJ_0098.jp2
A07092-048-a,https://iiif.archive.org/image/iiif/3/bub_gb_20snAQAAIAAJ%2Fbub_gb_20snAQAAIAAJ_jp2.zip%2Fbub_gb_20snAQAAIAAJ_jp2%2Fbub_gb_20snAQAAIAAJ_0099.jp2
A07092-048-b,https://iiif.archive.org/image/iiif/3/bub_gb_20snAQAAIAAJ%2Fbub_gb_20snAQAAIAAJ_jp2.zip%2Fbub_gb_20snAQAAIAAJ_jp2%2Fbub_gb_20snAQAAIAAJ_0100.jp2
A07092-049-a,https://iiif.archive.org/image/iiif/3/bub_gb_20snAQAAIAAJ%2Fbub_gb_20snAQAAIAAJ_jp2.zip%2Fbub_gb_20snAQAAIAAJ_jp2%2Fbub_gb_20snAQAAIAAJ_0101.jp2
A07092-049-b,https://iiif.archive.org/image/iiif/3/bub_gb_20snAQAAIAAJ%2Fbub_gb_20snAQAAIAAJ_jp2.zip%2Fbub_gb_20snAQAAIAAJ_jp2%2Fbub_gb_20snAQAAIAAJ_0102.jp2
A07092-050-a,https://iiif.archive.org/image/iiif/3/bub_gb_20snAQAAIAAJ%2Fbub_gb_20snAQAAIAAJ_jp2.zip%2Fbub_gb_20snAQAAIAAJ_jp2%2Fbub_gb_20snAQAAIAAJ_0103.jp2
A07092-050-b,https://iiif.archive.org/image/iiif/3/bub_gb_20snAQAAIAAJ%2Fbub_gb_20snAQAAIAAJ_jp2.zip%2Fbub_gb_20snAQAAIAAJ_jp2%2Fbub_gb_20snAQAAIAAJ_0104.jp2
A07092-051-a,https://iiif.archive.org/image/iiif/3/bub_gb_20snAQAAIAAJ%2Fbub_gb_20snAQAAIAAJ_jp2.zip%2Fbub_gb_20snAQAAIAAJ_jp2%2Fbub_gb_20snAQAAIAAJ_0105.jp2
A07092-051-b,https://iiif.archive.org/image/iiif/3/bub_gb_20snAQAAIAAJ%2Fbub_gb_20snAQAAIAAJ_jp2.zip%2Fbub_gb_20snAQAAIAAJ_jp2%2Fbub_gb_20snAQAAIAAJ_0106.jp2
A07092-052-a,https://iiif.archive.org/image/iiif/3/bub_gb_20snAQAAIAAJ%2Fbub_gb_20snAQAAIAAJ_jp2.zip%2Fbub_gb_20snAQAAIAAJ_jp2%2Fbub_gb_20snAQAAIAAJ_0107.jp2
A07092-052-b,https://iiif.archive.org/image/iiif/3/bub_gb_20snAQAAIAAJ%2Fbub_gb_20snAQAAIAAJ_jp2.zip%2Fbub_gb_20snAQAAIAAJ_jp2%2Fbub_gb_20snAQAAIAAJ_0108.jp2
A07092-053-a,https://iiif.archive.org/image/iiif/3/bub_gb_20snAQAAIAAJ%2Fbub_gb_20snAQAAIAAJ_jp2.zip%2Fbub_gb_20snAQAAIAAJ_jp2%2Fbub_gb_20snAQAAIAAJ_0109.jp2
A07092-053-b,https://iiif.archive.org/image/iiif/3/bub_gb_20snAQAAIAAJ%2Fbub_gb_20snAQAAIAAJ_jp2.zip%2Fbub_gb_20snAQAAIAAJ_jp2%2Fbub_gb_20snAQAAIAAJ_0110.jp2
A07092-054-a,https://iiif.archive.org/image/iiif/3/bub_gb_20snAQAAIAAJ%2Fbub_gb_20snAQAAIAAJ_jp2.zip%2Fbub_gb_20snAQAAIAAJ_jp2%2Fbub_gb_20snAQAAIAAJ_0111.jp2
A07092-054-b,https://iiif.archive.org/image/iiif/3/bub_gb_20snAQAAIAAJ%2Fbub_gb_20snAQAAIAAJ_jp2.zip%2Fbub_gb_20snAQAAIAAJ_jp2%2Fbub_gb_20snAQAAIAAJ_0112.jp2
A07092-055-a,https://iiif.archive.org/image/iiif/3/bub_gb_20snAQAAIAAJ%2Fbub_gb_20snAQAAIAAJ_jp2.zip%2Fbub_gb_20snAQAAIAAJ_jp2%2Fbub_gb_20snAQAAIAAJ_0113.jp2
A07092-055-b,https://iiif.archive.org/image/iiif/3/bub_gb_20snAQAAIAAJ%2Fbub_gb_20snAQAAIAAJ_jp2.zip%2Fbub_gb_20snAQAAIAAJ_jp2%2Fbub_gb_20snAQAAIAAJ_0114.jp2
A07092-056-a,https://iiif.archive.org/image/iiif/3/bub_gb_20snAQAAIAAJ%2Fbub_gb_20snAQAAIAAJ_jp2.zip%2Fbub_gb_20snAQAAIAAJ_jp2%2Fbub_gb_20snAQAAIAAJ_0115.jp2
A07092-056-b,https://iiif.archive.org/image/iiif/3/bub_gb_20snAQAAIAAJ%2Fbub_gb_20snAQAAIAAJ_jp2.zip%2Fbub_gb_20snAQAAIAAJ_jp2%2Fbub_gb_20snAQAAIAAJ_0116.jp2
A07092-057-a,https://iiif.archive.org/image/iiif/3/bub_gb_20snAQAAIAAJ%2Fbub_gb_20snAQAAIAAJ_jp2.zip%2Fbub_gb_20snAQAAIAAJ_jp2%2Fbub_gb_20snAQAAIAAJ_0117.jp2
A07092-057-b,https://iiif.archive.org/image/iiif/3/bub_gb_20snAQAAIAAJ%2Fbub_gb_20snAQAAIAAJ_jp2.zip%2Fbub_gb_20snAQAAIAAJ_jp2%2Fbub_gb_20snAQAAIAAJ_0118.jp2
A07092-058-a,https://iiif.archive.org/image/iiif/3/bub_gb_20snAQAAIAAJ%2Fbub_gb_20snAQAAIAAJ_jp2.zip%2Fbub_gb_20snAQAAIAAJ_jp2%2Fbub_gb_20snAQAAIAAJ_0119.jp2
A07092-058-b,https://iiif.archive.org/image/iiif/3/bub_gb_20snAQAAIAAJ%2Fbub_gb_20snAQAAIAAJ_jp2.zip%2Fbub_gb_20snAQAAIAAJ_jp2%2Fbub_gb_20snAQAAIAAJ_0120.jp2
A07092-059-a,https://iiif.archive.org/image/iiif/3/bub_gb_20snAQAAIAAJ%2Fbub_gb_20snAQAAIAAJ_jp2.zip%2Fbub_gb_20snAQAAIAAJ_jp2%2Fbub_gb_20snAQAAIAAJ_0121.jp2
A07092-059-b,https://iiif.archive.org/image/iiif/3/bub_gb_20snAQAAIAAJ%2Fbub_gb_20snAQAAIAAJ_jp2.zip%2Fbub_gb_20snAQAAIAAJ_jp2%2Fbub_gb_20snAQAAIAAJ_0122.jp2
A07092-060-a,https://iiif.archive.org/image/iiif/3/bub_gb_20snAQAAIAAJ%2Fbub_gb_20snAQAAIAAJ_jp2.zip%2Fbub_gb_20snAQAAIAAJ_jp2%2Fbub_gb_20snAQAAIAAJ_0123.jp2
A07092-060-b,https://iiif.archive.org/image/iiif/3/bub_gb_20snAQAAIAAJ%2Fbub_gb_20snAQAAIAAJ_jp2.zip%2Fbub_gb_20snAQAAIAAJ_jp2%2Fbub_gb_20snAQAAIAAJ_0124.jp2
A07092-061-a,https://iiif.archive.org/image/iiif/3/bub_gb_20snAQAAIAAJ%2Fbub_gb_20snAQAAIAAJ_jp2.zip%2Fbub_gb_20snAQAAIAAJ_jp2%2Fbub_gb_20snAQAAIAAJ_0125.jp2
A07092-061-b,https://iiif.archive.org/image/iiif/3/bub_gb_20snAQAAIAAJ%2Fbub_gb_20snAQAAIAAJ_jp2.zip%2Fbub_gb_20snAQAAIAAJ_jp2%2Fbub_gb_20snAQAAIAAJ_0126.jp2
A07092-062-a,https://iiif.archive.org/image/iiif/3/bub_gb_20snAQAAIAAJ%2Fbub_gb_20snAQAAIAAJ_jp2.zip%2Fbub_gb_20snAQAAIAAJ_jp2%2Fbub_gb_20snAQAAIAAJ_0127.jp2
A07092-062-b,https://iiif.archive.org/image/iiif/3/bub_gb_20snAQAAIAAJ%2Fbub_gb_20snAQAAIAAJ_jp2.zip%2Fbub_gb_20snAQAAIAAJ_jp2%2Fbub_gb_20snAQAAIAAJ_0128.jp2
A07092-063-a,https://iiif.archive.org/image/iiif/3/bub_gb_20snAQAAIAAJ%2Fbub_gb_20snAQAAIAAJ_jp2.zip%2Fbub_gb_20snAQAAIAAJ_jp2%2Fbub_gb_20snAQAAIAAJ_0129.jp2
A07092-063-b,https://iiif.archive.org/image/iiif/3/bub_gb_20snAQAAIAAJ%2Fbub_gb_20snAQAAIAAJ_jp2.zip%2Fbub_gb_20snAQAAIAAJ_jp2%2Fbub_gb_20snAQAAIAAJ_0130.jp2
A07092-064-a,https://iiif.archive.org/image/iiif/3/bub_gb_20snAQAAIAAJ%2Fbub_gb_20snAQAAIAAJ_jp2.zip%2Fbub_gb_20snAQAAIAAJ_jp2%2Fbub_gb_20snAQAAIAAJ_0131.jp2
A07092-064-b,https://iiif.archive.org/image/iiif/3/bub_gb_20snAQAAIAAJ%2Fbub_gb_20snAQAAIAAJ_jp2.zip%2Fbub_gb_20snAQAAIAAJ_jp2%2Fbub_gb_20snAQAAIAAJ_0132.jp2
A07092-065-a,https://iiif.archive.org/image/iiif/3/bub_gb_20snAQAAIAAJ%2Fbub_gb_20snAQAAIAAJ_jp2.zip%2Fbub_gb_20snAQAAIAAJ_jp2%2Fbub_gb_20snAQAAIAAJ_0133.jp2
A07092-065-b,https://iiif.archive.org/image/iiif/3/bub_gb_20snAQAAIAAJ%2Fbub_gb_20snAQAAIAAJ_jp2.zip%2Fbub_gb_20snAQAAIAAJ_jp2%2Fbub_gb_20snAQAAIAAJ_0134.jp2
A07092-066-a,9999
A07092-066-b,9999
A07092-067-a,https://iiif.archive.org/image/iiif/3/bub_gb_20snAQAAIAAJ%2Fbub_gb_20snAQAAIAAJ_jp2.zip%2Fbub_gb_20snAQAAIAAJ_jp2%2Fbub_gb_20snAQAAIAAJ_0135.jp2
A07092-067-b,https://iiif.archive.org/image/iiif/3/bub_gb_20snAQAAIAAJ%2Fbub_gb_20snAQAAIAAJ_jp2.zip%2Fbub_gb_20snAQAAIAAJ_jp2%2Fbub_gb_20snAQAAIAAJ_0136.jp2
A07092-068-a,https://iiif.archive.org/image/iiif/3/bub_gb_20snAQAAIAAJ%2Fbub_gb_20snAQAAIAAJ_jp2.zip%2Fbub_gb_20snAQAAIAAJ_jp2%2Fbub_gb_20snAQAAIAAJ_0137.jp2
A07092-068-b,https://iiif.archive.org/image/iiif/3/bub_gb_20snAQAAIAAJ%2Fbub_gb_20snAQAAIAAJ_jp2.zip%2Fbub_gb_20snAQAAIAAJ_jp2%2Fbub_gb_20snAQAAIAAJ_0138.jp2
A07092-069-a,https://iiif.archive.org/image/iiif/3/bub_gb_20snAQAAIAAJ%2Fbub_gb_20snAQAAIAAJ_jp2.zip%2Fbub_gb_20snAQAAIAAJ_jp2%2Fbub_gb_20snAQAAIAAJ_0139.jp2
A07092-069-b,https://iiif.archive.org/image/iiif/3/bub_gb_20snAQAAIAAJ%2Fbub_gb_20snAQAAIAAJ_jp2.zip%2Fbub_gb_20snAQAAIAAJ_jp2%2Fbub_gb_20snAQAAIAAJ_0140.jp2
A07092-070-a,https://iiif.archive.org/image/iiif/3/bub_gb_20snAQAAIAAJ%2Fbub_gb_20snAQAAIAAJ_jp2.zip%2Fbub_gb_20snAQAAIAAJ_jp2%2Fbub_gb_20snAQAAIAAJ_0141.jp2
A07092-070-b,https://iiif.archive.org/image/iiif/3/bub_gb_20snAQAAIAAJ%2Fbub_gb_20snAQAAIAAJ_jp2.zip%2Fbub_gb_20snAQAAIAAJ_jp2%2Fbub_gb_20snAQAAIAAJ_0142.jp2
A07092-071-a,https://iiif.archive.org/image/iiif/3/bub_gb_20snAQAAIAAJ%2Fbub_gb_20snAQAAIAAJ_jp2.zip%2Fbub_gb_20snAQAAIAAJ_jp2%2Fbub_gb_20snAQAAIAAJ_0143.jp2
A07092-071-b,https://iiif.archive.org/image/iiif/3/bub_gb_20snAQAAIAAJ%2Fbub_gb_20snAQAAIAAJ_jp2.zip%2Fbub_gb_20snAQAAIAAJ_jp2%2Fbub_gb_20snAQAAIAAJ_0144.jp2
A07092-072-a,https://iiif.archive.org/image/iiif/3/bub_gb_20snAQAAIAAJ%2Fbub_gb_20snAQAAIAAJ_jp2.zip%2Fbub_gb_20snAQAAIAAJ_jp2%2Fbub_gb_20snAQAAIAAJ_0145.jp2
A07092-072-b,https://iiif.archive.org/image/iiif/3/bub_gb_20snAQAAIAAJ%2Fbub_gb_20snAQAAIAAJ_jp2.zip%2Fbub_gb_20snAQAAIAAJ_jp2%2Fbub_gb_20snAQAAIAAJ_0146.jp2
A07092-073-a,https://iiif.archive.org/image/iiif/3/bub_gb_20snAQAAIAAJ%2Fbub_gb_20snAQAAIAAJ_jp2.zip%2Fbub_gb_20snAQAAIAAJ_jp2%2Fbub_gb_20snAQAAIAAJ_0147.jp2
A07092-073-b,https://iiif.archive.org/image/iiif/3/bub_gb_20snAQAAIAAJ%2Fbub_gb_20snAQAAIAAJ_jp2.zip%2Fbub_gb_20snAQAAIAAJ_jp2%2Fbub_gb_20snAQAAIAAJ_0148.jp2
A07092-074-a,https://iiif.archive.org/image/iiif/3/bub_gb_20snAQAAIAAJ%2Fbub_gb_20snAQAAIAAJ_jp2.zip%2Fbub_gb_20snAQAAIAAJ_jp2%2Fbub_gb_20snAQAAIAAJ_0149.jp2
A07092-074-b,https://iiif.archive.org/image/iiif/3/bub_gb_20snAQAAIAAJ%2Fbub_gb_20snAQAAIAAJ_jp2.zip%2Fbub_gb_20snAQAAIAAJ_jp2%2Fbub_gb_20snAQAAIAAJ_0150.jp2
A07092-075-a,https://iiif.archive.org/image/iiif/3/bub_gb_20snAQAAIAAJ%2Fbub_gb_20snAQAAIAAJ_jp2.zip%2Fbub_gb_20snAQAAIAAJ_jp2%2Fbub_gb_20snAQAAIAAJ_0151.jp2
A07092-075-b,https://iiif.archive.org/image/iiif/3/bub_gb_20snAQAAIAAJ%2Fbub_gb_20snAQAAIAAJ_jp2.zip%2Fbub_gb_20snAQAAIAAJ_jp2%2Fbub_gb_20snAQAAIAAJ_0152.jp2
A07092-076-a,https://iiif.archive.org/image/iiif/3/bub_gb_20snAQAAIAAJ%2Fbub_gb_20snAQAAIAAJ_jp2.zip%2Fbub_gb_20snAQAAIAAJ_jp2%2Fbub_gb_20snAQAAIAAJ_0153.jp2
A07092-076-b,https://iiif.archive.org/image/iiif/3/bub_gb_20snAQAAIAAJ%2Fbub_gb_20snAQAAIAAJ_jp2.zip%2Fbub_gb_20snAQAAIAAJ_jp2%2Fbub_gb_20snAQAAIAAJ_0154.jp2
A07092-077-a,https://iiif.archive.org/image/iiif/3/bub_gb_20snAQAAIAAJ%2Fbub_gb_20snAQAAIAAJ_jp2.zip%2Fbub_gb_20snAQAAIAAJ_jp2%2Fbub_gb_20snAQAAIAAJ_0155.jp2
A07092-077-b,https://iiif.archive.org/image/iiif/3/bub_gb_20snAQAAIAAJ%2Fbub_gb_20snAQAAIAAJ_jp2.zip%2Fbub_gb_20snAQAAIAAJ_jp2%2Fbub_gb_20snAQAAIAAJ_0156.jp2
A07092-078-a,https://iiif.archive.org/image/iiif/3/bub_gb_20snAQAAIAAJ%2Fbub_gb_20snAQAAIAAJ_jp2.zip%2Fbub_gb_20snAQAAIAAJ_jp2%2Fbub_gb_20snAQAAIAAJ_0157.jp2
A07092-078-b,https://iiif.archive.org/image/iiif/3/bub_gb_20snAQAAIAAJ%2Fbub_gb_20snAQAAIAAJ_jp2.zip%2Fbub_gb_20snAQAAIAAJ_jp2%2Fbub_gb_20snAQAAIAAJ_0158.jp2
A07092-079-a,https://iiif.archive.org/image/iiif/3/bub_gb_20snAQAAIAAJ%2Fbub_gb_20snAQAAIAAJ_jp2.zip%2Fbub_gb_20snAQAAIAAJ_jp2%2Fbub_gb_20snAQAAIAAJ_0159.jp2
A07092-079-b,https://iiif.archive.org/image/iiif/3/bub_gb_20snAQAAIAAJ%2Fbub_gb_20snAQAAIAAJ_jp2.zip%2Fbub_gb_20snAQAAIAAJ_jp2%2Fbub_gb_20snAQAAIAAJ_0160.jp2
A07092-080-a,https://iiif.archive.org/image/iiif/3/bub_gb_20snAQAAIAAJ%2Fbub_gb_20snAQAAIAAJ_jp2.zip%2Fbub_gb_20snAQAAIAAJ_jp2%2Fbub_gb_20snAQAAIAAJ_0161.jp2
A07092-080-b,https://iiif.archive.org/image/iiif/3/bub_gb_20snAQAAIAAJ%2Fbub_gb_20snAQAAIAAJ_jp2.zip%2Fbub_gb_20snAQAAIAAJ_jp2%2Fbub_gb_20snAQAAIAAJ_0162.jp2
A07092-081-a,https://iiif.archive.org/image/iiif/3/bub_gb_20snAQAAIAAJ%2Fbub_gb_20snAQAAIAAJ_jp2.zip%2Fbub_gb_20snAQAAIAAJ_jp2%2Fbub_gb_20snAQAAIAAJ_0163.jp2
A07092-081-b,https://iiif.archive.org/image/iiif/3/bub_gb_20snAQAAIAAJ%2Fbub_gb_20snAQAAIAAJ_jp2.zip%2Fbub_gb_20snAQAAIAAJ_jp2%2Fbub_gb_20snAQAAIAAJ_0164.jp2
A07092-082-a,https://iiif.archive.org/image/iiif/3/bub_gb_20snAQAAIAAJ%2Fbub_gb_20snAQAAIAAJ_jp2.zip%2Fbub_gb_20snAQAAIAAJ_jp2%2Fbub_gb_20snAQAAIAAJ_0165.jp2
A07092-082-b,https://iiif.archive.org/image/iiif/3/bub_gb_20snAQAAIAAJ%2Fbub_gb_20snAQAAIAAJ_jp2.zip%2Fbub_gb_20snAQAAIAAJ_jp2%2Fbub_gb_20snAQAAIAAJ_0166.jp2
A07092-083-a,https://iiif.archive.org/image/iiif/3/bub_gb_20snAQAAIAAJ%2Fbub_gb_20snAQAAIAAJ_jp2.zip%2Fbub_gb_20snAQAAIAAJ_jp2%2Fbub_gb_20snAQAAIAAJ_0167.jp2
A07092-083-b,https://iiif.archive.org/image/iiif/3/bub_gb_20snAQAAIAAJ%2Fbub_gb_20snAQAAIAAJ_jp2.zip%2Fbub_gb_20snAQAAIAAJ_jp2%2Fbub_gb_20snAQAAIAAJ_0168.jp2
A07092-084-a,https://iiif.archive.org/image/iiif/3/bub_gb_20snAQAAIAAJ%2Fbub_gb_20snAQAAIAAJ_jp2.zip%2Fbub_gb_20snAQAAIAAJ_jp2%2Fbub_gb_20snAQAAIAAJ_0169.jp2
A07092-084-b,https://iiif.archive.org/image/iiif/3/bub_gb_20snAQAAIAAJ%2Fbub_gb_20snAQAAIAAJ_jp2.zip%2Fbub_gb_20snAQAAIAAJ_jp2%2Fbub_gb_20snAQAAIAAJ_0170.jp2
A07092-085-a,https://iiif.archive.org/image/iiif/3/bub_gb_20snAQAAIAAJ%2Fbub_gb_20snAQAAIAAJ_jp2.zip%2Fbub_gb_20snAQAAIAAJ_jp2%2Fbub_gb_20snAQAAIAAJ_0171.jp2
A07092-085-b,https://iiif.archive.org/image/iiif/3/bub_gb_20snAQAAIAAJ%2Fbub_gb_20snAQAAIAAJ_jp2.zip%2Fbub_gb_20snAQAAIAAJ_jp2%2Fbub_gb_20snAQAAIAAJ_0172.jp2
A07092-086-a,https://iiif.archive.org/image/iiif/3/bub_gb_20snAQAAIAAJ%2Fbub_gb_20snAQAAIAAJ_jp2.zip%2Fbub_gb_20snAQAAIAAJ_jp2%2Fbub_gb_20snAQAAIAAJ_0173.jp2
A07092-086-b,https://iiif.archive.org/image/iiif/3/bub_gb_20snAQAAIAAJ%2Fbub_gb_20snAQAAIAAJ_jp2.zip%2Fbub_gb_20snAQAAIAAJ_jp2%2Fbub_gb_20snAQAAIAAJ_0174.jp2
A07092-087-a,https://iiif.archive.org/image/iiif/3/bub_gb_20snAQAAIAAJ%2Fbub_gb_20snAQAAIAAJ_jp2.zip%2Fbub_gb_20snAQAAIAAJ_jp2%2Fbub_gb_20snAQAAIAAJ_0175.jp2
A07092-087-b,https://iiif.archive.org/image/iiif/3/bub_gb_20snAQAAIAAJ%2Fbub_gb_20snAQAAIAAJ_jp2.zip%2Fbub_gb_20snAQAAIAAJ_jp2%2Fbub_gb_20snAQAAIAAJ_0176.jp2
A07092-088-a,https://iiif.archive.org/image/iiif/3/bub_gb_20snAQAAIAAJ%2Fbub_gb_20snAQAAIAAJ_jp2.zip%2Fbub_gb_20snAQAAIAAJ_jp2%2Fbub_gb_20snAQAAIAAJ_0177.jp2
A07092-088-b,https://iiif.archive.org/image/iiif/3/bub_gb_20snAQAAIAAJ%2Fbub_gb_20snAQAAIAAJ_jp2.zip%2Fbub_gb_20snAQAAIAAJ_jp2%2Fbub_gb_20snAQAAIAAJ_0178.jp2
A07092-089-a,https://iiif.archive.org/image/iiif/3/bub_gb_20snAQAAIAAJ%2Fbub_gb_20snAQAAIAAJ_jp2.zip%2Fbub_gb_20snAQAAIAAJ_jp2%2Fbub_gb_20snAQAAIAAJ_0179.jp2
A07092-089-b,https://iiif.archive.org/image/iiif/3/bub_gb_20snAQAAIAAJ%2Fbub_gb_20snAQAAIAAJ_jp2.zip%2Fbub_gb_20snAQAAIAAJ_jp2%2Fbub_gb_20snAQAAIAAJ_0180.jp2
A07092-090-a,https://iiif.archive.org/image/iiif/3/bub_gb_20snAQAAIAAJ%2Fbub_gb_20snAQAAIAAJ_jp2.zip%2Fbub_gb_20snAQAAIAAJ_jp2%2Fbub_gb_20snAQAAIAAJ_0181.jp2
A07092-090-b,https://iiif.archive.org/image/iiif/3/bub_gb_20snAQAAIAAJ%2Fbub_gb_20snAQAAIAAJ_jp2.zip%2Fbub_gb_20snAQAAIAAJ_jp2%2Fbub_gb_20snAQAAIAAJ_0182.jp2
A07092-091-a,https://iiif.archive.org/image/iiif/3/bub_gb_20snAQAAIAAJ%2Fbub_gb_20snAQAAIAAJ_jp2.zip%2Fbub_gb_20snAQAAIAAJ_jp2%2Fbub_gb_20snAQAAIAAJ_0183.jp2
A07092-091-b,https://iiif.archive.org/image/iiif/3/bub_gb_20snAQAAIAAJ%2Fbub_gb_20snAQAAIAAJ_jp2.zip%2Fbub_gb_20snAQAAIAAJ_jp2%2Fbub_gb_20snAQAAIAAJ_0184.jp2
A07092-092-a,https://iiif.archive.org/image/iiif/3/bub_gb_20snAQAAIAAJ%2Fbub_gb_20snAQAAIAAJ_jp2.zip%2Fbub_gb_20snAQAAIAAJ_jp2%2Fbub_gb_20snAQAAIAAJ_0185.jp2
A07092-092-b,https://iiif.archive.org/image/iiif/3/bub_gb_20snAQAAIAAJ%2Fbub_gb_20snAQAAIAAJ_jp2.zip%2Fbub_gb_20snAQAAIAAJ_jp2%2Fbub_gb_20snAQAAIAAJ_0186.jp2
A07092-093-a,https://iiif.archive.org/image/iiif/3/bub_gb_20snAQAAIAAJ%2Fbub_gb_20snAQAAIAAJ_jp2.zip%2Fbub_gb_20snAQAAIAAJ_jp2%2Fbub_gb_20snAQAAIAAJ_0187.jp2
A07092-093-b,https://iiif.archive.org/image/iiif/3/bub_gb_20snAQAAIAAJ%2Fbub_gb_20snAQAAIAAJ_jp2.zip%2Fbub_gb_20snAQAAIAAJ_jp2%2Fbub_gb_20snAQAAIAAJ_0188.jp2
A07092-094-a,https://iiif.archive.org/image/iiif/3/bub_gb_20snAQAAIAAJ%2Fbub_gb_20snAQAAIAAJ_jp2.zip%2Fbub_gb_20snAQAAIAAJ_jp2%2Fbub_gb_20snAQAAIAAJ_0189.jp2
A07092-094-b,https://iiif.archive.org/image/iiif/3/bub_gb_20snAQAAIAAJ%2Fbub_gb_20snAQAAIAAJ_jp2.zip%2Fbub_gb_20snAQAAIAAJ_jp2%2Fbub_gb_20snAQAAIAAJ_0190.jp2
A07092-095-a,https://iiif.archive.org/image/iiif/3/bub_gb_20snAQAAIAAJ%2Fbub_gb_20snAQAAIAAJ_jp2.zip%2Fbub_gb_20snAQAAIAAJ_jp2%2Fbub_gb_20snAQAAIAAJ_0191.jp2
A07092-095-b,https://iiif.archive.org/image/iiif/3/bub_gb_20snAQAAIAAJ%2Fbub_gb_20snAQAAIAAJ_jp2.zip%2Fbub_gb_20snAQAAIAAJ_jp2%2Fbub_gb_20snAQAAIAAJ_0192.jp2
A07092-096-a,https://iiif.archive.org/image/iiif/3/bub_gb_20snAQAAIAAJ%2Fbub_gb_20snAQAAIAAJ_jp2.zip%2Fbub_gb_20snAQAAIAAJ_jp2%2Fbub_gb_20snAQAAIAAJ_0193.jp2
A07092-096-b,https://iiif.archive.org/image/iiif/3/bub_gb_20snAQAAIAAJ%2Fbub_gb_20snAQAAIAAJ_jp2.zip%2Fbub_gb_20snAQAAIAAJ_jp2%2Fbub_gb_20snAQAAIAAJ_0194.jp2
A07092-097-a,https://iiif.archive.org/image/iiif/3/bub_gb_20snAQAAIAAJ%2Fbub_gb_20snAQAAIAAJ_jp2.zip%2Fbub_gb_20snAQAAIAAJ_jp2%2Fbub_gb_20snAQAAIAAJ_0195.jp2
A07092-097-b,https://iiif.archive.org/image/iiif/3/bub_gb_20snAQAAIAAJ%2Fbub_gb_20snAQAAIAAJ_jp2.zip%2Fbub_gb_20snAQAAIAAJ_jp2%2Fbub_gb_20snAQAAIAAJ_0196.jp2
A07092-098-a,https://iiif.archive.org/image/iiif/3/bub_gb_20snAQAAIAAJ%2Fbub_gb_20snAQAAIAAJ_jp2.zip%2Fbub_gb_20snAQAAIAAJ_jp2%2Fbub_gb_20snAQAAIAAJ_0197.jp2
A07092-098-b,https://iiif.archive.org/image/iiif/3/bub_gb_20snAQAAIAAJ%2Fbub_gb_20snAQAAIAAJ_jp2.zip%2Fbub_gb_20snAQAAIAAJ_jp2%2Fbub_gb_20snAQAAIAAJ_0198.jp2
A07092-099-a,https://iiif.archive.org/image/iiif/3/bub_gb_20snAQAAIAAJ%2Fbub_gb_20snAQAAIAAJ_jp2.zip%2Fbub_gb_20snAQAAIAAJ_jp2%2Fbub_gb_20snAQAAIAAJ_0199.jp2
A07092-099-b,https://iiif.archive.org/image/iiif/3/bub_gb_20snAQAAIAAJ%2Fbub_gb_20snAQAAIAAJ_jp2.zip%2Fbub_gb_20snAQAAIAAJ_jp2%2Fbub_gb_20snAQAAIAAJ_0200.jp2
A07092-100-a,https://iiif.archive.org/image/iiif/3/bub_gb_20snAQAAIAAJ%2Fbub_gb_20snAQAAIAAJ_jp2.zip%2Fbub_gb_20snAQAAIAAJ_jp2%2Fbub_gb_20snAQAAIAAJ_0201.jp2
A07092-100-b,https://iiif.archive.org/image/iiif/3/bub_gb_20snAQAAIAAJ%2Fbub_gb_20snAQAAIAAJ_jp2.zip%2Fbub_gb_20snAQAAIAAJ_jp2%2Fbub_gb_20snAQAAIAAJ_0202.jp2
A07092-101-a,https://iiif.archive.org/image/iiif/3/bub_gb_20snAQAAIAAJ%2Fbub_gb_20snAQAAIAAJ_jp2.zip%2Fbub_gb_20snAQAAIAAJ_jp2%2Fbub_gb_20snAQAAIAAJ_0203.jp2
A07092-101-b,https://iiif.archive.org/image/iiif/3/bub_gb_20snAQAAIAAJ%2Fbub_gb_20snAQAAIAAJ_jp2.zip%2Fbub_gb_20snAQAAIAAJ_jp2%2Fbub_gb_20snAQAAIAAJ_0204.jp2
A07092-102-a,https://iiif.archive.org/image/iiif/3/bub_gb_20snAQAAIAAJ%2Fbub_gb_20snAQAAIAAJ_jp2.zip%2Fbub_gb_20snAQAAIAAJ_jp2%2Fbub_gb_20snAQAAIAAJ_0205.jp2
A07092-102-b,https://iiif.archive.org/image/iiif/3/bub_gb_20snAQAAIAAJ%2Fbub_gb_20snAQAAIAAJ_jp2.zip%2Fbub_gb_20snAQAAIAAJ_jp2%2Fbub_gb_20snAQAAIAAJ_0206.jp2
A07092-103-a,https://iiif.archive.org/image/iiif/3/bub_gb_20snAQAAIAAJ%2Fbub_gb_20snAQAAIAAJ_jp2.zip%2Fbub_gb_20snAQAAIAAJ_jp2%2Fbub_gb_20snAQAAIAAJ_0207.jp2
A07092-103-b,https://iiif.archive.org/image/iiif/3/bub_gb_20snAQAAIAAJ%2Fbub_gb_20snAQAAIAAJ_jp2.zip%2Fbub_gb_20snAQAAIAAJ_jp2%2Fbub_gb_20snAQAAIAAJ_0208.jp2
A07092-104-a,https://iiif.archive.org/image/iiif/3/bub_gb_20snAQAAIAAJ%2Fbub_gb_20snAQAAIAAJ_jp2.zip%2Fbub_gb_20snAQAAIAAJ_jp2%2Fbub_gb_20snAQAAIAAJ_0209.jp2
A07092-104-b,https://iiif.archive.org/image/iiif/3/bub_gb_20snAQAAIAAJ%2Fbub_gb_20snAQAAIAAJ_jp2.zip%2Fbub_gb_20snAQAAIAAJ_jp2%2Fbub_gb_20snAQAAIAAJ_0210.jp2
A07092-105-a,https://iiif.archive.org/image/iiif/3/bub_gb_20snAQAAIAAJ%2Fbub_gb_20snAQAAIAAJ_jp2.zip%2Fbub_gb_20snAQAAIAAJ_jp2%2Fbub_gb_20snAQAAIAAJ_0211.jp2
A07092-105-b,https://iiif.archive.org/image/iiif/3/bub_gb_20snAQAAIAAJ%2Fbub_gb_20snAQAAIAAJ_jp2.zip%2Fbub_gb_20snAQAAIAAJ_jp2%2Fbub_gb_20snAQAAIAAJ_0212.jp2
A07092-106-a,https://iiif.archive.org/image/iiif/3/bub_gb_20snAQAAIAAJ%2Fbub_gb_20snAQAAIAAJ_jp2.zip%2Fbub_gb_20snAQAAIAAJ_jp2%2Fbub_gb_20snAQAAIAAJ_0213.jp2
A07092-106-b,https://iiif.archive.org/image/iiif/3/bub_gb_20snAQAAIAAJ%2Fbub_gb_20snAQAAIAAJ_jp2.zip%2Fbub_gb_20snAQAAIAAJ_jp2%2Fbub_gb_20snAQAAIAAJ_0214.jp2
A07092-107-a,https://iiif.archive.org/image/iiif/3/bub_gb_20snAQAAIAAJ%2Fbub_gb_20snAQAAIAAJ_jp2.zip%2Fbub_gb_20snAQAAIAAJ_jp2%2Fbub_gb_20snAQAAIAAJ_0215.jp2
A07092-107-b,https://iiif.archive.org/image/iiif/3/bub_gb_20snAQAAIAAJ%2Fbub_gb_20snAQAAIAAJ_jp2.zip%2Fbub_gb_20snAQAAIAAJ_jp2%2Fbub_gb_20snAQAAIAAJ_0216.jp2
A07092-108-a,https://iiif.archive.org/image/iiif/3/bub_gb_20snAQAAIAAJ%2Fbub_gb_20snAQAAIAAJ_jp2.zip%2Fbub_gb_20snAQAAIAAJ_jp2%2Fbub_gb_20snAQAAIAAJ_0217.jp2
A07092-108-b,https://iiif.archive.org/image/iiif/3/bub_gb_20snAQAAIAAJ%2Fbub_gb_20snAQAAIAAJ_jp2.zip%2Fbub_gb_20snAQAAIAAJ_jp2%2Fbub_gb_20snAQAAIAAJ_0218.jp2
A07092-109-a,https://iiif.archive.org/image/iiif/3/bub_gb_20snAQAAIAAJ%2Fbub_gb_20snAQAAIAAJ_jp2.zip%2Fbub_gb_20snAQAAIAAJ_jp2%2Fbub_gb_20snAQAAIAAJ_0219.jp2
A07092-109-b,https://iiif.archive.org/image/iiif/3/bub_gb_20snAQAAIAAJ%2Fbub_gb_20snAQAAIAAJ_jp2.zip%2Fbub_gb_20snAQAAIAAJ_jp2%2Fbub_gb_20snAQAAIAAJ_0220.jp2
A07092-110-a,https://iiif.archive.org/image/iiif/3/bub_gb_20snAQAAIAAJ%2Fbub_gb_20snAQAAIAAJ_jp2.zip%2Fbub_gb_20snAQAAIAAJ_jp2%2Fbub_gb_20snAQAAIAAJ_0221.jp2
A07092-110-b,https://iiif.archive.org/image/iiif/3/bub_gb_20snAQAAIAAJ%2Fbub_gb_20snAQAAIAAJ_jp2.zip%2Fbub_gb_20snAQAAIAAJ_jp2%2Fbub_gb_20snAQAAIAAJ_0222.jp2
A07092-111-a,https://iiif.archive.org/image/iiif/3/bub_gb_20snAQAAIAAJ%2Fbub_gb_20snAQAAIAAJ_jp2.zip%2Fbub_gb_20snAQAAIAAJ_jp2%2Fbub_gb_20snAQAAIAAJ_0223.jp2
A07092-111-b,https://iiif.archive.org/image/iiif/3/bub_gb_20snAQAAIAAJ%2Fbub_gb_20snAQAAIAAJ_jp2.zip%2Fbub_gb_20snAQAAIAAJ_jp2%2Fbub_gb_20snAQAAIAAJ_0224.jp2
A07092-112-a,https://iiif.archive.org/image/iiif/3/bub_gb_20snAQAAIAAJ%2Fbub_gb_20snAQAAIAAJ_jp2.zip%2Fbub_gb_20snAQAAIAAJ_jp2%2Fbub_gb_20snAQAAIAAJ_0225.jp2
A07092-112-b,https://iiif.archive.org/image/iiif/3/bub_gb_20snAQAAIAAJ%2Fbub_gb_20snAQAAIAAJ_jp2.zip%2Fbub_gb_20snAQAAIAAJ_jp2%2Fbub_gb_20snAQAAIAAJ_0226.jp2
A07092-113-a,https://iiif.archive.org/image/iiif/3/bub_gb_20snAQAAIAAJ%2Fbub_gb_20snAQAAIAAJ_jp2.zip%2Fbub_gb_20snAQAAIAAJ_jp2%2Fbub_gb_20snAQAAIAAJ_0227.jp2
A07092-113-b,https://iiif.archive.org/image/iiif/3/bub_gb_20snAQAAIAAJ%2Fbub_gb_20snAQAAIAAJ_jp2.zip%2Fbub_gb_20snAQAAIAAJ_jp2%2Fbub_gb_20snAQAAIAAJ_0228.jp2
A07092-114-a,https://iiif.archive.org/image/iiif/3/bub_gb_20snAQAAIAAJ%2Fbub_gb_20snAQAAIAAJ_jp2.zip%2Fbub_gb_20snAQAAIAAJ_jp2%2Fbub_gb_20snAQAAIAAJ_0229.jp2
A07092-114-b,https://iiif.archive.org/image/iiif/3/bub_gb_20snAQAAIAAJ%2Fbub_gb_20snAQAAIAAJ_jp2.zip%2Fbub_gb_20snAQAAIAAJ_jp2%2Fbub_gb_20snAQAAIAAJ_0230.jp2
A07092-115-a,https://iiif.archive.org/image/iiif/3/bub_gb_20snAQAAIAAJ%2Fbub_gb_20snAQAAIAAJ_jp2.zip%2Fbub_gb_20snAQAAIAAJ_jp2%2Fbub_gb_20snAQAAIAAJ_0231.jp2
A07092-115-b,https://iiif.archive.org/image/iiif/3/bub_gb_20snAQAAIAAJ%2Fbub_gb_20snAQAAIAAJ_jp2.zip%2Fbub_gb_20snAQAAIAAJ_jp2%2Fbub_gb_20snAQAAIAAJ_0232.jp2
A07092-116-a,https://iiif.archive.org/image/iiif/3/bub_gb_20snAQAAIAAJ%2Fbub_gb_20snAQAAIAAJ_jp2.zip%2Fbub_gb_20snAQAAIAAJ_jp2%2Fbub_gb_20snAQAAIAAJ_0233.jp2
A07092-116-b,https://iiif.archive.org/image/iiif/3/bub_gb_20snAQAAIAAJ%2Fbub_gb_20snAQAAIAAJ_jp2.zip%2Fbub_gb_20snAQAAIAAJ_jp2%2Fbub_gb_20snAQAAIAAJ_0234.jp2
A07092-117-a,https://iiif.archive.org/image/iiif/3/bub_gb_20snAQAAIAAJ%2Fbub_gb_20snAQAAIAAJ_jp2.zip%2Fbub_gb_20snAQAAIAAJ_jp2%2Fbub_gb_20snAQAAIAAJ_0235.jp2
A07092-117-b,https://iiif.archive.org/image/iiif/3/bub_gb_20snAQAAIAAJ%2Fbub_gb_20snAQAAIAAJ_jp2.zip%2Fbub_gb_20snAQAAIAAJ_jp2%2Fbub_gb_20snAQAAIAAJ_0236.jp2
A07092-118-a,https://iiif.archive.org/image/iiif/3/bub_gb_20snAQAAIAAJ%2Fbub_gb_20snAQAAIAAJ_jp2.zip%2Fbub_gb_20snAQAAIAAJ_jp2%2Fbub_gb_20snAQAAIAAJ_0237.jp2
A07092-118-b,https://iiif.archive.org/image/iiif/3/bub_gb_20snAQAAIAAJ%2Fbub_gb_20snAQAAIAAJ_jp2.zip%2Fbub_gb_20snAQAAIAAJ_jp2%2Fbub_gb_20snAQAAIAAJ_0238.jp2
A07092-119-a,https://iiif.archive.org/image/iiif/3/bub_gb_20snAQAAIAAJ%2Fbub_gb_20snAQAAIAAJ_jp2.zip%2Fbub_gb_20snAQAAIAAJ_jp2%2Fbub_gb_20snAQAAIAAJ_0239.jp2
A07092-119-b,https://iiif.archive.org/image/iiif/3/bub_gb_20snAQAAIAAJ%2Fbub_gb_20snAQAAIAAJ_jp2.zip%2Fbub_gb_20snAQAAIAAJ_jp2%2Fbub_gb_20snAQAAIAAJ_0240.jp2
A07092-120-a,https://iiif.archive.org/image/iiif/3/bub_gb_20snAQAAIAAJ%2Fbub_gb_20snAQAAIAAJ_jp2.zip%2Fbub_gb_20snAQAAIAAJ_jp2%2Fbub_gb_20snAQAAIAAJ_0241.jp2
A07092-120-b,https://iiif.archive.org/image/iiif/3/bub_gb_20snAQAAIAAJ%2Fbub_gb_20snAQAAIAAJ_jp2.zip%2Fbub_gb_20snAQAAIAAJ_jp2%2Fbub_gb_20snAQAAIAAJ_0242.jp2
A07092-121-a,https://iiif.archive.org/image/iiif/3/bub_gb_20snAQAAIAAJ%2Fbub_gb_20snAQAAIAAJ_jp2.zip%2Fbub_gb_20snAQAAIAAJ_jp2%2Fbub_gb_20snAQAAIAAJ_0243.jp2
A07092-121-b,https://iiif.archive.org/image/iiif/3/bub_gb_20snAQAAIAAJ%2Fbub_gb_20snAQAAIAAJ_jp2.zip%2Fbub_gb_20snAQAAIAAJ_jp2%2Fbub_gb_20snAQAAIAAJ_0244.jp2
A07092-122-a,https://iiif.archive.org/image/iiif/3/bub_gb_20snAQAAIAAJ%2Fbub_gb_20snAQAAIAAJ_jp2.zip%2Fbub_gb_20snAQAAIAAJ_jp2%2Fbub_gb_20snAQAAIAAJ_0245.jp2
A07092-122-b,https://iiif.archive.org/image/iiif/3/bub_gb_20snAQAAIAAJ%2Fbub_gb_20snAQAAIAAJ_jp2.zip%2Fbub_gb_20snAQAAIAAJ_jp2%2Fbub_gb_20snAQAAIAAJ_0246.jp2
A07092-123-a,https://iiif.archive.org/image/iiif/3/bub_gb_20snAQAAIAAJ%2Fbub_gb_20snAQAAIAAJ_jp2.zip%2Fbub_gb_20snAQAAIAAJ_jp2%2Fbub_gb_20snAQAAIAAJ_0247.jp2
A07092-123-b,https://iiif.archive.org/image/iiif/3/bub_gb_20snAQAAIAAJ%2Fbub_gb_20snAQAAIAAJ_jp2.zip%2Fbub_gb_20snAQAAIAAJ_jp2%2Fbub_gb_20snAQAAIAAJ_0248.jp2
A07092-124-a,https://iiif.archive.org/image/iiif/3/bub_gb_20snAQAAIAAJ%2Fbub_gb_20snAQAAIAAJ_jp2.zip%2Fbub_gb_20snAQAAIAAJ_jp2%2Fbub_gb_20snAQAAIAAJ_0249.jp2
A07092-124-b,https://iiif.archive.org/image/iiif/3/bub_gb_20snAQAAIAAJ%2Fbub_gb_20snAQAAIAAJ_jp2.zip%2Fbub_gb_20snAQAAIAAJ_jp2%2Fbub_gb_20snAQAAIAAJ_0250.jp2
A07092-125-a,https://iiif.archive.org/image/iiif/3/bub_gb_20snAQAAIAAJ%2Fbub_gb_20snAQAAIAAJ_jp2.zip%2Fbub_gb_20snAQAAIAAJ_jp2%2Fbub_gb_20snAQAAIAAJ_0251.jp2
A07092-125-b,https://iiif.archive.org/image/iiif/3/bub_gb_20snAQAAIAAJ%2Fbub_gb_20snAQAAIAAJ_jp2.zip%2Fbub_gb_20snAQAAIAAJ_jp2%2Fbub_gb_20snAQAAIAAJ_0252.jp2
A07092-126-a,https://iiif.archive.org/image/iiif/3/bub_gb_20snAQAAIAAJ%2Fbub_gb_20snAQAAIAAJ_jp2.zip%2Fbub_gb_20snAQAAIAAJ_jp2%2Fbub_gb_20snAQAAIAAJ_0253.jp2
A07092-126-b,https://iiif.archive.org/image/iiif/3/bub_gb_20snAQAAIAAJ%2Fbub_gb_20snAQAAIAAJ_jp2.zip%2Fbub_gb_20snAQAAIAAJ_jp2%2Fbub_gb_20snAQAAIAAJ_0254.jp2
A07092-127-a,https://iiif.archive.org/image/iiif/3/bub_gb_20snAQAAIAAJ%2Fbub_gb_20snAQAAIAAJ_jp2.zip%2Fbub_gb_20snAQAAIAAJ_jp2%2Fbub_gb_20snAQAAIAAJ_0255.jp2
A07092-127-b,https://iiif.archive.org/image/iiif/3/bub_gb_20snAQAAIAAJ%2Fbub_gb_20snAQAAIAAJ_jp2.zip%2Fbub_gb_20snAQAAIAAJ_jp2%2Fbub_gb_20snAQAAIAAJ_0256.jp2
A07092-128-a,https://iiif.archive.org/image/iiif/3/bub_gb_20snAQAAIAAJ%2Fbub_gb_20snAQAAIAAJ_jp2.zip%2Fbub_gb_20snAQAAIAAJ_jp2%2Fbub_gb_20snAQAAIAAJ_0257.jp2
A07092-128-b,https://iiif.archive.org/image/iiif/3/bub_gb_20snAQAAIAAJ%2Fbub_gb_20snAQAAIAAJ_jp2.zip%2Fbub_gb_20snAQAAIAAJ_jp2%2Fbub_gb_20snAQAAIAAJ_0258.jp2
A07092-129-a,https://iiif.archive.org/image/iiif/3/bub_gb_20snAQAAIAAJ%2Fbub_gb_20snAQAAIAAJ_jp2.zip%2Fbub_gb_20snAQAAIAAJ_jp2%2Fbub_gb_20snAQAAIAAJ_0259.jp2
A07092-129-b,https://iiif.archive.org/image/iiif/3/bub_gb_20snAQAAIAAJ%2Fbub_gb_20snAQAAIAAJ_jp2.zip%2Fbub_gb_20snAQAAIAAJ_jp2%2Fbub_gb_20snAQAAIAAJ_0260.jp2
A07092-130-a,https://iiif.archive.org/image/iiif/3/bub_gb_20snAQAAIAAJ%2Fbub_gb_20snAQAAIAAJ_jp2.zip%2Fbub_gb_20snAQAAIAAJ_jp2%2Fbub_gb_20snAQAAIAAJ_0261.jp2
A07092-130-b,https://iiif.archive.org/image/iiif/3/bub_gb_20snAQAAIAAJ%2Fbub_gb_20snAQAAIAAJ_jp2.zip%2Fbub_gb_20snAQAAIAAJ_jp2%2Fbub_gb_20snAQAAIAAJ_0262.jp2
A07092-131-a,https://iiif.archive.org/image/iiif/3/bub_gb_20snAQAAIAAJ%2Fbub_gb_20snAQAAIAAJ_jp2.zip%2Fbub_gb_20snAQAAIAAJ_jp2%2Fbub_gb_20snAQAAIAAJ_0263.jp2
A07092-131-b,https://iiif.archive.org/image/iiif/3/bub_gb_20snAQAAIAAJ%2Fbub_gb_20snAQAAIAAJ_jp2.zip%2Fbub_gb_20snAQAAIAAJ_jp2%2Fbub_gb_20snAQAAIAAJ_0264.jp2
A07092-132-a,https://iiif.archive.org/image/iiif/3/bub_gb_20snAQAAIAAJ%2Fbub_gb_20snAQAAIAAJ_jp2.zip%2Fbub_gb_20snAQAAIAAJ_jp2%2Fbub_gb_20snAQAAIAAJ_0265.jp2
A07092-132-b,https://iiif.archive.org/image/iiif/3/bub_gb_20snAQAAIAAJ%2Fbub_gb_20snAQAAIAAJ_jp2.zip%2Fbub_gb_20snAQAAIAAJ_jp2%2Fbub_gb_20snAQAAIAAJ_0266.jp2
A07092-133-a,https://iiif.archive.org/image/iiif/3/bub_gb_20snAQAAIAAJ%2Fbub_gb_20snAQAAIAAJ_jp2.zip%2Fbub_gb_20snAQAAIAAJ_jp2%2Fbub_gb_20snAQAAIAAJ_0267.jp2
A07092-133-b,https://iiif.archive.org/image/iiif/3/bub_gb_20snAQAAIAAJ%2Fbub_gb_20snAQAAIAAJ_jp2.zip%2Fbub_gb_20snAQAAIAAJ_jp2%2Fbub_gb_20snAQAAIAAJ_0268.jp2
A07092-134-a,https://iiif.archive.org/image/iiif/3/bub_gb_20snAQAAIAAJ%2Fbub_gb_20snAQAAIAAJ_jp2.zip%2Fbub_gb_20snAQAAIAAJ_jp2%2Fbub_gb_20snAQAAIAAJ_0269.jp2
A07092-134-b,https://iiif.archive.org/image/iiif/3/bub_gb_20snAQAAIAAJ%2Fbub_gb_20snAQAAIAAJ_jp2.zip%2Fbub_gb_20snAQAAIAAJ_jp2%2Fbub_gb_20snAQAAIAAJ_0270.jp2
A07092-135-a,https://iiif.archive.org/image/iiif/3/bub_gb_20snAQAAIAAJ%2Fbub_gb_20snAQAAIAAJ_jp2.zip%2Fbub_gb_20snAQAAIAAJ_jp2%2Fbub_gb_20snAQAAIAAJ_0271.jp2
A07092-135-b,https://iiif.archive.org/image/iiif/3/bub_gb_20snAQAAIAAJ%2Fbub_gb_20snAQAAIAAJ_jp2.zip%2Fbub_gb_20snAQAAIAAJ_jp2%2Fbub_gb_20snAQAAIAAJ_0272.jp2
A07092-136-a,https://iiif.archive.org/image/iiif/3/bub_gb_20snAQAAIAAJ%2Fbub_gb_20snAQAAIAAJ_jp2.zip%2Fbub_gb_20snAQAAIAAJ_jp2%2Fbub_gb_20snAQAAIAAJ_0273.jp2
A07092-136-b,https://iiif.archive.org/image/iiif/3/bub_gb_20snAQAAIAAJ%2Fbub_gb_20snAQAAIAAJ_jp2.zip%2Fbub_gb_20snAQAAIAAJ_jp2%2Fbub_gb_20snAQAAIAAJ_0274.jp2
A07092-137-a,https://iiif.archive.org/image/iiif/3/bub_gb_20snAQAAIAAJ%2Fbub_gb_20snAQAAIAAJ_jp2.zip%2Fbub_gb_20snAQAAIAAJ_jp2%2Fbub_gb_20snAQAAIAAJ_0275.jp2
A07092-137-b,https://iiif.archive.org/image/iiif/3/bub_gb_20snAQAAIAAJ%2Fbub_gb_20snAQAAIAAJ_jp2.zip%2Fbub_gb_20snAQAAIAAJ_jp2%2Fbub_gb_20snAQAAIAAJ_0276.jp2
A07092-138-a,https://iiif.archive.org/image/iiif/3/bub_gb_20snAQAAIAAJ%2Fbub_gb_20snAQAAIAAJ_jp2.zip%2Fbub_gb_20snAQAAIAAJ_jp2%2Fbub_gb_20snAQAAIAAJ_0277.jp2
A07092-138-b,https://iiif.archive.org/image/iiif/3/bub_gb_20snAQAAIAAJ%2Fbub_gb_20snAQAAIAAJ_jp2.zip%2Fbub_gb_20snAQAAIAAJ_jp2%2Fbub_gb_20snAQAAIAAJ_0278.jp2
A07092-139-a,https://iiif.archive.org/image/iiif/3/bub_gb_20snAQAAIAAJ%2Fbub_gb_20snAQAAIAAJ_jp2.zip%2Fbub_gb_20snAQAAIAAJ_jp2%2Fbub_gb_20snAQAAIAAJ_0279.jp2
A07092-139-b,https://iiif.archive.org/image/iiif/3/bub_gb_20snAQAAIAAJ%2Fbub_gb_20snAQAAIAAJ_jp2.zip%2Fbub_gb_20snAQAAIAAJ_jp2%2Fbub_gb_20snAQAAIAAJ_0280.jp2
A07092-140-a,https://iiif.archive.org/image/iiif/3/bub_gb_20snAQAAIAAJ%2Fbub_gb_20snAQAAIAAJ_jp2.zip%2Fbub_gb_20snAQAAIAAJ_jp2%2Fbub_gb_20snAQAAIAAJ_0281.jp2
A07092-140-b,https://iiif.archive.org/image/iiif/3/bub_gb_20snAQAAIAAJ%2Fbub_gb_20snAQAAIAAJ_jp2.zip%2Fbub_gb_20snAQAAIAAJ_jp2%2Fbub_gb_20snAQAAIAAJ_0282.jp2
A07092-141-a,https://iiif.archive.org/image/iiif/3/bub_gb_20snAQAAIAAJ%2Fbub_gb_20snAQAAIAAJ_jp2.zip%2Fbub_gb_20snAQAAIAAJ_jp2%2Fbub_gb_20snAQAAIAAJ_0283.jp2
A07092-141-b,https://iiif.archive.org/image/iiif/3/bub_gb_20snAQAAIAAJ%2Fbub_gb_20snAQAAIAAJ_jp2.zip%2Fbub_gb_20snAQAAIAAJ_jp2%2Fbub_gb_20snAQAAIAAJ_0284.jp2
A07092-142-a,https://iiif.archive.org/image/iiif/3/bub_gb_20snAQAAIAAJ%2Fbub_gb_20snAQAAIAAJ_jp2.zip%2Fbub_gb_20snAQAAIAAJ_jp2%2Fbub_gb_20snAQAAIAAJ_0285.jp2
A07092-142-b,https://iiif.archive.org/image/iiif/3/bub_gb_20snAQAAIAAJ%2Fbub_gb_20snAQAAIAAJ_jp2.zip%2Fbub_gb_20snAQAAIAAJ_jp2%2Fbub_gb_20snAQAAIAAJ_0286.jp2
A07092-143-a,https://iiif.archive.org/image/iiif/3/bub_gb_20snAQAAIAAJ%2Fbub_gb_20snAQAAIAAJ_jp2.zip%2Fbub_gb_20snAQAAIAAJ_jp2%2Fbub_gb_20snAQAAIAAJ_0287.jp2
A07092-143-b,https://iiif.archive.org/image/iiif/3/bub_gb_20snAQAAIAAJ%2Fbub_gb_20snAQAAIAAJ_jp2.zip%2Fbub_gb_20snAQAAIAAJ_jp2%2Fbub_gb_20snAQAAIAAJ_0288.jp2
A07092-144-a,https://iiif.archive.org/image/iiif/3/bub_gb_20snAQAAIAAJ%2Fbub_gb_20snAQAAIAAJ_jp2.zip%2Fbub_gb_20snAQAAIAAJ_jp2%2Fbub_gb_20snAQAAIAAJ_0289.jp2
A07092-144-b,https://iiif.archive.org/image/iiif/3/bub_gb_20snAQAAIAAJ%2Fbub_gb_20snAQAAIAAJ_jp2.zip%2Fbub_gb_20snAQAAIAAJ_jp2%2Fbub_gb_20snAQAAIAAJ_0290.jp2
A07092-145-a,https://iiif.archive.org/image/iiif/3/bub_gb_20snAQAAIAAJ%2Fbub_gb_20snAQAAIAAJ_jp2.zip%2Fbub_gb_20snAQAAIAAJ_jp2%2Fbub_gb_20snAQAAIAAJ_0291.jp2
A07092-145-b,https://iiif.archive.org/image/iiif/3/bub_gb_20snAQAAIAAJ%2Fbub_gb_20snAQAAIAAJ_jp2.zip%2Fbub_gb_20snAQAAIAAJ_jp2%2Fbub_gb_20snAQAAIAAJ_0292.jp2
A07092-146-a,https://iiif.archive.org/image/iiif/3/bub_gb_20snAQAAIAAJ%2Fbub_gb_20snAQAAIAAJ_jp2.zip%2Fbub_gb_20snAQAAIAAJ_jp2%2Fbub_gb_20snAQAAIAAJ_0293.jp2
A07092-146-b,https://iiif.archive.org/image/iiif/3/bub_gb_20snAQAAIAAJ%2Fbub_gb_20snAQAAIAAJ_jp2.zip%2Fbub_gb_20snAQAAIAAJ_jp2%2Fbub_gb_20snAQAAIAAJ_0294.jp2
A07092-147-a,https://iiif.archive.org/image/iiif/3/bub_gb_20snAQAAIAAJ%2Fbub_gb_20snAQAAIAAJ_jp2.zip%2Fbub_gb_20snAQAAIAAJ_jp2%2Fbub_gb_20snAQAAIAAJ_0295.jp2
A07092-147-b,https://iiif.archive.org/image/iiif/3/bub_gb_20snAQAAIAAJ%2Fbub_gb_20snAQAAIAAJ_jp2.zip%2Fbub_gb_20snAQAAIAAJ_jp2%2Fbub_gb_20snAQAAIAAJ_0296.jp2
A07092-148-a,https://iiif.archive.org/image/iiif/3/bub_gb_20snAQAAIAAJ%2Fbub_gb_20snAQAAIAAJ_jp2.zip%2Fbub_gb_20snAQAAIAAJ_jp2%2Fbub_gb_20snAQAAIAAJ_0297.jp2
A07092-148-b,https://iiif.archive.org/image/iiif/3/bub_gb_20snAQAAIAAJ%2Fbub_gb_20snAQAAIAAJ_jp2.zip%2Fbub_gb_20snAQAAIAAJ_jp2%2Fbub_gb_20snAQAAIAAJ_0298.jp2
A07092-149-a,https://iiif.archive.org/image/iiif/3/bub_gb_20snAQAAIAAJ%2Fbub_gb_20snAQAAIAAJ_jp2.zip%2Fbub_gb_20snAQAAIAAJ_jp2%2Fbub_gb_20snAQAAIAAJ_0299.jp2
A07092-149-b,https://iiif.archive.org/image/iiif/3/bub_gb_20snAQAAIAAJ%2Fbub_gb_20snAQAAIAAJ_jp2.zip%2Fbub_gb_20snAQAAIAAJ_jp2%2Fbub_gb_20snAQAAIAAJ_0300.jp2
A07092-150-a,https://iiif.archive.org/image/iiif/3/bub_gb_20snAQAAIAAJ%2Fbub_gb_20snAQAAIAAJ_jp2.zip%2Fbub_gb_20snAQAAIAAJ_jp2%2Fbub_gb_20snAQAAIAAJ_0301.jp2
A07092-150-b,https://iiif.archive.org/image/iiif/3/bub_gb_20snAQAAIAAJ%2Fbub_gb_20snAQAAIAAJ_jp2.zip%2Fbub_gb_20snAQAAIAAJ_jp2%2Fbub_gb_20snAQAAIAAJ_0302.jp2
A07092-151-a,https://iiif.archive.org/image/iiif/3/bub_gb_20snAQAAIAAJ%2Fbub_gb_20snAQAAIAAJ_jp2.zip%2Fbub_gb_20snAQAAIAAJ_jp2%2Fbub_gb_20snAQAAIAAJ_0303.jp2
A07092-151-b,https://iiif.archive.org/image/iiif/3/bub_gb_20snAQAAIAAJ%2Fbub_gb_20snAQAAIAAJ_jp2.zip%2Fbub_gb_20snAQAAIAAJ_jp2%2Fbub_gb_20snAQAAIAAJ_0304.jp2
A07092-152-a,https://iiif.archive.org/image/iiif/3/bub_gb_20snAQAAIAAJ%2Fbub_gb_20snAQAAIAAJ_jp2.zip%2Fbub_gb_20snAQAAIAAJ_jp2%2Fbub_gb_20snAQAAIAAJ_0305.jp2
A07092-152-b,https://iiif.archive.org/image/iiif/3/bub_gb_20snAQAAIAAJ%2Fbub_gb_20snAQAAIAAJ_jp2.zip%2Fbub_gb_20snAQAAIAAJ_jp2%2Fbub_gb_20snAQAAIAAJ_0306.jp2
A07092-153-a,https://iiif.archive.org/image/iiif/3/bub_gb_20snAQAAIAAJ%2Fbub_gb_20snAQAAIAAJ_jp2.zip%2Fbub_gb_20snAQAAIAAJ_jp2%2Fbub_gb_20snAQAAIAAJ_0307.jp2
A07092-153-b,https://iiif.archive.org/image/iiif/3/bub_gb_20snAQAAIAAJ%2Fbub_gb_20snAQAAIAAJ_jp2.zip%2Fbub_gb_20snAQAAIAAJ_jp2%2Fbub_gb_20snAQAAIAAJ_0308.jp2
A07092-154-a,https://iiif.archive.org/image/iiif/3/bub_gb_20snAQAAIAAJ%2Fbub_gb_20snAQAAIAAJ_jp2.zip%2Fbub_gb_20snAQAAIAAJ_jp2%2Fbub_gb_20snAQAAIAAJ_0309.jp2
A07092-154-b,https://iiif.archive.org/image/iiif/3/bub_gb_20snAQAAIAAJ%2Fbub_gb_20snAQAAIAAJ_jp2.zip%2Fbub_gb_20snAQAAIAAJ_jp2%2Fbub_gb_20snAQAAIAAJ_0310.jp2
A07092-155-a,https://iiif.archive.org/image/iiif/3/bub_gb_20snAQAAIAAJ%2Fbub_gb_20snAQAAIAAJ_jp2.zip%2Fbub_gb_20snAQAAIAAJ_jp2%2Fbub_gb_20snAQAAIAAJ_0311.jp2
A07092-155-b,https://iiif.archive.org/image/iiif/3/bub_gb_20snAQAAIAAJ%2Fbub_gb_20snAQAAIAAJ_jp2.zip%2Fbub_gb_20snAQAAIAAJ_jp2%2Fbub_gb_20snAQAAIAAJ_0312.jp2
A07092-156-a,https://iiif.archive.org/image/iiif/3/bub_gb_20snAQAAIAAJ%2Fbub_gb_20snAQAAIAAJ_jp2.zip%2Fbub_gb_20snAQAAIAAJ_jp2%2Fbub_gb_20snAQAAIAAJ_0313.jp2
A07092-156-b,https://iiif.archive.org/image/iiif/3/bub_gb_20snAQAAIAAJ%2Fbub_gb_20snAQAAIAAJ_jp2.zip%2Fbub_gb_20snAQAAIAAJ_jp2%2Fbub_gb_20snAQAAIAAJ_0314.jp2
A07092-157-a,https://iiif.archive.org/image/iiif/3/bub_gb_20snAQAAIAAJ%2Fbub_gb_20snAQAAIAAJ_jp2.zip%2Fbub_gb_20snAQAAIAAJ_jp2%2Fbub_gb_20snAQAAIAAJ_0315.jp2
A07092-157-b,https://iiif.archive.org/image/iiif/3/bub_gb_20snAQAAIAAJ%2Fbub_gb_20snAQAAIAAJ_jp2.zip%2Fbub_gb_20snAQAAIAAJ_jp2%2Fbub_gb_20snAQAAIAAJ_0316.jp2
A07092-158-a,https://iiif.archive.org/image/iiif/3/bub_gb_20snAQAAIAAJ%2Fbub_gb_20snAQAAIAAJ_jp2.zip%2Fbub_gb_20snAQAAIAAJ_jp2%2Fbub_gb_20snAQAAIAAJ_0317.jp2
A07092-158-b,https://iiif.archive.org/image/iiif/3/bub_gb_20snAQAAIAAJ%2Fbub_gb_20snAQAAIAAJ_jp2.zip%2Fbub_gb_20snAQAAIAAJ_jp2%2Fbub_gb_20snAQAAIAAJ_0318.jp2
A07092-159-a,https://iiif.archive.org/image/iiif/3/bub_gb_20snAQAAIAAJ%2Fbub_gb_20snAQAAIAAJ_jp2.zip%2Fbub_gb_20snAQAAIAAJ_jp2%2Fbub_gb_20snAQAAIAAJ_0319.jp2
A07092-159-b,https://iiif.archive.org/image/iiif/3/bub_gb_20snAQAAIAAJ%2Fbub_gb_20snAQAAIAAJ_jp2.zip%2Fbub_gb_20snAQAAIAAJ_jp2%2Fbub_gb_20snAQAAIAAJ_0320.jp2
A07092-160-a,https://iiif.archive.org/image/iiif/3/bub_gb_20snAQAAIAAJ%2Fbub_gb_20snAQAAIAAJ_jp2.zip%2Fbub_gb_20snAQAAIAAJ_jp2%2Fbub_gb_20snAQAAIAAJ_0321.jp2
A07092-160-b,https://iiif.archive.org/image/iiif/3/bub_gb_20snAQAAIAAJ%2Fbub_gb_20snAQAAIAAJ_jp2.zip%2Fbub_gb_20snAQAAIAAJ_jp2%2Fbub_gb_20snAQAAIAAJ_0322.jp2
A07092-161-a,https://iiif.archive.org/image/iiif/3/bub_gb_20snAQAAIAAJ%2Fbub_gb_20snAQAAIAAJ_jp2.zip%2Fbub_gb_20snAQAAIAAJ_jp2%2Fbub_gb_20snAQAAIAAJ_0323.jp2
A07092-161-b,https://iiif.archive.org/image/iiif/3/bub_gb_20snAQAAIAAJ%2Fbub_gb_20snAQAAIAAJ_jp2.zip%2Fbub_gb_20snAQAAIAAJ_jp2%2Fbub_gb_20snAQAAIAAJ_0324.jp2
A07092-162-a,https://iiif.archive.org/image/iiif/3/bub_gb_20snAQAAIAAJ%2Fbub_gb_20snAQAAIAAJ_jp2.zip%2Fbub_gb_20snAQAAIAAJ_jp2%2Fbub_gb_20snAQAAIAAJ_0325.jp2
A07092-162-b,https://iiif.archive.org/image/iiif/3/bub_gb_20snAQAAIAAJ%2Fbub_gb_20snAQAAIAAJ_jp2.zip%2Fbub_gb_20snAQAAIAAJ_jp2%2Fbub_gb_20snAQAAIAAJ_0326.jp2
A07092-163-a,https://iiif.archive.org/image/iiif/3/bub_gb_20snAQAAIAAJ%2Fbub_gb_20snAQAAIAAJ_jp2.zip%2Fbub_gb_20snAQAAIAAJ_jp2%2Fbub_gb_20snAQAAIAAJ_0327.jp2
A07092-163-b,https://iiif.archive.org/image/iiif/3/bub_gb_20snAQAAIAAJ%2Fbub_gb_20snAQAAIAAJ_jp2.zip%2Fbub_gb_20snAQAAIAAJ_jp2%2Fbub_gb_20snAQAAIAAJ_0328.jp2
A07092-164-a,https://iiif.archive.org/image/iiif/3/bub_gb_20snAQAAIAAJ%2Fbub_gb_20snAQAAIAAJ_jp2.zip%2Fbub_gb_20snAQAAIAAJ_jp2%2Fbub_gb_20snAQAAIAAJ_0329.jp2
A07092-164-b,https://iiif.archive.org/image/iiif/3/bub_gb_20snAQAAIAAJ%2Fbub_gb_20snAQAAIAAJ_jp2.zip%2Fbub_gb_20snAQAAIAAJ_jp2%2Fbub_gb_20snAQAAIAAJ_0330.jp2
A07092-165-a,https://iiif.archive.org/image/iiif/3/bub_gb_20snAQAAIAAJ%2Fbub_gb_20snAQAAIAAJ_jp2.zip%2Fbub_gb_20snAQAAIAAJ_jp2%2Fbub_gb_20snAQAAIAAJ_0331.jp2
A07092-165-b,https://iiif.archive.org/image/iiif/3/bub_gb_20snAQAAIAAJ%2Fbub_gb_20snAQAAIAAJ_jp2.zip%2Fbub_gb_20snAQAAIAAJ_jp2%2Fbub_gb_20snAQAAIAAJ_0332.jp2
A07092-166-a,https://iiif.archive.org/image/iiif/3/bub_gb_20snAQAAIAAJ%2Fbub_gb_20snAQAAIAAJ_jp2.zip%2Fbub_gb_20snAQAAIAAJ_jp2%2Fbub_gb_20snAQAAIAAJ_0333.jp2
A07092-166-b,https://iiif.archive.org/image/iiif/3/bub_gb_20snAQAAIAAJ%2Fbub_gb_20snAQAAIAAJ_jp2.zip%2Fbub_gb_20snAQAAIAAJ_jp2%2Fbub_gb_20snAQAAIAAJ_0334.jp2
A07092-167-a,https://iiif.archive.org/image/iiif/3/bub_gb_20snAQAAIAAJ%2Fbub_gb_20snAQAAIAAJ_jp2.zip%2Fbub_gb_20snAQAAIAAJ_jp2%2Fbub_gb_20snAQAAIAAJ_0335.jp2
A07092-167-b,https://iiif.archive.org/image/iiif/3/bub_gb_20snAQAAIAAJ%2Fbub_gb_20snAQAAIAAJ_jp2.zip%2Fbub_gb_20snAQAAIAAJ_jp2%2Fbub_gb_20snAQAAIAAJ_0336.jp2
A07092-168-a,https://iiif.archive.org/image/iiif/3/bub_gb_20snAQAAIAAJ%2Fbub_gb_20snAQAAIAAJ_jp2.zip%2Fbub_gb_20snAQAAIAAJ_jp2%2Fbub_gb_20snAQAAIAAJ_0337.jp2
A07092-168-b,https://iiif.archive.org/image/iiif/3/bub_gb_20snAQAAIAAJ%2Fbub_gb_20snAQAAIAAJ_jp2.zip%2Fbub_gb_20snAQAAIAAJ_jp2%2Fbub_gb_20snAQAAIAAJ_0338.jp2
A07092-169-a,https://iiif.archive.org/image/iiif/3/bub_gb_20snAQAAIAAJ%2Fbub_gb_20snAQAAIAAJ_jp2.zip%2Fbub_gb_20snAQAAIAAJ_jp2%2Fbub_gb_20snAQAAIAAJ_0339.jp2
A07092-169-b,https://iiif.archive.org/image/iiif/3/bub_gb_20snAQAAIAAJ%2Fbub_gb_20snAQAAIAAJ_jp2.zip%2Fbub_gb_20snAQAAIAAJ_jp2%2Fbub_gb_20snAQAAIAAJ_0340.jp2
A07092-170-a,https://iiif.archive.org/image/iiif/3/bub_gb_20snAQAAIAAJ%2Fbub_gb_20snAQAAIAAJ_jp2.zip%2Fbub_gb_20snAQAAIAAJ_jp2%2Fbub_gb_20snAQAAIAAJ_0341.jp2
A07092-170-b,https://iiif.archive.org/image/iiif/3/bub_gb_20snAQAAIAAJ%2Fbub_gb_20snAQAAIAAJ_jp2.zip%2Fbub_gb_20snAQAAIAAJ_jp2%2Fbub_gb_20snAQAAIAAJ_0342.jp2
A07092-171-a,https://iiif.archive.org/image/iiif/3/bub_gb_20snAQAAIAAJ%2Fbub_gb_20snAQAAIAAJ_jp2.zip%2Fbub_gb_20snAQAAIAAJ_jp2%2Fbub_gb_20snAQAAIAAJ_0343.jp2
A07092-171-b,https://iiif.archive.org/image/iiif/3/bub_gb_20snAQAAIAAJ%2Fbub_gb_20snAQAAIAAJ_jp2.zip%2Fbub_gb_20snAQAAIAAJ_jp2%2Fbub_gb_20snAQAAIAAJ_0344.jp2
A07092-172-a,https://iiif.archive.org/image/iiif/3/bub_gb_20snAQAAIAAJ%2Fbub_gb_20snAQAAIAAJ_jp2.zip%2Fbub_gb_20snAQAAIAAJ_jp2%2Fbub_gb_20snAQAAIAAJ_0345.jp2
A07092-172-b,https://iiif.archive.org/image/iiif/3/bub_gb_20snAQAAIAAJ%2Fbub_gb_20snAQAAIAAJ_jp2.zip%2Fbub_gb_20snAQAAIAAJ_jp2%2Fbub_gb_20snAQAAIAAJ_0346.jp2
A07092-173-a,https://iiif.archive.org/image/iiif/3/bub_gb_20snAQAAIAAJ%2Fbub_gb_20snAQAAIAAJ_jp2.zip%2Fbub_gb_20snAQAAIAAJ_jp2%2Fbub_gb_20snAQAAIAAJ_0347.jp2
A07092-173-b,https://iiif.archive.org/image/iiif/3/bub_gb_20snAQAAIAAJ%2Fbub_gb_20snAQAAIAAJ_jp2.zip%2Fbub_gb_20snAQAAIAAJ_jp2%2Fbub_gb_20snAQAAIAAJ_0348.jp2
A07092-174-a,https://iiif.archive.org/image/iiif/3/bub_gb_20snAQAAIAAJ%2Fbub_gb_20snAQAAIAAJ_jp2.zip%2Fbub_gb_20snAQAAIAAJ_jp2%2Fbub_gb_20snAQAAIAAJ_0349.jp2
A07092-174-b,https://iiif.archive.org/image/iiif/3/bub_gb_20snAQAAIAAJ%2Fbub_gb_20snAQAAIAAJ_jp2.zip%2Fbub_gb_20snAQAAIAAJ_jp2%2Fbub_gb_20snAQAAIAAJ_0350.jp2
A07092-175-a,https://iiif.archive.org/image/iiif/3/bub_gb_20snAQAAIAAJ%2Fbub_gb_20snAQAAIAAJ_jp2.zip%2Fbub_gb_20snAQAAIAAJ_jp2%2Fbub_gb_20snAQAAIAAJ_0351.jp2
A07092-175-b,https://iiif.archive.org/image/iiif/3/bub_gb_20snAQAAIAAJ%2Fbub_gb_20snAQAAIAAJ_jp2.zip%2Fbub_gb_20snAQAAIAAJ_jp2%2Fbub_gb_20snAQAAIAAJ_0352.jp2
A07092-176-a,https://iiif.archive.org/image/iiif/3/bub_gb_20snAQAAIAAJ%2Fbub_gb_20snAQAAIAAJ_jp2.zip%2Fbub_gb_20snAQAAIAAJ_jp2%2Fbub_gb_20snAQAAIAAJ_0353.jp2
A07092-176-b,https://iiif.archive.org/image/iiif/3/bub_gb_20snAQAAIAAJ%2Fbub_gb_20snAQAAIAAJ_jp2.zip%2Fbub_gb_20snAQAAIAAJ_jp2%2Fbub_gb_20snAQAAIAAJ_0354.jp2
A07092-177-a,https://iiif.archive.org/image/iiif/3/bub_gb_20snAQAAIAAJ%2Fbub_gb_20snAQAAIAAJ_jp2.zip%2Fbub_gb_20snAQAAIAAJ_jp2%2Fbub_gb_20snAQAAIAAJ_0355.jp2
A07092-177-b,https://iiif.archive.org/image/iiif/3/bub_gb_20snAQAAIAAJ%2Fbub_gb_20snAQAAIAAJ_jp2.zip%2Fbub_gb_20snAQAAIAAJ_jp2%2Fbub_gb_20snAQAAIAAJ_0356.jp2
A07092-178-a,https://iiif.archive.org/image/iiif/3/bub_gb_20snAQAAIAAJ%2Fbub_gb_20snAQAAIAAJ_jp2.zip%2Fbub_gb_20snAQAAIAAJ_jp2%2Fbub_gb_20snAQAAIAAJ_0357.jp2
A07092-178-b,https://iiif.archive.org/image/iiif/3/bub_gb_20snAQAAIAAJ%2Fbub_gb_20snAQAAIAAJ_jp2.zip%2Fbub_gb_20snAQAAIAAJ_jp2%2Fbub_gb_20snAQAAIAAJ_0358.jp2
A07092-179-a,https://iiif.archive.org/image/iiif/3/bub_gb_20snAQAAIAAJ%2Fbub_gb_20snAQAAIAAJ_jp2.zip%2Fbub_gb_20snAQAAIAAJ_jp2%2Fbub_gb_20snAQAAIAAJ_0359.jp2
A07092-179-b,https://iiif.archive.org/image/iiif/3/bub_gb_20snAQAAIAAJ%2Fbub_gb_20snAQAAIAAJ_jp2.zip%2Fbub_gb_20snAQAAIAAJ_jp2%2Fbub_gb_20snAQAAIAAJ_0360.jp2
A07092-180-a,https://iiif.archive.org/image/iiif/3/bub_gb_20snAQAAIAAJ%2Fbub_gb_20snAQAAIAAJ_jp2.zip%2Fbub_gb_20snAQAAIAAJ_jp2%2Fbub_gb_20snAQAAIAAJ_0361.jp2
A07092-180-b,https://iiif.archive.org/image/iiif/3/bub_gb_20snAQAAIAAJ%2Fbub_gb_20snAQAAIAAJ_jp2.zip%2Fbub_gb_20snAQAAIAAJ_jp2%2Fbub_gb_20snAQAAIAAJ_0362.jp2
A07092-181-a,https://iiif.archive.org/image/iiif/3/bub_gb_20snAQAAIAAJ%2Fbub_gb_20snAQAAIAAJ_jp2.zip%2Fbub_gb_20snAQAAIAAJ_jp2%2Fbub_gb_20snAQAAIAAJ_0363.jp2
A07092-181-b,https://iiif.archive.org/image/iiif/3/bub_gb_20snAQAAIAAJ%2Fbub_gb_20snAQAAIAAJ_jp2.zip%2Fbub_gb_20snAQAAIAAJ_jp2%2Fbub_gb_20snAQAAIAAJ_0364.jp2
A07092-182-a,https://iiif.archive.org/image/iiif/3/bub_gb_20snAQAAIAAJ%2Fbub_gb_20snAQAAIAAJ_jp2.zip%2Fbub_gb_20snAQAAIAAJ_jp2%2Fbub_gb_20snAQAAIAAJ_0365.jp2
A07092-182-b,https://iiif.archive.org/image/iiif/3/bub_gb_20snAQAAIAAJ%2Fbub_gb_20snAQAAIAAJ_jp2.zip%2Fbub_gb_20snAQAAIAAJ_jp2%2Fbub_gb_20snAQAAIAAJ_0366.jp2
A07092-183-a,https://iiif.archive.org/image/iiif/3/bub_gb_20snAQAAIAAJ%2Fbub_gb_20snAQAAIAAJ_jp2.zip%2Fbub_gb_20snAQAAIAAJ_jp2%2Fbub_gb_20snAQAAIAAJ_0367.jp2
A07092-183-b,https://iiif.archive.org/image/iiif/3/bub_gb_20snAQAAIAAJ%2Fbub_gb_20snAQAAIAAJ_jp2.zip%2Fbub_gb_20snAQAAIAAJ_jp2%2Fbub_gb_20snAQAAIAAJ_0368.jp2
A07092-184-a,https://iiif.archive.org/image/iiif/3/bub_gb_20snAQAAIAAJ%2Fbub_gb_20snAQAAIAAJ_jp2.zip%2Fbub_gb_20snAQAAIAAJ_jp2%2Fbub_gb_20snAQAAIAAJ_0369.jp2
A07092-184-b,https://iiif.archive.org/image/iiif/3/bub_gb_20snAQAAIAAJ%2Fbub_gb_20snAQAAIAAJ_jp2.zip%2Fbub_gb_20snAQAAIAAJ_jp2%2Fbub_gb_20snAQAAIAAJ_0370.jp2
A07092-185-a,https://iiif.archive.org/image/iiif/3/bub_gb_20snAQAAIAAJ%2Fbub_gb_20snAQAAIAAJ_jp2.zip%2Fbub_gb_20snAQAAIAAJ_jp2%2Fbub_gb_20snAQAAIAAJ_0371.jp2
A07092-185-b,https://iiif.archive.org/image/iiif/3/bub_gb_20snAQAAIAAJ%2Fbub_gb_20snAQAAIAAJ_jp2.zip%2Fbub_gb_20snAQAAIAAJ_jp2%2Fbub_gb_20snAQAAIAAJ_0372.jp2
A07092-186-a,https://iiif.archive.org/image/iiif/3/bub_gb_20snAQAAIAAJ%2Fbub_gb_20snAQAAIAAJ_jp2.zip%2Fbub_gb_20snAQAAIAAJ_jp2%2Fbub_gb_20snAQAAIAAJ_0373.jp2
A07092-186-b,https://iiif.archive.org/image/iiif/3/bub_gb_20snAQAAIAAJ%2Fbub_gb_20snAQAAIAAJ_jp2.zip%2Fbub_gb_20snAQAAIAAJ_jp2%2Fbub_gb_20snAQAAIAAJ_0374.jp2
A07092-187-a,https://iiif.archive.org/image/iiif/3/bub_gb_20snAQAAIAAJ%2Fbub_gb_20snAQAAIAAJ_jp2.zip%2Fbub_gb_20snAQAAIAAJ_jp2%2Fbub_gb_20snAQAAIAAJ_0375.jp2
A07092-187-b,https://iiif.archive.org/image/iiif/3/bub_gb_20snAQAAIAAJ%2Fbub_gb_20snAQAAIAAJ_jp2.zip%2Fbub_gb_20snAQAAIAAJ_jp2%2Fbub_gb_20snAQAAIAAJ_0376.jp2
A07092-188-a,https://iiif.archive.org/image/iiif/3/bub_gb_20snAQAAIAAJ%2Fbub_gb_20snAQAAIAAJ_jp2.zip%2Fbub_gb_20snAQAAIAAJ_jp2%2Fbub_gb_20snAQAAIAAJ_0377.jp2
A07092-188-b,https://iiif.archive.org/image/iiif/3/bub_gb_20snAQAAIAAJ%2Fbub_gb_20snAQAAIAAJ_jp2.zip%2Fbub_gb_20snAQAAIAAJ_jp2%2Fbub_gb_20snAQAAIAAJ_0378.jp2
A07092-189-a,https://iiif.archive.org/image/iiif/3/bub_gb_20snAQAAIAAJ%2Fbub_gb_20snAQAAIAAJ_jp2.zip%2Fbub_gb_20snAQAAIAAJ_jp2%2Fbub_gb_20snAQAAIAAJ_0379.jp2
A07092-189-b,https://iiif.archive.org/image/iiif/3/bub_gb_20snAQAAIAAJ%2Fbub_gb_20snAQAAIAAJ_jp2.zip%2Fbub_gb_20snAQAAIAAJ_jp2%2Fbub_gb_20snAQAAIAAJ_0380.jp2
A07092-190-a,9999
A07092-190-b,9999
A07092-191-a,https://iiif.archive.org/image/iiif/3/bub_gb_20snAQAAIAAJ%2Fbub_gb_20snAQAAIAAJ_jp2.zip%2Fbub_gb_20snAQAAIAAJ_jp2%2Fbub_gb_20snAQAAIAAJ_0381.jp2
A07092-191-b,https://iiif.archive.org/image/iiif/3/bub_gb_20snAQAAIAAJ%2Fbub_gb_20snAQAAIAAJ_jp2.zip%2Fbub_gb_20snAQAAIAAJ_jp2%2Fbub_gb_20snAQAAIAAJ_0382.jp2
A07092-192-a,https://iiif.archive.org/image/iiif/3/bub_gb_20snAQAAIAAJ%2Fbub_gb_20snAQAAIAAJ_jp2.zip%2Fbub_gb_20snAQAAIAAJ_jp2%2Fbub_gb_20snAQAAIAAJ_0383.jp2
A07092-192-b,https://iiif.archive.org/image/iiif/3/bub_gb_20snAQAAIAAJ%2Fbub_gb_20snAQAAIAAJ_jp2.zip%2Fbub_gb_20snAQAAIAAJ_jp2%2Fbub_gb_20snAQAAIAAJ_0384.jp2
A07092-193-a,https://iiif.archive.org/image/iiif/3/bub_gb_20snAQAAIAAJ%2Fbub_gb_20snAQAAIAAJ_jp2.zip%2Fbub_gb_20snAQAAIAAJ_jp2%2Fbub_gb_20snAQAAIAAJ_0385.jp2
A07092-193-b,https://iiif.archive.org/image/iiif/3/bub_gb_20snAQAAIAAJ%2Fbub_gb_20snAQAAIAAJ_jp2.zip%2Fbub_gb_20snAQAAIAAJ_jp2%2Fbub_gb_20snAQAAIAAJ_0386.jp2
A07092-194-a,https://iiif.archive.org/image/iiif/3/bub_gb_20snAQAAIAAJ%2Fbub_gb_20snAQAAIAAJ_jp2.zip%2Fbub_gb_20snAQAAIAAJ_jp2%2Fbub_gb_20snAQAAIAAJ_0387.jp2
A07092-194-b,https://iiif.archive.org/image/iiif/3/bub_gb_20snAQAAIAAJ%2Fbub_gb_20snAQAAIAAJ_jp2.zip%2Fbub_gb_20snAQAAIAAJ_jp2%2Fbub_gb_20snAQAAIAAJ_0388.jp2
A07092-195-a,https://iiif.archive.org/image/iiif/3/bub_gb_20snAQAAIAAJ%2Fbub_gb_20snAQAAIAAJ_jp2.zip%2Fbub_gb_20snAQAAIAAJ_jp2%2Fbub_gb_20snAQAAIAAJ_0389.jp2
A07092-195-b,https://iiif.archive.org/image/iiif/3/bub_gb_20snAQAAIAAJ%2Fbub_gb_20snAQAAIAAJ_jp2.zip%2Fbub_gb_20snAQAAIAAJ_jp2%2Fbub_gb_20snAQAAIAAJ_0390.jp2
A07092-196-a,https://iiif.archive.org/image/iiif/3/bub_gb_20snAQAAIAAJ%2Fbub_gb_20snAQAAIAAJ_jp2.zip%2Fbub_gb_20snAQAAIAAJ_jp2%2Fbub_gb_20snAQAAIAAJ_0391.jp2
A07092-196-b,https://iiif.archive.org/image/iiif/3/bub_gb_20snAQAAIAAJ%2Fbub_gb_20snAQAAIAAJ_jp2.zip%2Fbub_gb_20snAQAAIAAJ_jp2%2Fbub_gb_20snAQAAIAAJ_0392.jp2
A07092-197-a,https://iiif.archive.org/image/iiif/3/bub_gb_20snAQAAIAAJ%2Fbub_gb_20snAQAAIAAJ_jp2.zip%2Fbub_gb_20snAQAAIAAJ_jp2%2Fbub_gb_20snAQAAIAAJ_0393.jp2
A07092-197-b,https://iiif.archive.org/image/iiif/3/bub_gb_20snAQAAIAAJ%2Fbub_gb_20snAQAAIAAJ_jp2.zip%2Fbub_gb_20snAQAAIAAJ_jp2%2Fbub_gb_20snAQAAIAAJ_0394.jp2
A07092-198-a,https://iiif.archive.org/image/iiif/3/bub_gb_20snAQAAIAAJ%2Fbub_gb_20snAQAAIAAJ_jp2.zip%2Fbub_gb_20snAQAAIAAJ_jp2%2Fbub_gb_20snAQAAIAAJ_0395.jp2
A07092-198-b,https://iiif.archive.org/image/iiif/3/bub_gb_20snAQAAIAAJ%2Fbub_gb_20snAQAAIAAJ_jp2.zip%2Fbub_gb_20snAQAAIAAJ_jp2%2Fbub_gb_20snAQAAIAAJ_0396.jp2
A07092-199-a,https://iiif.archive.org/image/iiif/3/bub_gb_20snAQAAIAAJ%2Fbub_gb_20snAQAAIAAJ_jp2.zip%2Fbub_gb_20snAQAAIAAJ_jp2%2Fbub_gb_20snAQAAIAAJ_0397.jp2
A07092-199-b,https://iiif.archive.org/image/iiif/3/bub_gb_20snAQAAIAAJ%2Fbub_gb_20snAQAAIAAJ_jp2.zip%2Fbub_gb_20snAQAAIAAJ_jp2%2Fbub_gb_20snAQAAIAAJ_0398.jp2
A07092-200-a,https://iiif.archive.org/image/iiif/3/bub_gb_20snAQAAIAAJ%2Fbub_gb_20snAQAAIAAJ_jp2.zip%2Fbub_gb_20snAQAAIAAJ_jp2%2Fbub_gb_20snAQAAIAAJ_0399.jp2
A07092-200-b,https://iiif.archive.org/image/iiif/3/bub_gb_20snAQAAIAAJ%2Fbub_gb_20snAQAAIAAJ_jp2.zip%2Fbub_gb_20snAQAAIAAJ_jp2%2Fbub_gb_20snAQAAIAAJ_0400.jp2
A07092-201-a,https://iiif.archive.org/image/iiif/3/bub_gb_20snAQAAIAAJ%2Fbub_gb_20snAQAAIAAJ_jp2.zip%2Fbub_gb_20snAQAAIAAJ_jp2%2Fbub_gb_20snAQAAIAAJ_0401.jp2
A07092-201-b,https://iiif.archive.org/image/iiif/3/bub_gb_20snAQAAIAAJ%2Fbub_gb_20snAQAAIAAJ_jp2.zip%2Fbub_gb_20snAQAAIAAJ_jp2%2Fbub_gb_20snAQAAIAAJ_0402.jp2
A07092-202-a,https://iiif.archive.org/image/iiif/3/bub_gb_20snAQAAIAAJ%2Fbub_gb_20snAQAAIAAJ_jp2.zip%2Fbub_gb_20snAQAAIAAJ_jp2%2Fbub_gb_20snAQAAIAAJ_0403.jp2
A07092-202-b,https://iiif.archive.org/image/iiif/3/bub_gb_20snAQAAIAAJ%2Fbub_gb_20snAQAAIAAJ_jp2.zip%2Fbub_gb_20snAQAAIAAJ_jp2%2Fbub_gb_20snAQAAIAAJ_0404.jp2
A07092-203-a,https://iiif.archive.org/image/iiif/3/bub_gb_20snAQAAIAAJ%2Fbub_gb_20snAQAAIAAJ_jp2.zip%2Fbub_gb_20snAQAAIAAJ_jp2%2Fbub_gb_20snAQAAIAAJ_0405.jp2
A07092-203-b,https://iiif.archive.org/image/iiif/3/bub_gb_20snAQAAIAAJ%2Fbub_gb_20snAQAAIAAJ_jp2.zip%2Fbub_gb_20snAQAAIAAJ_jp2%2Fbub_gb_20snAQAAIAAJ_0406.jp2
A07092-204-a,https://iiif.archive.org/image/iiif/3/bub_gb_20snAQAAIAAJ%2Fbub_gb_20snAQAAIAAJ_jp2.zip%2Fbub_gb_20snAQAAIAAJ_jp2%2Fbub_gb_20snAQAAIAAJ_0407.jp2
A07092-204-b,https://iiif.archive.org/image/iiif/3/bub_gb_20snAQAAIAAJ%2Fbub_gb_20snAQAAIAAJ_jp2.zip%2Fbub_gb_20snAQAAIAAJ_jp2%2Fbub_gb_20snAQAAIAAJ_0408.jp2
A07092-205-a,https://iiif.archive.org/image/iiif/3/bub_gb_20snAQAAIAAJ%2Fbub_gb_20snAQAAIAAJ_jp2.zip%2Fbub_gb_20snAQAAIAAJ_jp2%2Fbub_gb_20snAQAAIAAJ_0409.jp2
A07092-205-b,https://iiif.archive.org/image/iiif/3/bub_gb_20snAQAAIAAJ%2Fbub_gb_20snAQAAIAAJ_jp2.zip%2Fbub_gb_20snAQAAIAAJ_jp2%2Fbub_gb_20snAQAAIAAJ_0410.jp2
A07092-206-a,https://iiif.archive.org/image/iiif/3/bub_gb_20snAQAAIAAJ%2Fbub_gb_20snAQAAIAAJ_jp2.zip%2Fbub_gb_20snAQAAIAAJ_jp2%2Fbub_gb_20snAQAAIAAJ_0411.jp2
A07092-206-b,https://iiif.archive.org/image/iiif/3/bub_gb_20snAQAAIAAJ%2Fbub_gb_20snAQAAIAAJ_jp2.zip%2Fbub_gb_20snAQAAIAAJ_jp2%2Fbub_gb_20snAQAAIAAJ_0412.jp2
A07092-207-a,https://iiif.archive.org/image/iiif/3/bub_gb_20snAQAAIAAJ%2Fbub_gb_20snAQAAIAAJ_jp2.zip%2Fbub_gb_20snAQAAIAAJ_jp2%2Fbub_gb_20snAQAAIAAJ_0413.jp2
A07092-207-b,https://iiif.archive.org/image/iiif/3/bub_gb_20snAQAAIAAJ%2Fbub_gb_20snAQAAIAAJ_jp2.zip%2Fbub_gb_20snAQAAIAAJ_jp2%2Fbub_gb_20snAQAAIAAJ_0414.jp2
A07092-208-a,https://iiif.archive.org/image/iiif/3/bub_gb_20snAQAAIAAJ%2Fbub_gb_20snAQAAIAAJ_jp2.zip%2Fbub_gb_20snAQAAIAAJ_jp2%2Fbub_gb_20snAQAAIAAJ_0415.jp2
A07092-208-b,https://iiif.archive.org/image/iiif/3/bub_gb_20snAQAAIAAJ%2Fbub_gb_20snAQAAIAAJ_jp2.zip%2Fbub_gb_20snAQAAIAAJ_jp2%2Fbub_gb_20snAQAAIAAJ_0416.jp2
A07092-209-a,https://iiif.archive.org/image/iiif/3/bub_gb_20snAQAAIAAJ%2Fbub_gb_20snAQAAIAAJ_jp2.zip%2Fbub_gb_20snAQAAIAAJ_jp2%2Fbub_gb_20snAQAAIAAJ_0417.jp2
A07092-209-b,https://iiif.archive.org/image/iiif/3/bub_gb_20snAQAAIAAJ%2Fbub_gb_20snAQAAIAAJ_jp2.zip%2Fbub_gb_20snAQAAIAAJ_jp2%2Fbub_gb_20snAQAAIAAJ_0418.jp2
A07092-210-a,https://iiif.archive.org/image/iiif/3/bub_gb_20snAQAAIAAJ%2Fbub_gb_20snAQAAIAAJ_jp2.zip%2Fbub_gb_20snAQAAIAAJ_jp2%2Fbub_gb_20snAQAAIAAJ_0419.jp2
A07092-210-b,https://iiif.archive.org/image/iiif/3/bub_gb_20snAQAAIAAJ%2Fbub_gb_20snAQAAIAAJ_jp2.zip%2Fbub_gb_20snAQAAIAAJ_jp2%2Fbub_gb_20snAQAAIAAJ_0420.jp2
A07092-211-a,https://iiif.archive.org/image/iiif/3/bub_gb_20snAQAAIAAJ%2Fbub_gb_20snAQAAIAAJ_jp2.zip%2Fbub_gb_20snAQAAIAAJ_jp2%2Fbub_gb_20snAQAAIAAJ_0421.jp2
A07092-211-b,https://iiif.archive.org/image/iiif/3/bub_gb_20snAQAAIAAJ%2Fbub_gb_20snAQAAIAAJ_jp2.zip%2Fbub_gb_20snAQAAIAAJ_jp2%2Fbub_gb_20snAQAAIAAJ_0422.jp2
A07092-212-a,https://iiif.archive.org/image/iiif/3/bub_gb_20snAQAAIAAJ%2Fbub_gb_20snAQAAIAAJ_jp2.zip%2Fbub_gb_20snAQAAIAAJ_jp2%2Fbub_gb_20snAQAAIAAJ_0423.jp2
A07092-212-b,https://iiif.archive.org/image/iiif/3/bub_gb_20snAQAAIAAJ%2Fbub_gb_20snAQAAIAAJ_jp2.zip%2Fbub_gb_20snAQAAIAAJ_jp2%2Fbub_gb_20snAQAAIAAJ_0424.jp2
A07092-213-a,https://iiif.archive.org/image/iiif/3/bub_gb_20snAQAAIAAJ%2Fbub_gb_20snAQAAIAAJ_jp2.zip%2Fbub_gb_20snAQAAIAAJ_jp2%2Fbub_gb_20snAQAAIAAJ_0425.jp2
A07092-213-b,https://iiif.archive.org/image/iiif/3/bub_gb_20snAQAAIAAJ%2Fbub_gb_20snAQAAIAAJ_jp2.zip%2Fbub_gb_20snAQAAIAAJ_jp2%2Fbub_gb_20snAQAAIAAJ_0426.jp2
A07092-214-a,https://iiif.archive.org/image/iiif/3/bub_gb_20snAQAAIAAJ%2Fbub_gb_20snAQAAIAAJ_jp2.zip%2Fbub_gb_20snAQAAIAAJ_jp2%2Fbub_gb_20snAQAAIAAJ_0427.jp2
A07092-214-b,https://iiif.archive.org/image/iiif/3/bub_gb_20snAQAAIAAJ%2Fbub_gb_20snAQAAIAAJ_jp2.zip%2Fbub_gb_20snAQAAIAAJ_jp2%2Fbub_gb_20snAQAAIAAJ_0428.jp2
A07092-215-a,https://iiif.archive.org/image/iiif/3/bub_gb_20snAQAAIAAJ%2Fbub_gb_20snAQAAIAAJ_jp2.zip%2Fbub_gb_20snAQAAIAAJ_jp2%2Fbub_gb_20snAQAAIAAJ_0429.jp2
A07092-215-b,https://iiif.archive.org/image/iiif/3/bub_gb_20snAQAAIAAJ%2Fbub_gb_20snAQAAIAAJ_jp2.zip%2Fbub_gb_20snAQAAIAAJ_jp2%2Fbub_gb_20snAQAAIAAJ_0430.jp2
A07092-216-a,https://iiif.archive.org/image/iiif/3/bub_gb_20snAQAAIAAJ%2Fbub_gb_20snAQAAIAAJ_jp2.zip%2Fbub_gb_20snAQAAIAAJ_jp2%2Fbub_gb_20snAQAAIAAJ_0431.jp2
A07092-216-b,https://iiif.archive.org/image/iiif/3/bub_gb_20snAQAAIAAJ%2Fbub_gb_20snAQAAIAAJ_jp2.zip%2Fbub_gb_20snAQAAIAAJ_jp2%2Fbub_gb_20snAQAAIAAJ_0432.jp2
A07092-217-a,https://iiif.archive.org/image/iiif/3/bub_gb_20snAQAAIAAJ%2Fbub_gb_20snAQAAIAAJ_jp2.zip%2Fbub_gb_20snAQAAIAAJ_jp2%2Fbub_gb_20snAQAAIAAJ_0433.jp2
A07092-217-b,https://iiif.archive.org/image/iiif/3/bub_gb_20snAQAAIAAJ%2Fbub_gb_20snAQAAIAAJ_jp2.zip%2Fbub_gb_20snAQAAIAAJ_jp2%2Fbub_gb_20snAQAAIAAJ_0434.jp2
A07092-218-a,https://iiif.archive.org/image/iiif/3/bub_gb_20snAQAAIAAJ%2Fbub_gb_20snAQAAIAAJ_jp2.zip%2Fbub_gb_20snAQAAIAAJ_jp2%2Fbub_gb_20snAQAAIAAJ_0435.jp2
A07092-218-b,https://iiif.archive.org/image/iiif/3/bub_gb_20snAQAAIAAJ%2Fbub_gb_20snAQAAIAAJ_jp2.zip%2Fbub_gb_20snAQAAIAAJ_jp2%2Fbub_gb_20snAQAAIAAJ_0436.jp2
A07092-219-a,https://iiif.archive.org/image/iiif/3/bub_gb_20snAQAAIAAJ%2Fbub_gb_20snAQAAIAAJ_jp2.zip%2Fbub_gb_20snAQAAIAAJ_jp2%2Fbub_gb_20snAQAAIAAJ_0437.jp2
A07092-219-b,https://iiif.archive.org/image/iiif/3/bub_gb_20snAQAAIAAJ%2Fbub_gb_20snAQAAIAAJ_jp2.zip%2Fbub_gb_20snAQAAIAAJ_jp2%2Fbub_gb_20snAQAAIAAJ_0438.jp2
A07092-220-a,https://iiif.archive.org/image/iiif/3/bub_gb_20snAQAAIAAJ%2Fbub_gb_20snAQAAIAAJ_jp2.zip%2Fbub_gb_20snAQAAIAAJ_jp2%2Fbub_gb_20snAQAAIAAJ_0439.jp2
A07092-220-b,https://iiif.archive.org/image/iiif/3/bub_gb_20snAQAAIAAJ%2Fbub_gb_20snAQAAIAAJ_jp2.zip%2Fbub_gb_20snAQAAIAAJ_jp2%2Fbub_gb_20snAQAAIAAJ_0440.jp2
A07092-221-a,https://iiif.archive.org/image/iiif/3/bub_gb_20snAQAAIAAJ%2Fbub_gb_20snAQAAIAAJ_jp2.zip%2Fbub_gb_20snAQAAIAAJ_jp2%2Fbub_gb_20snAQAAIAAJ_0441.jp2
A07092-221-b,https://iiif.archive.org/image/iiif/3/bub_gb_20snAQAAIAAJ%2Fbub_gb_20snAQAAIAAJ_jp2.zip%2Fbub_gb_20snAQAAIAAJ_jp2%2Fbub_gb_20snAQAAIAAJ_0442.jp2
A07092-222-a,https://iiif.archive.org/image/iiif/3/bub_gb_20snAQAAIAAJ%2Fbub_gb_20snAQAAIAAJ_jp2.zip%2Fbub_gb_20snAQAAIAAJ_jp2%2Fbub_gb_20snAQAAIAAJ_0443.jp2
A07092-222-b,https://iiif.archive.org/image/iiif/3/bub_gb_20snAQAAIAAJ%2Fbub_gb_20snAQAAIAAJ_jp2.zip%2Fbub_gb_20snAQAAIAAJ_jp2%2Fbub_gb_20snAQAAIAAJ_0444.jp2
A07092-223-a,https://iiif.archive.org/image/iiif/3/bub_gb_20snAQAAIAAJ%2Fbub_gb_20snAQAAIAAJ_jp2.zip%2Fbub_gb_20snAQAAIAAJ_jp2%2Fbub_gb_20snAQAAIAAJ_0445.jp2
A07092-223-b,https://iiif.archive.org/image/iiif/3/bub_gb_20snAQAAIAAJ%2Fbub_gb_20snAQAAIAAJ_jp2.zip%2Fbub_gb_20snAQAAIAAJ_jp2%2Fbub_gb_20snAQAAIAAJ_0446.jp2
A07092-224-a,https://iiif.archive.org/image/iiif/3/bub_gb_20snAQAAIAAJ%2Fbub_gb_20snAQAAIAAJ_jp2.zip%2Fbub_gb_20snAQAAIAAJ_jp2%2Fbub_gb_20snAQAAIAAJ_0447.jp2
A07092-224-b,https://iiif.archive.org/image/iiif/3/bub_gb_20snAQAAIAAJ%2Fbub_gb_20snAQAAIAAJ_jp2.zip%2Fbub_gb_20snAQAAIAAJ_jp2%2Fbub_gb_20snAQAAIAAJ_0448.jp2
A07092-225-a,https://iiif.archive.org/image/iiif/3/bub_gb_20snAQAAIAAJ%2Fbub_gb_20snAQAAIAAJ_jp2.zip%2Fbub_gb_20snAQAAIAAJ_jp2%2Fbub_gb_20snAQAAIAAJ_0449.jp2
A07092-225-b,https://iiif.archive.org/image/iiif/3/bub_gb_20snAQAAIAAJ%2Fbub_gb_20snAQAAIAAJ_jp2.zip%2Fbub_gb_20snAQAAIAAJ_jp2%2Fbub_gb_20snAQAAIAAJ_0450.jp2
A07092-226-a,https://iiif.archive.org/image/iiif/3/bub_gb_20snAQAAIAAJ%2Fbub_gb_20snAQAAIAAJ_jp2.zip%2Fbub_gb_20snAQAAIAAJ_jp2%2Fbub_gb_20snAQAAIAAJ_0451.jp2
A07092-226-b,https://iiif.archive.org/image/iiif/3/bub_gb_20snAQAAIAAJ%2Fbub_gb_20snAQAAIAAJ_jp2.zip%2Fbub_gb_20snAQAAIAAJ_jp2%2Fbub_gb_20snAQAAIAAJ_0452.jp2
A07092-227-a,https://iiif.archive.org/image/iiif/3/bub_gb_20snAQAAIAAJ%2Fbub_gb_20snAQAAIAAJ_jp2.zip%2Fbub_gb_20snAQAAIAAJ_jp2%2Fbub_gb_20snAQAAIAAJ_0453.jp2
A07092-227-b,https://iiif.archive.org/image/iiif/3/bub_gb_20snAQAAIAAJ%2Fbub_gb_20snAQAAIAAJ_jp2.zip%2Fbub_gb_20snAQAAIAAJ_jp2%2Fbub_gb_20snAQAAIAAJ_0454.jp2
A07092-228-a,https://iiif.archive.org/image/iiif/3/bub_gb_20snAQAAIAAJ%2Fbub_gb_20snAQAAIAAJ_jp2.zip%2Fbub_gb_20snAQAAIAAJ_jp2%2Fbub_gb_20snAQAAIAAJ_0455.jp2
A07092-228-b,https://iiif.archive.org/image/iiif/3/bub_gb_20snAQAAIAAJ%2Fbub_gb_20snAQAAIAAJ_jp2.zip%2Fbub_gb_20snAQAAIAAJ_jp2%2Fbub_gb_20snAQAAIAAJ_0456.jp2
A07092-229-a,https://iiif.archive.org/image/iiif/3/bub_gb_20snAQAAIAAJ%2Fbub_gb_20snAQAAIAAJ_jp2.zip%2Fbub_gb_20snAQAAIAAJ_jp2%2Fbub_gb_20snAQAAIAAJ_0457.jp2
A07092-229-b,https://iiif.archive.org/image/iiif/3/bub_gb_20snAQAAIAAJ%2Fbub_gb_20snAQAAIAAJ_jp2.zip%2Fbub_gb_20snAQAAIAAJ_jp2%2Fbub_gb_20snAQAAIAAJ_0458.jp2
A07092-230-a,https://iiif.archive.org/image/iiif/3/bub_gb_20snAQAAIAAJ%2Fbub_gb_20snAQAAIAAJ_jp2.zip%2Fbub_gb_20snAQAAIAAJ_jp2%2Fbub_gb_20snAQAAIAAJ_0459.jp2
A07092-230-b,https://iiif.archive.org/image/iiif/3/bub_gb_20snAQAAIAAJ%2Fbub_gb_20snAQAAIAAJ_jp2.zip%2Fbub_gb_20snAQAAIAAJ_jp2%2Fbub_gb_20snAQAAIAAJ_0460.jp2
A07092-231-a,https://iiif.archive.org/image/iiif/3/bub_gb_20snAQAAIAAJ%2Fbub_gb_20snAQAAIAAJ_jp2.zip%2Fbub_gb_20snAQAAIAAJ_jp2%2Fbub_gb_20snAQAAIAAJ_0461.jp2
A07092-231-b,https://iiif.archive.org/image/iiif/3/bub_gb_20snAQAAIAAJ%2Fbub_gb_20snAQAAIAAJ_jp2.zip%2Fbub_gb_20snAQAAIAAJ_jp2%2Fbub_gb_20snAQAAIAAJ_0462.jp2
A07092-232-a,https://iiif.archive.org/image/iiif/3/bub_gb_20snAQAAIAAJ%2Fbub_gb_20snAQAAIAAJ_jp2.zip%2Fbub_gb_20snAQAAIAAJ_jp2%2Fbub_gb_20snAQAAIAAJ_0463.jp2
A07092-232-b,https://iiif.archive.org/image/iiif/3/bub_gb_20snAQAAIAAJ%2Fbub_gb_20snAQAAIAAJ_jp2.zip%2Fbub_gb_20snAQAAIAAJ_jp2%2Fbub_gb_20snAQAAIAAJ_0464.jp2
A07092-233-a,https://iiif.archive.org/image/iiif/3/bub_gb_20snAQAAIAAJ%2Fbub_gb_20snAQAAIAAJ_jp2.zip%2Fbub_gb_20snAQAAIAAJ_jp2%2Fbub_gb_20snAQAAIAAJ_0465.jp2
A07092-233-b,https://iiif.archive.org/image/iiif/3/bub_gb_20snAQAAIAAJ%2Fbub_gb_20snAQAAIAAJ_jp2.zip%2Fbub_gb_20snAQAAIAAJ_jp2%2Fbub_gb_20snAQAAIAAJ_0466.jp2
A07092-234-a,https://iiif.archive.org/image/iiif/3/bub_gb_20snAQAAIAAJ%2Fbub_gb_20snAQAAIAAJ_jp2.zip%2Fbub_gb_20snAQAAIAAJ_jp2%2Fbub_gb_20snAQAAIAAJ_0467.jp2
A07092-234-b,https://iiif.archive.org/image/iiif/3/bub_gb_20snAQAAIAAJ%2Fbub_gb_20snAQAAIAAJ_jp2.zip%2Fbub_gb_20snAQAAIAAJ_jp2%2Fbub_gb_20snAQAAIAAJ_0468.jp2
A07092-235-a,https://iiif.archive.org/image/iiif/3/bub_gb_20snAQAAIAAJ%2Fbub_gb_20snAQAAIAAJ_jp2.zip%2Fbub_gb_20snAQAAIAAJ_jp2%2Fbub_gb_20snAQAAIAAJ_0469.jp2
A07092-235-b,https://iiif.archive.org/image/iiif/3/bub_gb_20snAQAAIAAJ%2Fbub_gb_20snAQAAIAAJ_jp2.zip%2Fbub_gb_20snAQAAIAAJ_jp2%2Fbub_gb_20snAQAAIAAJ_0470.jp2
A07092-236-a,https://iiif.archive.org/image/iiif/3/bub_gb_20snAQAAIAAJ%2Fbub_gb_20snAQAAIAAJ_jp2.zip%2Fbub_gb_20snAQAAIAAJ_jp2%2Fbub_gb_20snAQAAIAAJ_0471.jp2
A07092-236-b,https://iiif.archive.org/image/iiif/3/bub_gb_20snAQAAIAAJ%2Fbub_gb_20snAQAAIAAJ_jp2.zip%2Fbub_gb_20snAQAAIAAJ_jp2%2Fbub_gb_20snAQAAIAAJ_0472.jp2
A07092-237-a,https://iiif.archive.org/image/iiif/3/bub_gb_20snAQAAIAAJ%2Fbub_gb_20snAQAAIAAJ_jp2.zip%2Fbub_gb_20snAQAAIAAJ_jp2%2Fbub_gb_20snAQAAIAAJ_0473.jp2
A07092-237-b,https://iiif.archive.org/image/iiif/3/bub_gb_20snAQAAIAAJ%2Fbub_gb_20snAQAAIAAJ_jp2.zip%2Fbub_gb_20snAQAAIAAJ_jp2%2Fbub_gb_20snAQAAIAAJ_0474.jp2
A07092-238-a,https://iiif.archive.org/image/iiif/3/bub_gb_20snAQAAIAAJ%2Fbub_gb_20snAQAAIAAJ_jp2.zip%2Fbub_gb_20snAQAAIAAJ_jp2%2Fbub_gb_20snAQAAIAAJ_0475.jp2
A07092-238-b,https://iiif.archive.org/image/iiif/3/bub_gb_20snAQAAIAAJ%2Fbub_gb_20snAQAAIAAJ_jp2.zip%2Fbub_gb_20snAQAAIAAJ_jp2%2Fbub_gb_20snAQAAIAAJ_0476.jp2
A07092-239-a,https://iiif.archive.org/image/iiif/3/bub_gb_20snAQAAIAAJ%2Fbub_gb_20snAQAAIAAJ_jp2.zip%2Fbub_gb_20snAQAAIAAJ_jp2%2Fbub_gb_20snAQAAIAAJ_0477.jp2
A07092-239-b,https://iiif.archive.org/image/iiif/3/bub_gb_20snAQAAIAAJ%2Fbub_gb_20snAQAAIAAJ_jp2.zip%2Fbub_gb_20snAQAAIAAJ_jp2%2Fbub_gb_20snAQAAIAAJ_0478.jp2
A07092-240-a,https://iiif.archive.org/image/iiif/3/bub_gb_20snAQAAIAAJ%2Fbub_gb_20snAQAAIAAJ_jp2.zip%2Fbub_gb_20snAQAAIAAJ_jp2%2Fbub_gb_20snAQAAIAAJ_0479.jp2
A07092-240-b,https://iiif.archive.org/image/iiif/3/bub_gb_20snAQAAIAAJ%2Fbub_gb_20snAQAAIAAJ_jp2.zip%2Fbub_gb_20snAQAAIAAJ_jp2%2Fbub_gb_20snAQAAIAAJ_0480.jp2
A07092-241-a,https://iiif.archive.org/image/iiif/3/bub_gb_20snAQAAIAAJ%2Fbub_gb_20snAQAAIAAJ_jp2.zip%2Fbub_gb_20snAQAAIAAJ_jp2%2Fbub_gb_20snAQAAIAAJ_0481.jp2
A07092-241-b,https://iiif.archive.org/image/iiif/3/bub_gb_20snAQAAIAAJ%2Fbub_gb_20snAQAAIAAJ_jp2.zip%2Fbub_gb_20snAQAAIAAJ_jp2%2Fbub_gb_20snAQAAIAAJ_0482.jp2
A07092-242-a,https://iiif.archive.org/image/iiif/3/bub_gb_20snAQAAIAAJ%2Fbub_gb_20snAQAAIAAJ_jp2.zip%2Fbub_gb_20snAQAAIAAJ_jp2%2Fbub_gb_20snAQAAIAAJ_0483.jp2
A07092-242-b,https://iiif.archive.org/image/iiif/3/bub_gb_20snAQAAIAAJ%2Fbub_gb_20snAQAAIAAJ_jp2.zip%2Fbub_gb_20snAQAAIAAJ_jp2%2Fbub_gb_20snAQAAIAAJ_0484.jp2
A07092-243-a,https://iiif.archive.org/image/iiif/3/bub_gb_20snAQAAIAAJ%2Fbub_gb_20snAQAAIAAJ_jp2.zip%2Fbub_gb_20snAQAAIAAJ_jp2%2Fbub_gb_20snAQAAIAAJ_0485.jp2
A07092-243-b,https://iiif.archive.org/image/iiif/3/bub_gb_20snAQAAIAAJ%2Fbub_gb_20snAQAAIAAJ_jp2.zip%2Fbub_gb_20snAQAAIAAJ_jp2%2Fbub_gb_20snAQAAIAAJ_0486.jp2
A07092-244-a,https://iiif.archive.org/image/iiif/3/bub_gb_20snAQAAIAAJ%2Fbub_gb_20snAQAAIAAJ_jp2.zip%2Fbub_gb_20snAQAAIAAJ_jp2%2Fbub_gb_20snAQAAIAAJ_0487.jp2
A07092-244-b,https://iiif.archive.org/image/iiif/3/bub_gb_20snAQAAIAAJ%2Fbub_gb_20snAQAAIAAJ_jp2.zip%2Fbub_gb_20snAQAAIAAJ_jp2%2Fbub_gb_20snAQAAIAAJ_0488.jp2
A07092-245-a,https://iiif.archive.org/image/iiif/3/bub_gb_20snAQAAIAAJ%2Fbub_gb_20snAQAAIAAJ_jp2.zip%2Fbub_gb_20snAQAAIAAJ_jp2%2Fbub_gb_20snAQAAIAAJ_0489.jp2
A07092-245-b,https://iiif.archive.org/image/iiif/3/bub_gb_20snAQAAIAAJ%2Fbub_gb_20snAQAAIAAJ_jp2.zip%2Fbub_gb_20snAQAAIAAJ_jp2%2Fbub_gb_20snAQAAIAAJ_0490.jp2
A07092-246-a,https://iiif.archive.org/image/iiif/3/bub_gb_20snAQAAIAAJ%2Fbub_gb_20snAQAAIAAJ_jp2.zip%2Fbub_gb_20snAQAAIAAJ_jp2%2Fbub_gb_20snAQAAIAAJ_0491.jp2
A07092-246-b,https://iiif.archive.org/image/iiif/3/bub_gb_20snAQAAIAAJ%2Fbub_gb_20snAQAAIAAJ_jp2.zip%2Fbub_gb_20snAQAAIAAJ_jp2%2Fbub_gb_20snAQAAIAAJ_0492.jp2
A07092-247-a,https://iiif.archive.org/image/iiif/3/bub_gb_20snAQAAIAAJ%2Fbub_gb_20snAQAAIAAJ_jp2.zip%2Fbub_gb_20snAQAAIAAJ_jp2%2Fbub_gb_20snAQAAIAAJ_0493.jp2
A07092-247-b,https://iiif.archive.org/image/iiif/3/bub_gb_20snAQAAIAAJ%2Fbub_gb_20snAQAAIAAJ_jp2.zip%2Fbub_gb_20snAQAAIAAJ_jp2%2Fbub_gb_20snAQAAIAAJ_0494.jp2
A07092-248-a,https://iiif.archive.org/image/iiif/3/bub_gb_20snAQAAIAAJ%2Fbub_gb_20snAQAAIAAJ_jp2.zip%2Fbub_gb_20snAQAAIAAJ_jp2%2Fbub_gb_20snAQAAIAAJ_0495.jp2
A07092-248-b,https://iiif.archive.org/image/iiif/3/bub_gb_20snAQAAIAAJ%2Fbub_gb_20snAQAAIAAJ_jp2.zip%2Fbub_gb_20snAQAAIAAJ_jp2%2Fbub_gb_20snAQAAIAAJ_0496.jp2
A07092-249-a,https://iiif.archive.org/image/iiif/3/bub_gb_20snAQAAIAAJ%2Fbub_gb_20snAQAAIAAJ_jp2.zip%2Fbub_gb_20snAQAAIAAJ_jp2%2Fbub_gb_20snAQAAIAAJ_0497.jp2
A07092-249-b,https://iiif.archive.org/image/iiif/3/bub_gb_20snAQAAIAAJ%2Fbub_gb_20snAQAAIAAJ_jp2.zip%2Fbub_gb_20snAQAAIAAJ_jp2%2Fbub_gb_20snAQAAIAAJ_0498.jp2
A07092-250-a,https://iiif.archive.org/image/iiif/3/bub_gb_20snAQAAIAAJ%2Fbub_gb_20snAQAAIAAJ_jp2.zip%2Fbub_gb_20snAQAAIAAJ_jp2%2Fbub_gb_20snAQAAIAAJ_0499.jp2
A07092-250-b,https://iiif.archive.org/image/iiif/3/bub_gb_20snAQAAIAAJ%2Fbub_gb_20snAQAAIAAJ_jp2.zip%2Fbub_gb_20snAQAAIAAJ_jp2%2Fbub_gb_20snAQAAIAAJ_0500.jp2
A07092-251-a,https://iiif.archive.org/image/iiif/3/bub_gb_20snAQAAIAAJ%2Fbub_gb_20snAQAAIAAJ_jp2.zip%2Fbub_gb_20snAQAAIAAJ_jp2%2Fbub_gb_20snAQAAIAAJ_0501.jp2
A07092-251-b,https://iiif.archive.org/image/iiif/3/bub_gb_20snAQAAIAAJ%2Fbub_gb_20snAQAAIAAJ_jp2.zip%2Fbub_gb_20snAQAAIAAJ_jp2%2Fbub_gb_20snAQAAIAAJ_0502.jp2
A07092-252-a,https://iiif.archive.org/image/iiif/3/bub_gb_20snAQAAIAAJ%2Fbub_gb_20snAQAAIAAJ_jp2.zip%2Fbub_gb_20snAQAAIAAJ_jp2%2Fbub_gb_20snAQAAIAAJ_0503.jp2
A07092-252-b,https://iiif.archive.org/image/iiif/3/bub_gb_20snAQAAIAAJ%2Fbub_gb_20snAQAAIAAJ_jp2.zip%2Fbub_gb_20snAQAAIAAJ_jp2%2Fbub_gb_20snAQAAIAAJ_0504.jp2
A07092-253-a,https://iiif.archive.org/image/iiif/3/bub_gb_20snAQAAIAAJ%2Fbub_gb_20snAQAAIAAJ_jp2.zip%2Fbub_gb_20snAQAAIAAJ_jp2%2Fbub_gb_20snAQAAIAAJ_0505.jp2
A07092-253-b,https://iiif.archive.org/image/iiif/3/bub_gb_20snAQAAIAAJ%2Fbub_gb_20snAQAAIAAJ_jp2.zip%2Fbub_gb_20snAQAAIAAJ_jp2%2Fbub_gb_20snAQAAIAAJ_0506.jp2
A07092-254-a,https://iiif.archive.org/image/iiif/3/bub_gb_20snAQAAIAAJ%2Fbub_gb_20snAQAAIAAJ_jp2.zip%2Fbub_gb_20snAQAAIAAJ_jp2%2Fbub_gb_20snAQAAIAAJ_0507.jp2
A07092-254-b,https://iiif.archive.org/image/iiif/3/bub_gb_20snAQAAIAAJ%2Fbub_gb_20snAQAAIAAJ_jp2.zip%2Fbub_gb_20snAQAAIAAJ_jp2%2Fbub_gb_20snAQAAIAAJ_0508.jp2
A07092-255-a,https://iiif.archive.org/image/iiif/3/bub_gb_20snAQAAIAAJ%2Fbub_gb_20snAQAAIAAJ_jp2.zip%2Fbub_gb_20snAQAAIAAJ_jp2%2Fbub_gb_20snAQAAIAAJ_0509.jp2
A07092-255-b,9999
