A07248-001-b,https://iiif.archive.org/iiif/unnaturallcombat00mass$7
A07248-002-a,https://iiif.archive.org/iiif/unnaturallcombat00mass$8
A07248-002-b,https://iiif.archive.org/iiif/unnaturallcombat00mass$9
A07248-003-a,https://iiif.archive.org/iiif/unnaturallcombat00mass$10
A07248-003-b,https://iiif.archive.org/iiif/unnaturallcombat00mass$11
A07248-004-a,https://iiif.archive.org/iiif/unnaturallcombat00mass$12
A07248-004-b,https://iiif.archive.org/iiif/unnaturallcombat00mass$13
A07248-005-a,https://iiif.archive.org/iiif/unnaturallcombat00mass$14
A07248-005-b,https://iiif.archive.org/iiif/unnaturallcombat00mass$15
A07248-006-a,https://iiif.archive.org/iiif/unnaturallcombat00mass$16
A07248-006-b,https://iiif.archive.org/iiif/unnaturallcombat00mass$17
A07248-007-a,https://iiif.archive.org/iiif/unnaturallcombat00mass$18
A07248-007-b,https://iiif.archive.org/iiif/unnaturallcombat00mass$19
A07248-008-a,https://iiif.archive.org/iiif/unnaturallcombat00mass$20
A07248-008-b,https://iiif.archive.org/iiif/unnaturallcombat00mass$21
A07248-009-a,https://iiif.archive.org/iiif/unnaturallcombat00mass$22
A07248-009-b,https://iiif.archive.org/iiif/unnaturallcombat00mass$23
A07248-010-a,https://iiif.archive.org/iiif/unnaturallcombat00mass$24
A07248-010-b,https://iiif.archive.org/iiif/unnaturallcombat00mass$25
A07248-011-a,https://iiif.archive.org/iiif/unnaturallcombat00mass$26
A07248-011-b,https://iiif.archive.org/iiif/unnaturallcombat00mass$27
A07248-012-a,https://iiif.archive.org/iiif/unnaturallcombat00mass$28
A07248-012-b,https://iiif.archive.org/iiif/unnaturallcombat00mass$29
A07248-013-a,https://iiif.archive.org/iiif/unnaturallcombat00mass$30
A07248-013-b,https://iiif.archive.org/iiif/unnaturallcombat00mass$31
A07248-014-a,https://iiif.archive.org/iiif/unnaturallcombat00mass$32
A07248-014-b,https://iiif.archive.org/iiif/unnaturallcombat00mass$33
A07248-015-a,https://iiif.archive.org/iiif/unnaturallcombat00mass$34
A07248-015-b,https://iiif.archive.org/iiif/unnaturallcombat00mass$35
A07248-016-a,https://iiif.archive.org/iiif/unnaturallcombat00mass$36
A07248-016-b,https://iiif.archive.org/iiif/unnaturallcombat00mass$37
A07248-017-a,https://iiif.archive.org/iiif/unnaturallcombat00mass$38
A07248-017-b,https://iiif.archive.org/iiif/unnaturallcombat00mass$39
A07248-018-a,https://iiif.archive.org/iiif/unnaturallcombat00mass$40
A07248-018-b,https://iiif.archive.org/iiif/unnaturallcombat00mass$41
A07248-019-a,https://iiif.archive.org/iiif/unnaturallcombat00mass$42
A07248-019-b,https://iiif.archive.org/iiif/unnaturallcombat00mass$43
A07248-020-a,https://iiif.archive.org/iiif/unnaturallcombat00mass$44
A07248-020-b,https://iiif.archive.org/iiif/unnaturallcombat00mass$45
A07248-021-a,https://iiif.archive.org/iiif/unnaturallcombat00mass$46
A07248-021-b,https://iiif.archive.org/iiif/unnaturallcombat00mass$47
A07248-022-a,https://iiif.archive.org/iiif/unnaturallcombat00mass$48
A07248-022-b,https://iiif.archive.org/iiif/unnaturallcombat00mass$49
A07248-023-a,https://iiif.archive.org/iiif/unnaturallcombat00mass$50
A07248-023-b,https://iiif.archive.org/iiif/unnaturallcombat00mass$51
A07248-024-a,https://iiif.archive.org/iiif/unnaturallcombat00mass$52
A07248-024-b,https://iiif.archive.org/iiif/unnaturallcombat00mass$53
A07248-025-a,https://iiif.archive.org/iiif/unnaturallcombat00mass$54
A07248-025-b,https://iiif.archive.org/iiif/unnaturallcombat00mass$55
A07248-026-a,https://iiif.archive.org/iiif/unnaturallcombat00mass$56
A07248-026-b,https://iiif.archive.org/iiif/unnaturallcombat00mass$57
A07248-027-a,https://iiif.archive.org/iiif/unnaturallcombat00mass$58
A07248-027-b,https://iiif.archive.org/iiif/unnaturallcombat00mass$59
A07248-028-a,https://iiif.archive.org/iiif/unnaturallcombat00mass$60
A07248-028-b,https://iiif.archive.org/iiif/unnaturallcombat00mass$61
A07248-029-a,https://iiif.archive.org/iiif/unnaturallcombat00mass$62
A07248-029-b,https://iiif.archive.org/iiif/unnaturallcombat00mass$63
A07248-030-a,https://iiif.archive.org/iiif/unnaturallcombat00mass$64
A07248-030-b,https://iiif.archive.org/iiif/unnaturallcombat00mass$65
A07248-031-a,https://iiif.archive.org/iiif/unnaturallcombat00mass$66
A07248-031-b,https://iiif.archive.org/iiif/unnaturallcombat00mass$67
A07248-032-a,https://iiif.archive.org/iiif/unnaturallcombat00mass$68
A07248-032-b,https://iiif.archive.org/iiif/unnaturallcombat00mass$69
A07248-033-a,https://iiif.archive.org/iiif/unnaturallcombat00mass$70
A07248-033-b,https://iiif.archive.org/iiif/unnaturallcombat00mass$71
A07248-034-a,https://iiif.archive.org/iiif/unnaturallcombat00mass$72
A07248-034-b,https://iiif.archive.org/iiif/unnaturallcombat00mass$73
A07248-035-a,https://iiif.archive.org/iiif/unnaturallcombat00mass$74
A07248-035-b,https://iiif.archive.org/iiif/unnaturallcombat00mass$75
A07248-036-a,https://iiif.archive.org/iiif/unnaturallcombat00mass$76
A07248-036-b,https://iiif.archive.org/iiif/unnaturallcombat00mass$77
A07248-037-a,https://iiif.archive.org/iiif/unnaturallcombat00mass$78
A07248-037-b,https://iiif.archive.org/iiif/unnaturallcombat00mass$79
A07248-038-a,https://iiif.archive.org/iiif/unnaturallcombat00mass$80
A07248-038-b,https://iiif.archive.org/iiif/unnaturallcombat00mass$81
A07248-039-a,https://iiif.archive.org/iiif/unnaturallcombat00mass$82
A07248-039-b,https://iiif.archive.org/iiif/unnaturallcombat00mass$83
A07248-040-a,https://iiif.archive.org/iiif/unnaturallcombat00mass$84
A07248-040-b,https://iiif.archive.org/iiif/unnaturallcombat00mass$85
A07248-041-a,https://iiif.archive.org/iiif/unnaturallcombat00mass$86
A07248-041-b,https://iiif.archive.org/iiif/unnaturallcombat00mass$87
