A07330-001-b,https://iiif.archive.org/iiif/twotragediesvizc00mayt$219
A07330-002-b,https://iiif.archive.org/iiif/twotragediesvizc00mayt$221
A07330-003-a,https://iiif.archive.org/iiif/twotragediesvizc00mayt$222
A07330-003-b,https://iiif.archive.org/iiif/twotragediesvizc00mayt$223
A07330-004-a,https://iiif.archive.org/iiif/twotragediesvizc00mayt$224
A07330-004-b,https://iiif.archive.org/iiif/twotragediesvizc00mayt$225
A07330-005-a,https://iiif.archive.org/iiif/twotragediesvizc00mayt$226
A07330-005-b,https://iiif.archive.org/iiif/twotragediesvizc00mayt$227
A07330-006-a,https://iiif.archive.org/iiif/twotragediesvizc00mayt$228
A07330-006-b,https://iiif.archive.org/iiif/twotragediesvizc00mayt$229
A07330-007-a,https://iiif.archive.org/iiif/twotragediesvizc00mayt$230
A07330-007-b,https://iiif.archive.org/iiif/twotragediesvizc00mayt$231
A07330-008-a,https://iiif.archive.org/iiif/twotragediesvizc00mayt$232
A07330-008-b,https://iiif.archive.org/iiif/twotragediesvizc00mayt$233
A07330-009-a,https://iiif.archive.org/iiif/twotragediesvizc00mayt$234
A07330-009-b,https://iiif.archive.org/iiif/twotragediesvizc00mayt$235
A07330-010-a,https://iiif.archive.org/iiif/twotragediesvizc00mayt$236
A07330-010-b,https://iiif.archive.org/iiif/twotragediesvizc00mayt$237
A07330-011-a,https://iiif.archive.org/iiif/twotragediesvizc00mayt$238
A07330-011-b,https://iiif.archive.org/iiif/twotragediesvizc00mayt$239
A07330-012-a,https://iiif.archive.org/iiif/twotragediesvizc00mayt$240
A07330-012-b,https://iiif.archive.org/iiif/twotragediesvizc00mayt$241
A07330-013-a,https://iiif.archive.org/iiif/twotragediesvizc00mayt$242
A07330-013-b,https://iiif.archive.org/iiif/twotragediesvizc00mayt$243
A07330-014-a,https://iiif.archive.org/iiif/twotragediesvizc00mayt$244
A07330-014-b,https://iiif.archive.org/iiif/twotragediesvizc00mayt$245
A07330-015-a,https://iiif.archive.org/iiif/twotragediesvizc00mayt$246
A07330-015-b,https://iiif.archive.org/iiif/twotragediesvizc00mayt$247
A07330-016-a,https://iiif.archive.org/iiif/twotragediesvizc00mayt$248
A07330-016-b,https://iiif.archive.org/iiif/twotragediesvizc00mayt$249
A07330-017-a,https://iiif.archive.org/iiif/twotragediesvizc00mayt$250
A07330-017-b,https://iiif.archive.org/iiif/twotragediesvizc00mayt$251
A07330-018-a,https://iiif.archive.org/iiif/twotragediesvizc00mayt$252
A07330-018-b,https://iiif.archive.org/iiif/twotragediesvizc00mayt$253
A07330-019-a,https://iiif.archive.org/iiif/twotragediesvizc00mayt$254
A07330-019-b,https://iiif.archive.org/iiif/twotragediesvizc00mayt$255
A07330-020-a,https://iiif.archive.org/iiif/twotragediesvizc00mayt$256
A07330-020-b,https://iiif.archive.org/iiif/twotragediesvizc00mayt$257
A07330-021-a,https://iiif.archive.org/iiif/twotragediesvizc00mayt$258
A07330-021-b,https://iiif.archive.org/iiif/twotragediesvizc00mayt$259
A07330-022-a,https://iiif.archive.org/iiif/twotragediesvizc00mayt$260
A07330-022-b,https://iiif.archive.org/iiif/twotragediesvizc00mayt$261
A07330-023-a,https://iiif.archive.org/iiif/twotragediesvizc00mayt$262
A07330-023-b,https://iiif.archive.org/iiif/twotragediesvizc00mayt$263
A07330-024-a,https://iiif.archive.org/iiif/twotragediesvizc00mayt$264
A07330-024-b,https://iiif.archive.org/iiif/twotragediesvizc00mayt$265
A07330-025-a,https://iiif.archive.org/iiif/twotragediesvizc00mayt$266
A07330-025-b,https://iiif.archive.org/iiif/twotragediesvizc00mayt$267
A07330-026-a,https://iiif.archive.org/iiif/twotragediesvizc00mayt$268
A07330-026-b,https://iiif.archive.org/iiif/twotragediesvizc00mayt$269
A07330-027-a,https://iiif.archive.org/iiif/twotragediesvizc00mayt$270
A07330-027-b,https://iiif.archive.org/iiif/twotragediesvizc00mayt$271
A07330-028-a,https://iiif.archive.org/iiif/twotragediesvizc00mayt$272
A07330-028-b,https://iiif.archive.org/iiif/twotragediesvizc00mayt$273
A07330-029-a,https://iiif.archive.org/iiif/twotragediesvizc00mayt$274
A07330-029-b,https://iiif.archive.org/iiif/twotragediesvizc00mayt$275
A07330-030-a,https://iiif.archive.org/iiif/twotragediesvizc00mayt$276
A07330-030-b,https://iiif.archive.org/iiif/twotragediesvizc00mayt$277
A07330-031-a,https://iiif.archive.org/iiif/twotragediesvizc00mayt$278
A07330-031-b,https://iiif.archive.org/iiif/twotragediesvizc00mayt$279
A07330-032-a,https://iiif.archive.org/iiif/twotragediesvizc00mayt$280
A07330-032-b,https://iiif.archive.org/iiif/twotragediesvizc00mayt$281
A07330-033-a,https://iiif.archive.org/iiif/twotragediesvizc00mayt$282
A07330-033-b,https://iiif.archive.org/iiif/twotragediesvizc00mayt$283
A07330-034-a,https://iiif.archive.org/iiif/twotragediesvizc00mayt$284
A07330-034-b,https://iiif.archive.org/iiif/twotragediesvizc00mayt$285
A07330-035-a,https://iiif.archive.org/iiif/twotragediesvizc00mayt$286
A07330-035-b,https://iiif.archive.org/iiif/twotragediesvizc00mayt$287
A07330-036-a,https://iiif.archive.org/iiif/twotragediesvizc00mayt$288
A07330-036-b,https://iiif.archive.org/iiif/twotragediesvizc00mayt$289
A07330-037-a,https://iiif.archive.org/iiif/twotragediesvizc00mayt$290
A07330-037-b,https://iiif.archive.org/iiif/twotragediesvizc00mayt$291
A07330-038-a,https://iiif.archive.org/iiif/twotragediesvizc00mayt$292
A07330-038-b,https://iiif.archive.org/iiif/twotragediesvizc00mayt$293
A07330-039-a,https://iiif.archive.org/iiif/twotragediesvizc00mayt$294
A07330-039-b,https://iiif.archive.org/iiif/twotragediesvizc00mayt$295
A07330-040-a,https://iiif.archive.org/iiif/twotragediesvizc00mayt$296
A07330-040-b,https://iiif.archive.org/iiif/twotragediesvizc00mayt$297
A07330-041-a,https://iiif.archive.org/iiif/twotragediesvizc00mayt$298
A07330-041-b,https://iiif.archive.org/iiif/twotragediesvizc00mayt$299
A07330-042-a,https://iiif.archive.org/iiif/twotragediesvizc00mayt$300
