A08693-001-a,9999
A08693-002-a,9999
A08693-003-a,9999
A08693-003-b,https://images.digital.library.illinois.edu/iiif/2/40b94a10-0616-013b-c6ca-02d0d7bfd6e4-1
A08693-004-a,https://images.digital.library.illinois.edu/iiif/2/40bdc870-0616-013b-c6ca-02d0d7bfd6e4-f
A08693-004-b,https://images.digital.library.illinois.edu/iiif/2/40c27eb0-0616-013b-c6ca-02d0d7bfd6e4-a
A08693-005-a,https://images.digital.library.illinois.edu/iiif/2/40c7ae80-0616-013b-c6ca-02d0d7bfd6e4-0
A08693-005-b,https://images.digital.library.illinois.edu/iiif/2/40cbab20-0616-013b-c6ca-02d0d7bfd6e4-3
A08693-006-a,https://images.digital.library.illinois.edu/iiif/2/40d08bc0-0616-013b-c6ca-02d0d7bfd6e4-1
A08693-006-b,https://images.digital.library.illinois.edu/iiif/2/40d7b300-0616-013b-c6ca-02d0d7bfd6e4-d
A08693-007-a,https://images.digital.library.illinois.edu/iiif/2/40dcb600-0616-013b-c6ca-02d0d7bfd6e4-c
A08693-007-b,9999
