A09202-001-b,https://iiif.archive.org/iiif/mineruabritannao00peach$13
A09202-002-a,https://iiif.archive.org/iiif/mineruabritannao00peach$14
A09202-002-b,https://iiif.archive.org/iiif/mineruabritannao00peach$15
A09202-003-a,https://iiif.archive.org/iiif/mineruabritannao00peach$16
A09202-003-b,https://iiif.archive.org/iiif/mineruabritannao00peach$17
A09202-004-a,https://iiif.archive.org/iiif/mineruabritannao00peach$18
A09202-004-b,https://iiif.archive.org/iiif/mineruabritannao00peach$19
A09202-005-a,https://iiif.archive.org/iiif/mineruabritannao00peach$20
A09202-005-b,https://iiif.archive.org/iiif/mineruabritannao00peach$21
A09202-006-a,https://iiif.archive.org/iiif/mineruabritannao00peach$22
A09202-006-b,https://iiif.archive.org/iiif/mineruabritannao00peach$23
A09202-007-a,https://iiif.archive.org/iiif/mineruabritannao00peach$24
A09202-007-b,https://iiif.archive.org/iiif/mineruabritannao00peach$25
A09202-008-a,https://iiif.archive.org/iiif/mineruabritannao00peach$26
A09202-008-b,https://iiif.archive.org/iiif/mineruabritannao00peach$27
A09202-009-a,https://iiif.archive.org/iiif/mineruabritannao00peach$28
A09202-009-b,https://iiif.archive.org/iiif/mineruabritannao00peach$29
A09202-010-a,https://iiif.archive.org/iiif/mineruabritannao00peach$30
A09202-010-b,https://iiif.archive.org/iiif/mineruabritannao00peach$31
A09202-011-a,https://iiif.archive.org/iiif/mineruabritannao00peach$32
A09202-011-b,https://iiif.archive.org/iiif/mineruabritannao00peach$33
A09202-012-a,https://iiif.archive.org/iiif/mineruabritannao00peach$34
A09202-012-b,https://iiif.archive.org/iiif/mineruabritannao00peach$35
A09202-013-a,https://iiif.archive.org/iiif/mineruabritannao00peach$36
A09202-013-b,https://iiif.archive.org/iiif/mineruabritannao00peach$37
A09202-014-a,https://iiif.archive.org/iiif/mineruabritannao00peach$38
A09202-014-b,https://iiif.archive.org/iiif/mineruabritannao00peach$39
A09202-015-a,https://iiif.archive.org/iiif/mineruabritannao00peach$40
A09202-015-b,https://iiif.archive.org/iiif/mineruabritannao00peach$41
A09202-016-a,https://iiif.archive.org/iiif/mineruabritannao00peach$42
A09202-016-b,https://iiif.archive.org/iiif/mineruabritannao00peach$43
A09202-017-a,https://iiif.archive.org/iiif/mineruabritannao00peach$44
A09202-017-b,https://iiif.archive.org/iiif/mineruabritannao00peach$45
A09202-018-a,https://iiif.archive.org/iiif/mineruabritannao00peach$46
A09202-018-b,https://iiif.archive.org/iiif/mineruabritannao00peach$47
A09202-019-a,https://iiif.archive.org/iiif/mineruabritannao00peach$48
A09202-019-b,https://iiif.archive.org/iiif/mineruabritannao00peach$49
A09202-020-a,https://iiif.archive.org/iiif/mineruabritannao00peach$50
A09202-020-b,https://iiif.archive.org/iiif/mineruabritannao00peach$51
A09202-021-a,https://iiif.archive.org/iiif/mineruabritannao00peach$52
A09202-021-b,https://iiif.archive.org/iiif/mineruabritannao00peach$53
A09202-022-a,https://iiif.archive.org/iiif/mineruabritannao00peach$54
A09202-022-b,https://iiif.archive.org/iiif/mineruabritannao00peach$55
A09202-023-a,https://iiif.archive.org/iiif/mineruabritannao00peach$56
A09202-023-b,https://iiif.archive.org/iiif/mineruabritannao00peach$57
A09202-024-a,https://iiif.archive.org/iiif/mineruabritannao00peach$58
A09202-024-b,https://iiif.archive.org/iiif/mineruabritannao00peach$59
A09202-025-a,https://iiif.archive.org/iiif/mineruabritannao00peach$60
A09202-025-b,https://iiif.archive.org/iiif/mineruabritannao00peach$61
A09202-026-a,https://iiif.archive.org/iiif/mineruabritannao00peach$62
A09202-026-b,https://iiif.archive.org/iiif/mineruabritannao00peach$63
A09202-027-a,https://iiif.archive.org/iiif/mineruabritannao00peach$64
A09202-027-b,https://iiif.archive.org/iiif/mineruabritannao00peach$65
A09202-028-a,https://iiif.archive.org/iiif/mineruabritannao00peach$66
A09202-028-b,https://iiif.archive.org/iiif/mineruabritannao00peach$67
A09202-029-a,https://iiif.archive.org/iiif/mineruabritannao00peach$68
A09202-029-b,https://iiif.archive.org/iiif/mineruabritannao00peach$69
A09202-030-a,https://iiif.archive.org/iiif/mineruabritannao00peach$70
A09202-030-b,https://iiif.archive.org/iiif/mineruabritannao00peach$71
A09202-031-a,https://iiif.archive.org/iiif/mineruabritannao00peach$72
A09202-031-b,https://iiif.archive.org/iiif/mineruabritannao00peach$73
A09202-032-a,https://iiif.archive.org/iiif/mineruabritannao00peach$74
A09202-032-b,https://iiif.archive.org/iiif/mineruabritannao00peach$75
A09202-033-a,https://iiif.archive.org/iiif/mineruabritannao00peach$76
A09202-033-b,https://iiif.archive.org/iiif/mineruabritannao00peach$77
A09202-034-a,https://iiif.archive.org/iiif/mineruabritannao00peach$78
A09202-034-b,https://iiif.archive.org/iiif/mineruabritannao00peach$79
A09202-035-a,https://iiif.archive.org/iiif/mineruabritannao00peach$80
A09202-035-b,https://iiif.archive.org/iiif/mineruabritannao00peach$81
A09202-036-a,https://iiif.archive.org/iiif/mineruabritannao00peach$82
A09202-036-b,https://iiif.archive.org/iiif/mineruabritannao00peach$83
A09202-037-a,https://iiif.archive.org/iiif/mineruabritannao00peach$84
A09202-037-b,https://iiif.archive.org/iiif/mineruabritannao00peach$85
A09202-038-a,https://iiif.archive.org/iiif/mineruabritannao00peach$86
A09202-038-b,https://iiif.archive.org/iiif/mineruabritannao00peach$87
A09202-039-a,https://iiif.archive.org/iiif/mineruabritannao00peach$88
A09202-039-b,https://iiif.archive.org/iiif/mineruabritannao00peach$89
A09202-040-a,https://iiif.archive.org/iiif/mineruabritannao00peach$90
A09202-040-b,https://iiif.archive.org/iiif/mineruabritannao00peach$91
A09202-041-a,https://iiif.archive.org/iiif/mineruabritannao00peach$92
A09202-041-b,https://iiif.archive.org/iiif/mineruabritannao00peach$93
A09202-042-a,https://iiif.archive.org/iiif/mineruabritannao00peach$94
A09202-042-b,https://iiif.archive.org/iiif/mineruabritannao00peach$95
A09202-043-a,https://iiif.archive.org/iiif/mineruabritannao00peach$96
A09202-043-b,https://iiif.archive.org/iiif/mineruabritannao00peach$97
A09202-044-a,https://iiif.archive.org/iiif/mineruabritannao00peach$98
A09202-044-b,https://iiif.archive.org/iiif/mineruabritannao00peach$99
A09202-045-a,https://iiif.archive.org/iiif/mineruabritannao00peach$100
A09202-045-b,https://iiif.archive.org/iiif/mineruabritannao00peach$101
A09202-046-a,https://iiif.archive.org/iiif/mineruabritannao00peach$102
A09202-046-b,https://iiif.archive.org/iiif/mineruabritannao00peach$103
A09202-047-a,https://iiif.archive.org/iiif/mineruabritannao00peach$104
A09202-047-b,https://iiif.archive.org/iiif/mineruabritannao00peach$105
A09202-048-a,https://iiif.archive.org/iiif/mineruabritannao00peach$106
A09202-048-b,https://iiif.archive.org/iiif/mineruabritannao00peach$107
A09202-049-a,https://iiif.archive.org/iiif/mineruabritannao00peach$108
A09202-049-b,https://iiif.archive.org/iiif/mineruabritannao00peach$109
A09202-050-a,https://iiif.archive.org/iiif/mineruabritannao00peach$110
A09202-050-b,https://iiif.archive.org/iiif/mineruabritannao00peach$111
A09202-051-a,https://iiif.archive.org/iiif/mineruabritannao00peach$112
A09202-051-b,https://iiif.archive.org/iiif/mineruabritannao00peach$113
A09202-052-a,https://iiif.archive.org/iiif/mineruabritannao00peach$114
A09202-052-b,https://iiif.archive.org/iiif/mineruabritannao00peach$115
A09202-053-a,https://iiif.archive.org/iiif/mineruabritannao00peach$116
A09202-053-b,https://iiif.archive.org/iiif/mineruabritannao00peach$117
A09202-054-a,https://iiif.archive.org/iiif/mineruabritannao00peach$118
A09202-054-b,https://iiif.archive.org/iiif/mineruabritannao00peach$119
A09202-055-a,https://iiif.archive.org/iiif/mineruabritannao00peach$120
A09202-055-b,https://iiif.archive.org/iiif/mineruabritannao00peach$121
A09202-056-a,https://iiif.archive.org/iiif/mineruabritannao00peach$122
A09202-056-b,https://iiif.archive.org/iiif/mineruabritannao00peach$123
A09202-057-a,https://iiif.archive.org/iiif/mineruabritannao00peach$124
A09202-057-b,https://iiif.archive.org/iiif/mineruabritannao00peach$125
A09202-058-a,https://iiif.archive.org/iiif/mineruabritannao00peach$126
A09202-058-b,https://iiif.archive.org/iiif/mineruabritannao00peach$127
A09202-059-b,https://iiif.archive.org/iiif/mineruabritannao00peach$129
A09202-060-b,https://iiif.archive.org/iiif/mineruabritannao00peach$131
A09202-061-a,https://iiif.archive.org/iiif/mineruabritannao00peach$132
A09202-061-b,https://iiif.archive.org/iiif/mineruabritannao00peach$133
A09202-062-a,https://iiif.archive.org/iiif/mineruabritannao00peach$134
A09202-062-b,https://iiif.archive.org/iiif/mineruabritannao00peach$135
A09202-063-a,https://iiif.archive.org/iiif/mineruabritannao00peach$136
A09202-063-b,https://iiif.archive.org/iiif/mineruabritannao00peach$137
A09202-064-a,https://iiif.archive.org/iiif/mineruabritannao00peach$138
A09202-064-b,https://iiif.archive.org/iiif/mineruabritannao00peach$139
A09202-065-a,https://iiif.archive.org/iiif/mineruabritannao00peach$140
A09202-065-b,https://iiif.archive.org/iiif/mineruabritannao00peach$141
A09202-066-a,https://iiif.archive.org/iiif/mineruabritannao00peach$142
A09202-066-b,https://iiif.archive.org/iiif/mineruabritannao00peach$143
A09202-067-a,https://iiif.archive.org/iiif/mineruabritannao00peach$144
A09202-067-b,https://iiif.archive.org/iiif/mineruabritannao00peach$145
A09202-068-a,https://iiif.archive.org/iiif/mineruabritannao00peach$146
A09202-068-b,https://iiif.archive.org/iiif/mineruabritannao00peach$147
A09202-069-a,https://iiif.archive.org/iiif/mineruabritannao00peach$148
A09202-069-b,https://iiif.archive.org/iiif/mineruabritannao00peach$149
A09202-070-a,https://iiif.archive.org/iiif/mineruabritannao00peach$150
A09202-070-b,https://iiif.archive.org/iiif/mineruabritannao00peach$151
A09202-071-a,https://iiif.archive.org/iiif/mineruabritannao00peach$152
A09202-071-b,https://iiif.archive.org/iiif/mineruabritannao00peach$153
A09202-072-a,https://iiif.archive.org/iiif/mineruabritannao00peach$154
A09202-072-b,https://iiif.archive.org/iiif/mineruabritannao00peach$155
A09202-073-a,https://iiif.archive.org/iiif/mineruabritannao00peach$156
A09202-073-b,https://iiif.archive.org/iiif/mineruabritannao00peach$157
A09202-074-a,https://iiif.archive.org/iiif/mineruabritannao00peach$158
A09202-074-b,https://iiif.archive.org/iiif/mineruabritannao00peach$159
A09202-075-a,https://iiif.archive.org/iiif/mineruabritannao00peach$160
A09202-075-b,https://iiif.archive.org/iiif/mineruabritannao00peach$161
A09202-076-a,https://iiif.archive.org/iiif/mineruabritannao00peach$162
A09202-076-b,https://iiif.archive.org/iiif/mineruabritannao00peach$163
A09202-077-a,https://iiif.archive.org/iiif/mineruabritannao00peach$164
A09202-077-b,https://iiif.archive.org/iiif/mineruabritannao00peach$165
A09202-078-a,https://iiif.archive.org/iiif/mineruabritannao00peach$166
A09202-078-b,https://iiif.archive.org/iiif/mineruabritannao00peach$167
A09202-079-a,https://iiif.archive.org/iiif/mineruabritannao00peach$168
A09202-079-b,https://iiif.archive.org/iiif/mineruabritannao00peach$169
A09202-080-a,https://iiif.archive.org/iiif/mineruabritannao00peach$170
A09202-080-b,https://iiif.archive.org/iiif/mineruabritannao00peach$171
A09202-081-a,https://iiif.archive.org/iiif/mineruabritannao00peach$172
A09202-081-b,https://iiif.archive.org/iiif/mineruabritannao00peach$173
A09202-082-a,https://iiif.archive.org/iiif/mineruabritannao00peach$174
A09202-082-b,https://iiif.archive.org/iiif/mineruabritannao00peach$175
A09202-083-a,https://iiif.archive.org/iiif/mineruabritannao00peach$176
A09202-083-b,https://iiif.archive.org/iiif/mineruabritannao00peach$177
A09202-084-a,https://iiif.archive.org/iiif/mineruabritannao00peach$178
A09202-084-b,https://iiif.archive.org/iiif/mineruabritannao00peach$179
A09202-085-a,https://iiif.archive.org/iiif/mineruabritannao00peach$180
A09202-085-b,https://iiif.archive.org/iiif/mineruabritannao00peach$181
A09202-086-a,https://iiif.archive.org/iiif/mineruabritannao00peach$182
A09202-086-b,https://iiif.archive.org/iiif/mineruabritannao00peach$183
A09202-087-a,https://iiif.archive.org/iiif/mineruabritannao00peach$184
A09202-087-b,https://iiif.archive.org/iiif/mineruabritannao00peach$185
A09202-088-a,https://iiif.archive.org/iiif/mineruabritannao00peach$186
A09202-088-b,https://iiif.archive.org/iiif/mineruabritannao00peach$187
A09202-089-a,https://iiif.archive.org/iiif/mineruabritannao00peach$188
A09202-089-b,https://iiif.archive.org/iiif/mineruabritannao00peach$189
A09202-090-a,https://iiif.archive.org/iiif/mineruabritannao00peach$190
A09202-090-b,https://iiif.archive.org/iiif/mineruabritannao00peach$191
A09202-091-a,https://iiif.archive.org/iiif/mineruabritannao00peach$192
A09202-091-b,https://iiif.archive.org/iiif/mineruabritannao00peach$193
A09202-092-a,https://iiif.archive.org/iiif/mineruabritannao00peach$194
A09202-092-b,https://iiif.archive.org/iiif/mineruabritannao00peach$195
A09202-093-a,https://iiif.archive.org/iiif/mineruabritannao00peach$196
A09202-093-b,https://iiif.archive.org/iiif/mineruabritannao00peach$197
A09202-094-a,https://iiif.archive.org/iiif/mineruabritannao00peach$198
A09202-094-b,https://iiif.archive.org/iiif/mineruabritannao00peach$199
A09202-095-a,https://iiif.archive.org/iiif/mineruabritannao00peach$200
A09202-095-b,https://iiif.archive.org/iiif/mineruabritannao00peach$201
A09202-096-a,https://iiif.archive.org/iiif/mineruabritannao00peach$202
A09202-096-b,https://iiif.archive.org/iiif/mineruabritannao00peach$203
A09202-097-a,https://iiif.archive.org/iiif/mineruabritannao00peach$204
A09202-097-b,https://iiif.archive.org/iiif/mineruabritannao00peach$205
A09202-098-a,https://iiif.archive.org/iiif/mineruabritannao00peach$206
A09202-098-b,https://iiif.archive.org/iiif/mineruabritannao00peach$207
A09202-099-a,https://iiif.archive.org/iiif/mineruabritannao00peach$208
A09202-099-b,https://iiif.archive.org/iiif/mineruabritannao00peach$209
A09202-100-a,https://iiif.archive.org/iiif/mineruabritannao00peach$210
A09202-100-b,https://iiif.archive.org/iiif/mineruabritannao00peach$211
A09202-101-a,https://iiif.archive.org/iiif/mineruabritannao00peach$212
A09202-101-b,https://iiif.archive.org/iiif/mineruabritannao00peach$213
A09202-102-a,https://iiif.archive.org/iiif/mineruabritannao00peach$214
A09202-102-b,https://iiif.archive.org/iiif/mineruabritannao00peach$215
A09202-103-a,https://iiif.archive.org/iiif/mineruabritannao00peach$216
A09202-103-b,https://iiif.archive.org/iiif/mineruabritannao00peach$217
A09202-104-a,https://iiif.archive.org/iiif/mineruabritannao00peach$218
A09202-104-b,https://iiif.archive.org/iiif/mineruabritannao00peach$219
A09202-105-a,https://iiif.archive.org/iiif/mineruabritannao00peach$220
A09202-105-b,https://iiif.archive.org/iiif/mineruabritannao00peach$221
A09202-106-a,https://iiif.archive.org/iiif/mineruabritannao00peach$222
A09202-106-b,https://iiif.archive.org/iiif/mineruabritannao00peach$223
A09202-107-a,https://iiif.archive.org/iiif/mineruabritannao00peach$224
A09202-107-b,https://iiif.archive.org/iiif/mineruabritannao00peach$225
A09202-108-a,https://iiif.archive.org/iiif/mineruabritannao00peach$226
A09202-108-b,https://iiif.archive.org/iiif/mineruabritannao00peach$227
A09202-109-a,https://iiif.archive.org/iiif/mineruabritannao00peach$228
A09202-109-b,https://iiif.archive.org/iiif/mineruabritannao00peach$229
A09202-110-a,https://iiif.archive.org/iiif/mineruabritannao00peach$230
A09202-110-b,https://iiif.archive.org/iiif/mineruabritannao00peach$231
A09202-111-a,https://iiif.archive.org/iiif/mineruabritannao00peach$232
A09202-111-b,https://iiif.archive.org/iiif/mineruabritannao00peach$233
A09202-112-a,https://iiif.archive.org/iiif/mineruabritannao00peach$234
A09202-112-b,https://iiif.archive.org/iiif/mineruabritannao00peach$235
A09202-113-a,https://iiif.archive.org/iiif/mineruabritannao00peach$236
A09202-113-b,https://iiif.archive.org/iiif/mineruabritannao00peach$237
A09202-114-a,https://iiif.archive.org/iiif/mineruabritannao00peach$238
A09202-114-b,https://iiif.archive.org/iiif/mineruabritannao00peach$239
A09202-115-a,https://iiif.archive.org/iiif/mineruabritannao00peach$240
A09202-115-b,https://iiif.archive.org/iiif/mineruabritannao00peach$241
A09202-116-a,https://iiif.archive.org/iiif/mineruabritannao00peach$242
A09202-116-b,https://iiif.archive.org/iiif/mineruabritannao00peach$243
