A10373-001-b,https://iiif.archive.org/iiif/prerogativeofpar0rale$5
A10373-002-b,https://iiif.archive.org/iiif/prerogativeofpar0rale$7
A10373-003-a,https://iiif.archive.org/iiif/prerogativeofpar0rale$8
A10373-003-b,https://iiif.archive.org/iiif/prerogativeofpar0rale$9
A10373-004-a,https://iiif.archive.org/iiif/prerogativeofpar0rale$10
A10373-004-b,https://iiif.archive.org/iiif/prerogativeofpar0rale$11
A10373-005-b,https://iiif.archive.org/iiif/prerogativeofpar0rale$13
A10373-006-a,https://iiif.archive.org/iiif/prerogativeofpar0rale$14
A10373-006-b,https://iiif.archive.org/iiif/prerogativeofpar0rale$15
A10373-007-a,https://iiif.archive.org/iiif/prerogativeofpar0rale$16
A10373-007-b,https://iiif.archive.org/iiif/prerogativeofpar0rale$17
A10373-008-a,https://iiif.archive.org/iiif/prerogativeofpar0rale$18
A10373-008-b,https://iiif.archive.org/iiif/prerogativeofpar0rale$19
A10373-009-a,https://iiif.archive.org/iiif/prerogativeofpar0rale$20
A10373-009-b,https://iiif.archive.org/iiif/prerogativeofpar0rale$21
A10373-010-a,https://iiif.archive.org/iiif/prerogativeofpar0rale$22
A10373-010-b,https://iiif.archive.org/iiif/prerogativeofpar0rale$23
A10373-011-a,https://iiif.archive.org/iiif/prerogativeofpar0rale$24
A10373-011-b,https://iiif.archive.org/iiif/prerogativeofpar0rale$25
A10373-012-a,https://iiif.archive.org/iiif/prerogativeofpar0rale$26
A10373-012-b,https://iiif.archive.org/iiif/prerogativeofpar0rale$27
A10373-013-a,https://iiif.archive.org/iiif/prerogativeofpar0rale$28
A10373-013-b,https://iiif.archive.org/iiif/prerogativeofpar0rale$29
A10373-014-a,https://iiif.archive.org/iiif/prerogativeofpar0rale$30
A10373-014-b,https://iiif.archive.org/iiif/prerogativeofpar0rale$31
A10373-015-a,https://iiif.archive.org/iiif/prerogativeofpar0rale$32
A10373-015-b,https://iiif.archive.org/iiif/prerogativeofpar0rale$33
A10373-016-a,https://iiif.archive.org/iiif/prerogativeofpar0rale$34
A10373-016-b,https://iiif.archive.org/iiif/prerogativeofpar0rale$35
A10373-017-a,https://iiif.archive.org/iiif/prerogativeofpar0rale$36
A10373-017-b,https://iiif.archive.org/iiif/prerogativeofpar0rale$37
A10373-018-a,https://iiif.archive.org/iiif/prerogativeofpar0rale$38
A10373-018-b,https://iiif.archive.org/iiif/prerogativeofpar0rale$39
A10373-019-a,https://iiif.archive.org/iiif/prerogativeofpar0rale$40
A10373-019-b,https://iiif.archive.org/iiif/prerogativeofpar0rale$41
A10373-020-a,https://iiif.archive.org/iiif/prerogativeofpar0rale$42
A10373-020-b,https://iiif.archive.org/iiif/prerogativeofpar0rale$43
A10373-021-a,https://iiif.archive.org/iiif/prerogativeofpar0rale$44
A10373-021-b,https://iiif.archive.org/iiif/prerogativeofpar0rale$45
A10373-022-a,https://iiif.archive.org/iiif/prerogativeofpar0rale$46
A10373-022-b,https://iiif.archive.org/iiif/prerogativeofpar0rale$47
A10373-023-a,https://iiif.archive.org/iiif/prerogativeofpar0rale$48
A10373-023-b,https://iiif.archive.org/iiif/prerogativeofpar0rale$49
A10373-024-a,https://iiif.archive.org/iiif/prerogativeofpar0rale$50
A10373-024-b,https://iiif.archive.org/iiif/prerogativeofpar0rale$51
A10373-025-a,https://iiif.archive.org/iiif/prerogativeofpar0rale$52
A10373-025-b,https://iiif.archive.org/iiif/prerogativeofpar0rale$53
A10373-026-a,https://iiif.archive.org/iiif/prerogativeofpar0rale$54
A10373-026-b,https://iiif.archive.org/iiif/prerogativeofpar0rale$55
A10373-027-a,https://iiif.archive.org/iiif/prerogativeofpar0rale$56
A10373-027-b,https://iiif.archive.org/iiif/prerogativeofpar0rale$57
A10373-028-a,https://iiif.archive.org/iiif/prerogativeofpar0rale$58
A10373-028-b,https://iiif.archive.org/iiif/prerogativeofpar0rale$59
A10373-029-a,https://iiif.archive.org/iiif/prerogativeofpar0rale$60
A10373-029-b,https://iiif.archive.org/iiif/prerogativeofpar0rale$61
A10373-030-a,https://iiif.archive.org/iiif/prerogativeofpar0rale$62
A10373-030-b,https://iiif.archive.org/iiif/prerogativeofpar0rale$63
A10373-031-a,https://iiif.archive.org/iiif/prerogativeofpar0rale$64
A10373-031-b,https://iiif.archive.org/iiif/prerogativeofpar0rale$65
A10373-032-a,https://iiif.archive.org/iiif/prerogativeofpar0rale$66
A10373-032-b,https://iiif.archive.org/iiif/prerogativeofpar0rale$67
A10373-033-a,https://iiif.archive.org/iiif/prerogativeofpar0rale$68
A10373-033-b,https://iiif.archive.org/iiif/prerogativeofpar0rale$69
A10373-034-a,https://iiif.archive.org/iiif/prerogativeofpar0rale$70
A10373-034-b,https://iiif.archive.org/iiif/prerogativeofpar0rale$71
A10373-035-a,https://iiif.archive.org/iiif/prerogativeofpar0rale$72
A10373-035-b,https://iiif.archive.org/iiif/prerogativeofpar0rale$73
A10373-036-a,https://iiif.archive.org/iiif/prerogativeofpar0rale$74
A10373-036-b,https://iiif.archive.org/iiif/prerogativeofpar0rale$75
A10373-037-a,https://iiif.archive.org/iiif/prerogativeofpar0rale$76
A10373-037-b,https://iiif.archive.org/iiif/prerogativeofpar0rale$77
A10373-038-a,https://iiif.archive.org/iiif/prerogativeofpar0rale$78
