A11145-001-b,https://iiif.archive.org/iiif/cu31924013123025$10
A11145-002-b,https://iiif.archive.org/iiif/cu31924013123025$14
A11145-003-a,https://iiif.archive.org/iiif/cu31924013123025$15
A11145-003-b,https://iiif.archive.org/iiif/cu31924013123025$18
A11145-004-b,https://iiif.archive.org/iiif/cu31924013123025$22
A11145-005-a,https://iiif.archive.org/iiif/cu31924013123025$23
A11145-005-b,https://iiif.archive.org/iiif/cu31924013123025$26
A11145-006-a,https://iiif.archive.org/iiif/cu31924013123025$27
A11145-006-b,https://iiif.archive.org/iiif/cu31924013123025$30
A11145-007-a,https://iiif.archive.org/iiif/cu31924013123025$31
A11145-007-b,https://iiif.archive.org/iiif/cu31924013123025$34
A11145-008-a,https://iiif.archive.org/iiif/cu31924013123025$35
A11145-008-b,https://iiif.archive.org/iiif/cu31924013123025$38
A11145-009-a,https://iiif.archive.org/iiif/cu31924013123025$39
A11145-009-b,https://iiif.archive.org/iiif/cu31924013123025$42
A11145-010-a,https://iiif.archive.org/iiif/cu31924013123025$43
A11145-010-b,https://iiif.archive.org/iiif/cu31924013123025$46
A11145-011-a,https://iiif.archive.org/iiif/cu31924013123025$47
A11145-011-b,https://iiif.archive.org/iiif/cu31924013123025$50
A11145-012-a,https://iiif.archive.org/iiif/cu31924013123025$51
A11145-012-b,https://iiif.archive.org/iiif/cu31924013123025$54
A11145-013-a,https://iiif.archive.org/iiif/cu31924013123025$55
A11145-013-b,https://iiif.archive.org/iiif/cu31924013123025$58
A11145-014-a,https://iiif.archive.org/iiif/cu31924013123025$59
A11145-014-b,https://iiif.archive.org/iiif/cu31924013123025$62
A11145-015-a,https://iiif.archive.org/iiif/cu31924013123025$63
A11145-015-b,https://iiif.archive.org/iiif/cu31924013123025$66
A11145-016-a,https://iiif.archive.org/iiif/cu31924013123025$67
A11145-016-b,https://iiif.archive.org/iiif/cu31924013123025$70
A11145-017-a,https://iiif.archive.org/iiif/cu31924013123025$71
A11145-017-b,https://iiif.archive.org/iiif/cu31924013123025$74
A11145-018-a,https://iiif.archive.org/iiif/cu31924013123025$75
A11145-018-b,https://iiif.archive.org/iiif/cu31924013123025$78
A11145-019-a,https://iiif.archive.org/iiif/cu31924013123025$79
A11145-019-b,https://iiif.archive.org/iiif/cu31924013123025$82
A11145-020-a,https://iiif.archive.org/iiif/cu31924013123025$83
A11145-020-b,https://iiif.archive.org/iiif/cu31924013123025$86
A11145-021-a,https://iiif.archive.org/iiif/cu31924013123025$87
A11145-021-b,https://iiif.archive.org/iiif/cu31924013123025$90
A11145-022-a,https://iiif.archive.org/iiif/cu31924013123025$91
A11145-022-b,https://iiif.archive.org/iiif/cu31924013123025$94
A11145-023-a,https://iiif.archive.org/iiif/cu31924013123025$95
A11145-023-b,https://iiif.archive.org/iiif/cu31924013123025$98
A11145-024-a,https://iiif.archive.org/iiif/cu31924013123025$99
A11145-024-b,https://iiif.archive.org/iiif/cu31924013123025$102
A11145-025-a,https://iiif.archive.org/iiif/cu31924013123025$103
A11145-025-b,https://iiif.archive.org/iiif/cu31924013123025$106
A11145-026-a,https://iiif.archive.org/iiif/cu31924013123025$107
A11145-026-b,https://iiif.archive.org/iiif/cu31924013123025$110
A11145-027-a,https://iiif.archive.org/iiif/cu31924013123025$111
A11145-027-b,https://iiif.archive.org/iiif/cu31924013123025$114
A11145-028-a,https://iiif.archive.org/iiif/cu31924013123025$115
A11145-028-b,https://iiif.archive.org/iiif/cu31924013123025$118
A11145-029-a,https://iiif.archive.org/iiif/cu31924013123025$119
A11145-029-b,https://iiif.archive.org/iiif/cu31924013123025$122
A11145-030-a,https://iiif.archive.org/iiif/cu31924013123025$123
A11145-030-b,https://iiif.archive.org/iiif/cu31924013123025$126
A11145-031-a,https://iiif.archive.org/iiif/cu31924013123025$127
A11145-031-b,https://iiif.archive.org/iiif/cu31924013123025$130
A11145-032-a,https://iiif.archive.org/iiif/cu31924013123025$131
