A11265-001-b,https://iiif.archive.org/iiif/thomaslordcromwe00smituoft$11
A11265-002-b,https://iiif.archive.org/iiif/thomaslordcromwe00smituoft$15
A11265-003-a,https://iiif.archive.org/iiif/thomaslordcromwe00smituoft$16
A11265-003-b,https://iiif.archive.org/iiif/thomaslordcromwe00smituoft$19
A11265-004-a,https://iiif.archive.org/iiif/thomaslordcromwe00smituoft$20
A11265-004-b,https://iiif.archive.org/iiif/thomaslordcromwe00smituoft$23
A11265-005-a,https://iiif.archive.org/iiif/thomaslordcromwe00smituoft$24
A11265-005-b,https://iiif.archive.org/iiif/thomaslordcromwe00smituoft$27
A11265-006-a,https://iiif.archive.org/iiif/thomaslordcromwe00smituoft$28
A11265-006-b,https://iiif.archive.org/iiif/thomaslordcromwe00smituoft$31
A11265-007-a,https://iiif.archive.org/iiif/thomaslordcromwe00smituoft$32
A11265-007-b,https://iiif.archive.org/iiif/thomaslordcromwe00smituoft$35
A11265-008-a,https://iiif.archive.org/iiif/thomaslordcromwe00smituoft$36
A11265-008-b,https://iiif.archive.org/iiif/thomaslordcromwe00smituoft$39
A11265-009-a,https://iiif.archive.org/iiif/thomaslordcromwe00smituoft$40
A11265-009-b,https://iiif.archive.org/iiif/thomaslordcromwe00smituoft$43
A11265-010-a,https://iiif.archive.org/iiif/thomaslordcromwe00smituoft$44
A11265-010-b,https://iiif.archive.org/iiif/thomaslordcromwe00smituoft$47
A11265-011-a,https://iiif.archive.org/iiif/thomaslordcromwe00smituoft$48
A11265-011-b,https://iiif.archive.org/iiif/thomaslordcromwe00smituoft$51
A11265-012-a,https://iiif.archive.org/iiif/thomaslordcromwe00smituoft$52
A11265-012-b,https://iiif.archive.org/iiif/thomaslordcromwe00smituoft$55
A11265-013-a,https://iiif.archive.org/iiif/thomaslordcromwe00smituoft$56
A11265-013-b,https://iiif.archive.org/iiif/thomaslordcromwe00smituoft$59
A11265-014-a,https://iiif.archive.org/iiif/thomaslordcromwe00smituoft$60
A11265-014-b,https://iiif.archive.org/iiif/thomaslordcromwe00smituoft$63
A11265-015-a,https://iiif.archive.org/iiif/thomaslordcromwe00smituoft$64
A11265-015-b,https://iiif.archive.org/iiif/thomaslordcromwe00smituoft$67
A11265-016-a,https://iiif.archive.org/iiif/thomaslordcromwe00smituoft$68
A11265-016-b,https://iiif.archive.org/iiif/thomaslordcromwe00smituoft$71
A11265-017-a,https://iiif.archive.org/iiif/thomaslordcromwe00smituoft$72
A11265-017-b,https://iiif.archive.org/iiif/thomaslordcromwe00smituoft$75
A11265-018-a,https://iiif.archive.org/iiif/thomaslordcromwe00smituoft$76
A11265-018-b,https://iiif.archive.org/iiif/thomaslordcromwe00smituoft$79
A11265-019-a,https://iiif.archive.org/iiif/thomaslordcromwe00smituoft$80
A11265-019-b,https://iiif.archive.org/iiif/thomaslordcromwe00smituoft$83
A11265-020-a,https://iiif.archive.org/iiif/thomaslordcromwe00smituoft$84
A11265-020-b,https://iiif.archive.org/iiif/thomaslordcromwe00smituoft$87
A11265-021-a,https://iiif.archive.org/iiif/thomaslordcromwe00smituoft$88
A11265-021-b,https://iiif.archive.org/iiif/thomaslordcromwe00smituoft$91
A11265-022-a,https://iiif.archive.org/iiif/thomaslordcromwe00smituoft$92
A11265-022-b,https://iiif.archive.org/iiif/thomaslordcromwe00smituoft$95
A11265-023-a,https://iiif.archive.org/iiif/thomaslordcromwe00smituoft$96
A11265-023-b,https://iiif.archive.org/iiif/thomaslordcromwe00smituoft$99
A11265-024-a,https://iiif.archive.org/iiif/thomaslordcromwe00smituoft$100
A11265-024-b,https://iiif.archive.org/iiif/thomaslordcromwe00smituoft$103
A11265-025-a,https://iiif.archive.org/iiif/thomaslordcromwe00smituoft$104
A11265-025-b,https://iiif.archive.org/iiif/thomaslordcromwe00smituoft$107
A11265-026-a,https://iiif.archive.org/iiif/thomaslordcromwe00smituoft$108
A11265-026b1,https://iiif.archive.org/iiif/thomaslordcromwe00smituoft$111
A11265-026b2,https://iiif.archive.org/iiif/thomaslordcromwe00smituoft$112
A11265-026b3,https://iiif.archive.org/iiif/thomaslordcromwe00smituoft$115
