A11909-044-a,https://iiif.archive.org/iiif/senecahistennetr00sene$89
A11909-045-a,https://iiif.archive.org/iiif/senecahistennetr00sene$90
A11909-045-b,https://iiif.archive.org/iiif/senecahistennetr00sene$91
A11909-046-a,https://iiif.archive.org/iiif/senecahistennetr00sene$92
A11909-046-b,https://iiif.archive.org/iiif/senecahistennetr00sene$93
A11909-047-a,https://iiif.archive.org/iiif/senecahistennetr00sene$94
A11909-047-b,https://iiif.archive.org/iiif/senecahistennetr00sene$95
A11909-048-a,https://iiif.archive.org/iiif/senecahistennetr00sene$96
A11909-048-b,https://iiif.archive.org/iiif/senecahistennetr00sene$97
A11909-049-a,https://iiif.archive.org/iiif/senecahistennetr00sene$98
A11909-049-b,https://iiif.archive.org/iiif/senecahistennetr00sene$99
A11909-050-a,https://iiif.archive.org/iiif/senecahistennetr00sene$100
A11909-050-b,https://iiif.archive.org/iiif/senecahistennetr00sene$101
A11909-051-a,https://iiif.archive.org/iiif/senecahistennetr00sene$102
A11909-051-b,https://iiif.archive.org/iiif/senecahistennetr00sene$103
A11909-052-a,https://iiif.archive.org/iiif/senecahistennetr00sene$104
A11909-052-b,https://iiif.archive.org/iiif/senecahistennetr00sene$105
A11909-053-a,https://iiif.archive.org/iiif/senecahistennetr00sene$106
A11909-053-b,https://iiif.archive.org/iiif/senecahistennetr00sene$107
A11909-054-a,https://iiif.archive.org/iiif/senecahistennetr00sene$108
A11909-054-b,https://iiif.archive.org/iiif/senecahistennetr00sene$109
A11909-055-a,https://iiif.archive.org/iiif/senecahistennetr00sene$110
A11909-055-b,https://iiif.archive.org/iiif/senecahistennetr00sene$111
A11909-056-a,https://iiif.archive.org/iiif/senecahistennetr00sene$112
A11909-056-b,https://iiif.archive.org/iiif/senecahistennetr00sene$113
A11909-057-a,https://iiif.archive.org/iiif/senecahistennetr00sene$114
A11909-057-b,https://iiif.archive.org/iiif/senecahistennetr00sene$115
A11909-058-a,https://iiif.archive.org/iiif/senecahistennetr00sene$116
A11909-058-b,https://iiif.archive.org/iiif/senecahistennetr00sene$117
A11909-059-a,https://iiif.archive.org/iiif/senecahistennetr00sene$118
