A11909-146-a,https://iiif.archive.org/iiif/senecahistennetr00sene$293
A11909-147-a,https://iiif.archive.org/iiif/senecahistennetr00sene$294
A11909-147-b,https://iiif.archive.org/iiif/senecahistennetr00sene$295
A11909-148-a,https://iiif.archive.org/iiif/senecahistennetr00sene$296
A11909-148-b,https://iiif.archive.org/iiif/senecahistennetr00sene$297
A11909-149-a,https://iiif.archive.org/iiif/senecahistennetr00sene$298
A11909-149-b,https://iiif.archive.org/iiif/senecahistennetr00sene$299
A11909-150-a,https://iiif.archive.org/iiif/senecahistennetr00sene$300
A11909-150-b,https://iiif.archive.org/iiif/senecahistennetr00sene$301
A11909-151-a,https://iiif.archive.org/iiif/senecahistennetr00sene$302
A11909-151-b,https://iiif.archive.org/iiif/senecahistennetr00sene$303
A11909-152-a,https://iiif.archive.org/iiif/senecahistennetr00sene$304
A11909-152-b,https://iiif.archive.org/iiif/senecahistennetr00sene$305
A11909-153-a,https://iiif.archive.org/iiif/senecahistennetr00sene$306
A11909-153-b,https://iiif.archive.org/iiif/senecahistennetr00sene$307
A11909-154-a,https://iiif.archive.org/iiif/senecahistennetr00sene$308
A11909-154-b,https://iiif.archive.org/iiif/senecahistennetr00sene$309
A11909-155-a,https://iiif.archive.org/iiif/senecahistennetr00sene$310
A11909-155-b,https://iiif.archive.org/iiif/senecahistennetr00sene$311
A11909-156-a,https://iiif.archive.org/iiif/senecahistennetr00sene$312
A11909-156-b,https://iiif.archive.org/iiif/senecahistennetr00sene$313
A11909-157-a,https://iiif.archive.org/iiif/senecahistennetr00sene$314
A11909-157-b,https://iiif.archive.org/iiif/senecahistennetr00sene$315
A11909-158-a,https://iiif.archive.org/iiif/senecahistennetr00sene$316
A11909-158-b,https://iiif.archive.org/iiif/senecahistennetr00sene$317
A11909-159-a,https://iiif.archive.org/iiif/senecahistennetr00sene$318
A11909-159-b,https://iiif.archive.org/iiif/senecahistennetr00sene$319
A11909-160-a,https://iiif.archive.org/iiif/senecahistennetr00sene$320
A11909-160-b,https://iiif.archive.org/iiif/senecahistennetr00sene$321
A11909-161-a,https://iiif.archive.org/iiif/senecahistennetr00sene$322
A11909-161-b,https://iiif.archive.org/iiif/senecahistennetr00sene$323
A11909-162-a,https://iiif.archive.org/iiif/senecahistennetr00sene$324
A11909-162-b,https://iiif.archive.org/iiif/senecahistennetr00sene$325
A11909-163-a,https://iiif.archive.org/iiif/senecahistennetr00sene$326
A11909-163-b,https://iiif.archive.org/iiif/senecahistennetr00sene$327
A11909-164-a,https://iiif.archive.org/iiif/senecahistennetr00sene$328
A11909-164-b,https://iiif.archive.org/iiif/senecahistennetr00sene$329
A11909-165-a,https://iiif.archive.org/iiif/senecahistennetr00sene$330
A11909-165-b,https://iiif.archive.org/iiif/senecahistennetr00sene$331
A11909-166-a,https://iiif.archive.org/iiif/senecahistennetr00sene$332
A11909-166-b,https://iiif.archive.org/iiif/senecahistennetr00sene$333
A11909-167-a,https://iiif.archive.org/iiif/senecahistennetr00sene$334
