A11909-193-a,https://iiif.archive.org/iiif/senecahistennetr00sene$387
A11909-194-a,https://iiif.archive.org/iiif/senecahistennetr00sene$388
A11909-194-b,https://iiif.archive.org/iiif/senecahistennetr00sene$389
A11909-195-a,https://iiif.archive.org/iiif/senecahistennetr00sene$390
A11909-195-b,https://iiif.archive.org/iiif/senecahistennetr00sene$391
A11909-196-a,https://iiif.archive.org/iiif/senecahistennetr00sene$394
A11909-196-b,https://iiif.archive.org/iiif/senecahistennetr00sene$395
A11909-197-a,https://iiif.archive.org/iiif/senecahistennetr00sene$396
A11909-197-b,https://iiif.archive.org/iiif/senecahistennetr00sene$397
A11909-198-a,https://iiif.archive.org/iiif/senecahistennetr00sene$398
A11909-198-b,https://iiif.archive.org/iiif/senecahistennetr00sene$399
A11909-199-a,https://iiif.archive.org/iiif/senecahistennetr00sene$400
A11909-199-b,https://iiif.archive.org/iiif/senecahistennetr00sene$401
A11909-200-a,https://iiif.archive.org/iiif/senecahistennetr00sene$402
A11909-200-b,https://iiif.archive.org/iiif/senecahistennetr00sene$403
A11909-201-a,https://iiif.archive.org/iiif/senecahistennetr00sene$404
A11909-201-b,https://iiif.archive.org/iiif/senecahistennetr00sene$405
A11909-202-a,https://iiif.archive.org/iiif/senecahistennetr00sene$406
A11909-202-b,https://iiif.archive.org/iiif/senecahistennetr00sene$407
A11909-203-a,https://iiif.archive.org/iiif/senecahistennetr00sene$408
A11909-203-b,https://iiif.archive.org/iiif/senecahistennetr00sene$409
A11909-204-a,https://iiif.archive.org/iiif/senecahistennetr00sene$410
A11909-204-b,https://iiif.archive.org/iiif/senecahistennetr00sene$411
A11909-206-a,https://iiif.archive.org/iiif/senecahistennetr00sene$412
A11909-206-b,https://iiif.archive.org/iiif/senecahistennetr00sene$413
A11909-207-a,https://iiif.archive.org/iiif/senecahistennetr00sene$414
A11909-207-b,https://iiif.archive.org/iiif/senecahistennetr00sene$415
A11909-208-a,https://iiif.archive.org/iiif/senecahistennetr00sene$416
A11909-208-b,https://iiif.archive.org/iiif/senecahistennetr00sene$417
A11909-209-a,https://iiif.archive.org/iiif/senecahistennetr00sene$418
A11909-209-b,https://iiif.archive.org/iiif/senecahistennetr00sene$419
A11909-210-a,https://iiif.archive.org/iiif/senecahistennetr00sene$420
A11909-210-b,https://iiif.archive.org/iiif/senecahistennetr00sene$421
A11909-211-a,https://iiif.archive.org/iiif/senecahistennetr00sene$422
A11909-211-b,https://iiif.archive.org/iiif/senecahistennetr00sene$423
A11909-212-a,https://iiif.archive.org/iiif/senecahistennetr00sene$424
A11909-212-b,https://iiif.archive.org/iiif/senecahistennetr00sene$425
A11909-213-a,https://iiif.archive.org/iiif/senecahistennetr00sene$426
A11909-213-b,https://iiif.archive.org/iiif/senecahistennetr00sene$427
A11909-214-a,https://iiif.archive.org/iiif/senecahistennetr00sene$428
A11909-214-b,https://iiif.archive.org/iiif/senecahistennetr00sene$429
A11909-215-a,https://iiif.archive.org/iiif/senecahistennetr00sene$430
A11909-215-b,https://iiif.archive.org/iiif/senecahistennetr00sene$431
A11909-216-a,https://iiif.archive.org/iiif/senecahistennetr00sene$432
A11909-216-b,https://iiif.archive.org/iiif/senecahistennetr00sene$433
A11909-217-a,https://iiif.archive.org/iiif/senecahistennetr00sene$434
A11909-217-b,https://iiif.archive.org/iiif/senecahistennetr00sene$435
A11909-218-a,https://iiif.archive.org/iiif/senecahistennetr00sene$436
A11909-218-b,https://iiif.archive.org/iiif/senecahistennetr00sene$437
A11909-219-a,https://iiif.archive.org/iiif/senecahistennetr00sene$438
A11909-219-b,https://iiif.archive.org/iiif/senecahistennetr00sene$439
A11909-220-a,https://iiif.archive.org/iiif/senecahistennetr00sene$440
A11909-220-b,https://iiif.archive.org/iiif/senecahistennetr00sene$441
A11909-221-a,https://iiif.archive.org/iiif/senecahistennetr00sene$442
A11909-221-b,https://iiif.archive.org/iiif/senecahistennetr00sene$443
A11909-222-a,https://iiif.archive.org/iiif/senecahistennetr00sene$444
A11909-222-b,https://iiif.archive.org/iiif/senecahistennetr00sene$445
A11909-223-a,https://iiif.archive.org/iiif/senecahistennetr00sene$446
A11909-223-b,https://iiif.archive.org/iiif/senecahistennetr00sene$447
A11909-224-a,https://iiif.archive.org/iiif/senecahistennetr00sene$448
A11909-224-b,https://iiif.archive.org/iiif/senecahistennetr00sene$449
A11909-225-a,https://iiif.archive.org/iiif/senecahistennetr00sene$450
