A11909-167-a,https://iiif.archive.org/iiif/senecahistennetr00sene$335
A11909-168-a,https://iiif.archive.org/iiif/senecahistennetr00sene$336
A11909-168-b,https://iiif.archive.org/iiif/senecahistennetr00sene$337
A11909-169-a,https://iiif.archive.org/iiif/senecahistennetr00sene$338
A11909-169-b,https://iiif.archive.org/iiif/senecahistennetr00sene$339
A11909-170-a,https://iiif.archive.org/iiif/senecahistennetr00sene$340
A11909-170-b,https://iiif.archive.org/iiif/senecahistennetr00sene$341
A11909-171-a,https://iiif.archive.org/iiif/senecahistennetr00sene$342
A11909-171-b,https://iiif.archive.org/iiif/senecahistennetr00sene$343
A11909-172-a,https://iiif.archive.org/iiif/senecahistennetr00sene$344
A11909-172-b,https://iiif.archive.org/iiif/senecahistennetr00sene$345
A11909-173-a,https://iiif.archive.org/iiif/senecahistennetr00sene$346
A11909-173-b,https://iiif.archive.org/iiif/senecahistennetr00sene$347
A11909-174-a,https://iiif.archive.org/iiif/senecahistennetr00sene$348
A11909-174-b,https://iiif.archive.org/iiif/senecahistennetr00sene$349
A11909-175-a,https://iiif.archive.org/iiif/senecahistennetr00sene$350
A11909-175-b,https://iiif.archive.org/iiif/senecahistennetr00sene$351
A11909-176-a,https://iiif.archive.org/iiif/senecahistennetr00sene$352
A11909-176-b,https://iiif.archive.org/iiif/senecahistennetr00sene$353
A11909-177-a,https://iiif.archive.org/iiif/senecahistennetr00sene$354
A11909-177-b,https://iiif.archive.org/iiif/senecahistennetr00sene$355
A11909-178-a,https://iiif.archive.org/iiif/senecahistennetr00sene$356
A11909-178-b,https://iiif.archive.org/iiif/senecahistennetr00sene$357
A11909-179-a,https://iiif.archive.org/iiif/senecahistennetr00sene$358
A11909-179-b,https://iiif.archive.org/iiif/senecahistennetr00sene$359
A11909-180-a,https://iiif.archive.org/iiif/senecahistennetr00sene$360
A11909-180-b,https://iiif.archive.org/iiif/senecahistennetr00sene$361
A11909-181-a,https://iiif.archive.org/iiif/senecahistennetr00sene$362
A11909-181-b,https://iiif.archive.org/iiif/senecahistennetr00sene$363
A11909-182-a,https://iiif.archive.org/iiif/senecahistennetr00sene$364
A11909-182-b,https://iiif.archive.org/iiif/senecahistennetr00sene$365
A11909-183-a,https://iiif.archive.org/iiif/senecahistennetr00sene$366
A11909-183-b,https://iiif.archive.org/iiif/senecahistennetr00sene$367
A11909-184-a,https://iiif.archive.org/iiif/senecahistennetr00sene$368
A11909-184-b,https://iiif.archive.org/iiif/senecahistennetr00sene$369
A11909-185-a,https://iiif.archive.org/iiif/senecahistennetr00sene$370
A11909-185-b,https://iiif.archive.org/iiif/senecahistennetr00sene$371
A11909-186-a,https://iiif.archive.org/iiif/senecahistennetr00sene$372
A11909-186-b,https://iiif.archive.org/iiif/senecahistennetr00sene$373
A11909-187-a,https://iiif.archive.org/iiif/senecahistennetr00sene$374
A11909-187-b,https://iiif.archive.org/iiif/senecahistennetr00sene$375
A11909-188-a,https://iiif.archive.org/iiif/senecahistennetr00sene$376
A11909-188-b,https://iiif.archive.org/iiif/senecahistennetr00sene$377
A11909-189-a,https://iiif.archive.org/iiif/senecahistennetr00sene$378
A11909-189-b,https://iiif.archive.org/iiif/senecahistennetr00sene$379
A11909-190-a,https://iiif.archive.org/iiif/senecahistennetr00sene$380
A11909-190-b,https://iiif.archive.org/iiif/senecahistennetr00sene$381
A11909-191-a,https://iiif.archive.org/iiif/senecahistennetr00sene$382
A11909-191-b,https://iiif.archive.org/iiif/senecahistennetr00sene$383
A11909-192-a,https://iiif.archive.org/iiif/senecahistennetr00sene$384
A11909-192-b,https://iiif.archive.org/iiif/senecahistennetr00sene$385
A11909-193-a,https://iiif.archive.org/iiif/senecahistennetr00sene$386
