A11947-001-b,https://iiif.archive.org/iiif/truereporteoflas00sett$9
A11947-002-a,https://iiif.archive.org/iiif/truereporteoflas00sett$10
A11947-002-b,https://iiif.archive.org/iiif/truereporteoflas00sett$11
A11947-003-a,https://iiif.archive.org/iiif/truereporteoflas00sett$12
A11947-003-b,https://iiif.archive.org/iiif/truereporteoflas00sett$13
A11947-004-a,https://iiif.archive.org/iiif/truereporteoflas00sett$14
A11947-004-b,https://iiif.archive.org/iiif/truereporteoflas00sett$15
A11947-005-a,https://iiif.archive.org/iiif/truereporteoflas00sett$16
A11947-005-b,https://iiif.archive.org/iiif/truereporteoflas00sett$17
A11947-006-a,https://iiif.archive.org/iiif/truereporteoflas00sett$18
A11947-006-b,https://iiif.archive.org/iiif/truereporteoflas00sett$19
A11947-007-a,https://iiif.archive.org/iiif/truereporteoflas00sett$20
A11947-007-b,https://iiif.archive.org/iiif/truereporteoflas00sett$21
A11947-008-a,https://iiif.archive.org/iiif/truereporteoflas00sett$22
A11947-008-b,https://iiif.archive.org/iiif/truereporteoflas00sett$23
A11947-009-a,https://iiif.archive.org/iiif/truereporteoflas00sett$24
A11947-009-b,https://iiif.archive.org/iiif/truereporteoflas00sett$25
A11947-010-a,https://iiif.archive.org/iiif/truereporteoflas00sett$26
A11947-010-b,https://iiif.archive.org/iiif/truereporteoflas00sett$27
A11947-011-a,https://iiif.archive.org/iiif/truereporteoflas00sett$28
A11947-011-b,https://iiif.archive.org/iiif/truereporteoflas00sett$29
A11947-012-a,https://iiif.archive.org/iiif/truereporteoflas00sett$30
A11947-012-b,https://iiif.archive.org/iiif/truereporteoflas00sett$31
A11947-013-a,https://iiif.archive.org/iiif/truereporteoflas00sett$32
A11947-013-b,https://iiif.archive.org/iiif/truereporteoflas00sett$33
A11947-014-a,https://iiif.archive.org/iiif/truereporteoflas00sett$34
A11947-014-b,https://iiif.archive.org/iiif/truereporteoflas00sett$35
A11947-015-a,https://iiif.archive.org/iiif/truereporteoflas00sett$36
A11947-015-b,https://iiif.archive.org/iiif/truereporteoflas00sett$37
A11947-016-a,https://iiif.archive.org/iiif/truereporteoflas00sett$38
A11947-016-b,https://iiif.archive.org/iiif/truereporteoflas00sett$39
A11947-017-a,https://iiif.archive.org/iiif/truereporteoflas00sett$40
A11947-017-b,https://iiif.archive.org/iiif/truereporteoflas00sett$41
A11947-018-a,https://iiif.archive.org/iiif/truereporteoflas00sett$42
A11947-018-b,https://iiif.archive.org/iiif/truereporteoflas00sett$43
A11947-019-a,https://iiif.archive.org/iiif/truereporteoflas00sett$44
A11947-019-b,https://iiif.archive.org/iiif/truereporteoflas00sett$45
A11947-020-a,https://iiif.archive.org/iiif/truereporteoflas00sett$46
A11947-020-b,https://iiif.archive.org/iiif/truereporteoflas00sett$47
A11947-021-a,https://iiif.archive.org/iiif/truereporteoflas00sett$48
A11947-021-b,https://iiif.archive.org/iiif/truereporteoflas00sett$49
A11947-022-a,https://iiif.archive.org/iiif/truereporteoflas00sett$50
A11947-022-b,https://iiif.archive.org/iiif/truereporteoflas00sett$51
A11947-023-a,https://iiif.archive.org/iiif/truereporteoflas00sett$52
A11947-023-b,https://iiif.archive.org/iiif/truereporteoflas00sett$53
A11947-024-a,https://iiif.archive.org/iiif/truereporteoflas00sett$54
A11947-024-b,https://iiif.archive.org/iiif/truereporteoflas00sett$55
