A11989-001-a,https://cdm16003.contentdm.oclc.org/iiif/2/p15150coll3:3554
A11989-002-a,https://cdm16003.contentdm.oclc.org/iiif/2/p15150coll3:3555
A11989-002-b,https://cdm16003.contentdm.oclc.org/iiif/2/p15150coll3:3556
A11989-003-a,https://cdm16003.contentdm.oclc.org/iiif/2/p15150coll3:3557
A11989-003-b,https://cdm16003.contentdm.oclc.org/iiif/2/p15150coll3:3558
A11989-004-a,https://cdm16003.contentdm.oclc.org/iiif/2/p15150coll3:3559
A11989-004-b,https://cdm16003.contentdm.oclc.org/iiif/2/p15150coll3:3560
A11989-005-a,https://cdm16003.contentdm.oclc.org/iiif/2/p15150coll3:3561
A11989-005-b,https://cdm16003.contentdm.oclc.org/iiif/2/p15150coll3:3562
A11989-006-a,https://cdm16003.contentdm.oclc.org/iiif/2/p15150coll3:3563
A11989-006-b,https://cdm16003.contentdm.oclc.org/iiif/2/p15150coll3:3564
A11989-007-a,https://cdm16003.contentdm.oclc.org/iiif/2/p15150coll3:3565
A11989-007-b,https://cdm16003.contentdm.oclc.org/iiif/2/p15150coll3:3566
A11989-008-a,https://cdm16003.contentdm.oclc.org/iiif/2/p15150coll3:3567
A11989-008-b,https://cdm16003.contentdm.oclc.org/iiif/2/p15150coll3:3568
A11989-009-a,https://cdm16003.contentdm.oclc.org/iiif/2/p15150coll3:3569
A11989-009-b,https://cdm16003.contentdm.oclc.org/iiif/2/p15150coll3:3570
A11989-010-a,https://cdm16003.contentdm.oclc.org/iiif/2/p15150coll3:3571
A11989-010-b,https://cdm16003.contentdm.oclc.org/iiif/2/p15150coll3:3572
A11989-011-a,https://cdm16003.contentdm.oclc.org/iiif/2/p15150coll3:3573
A11989-011-b,https://cdm16003.contentdm.oclc.org/iiif/2/p15150coll3:3574
A11989-012-a,https://cdm16003.contentdm.oclc.org/iiif/2/p15150coll3:3575
A11989-012-b,https://cdm16003.contentdm.oclc.org/iiif/2/p15150coll3:3576
A11989-013-a,https://cdm16003.contentdm.oclc.org/iiif/2/p15150coll3:3577
A11989-013-b,https://cdm16003.contentdm.oclc.org/iiif/2/p15150coll3:3578
A11989-014-a,https://cdm16003.contentdm.oclc.org/iiif/2/p15150coll3:3579
A11989-014-b,https://cdm16003.contentdm.oclc.org/iiif/2/p15150coll3:3580
A11989-015-a,https://cdm16003.contentdm.oclc.org/iiif/2/p15150coll3:3581
A11989-015-b,https://cdm16003.contentdm.oclc.org/iiif/2/p15150coll3:3582
A11989-016-a,https://cdm16003.contentdm.oclc.org/iiif/2/p15150coll3:3583
A11989-016-b,https://cdm16003.contentdm.oclc.org/iiif/2/p15150coll3:3584
A11989-017-a,https://cdm16003.contentdm.oclc.org/iiif/2/p15150coll3:3585
A11989-017-b,https://cdm16003.contentdm.oclc.org/iiif/2/p15150coll3:3586
A11989-018-a,https://cdm16003.contentdm.oclc.org/iiif/2/p15150coll3:3587
A11989-018-b,https://cdm16003.contentdm.oclc.org/iiif/2/p15150coll3:3588
A11989-019-a,https://cdm16003.contentdm.oclc.org/iiif/2/p15150coll3:3589
A11989-019-b,https://cdm16003.contentdm.oclc.org/iiif/2/p15150coll3:3590
A11989-020-a,https://cdm16003.contentdm.oclc.org/iiif/2/p15150coll3:3591
A11989-020-b,https://cdm16003.contentdm.oclc.org/iiif/2/p15150coll3:3592
A11989-021-a,https://cdm16003.contentdm.oclc.org/iiif/2/p15150coll3:3593
A11989-021-b,https://cdm16003.contentdm.oclc.org/iiif/2/p15150coll3:3594
A11989-022-a,https://cdm16003.contentdm.oclc.org/iiif/2/p15150coll3:3595
A11989-022-b,https://cdm16003.contentdm.oclc.org/iiif/2/p15150coll3:3596
A11989-023-a,https://cdm16003.contentdm.oclc.org/iiif/2/p15150coll3:3597
A11989-023-b,https://cdm16003.contentdm.oclc.org/iiif/2/p15150coll3:3598
A11989-024-a,https://cdm16003.contentdm.oclc.org/iiif/2/p15150coll3:3599
A11989-024-b,https://cdm16003.contentdm.oclc.org/iiif/2/p15150coll3:3600
A11989-025-a,https://cdm16003.contentdm.oclc.org/iiif/2/p15150coll3:3601
A11989-025-b,https://cdm16003.contentdm.oclc.org/iiif/2/p15150coll3:3602
A11989-026-a,https://cdm16003.contentdm.oclc.org/iiif/2/p15150coll3:3603
A11989-026-b,https://cdm16003.contentdm.oclc.org/iiif/2/p15150coll3:3604
A11989-027-a,https://cdm16003.contentdm.oclc.org/iiif/2/p15150coll3:3605
A11989-027-b,https://cdm16003.contentdm.oclc.org/iiif/2/p15150coll3:3606
A11989-028-a,https://cdm16003.contentdm.oclc.org/iiif/2/p15150coll3:3607
A11989-028-b,https://cdm16003.contentdm.oclc.org/iiif/2/p15150coll3:3608
A11989-029-a,https://cdm16003.contentdm.oclc.org/iiif/2/p15150coll3:3609
A11989-029-b,https://cdm16003.contentdm.oclc.org/iiif/2/p15150coll3:3610
A11989-030-a,https://cdm16003.contentdm.oclc.org/iiif/2/p15150coll3:3611
A11989-030-b,https://cdm16003.contentdm.oclc.org/iiif/2/p15150coll3:3612
A11989-031-a,https://cdm16003.contentdm.oclc.org/iiif/2/p15150coll3:3613
A11989-031-b,https://cdm16003.contentdm.oclc.org/iiif/2/p15150coll3:3614
A11989-032-a,https://cdm16003.contentdm.oclc.org/iiif/2/p15150coll3:3615
A11989-032-b,https://cdm16003.contentdm.oclc.org/iiif/2/p15150coll3:3616
A11989-033-a,https://cdm16003.contentdm.oclc.org/iiif/2/p15150coll3:3617
