A12127-008,https://imageserver.earlyprint.org:8443/iiif/2/A12127%2FA12127-008.jpg
A12127-009,https://imageserver.earlyprint.org:8443/iiif/2/A12127%2FA12127-009.jpg
A12127-010,https://imageserver.earlyprint.org:8443/iiif/2/A12127%2FA12127-010.jpg
A12127-011,https://imageserver.earlyprint.org:8443/iiif/2/A12127%2FA12127-011.jpg
A12127-012,https://imageserver.earlyprint.org:8443/iiif/2/A12127%2FA12127-012.jpg
A12127-013,https://imageserver.earlyprint.org:8443/iiif/2/A12127%2FA12127-013.jpg
A12127-014,https://imageserver.earlyprint.org:8443/iiif/2/A12127%2FA12127-014.jpg
A12127-015,https://imageserver.earlyprint.org:8443/iiif/2/A12127%2FA12127-015.jpg
A12127-016,https://imageserver.earlyprint.org:8443/iiif/2/A12127%2FA12127-016.jpg
A12127-017,https://imageserver.earlyprint.org:8443/iiif/2/A12127%2FA12127-017.jpg
A12127-018,https://imageserver.earlyprint.org:8443/iiif/2/A12127%2FA12127-018.jpg
A12127-019,https://imageserver.earlyprint.org:8443/iiif/2/A12127%2FA12127-019.jpg
A12127-020,https://imageserver.earlyprint.org:8443/iiif/2/A12127%2FA12127-020.jpg
A12127-021,https://imageserver.earlyprint.org:8443/iiif/2/A12127%2FA12127-021.jpg
A12127-022,https://imageserver.earlyprint.org:8443/iiif/2/A12127%2FA12127-022.jpg
A12127-023,https://imageserver.earlyprint.org:8443/iiif/2/A12127%2FA12127-023.jpg
A12127-024,https://imageserver.earlyprint.org:8443/iiif/2/A12127%2FA12127-024.jpg
A12127-025,https://imageserver.earlyprint.org:8443/iiif/2/A12127%2FA12127-025.jpg
A12127-026,https://imageserver.earlyprint.org:8443/iiif/2/A12127%2FA12127-026.jpg
A12127-027,https://imageserver.earlyprint.org:8443/iiif/2/A12127%2FA12127-027.jpg
A12127-028,https://imageserver.earlyprint.org:8443/iiif/2/A12127%2FA12127-028.jpg
A12127-029,https://imageserver.earlyprint.org:8443/iiif/2/A12127%2FA12127-029.jpg
A12127-030,https://imageserver.earlyprint.org:8443/iiif/2/A12127%2FA12127-030.jpg
A12127-031,https://imageserver.earlyprint.org:8443/iiif/2/A12127%2FA12127-031.jpg
A12127-032,https://imageserver.earlyprint.org:8443/iiif/2/A12127%2FA12127-032.jpg
A12127-033,https://imageserver.earlyprint.org:8443/iiif/2/A12127%2FA12127-033.jpg
A12127-034,https://imageserver.earlyprint.org:8443/iiif/2/A12127%2FA12127-034.jpg
A12127-035,https://imageserver.earlyprint.org:8443/iiif/2/A12127%2FA12127-035.jpg
A12127-036,https://imageserver.earlyprint.org:8443/iiif/2/A12127%2FA12127-036.jpg
A12127-037,https://imageserver.earlyprint.org:8443/iiif/2/A12127%2FA12127-037.jpg
A12127-038,https://imageserver.earlyprint.org:8443/iiif/2/A12127%2FA12127-038.jpg
A12127-039,https://imageserver.earlyprint.org:8443/iiif/2/A12127%2FA12127-039.jpg
A12127-040,https://imageserver.earlyprint.org:8443/iiif/2/A12127%2FA12127-040.jpg
A12127-041,https://imageserver.earlyprint.org:8443/iiif/2/A12127%2FA12127-041.jpg
A12127-042,https://imageserver.earlyprint.org:8443/iiif/2/A12127%2FA12127-042.jpg
A12127-043,https://imageserver.earlyprint.org:8443/iiif/2/A12127%2FA12127-043.jpg
A12127-044,https://imageserver.earlyprint.org:8443/iiif/2/A12127%2FA12127-044.jpg
A12127-045,https://imageserver.earlyprint.org:8443/iiif/2/A12127%2FA12127-045.jpg
A12127-046,https://imageserver.earlyprint.org:8443/iiif/2/A12127%2FA12127-046.jpg
A12127-047,https://imageserver.earlyprint.org:8443/iiif/2/A12127%2FA12127-047.jpg
A12127-048,https://imageserver.earlyprint.org:8443/iiif/2/A12127%2FA12127-048.jpg
A12127-049,https://imageserver.earlyprint.org:8443/iiif/2/A12127%2FA12127-049.jpg
A12127-050,https://imageserver.earlyprint.org:8443/iiif/2/A12127%2FA12127-050.jpg
A12127-051,https://imageserver.earlyprint.org:8443/iiif/2/A12127%2FA12127-051.jpg
A12127-052,https://imageserver.earlyprint.org:8443/iiif/2/A12127%2FA12127-052.jpg
A12127-053,https://imageserver.earlyprint.org:8443/iiif/2/A12127%2FA12127-053.jpg
A12127-054,https://imageserver.earlyprint.org:8443/iiif/2/A12127%2FA12127-054.jpg
A12127-055,https://imageserver.earlyprint.org:8443/iiif/2/A12127%2FA12127-055.jpg
A12127-056,https://imageserver.earlyprint.org:8443/iiif/2/A12127%2FA12127-056.jpg
A12127-057,https://imageserver.earlyprint.org:8443/iiif/2/A12127%2FA12127-057.jpg
A12127-058,https://imageserver.earlyprint.org:8443/iiif/2/A12127%2FA12127-058.jpg
A12127-059,https://imageserver.earlyprint.org:8443/iiif/2/A12127%2FA12127-059.jpg
A12127-060,https://imageserver.earlyprint.org:8443/iiif/2/A12127%2FA12127-060.jpg
A12127-061,https://imageserver.earlyprint.org:8443/iiif/2/A12127%2FA12127-061.jpg
A12127-062,https://imageserver.earlyprint.org:8443/iiif/2/A12127%2FA12127-062.jpg
A12127-063,https://imageserver.earlyprint.org:8443/iiif/2/A12127%2FA12127-063.jpg
A12127-064,https://imageserver.earlyprint.org:8443/iiif/2/A12127%2FA12127-064.jpg
A12127-065,https://imageserver.earlyprint.org:8443/iiif/2/A12127%2FA12127-065.jpg
A12127-066,https://imageserver.earlyprint.org:8443/iiif/2/A12127%2FA12127-066.jpg
A12127-067,https://imageserver.earlyprint.org:8443/iiif/2/A12127%2FA12127-067.jpg
A12127-068,https://imageserver.earlyprint.org:8443/iiif/2/A12127%2FA12127-068.jpg
A12127-069,https://imageserver.earlyprint.org:8443/iiif/2/A12127%2FA12127-069.jpg
A12127-070,https://imageserver.earlyprint.org:8443/iiif/2/A12127%2FA12127-070.jpg
A12127-071,https://imageserver.earlyprint.org:8443/iiif/2/A12127%2FA12127-071.jpg
A12127-072,https://imageserver.earlyprint.org:8443/iiif/2/A12127%2FA12127-072.jpg
A12127-073,https://imageserver.earlyprint.org:8443/iiif/2/A12127%2FA12127-073.jpg
A12127-074,https://imageserver.earlyprint.org:8443/iiif/2/A12127%2FA12127-074.jpg
A12127-075,https://imageserver.earlyprint.org:8443/iiif/2/A12127%2FA12127-075.jpg
A12127-076,https://imageserver.earlyprint.org:8443/iiif/2/A12127%2FA12127-076.jpg
A12127-077,https://imageserver.earlyprint.org:8443/iiif/2/A12127%2FA12127-077.jpg
A12127-078,https://imageserver.earlyprint.org:8443/iiif/2/A12127%2FA12127-078.jpg
A12127-079,https://imageserver.earlyprint.org:8443/iiif/2/A12127%2FA12127-079.jpg
A12127-080,https://imageserver.earlyprint.org:8443/iiif/2/A12127%2FA12127-080.jpg
A12127-081,https://imageserver.earlyprint.org:8443/iiif/2/A12127%2FA12127-081.jpg
A12127-082,https://imageserver.earlyprint.org:8443/iiif/2/A12127%2FA12127-082.jpg
A12127-083,https://imageserver.earlyprint.org:8443/iiif/2/A12127%2FA12127-083.jpg
A12127-084,https://imageserver.earlyprint.org:8443/iiif/2/A12127%2FA12127-084.jpg
A12127-085,https://imageserver.earlyprint.org:8443/iiif/2/A12127%2FA12127-085.jpg
A12127-086,https://imageserver.earlyprint.org:8443/iiif/2/A12127%2FA12127-086.jpg
