A12777-001-b,https://iiif.archive.org/iiif/faeriequeenedisp00spen_0$9
A12777-002-a,https://iiif.archive.org/iiif/faeriequeenedisp00spen_0$10
A12777-002-b,https://iiif.archive.org/iiif/faeriequeenedisp00spen_0$11
A12777-003-a,https://iiif.archive.org/iiif/faeriequeenedisp00spen_0$12
A12777-003-b,https://iiif.archive.org/iiif/faeriequeenedisp00spen_0$13
A12777-004-a,https://iiif.archive.org/iiif/faeriequeenedisp00spen_0$14
A12777-004-b,https://iiif.archive.org/iiif/faeriequeenedisp00spen_0$15
A12777-005-a,https://iiif.archive.org/iiif/faeriequeenedisp00spen_0$16
A12777-005-b,https://iiif.archive.org/iiif/faeriequeenedisp00spen_0$17
A12777-006-a,https://iiif.archive.org/iiif/faeriequeenedisp00spen_0$18
A12777-006-b,https://iiif.archive.org/iiif/faeriequeenedisp00spen_0$19
A12777-007-a,https://iiif.archive.org/iiif/faeriequeenedisp00spen_0$20
A12777-007-b,https://iiif.archive.org/iiif/faeriequeenedisp00spen_0$21
A12777-008-a,https://iiif.archive.org/iiif/faeriequeenedisp00spen_0$22
A12777-008-b,https://iiif.archive.org/iiif/faeriequeenedisp00spen_0$23
A12777-009-a,https://iiif.archive.org/iiif/faeriequeenedisp00spen_0$24
A12777-009-b,https://iiif.archive.org/iiif/faeriequeenedisp00spen_0$25
A12777-010-a,https://iiif.archive.org/iiif/faeriequeenedisp00spen_0$26
A12777-010-b,https://iiif.archive.org/iiif/faeriequeenedisp00spen_0$27
A12777-011-a,https://iiif.archive.org/iiif/faeriequeenedisp00spen_0$28
A12777-011-b,https://iiif.archive.org/iiif/faeriequeenedisp00spen_0$29
A12777-012-a,https://iiif.archive.org/iiif/faeriequeenedisp00spen_0$30
A12777-012-b,https://iiif.archive.org/iiif/faeriequeenedisp00spen_0$31
A12777-013-a,https://iiif.archive.org/iiif/faeriequeenedisp00spen_0$32
A12777-013-b,https://iiif.archive.org/iiif/faeriequeenedisp00spen_0$33
A12777-014-a,https://iiif.archive.org/iiif/faeriequeenedisp00spen_0$34
A12777-014-b,https://iiif.archive.org/iiif/faeriequeenedisp00spen_0$35
A12777-015-a,https://iiif.archive.org/iiif/faeriequeenedisp00spen_0$36
A12777-015-b,https://iiif.archive.org/iiif/faeriequeenedisp00spen_0$37
A12777-016-a,https://iiif.archive.org/iiif/faeriequeenedisp00spen_0$38
A12777-016-b,https://iiif.archive.org/iiif/faeriequeenedisp00spen_0$39
A12777-017-a,https://iiif.archive.org/iiif/faeriequeenedisp00spen_0$40
A12777-017-b,https://iiif.archive.org/iiif/faeriequeenedisp00spen_0$41
A12777-018-a,https://iiif.archive.org/iiif/faeriequeenedisp00spen_0$42
A12777-018-b,https://iiif.archive.org/iiif/faeriequeenedisp00spen_0$43
A12777-019-a,https://iiif.archive.org/iiif/faeriequeenedisp00spen_0$44
A12777-019-b,https://iiif.archive.org/iiif/faeriequeenedisp00spen_0$45
A12777-020-a,https://iiif.archive.org/iiif/faeriequeenedisp00spen_0$46
A12777-020-b,https://iiif.archive.org/iiif/faeriequeenedisp00spen_0$47
A12777-021-a,https://iiif.archive.org/iiif/faeriequeenedisp00spen_0$48
A12777-021-b,https://iiif.archive.org/iiif/faeriequeenedisp00spen_0$49
A12777-022-a,https://iiif.archive.org/iiif/faeriequeenedisp00spen_0$50
A12777-022-b,https://iiif.archive.org/iiif/faeriequeenedisp00spen_0$51
A12777-023-a,https://iiif.archive.org/iiif/faeriequeenedisp00spen_0$52
A12777-023-b,https://iiif.archive.org/iiif/faeriequeenedisp00spen_0$53
A12777-024-a,https://iiif.archive.org/iiif/faeriequeenedisp00spen_0$54
A12777-024-b,https://iiif.archive.org/iiif/faeriequeenedisp00spen_0$55
A12777-025-a,https://iiif.archive.org/iiif/faeriequeenedisp00spen_0$56
A12777-025-b,https://iiif.archive.org/iiif/faeriequeenedisp00spen_0$57
A12777-026-a,https://iiif.archive.org/iiif/faeriequeenedisp00spen_0$58
A12777-026-b,https://iiif.archive.org/iiif/faeriequeenedisp00spen_0$59
A12777-027-a,https://iiif.archive.org/iiif/faeriequeenedisp00spen_0$60
A12777-027-b,https://iiif.archive.org/iiif/faeriequeenedisp00spen_0$61
A12777-028-a,https://iiif.archive.org/iiif/faeriequeenedisp00spen_0$62
A12777-028-b,https://iiif.archive.org/iiif/faeriequeenedisp00spen_0$63
A12777-029-a,https://iiif.archive.org/iiif/faeriequeenedisp00spen_0$64
A12777-029-b,https://iiif.archive.org/iiif/faeriequeenedisp00spen_0$65
A12777-030-a,https://iiif.archive.org/iiif/faeriequeenedisp00spen_0$66
A12777-030-b,https://iiif.archive.org/iiif/faeriequeenedisp00spen_0$67
A12777-031-a,https://iiif.archive.org/iiif/faeriequeenedisp00spen_0$68
A12777-031-b,https://iiif.archive.org/iiif/faeriequeenedisp00spen_0$69
A12777-032-a,https://iiif.archive.org/iiif/faeriequeenedisp00spen_0$70
A12777-032-b,https://iiif.archive.org/iiif/faeriequeenedisp00spen_0$71
A12777-033-a,https://iiif.archive.org/iiif/faeriequeenedisp00spen_0$72
A12777-033-b,https://iiif.archive.org/iiif/faeriequeenedisp00spen_0$73
A12777-034-a,https://iiif.archive.org/iiif/faeriequeenedisp00spen_0$74
A12777-034-b,https://iiif.archive.org/iiif/faeriequeenedisp00spen_0$75
A12777-035-a,https://iiif.archive.org/iiif/faeriequeenedisp00spen_0$76
A12777-035-b,https://iiif.archive.org/iiif/faeriequeenedisp00spen_0$77
A12777-036-a,https://iiif.archive.org/iiif/faeriequeenedisp00spen_0$78
A12777-036-b,https://iiif.archive.org/iiif/faeriequeenedisp00spen_0$79
A12777-037-a,https://iiif.archive.org/iiif/faeriequeenedisp00spen_0$80
A12777-037-b,https://iiif.archive.org/iiif/faeriequeenedisp00spen_0$81
A12777-038-a,https://iiif.archive.org/iiif/faeriequeenedisp00spen_0$82
A12777-038-b,https://iiif.archive.org/iiif/faeriequeenedisp00spen_0$83
A12777-039-a,https://iiif.archive.org/iiif/faeriequeenedisp00spen_0$84
A12777-039-b,https://iiif.archive.org/iiif/faeriequeenedisp00spen_0$85
A12777-040-a,https://iiif.archive.org/iiif/faeriequeenedisp00spen_0$86
A12777-040-b,https://iiif.archive.org/iiif/faeriequeenedisp00spen_0$87
A12777-041-a,https://iiif.archive.org/iiif/faeriequeenedisp00spen_0$88
A12777-041-b,https://iiif.archive.org/iiif/faeriequeenedisp00spen_0$89
A12777-042-a,https://iiif.archive.org/iiif/faeriequeenedisp00spen_0$90
A12777-042-b,https://iiif.archive.org/iiif/faeriequeenedisp00spen_0$91
A12777-043-a,https://iiif.archive.org/iiif/faeriequeenedisp00spen_0$92
A12777-043-b,https://iiif.archive.org/iiif/faeriequeenedisp00spen_0$93
A12777-044-a,https://iiif.archive.org/iiif/faeriequeenedisp00spen_0$94
A12777-044-b,https://iiif.archive.org/iiif/faeriequeenedisp00spen_0$95
A12777-045-a,https://iiif.archive.org/iiif/faeriequeenedisp00spen_0$96
A12777-045-b,https://iiif.archive.org/iiif/faeriequeenedisp00spen_0$97
A12777-046-a,https://iiif.archive.org/iiif/faeriequeenedisp00spen_0$98
A12777-046-b,https://iiif.archive.org/iiif/faeriequeenedisp00spen_0$99
A12777-047-a,https://iiif.archive.org/iiif/faeriequeenedisp00spen_0$100
A12777-047-b,https://iiif.archive.org/iiif/faeriequeenedisp00spen_0$101
A12777-048-a,https://iiif.archive.org/iiif/faeriequeenedisp00spen_0$102
A12777-048-b,https://iiif.archive.org/iiif/faeriequeenedisp00spen_0$103
A12777-049-a,https://iiif.archive.org/iiif/faeriequeenedisp00spen_0$104
A12777-049-b,https://iiif.archive.org/iiif/faeriequeenedisp00spen_0$105
A12777-050-a,https://iiif.archive.org/iiif/faeriequeenedisp00spen_0$106
A12777-050-b,https://iiif.archive.org/iiif/faeriequeenedisp00spen_0$107
A12777-051-a,https://iiif.archive.org/iiif/faeriequeenedisp00spen_0$108
A12777-051-b,https://iiif.archive.org/iiif/faeriequeenedisp00spen_0$109
A12777-052-a,https://iiif.archive.org/iiif/faeriequeenedisp00spen_0$110
A12777-052-b,https://iiif.archive.org/iiif/faeriequeenedisp00spen_0$111
A12777-053-a,https://iiif.archive.org/iiif/faeriequeenedisp00spen_0$112
A12777-053-b,https://iiif.archive.org/iiif/faeriequeenedisp00spen_0$113
A12777-054-a,https://iiif.archive.org/iiif/faeriequeenedisp00spen_0$114
A12777-054-b,https://iiif.archive.org/iiif/faeriequeenedisp00spen_0$115
A12777-055-a,https://iiif.archive.org/iiif/faeriequeenedisp00spen_0$116
A12777-055-b,https://iiif.archive.org/iiif/faeriequeenedisp00spen_0$117
A12777-056-a,https://iiif.archive.org/iiif/faeriequeenedisp00spen_0$118
A12777-056-b,https://iiif.archive.org/iiif/faeriequeenedisp00spen_0$119
A12777-057-a,https://iiif.archive.org/iiif/faeriequeenedisp00spen_0$120
A12777-057-b,https://iiif.archive.org/iiif/faeriequeenedisp00spen_0$121
A12777-058-a,https://iiif.archive.org/iiif/faeriequeenedisp00spen_0$122
A12777-058-b,https://iiif.archive.org/iiif/faeriequeenedisp00spen_0$123
A12777-059-a,https://iiif.archive.org/iiif/faeriequeenedisp00spen_0$124
A12777-059-b,https://iiif.archive.org/iiif/faeriequeenedisp00spen_0$125
A12777-060-a,https://iiif.archive.org/iiif/faeriequeenedisp00spen_0$126
A12777-060-b,https://iiif.archive.org/iiif/faeriequeenedisp00spen_0$127
A12777-061-a,https://iiif.archive.org/iiif/faeriequeenedisp00spen_0$128
A12777-061-b,https://iiif.archive.org/iiif/faeriequeenedisp00spen_0$129
A12777-062-a,https://iiif.archive.org/iiif/faeriequeenedisp00spen_0$130
A12777-062-b,https://iiif.archive.org/iiif/faeriequeenedisp00spen_0$131
A12777-063-a,https://iiif.archive.org/iiif/faeriequeenedisp00spen_0$132
A12777-063-b,https://iiif.archive.org/iiif/faeriequeenedisp00spen_0$133
A12777-064-a,https://iiif.archive.org/iiif/faeriequeenedisp00spen_0$134
A12777-064-b,https://iiif.archive.org/iiif/faeriequeenedisp00spen_0$135
A12777-065-a,https://iiif.archive.org/iiif/faeriequeenedisp00spen_0$136
A12777-065-b,https://iiif.archive.org/iiif/faeriequeenedisp00spen_0$137
A12777-066-a,https://iiif.archive.org/iiif/faeriequeenedisp00spen_0$138
A12777-066-b,https://iiif.archive.org/iiif/faeriequeenedisp00spen_0$139
A12777-067-a,https://iiif.archive.org/iiif/faeriequeenedisp00spen_0$140
A12777-067-b,https://iiif.archive.org/iiif/faeriequeenedisp00spen_0$141
A12777-068-a,https://iiif.archive.org/iiif/faeriequeenedisp00spen_0$142
A12777-068-b,https://iiif.archive.org/iiif/faeriequeenedisp00spen_0$143
A12777-069-a,https://iiif.archive.org/iiif/faeriequeenedisp00spen_0$144
A12777-069-b,https://iiif.archive.org/iiif/faeriequeenedisp00spen_0$145
A12777-070-a,https://iiif.archive.org/iiif/faeriequeenedisp00spen_0$146
A12777-070-b,https://iiif.archive.org/iiif/faeriequeenedisp00spen_0$147
A12777-071-a,https://iiif.archive.org/iiif/faeriequeenedisp00spen_0$148
A12777-071-b,https://iiif.archive.org/iiif/faeriequeenedisp00spen_0$149
A12777-072-a,https://iiif.archive.org/iiif/faeriequeenedisp00spen_0$150
A12777-072-b,https://iiif.archive.org/iiif/faeriequeenedisp00spen_0$151
A12777-073-a,https://iiif.archive.org/iiif/faeriequeenedisp00spen_0$152
A12777-073-b,https://iiif.archive.org/iiif/faeriequeenedisp00spen_0$153
A12777-074-a,https://iiif.archive.org/iiif/faeriequeenedisp00spen_0$154
A12777-074-b,https://iiif.archive.org/iiif/faeriequeenedisp00spen_0$155
A12777-075-a,https://iiif.archive.org/iiif/faeriequeenedisp00spen_0$156
A12777-075-b,https://iiif.archive.org/iiif/faeriequeenedisp00spen_0$157
A12777-076-a,https://iiif.archive.org/iiif/faeriequeenedisp00spen_0$158
A12777-076-b,https://iiif.archive.org/iiif/faeriequeenedisp00spen_0$159
A12777-077-a,https://iiif.archive.org/iiif/faeriequeenedisp00spen_0$160
A12777-077-b,https://iiif.archive.org/iiif/faeriequeenedisp00spen_0$161
A12777-078-a,https://iiif.archive.org/iiif/faeriequeenedisp00spen_0$162
A12777-078-b,https://iiif.archive.org/iiif/faeriequeenedisp00spen_0$163
A12777-079-a,https://iiif.archive.org/iiif/faeriequeenedisp00spen_0$164
A12777-079-b,https://iiif.archive.org/iiif/faeriequeenedisp00spen_0$165
A12777-080-a,https://iiif.archive.org/iiif/faeriequeenedisp00spen_0$166
A12777-080-b,https://iiif.archive.org/iiif/faeriequeenedisp00spen_0$167
A12777-081-a,https://iiif.archive.org/iiif/faeriequeenedisp00spen_0$168
A12777-081-b,https://iiif.archive.org/iiif/faeriequeenedisp00spen_0$169
A12777-082-a,https://iiif.archive.org/iiif/faeriequeenedisp00spen_0$170
A12777-082-b,https://iiif.archive.org/iiif/faeriequeenedisp00spen_0$171
A12777-083-a,https://iiif.archive.org/iiif/faeriequeenedisp00spen_0$172
A12777-083-b,https://iiif.archive.org/iiif/faeriequeenedisp00spen_0$173
A12777-084-a,https://iiif.archive.org/iiif/faeriequeenedisp00spen_0$174
A12777-084-b,https://iiif.archive.org/iiif/faeriequeenedisp00spen_0$175
A12777-085-a,https://iiif.archive.org/iiif/faeriequeenedisp00spen_0$176
A12777-085-b,https://iiif.archive.org/iiif/faeriequeenedisp00spen_0$177
A12777-086-a,https://iiif.archive.org/iiif/faeriequeenedisp00spen_0$178
A12777-086-b,https://iiif.archive.org/iiif/faeriequeenedisp00spen_0$179
A12777-087-a,https://iiif.archive.org/iiif/faeriequeenedisp00spen_0$180
A12777-087-b,https://iiif.archive.org/iiif/faeriequeenedisp00spen_0$181
A12777-088-a,https://iiif.archive.org/iiif/faeriequeenedisp00spen_0$182
A12777-088-b,https://iiif.archive.org/iiif/faeriequeenedisp00spen_0$183
A12777-089-a,https://iiif.archive.org/iiif/faeriequeenedisp00spen_0$184
A12777-089-b,https://iiif.archive.org/iiif/faeriequeenedisp00spen_0$185
A12777-090-a,https://iiif.archive.org/iiif/faeriequeenedisp00spen_0$186
A12777-090-b,https://iiif.archive.org/iiif/faeriequeenedisp00spen_0$187
A12777-091-a,https://iiif.archive.org/iiif/faeriequeenedisp00spen_0$188
A12777-091-b,https://iiif.archive.org/iiif/faeriequeenedisp00spen_0$189
A12777-092-a,https://iiif.archive.org/iiif/faeriequeenedisp00spen_0$190
A12777-092-b,https://iiif.archive.org/iiif/faeriequeenedisp00spen_0$191
A12777-093-a,https://iiif.archive.org/iiif/faeriequeenedisp00spen_0$192
A12777-093-b,https://iiif.archive.org/iiif/faeriequeenedisp00spen_0$193
A12777-094-b,https://iiif.archive.org/iiif/faeriequeenedisp00spen_0$195
A12777-095-a,https://iiif.archive.org/iiif/faeriequeenedisp00spen_0$196
A12777-095-b,https://iiif.archive.org/iiif/faeriequeenedisp00spen_0$197
A12777-096-a,https://iiif.archive.org/iiif/faeriequeenedisp00spen_0$198
A12777-096-b,https://iiif.archive.org/iiif/faeriequeenedisp00spen_0$199
A12777-097-a,https://iiif.archive.org/iiif/faeriequeenedisp00spen_0$200
A12777-097-b,https://iiif.archive.org/iiif/faeriequeenedisp00spen_0$201
A12777-098-a,https://iiif.archive.org/iiif/faeriequeenedisp00spen_0$202
A12777-098-b,https://iiif.archive.org/iiif/faeriequeenedisp00spen_0$203
A12777-099-a,https://iiif.archive.org/iiif/faeriequeenedisp00spen_0$204
A12777-099-b,https://iiif.archive.org/iiif/faeriequeenedisp00spen_0$205
A12777-100-a,https://iiif.archive.org/iiif/faeriequeenedisp00spen_0$206
A12777-100-b,https://iiif.archive.org/iiif/faeriequeenedisp00spen_0$207
A12777-101-a,https://iiif.archive.org/iiif/faeriequeenedisp00spen_0$208
A12777-101-b,https://iiif.archive.org/iiif/faeriequeenedisp00spen_0$209
A12777-102-a,https://iiif.archive.org/iiif/faeriequeenedisp00spen_0$210
A12777-102-b,https://iiif.archive.org/iiif/faeriequeenedisp00spen_0$211
A12777-103-a,https://iiif.archive.org/iiif/faeriequeenedisp00spen_0$212
A12777-103-b,https://iiif.archive.org/iiif/faeriequeenedisp00spen_0$213
A12777-104-a,https://iiif.archive.org/iiif/faeriequeenedisp00spen_0$214
A12777-104-b,https://iiif.archive.org/iiif/faeriequeenedisp00spen_0$215
A12777-105-a,https://iiif.archive.org/iiif/faeriequeenedisp00spen_0$216
A12777-105-b,https://iiif.archive.org/iiif/faeriequeenedisp00spen_0$217
A12777-106-a,https://iiif.archive.org/iiif/faeriequeenedisp00spen_0$218
A12777-106-b,https://iiif.archive.org/iiif/faeriequeenedisp00spen_0$219
A12777-107-a,https://iiif.archive.org/iiif/faeriequeenedisp00spen_0$220
A12777-107-b,https://iiif.archive.org/iiif/faeriequeenedisp00spen_0$221
A12777-108-a,https://iiif.archive.org/iiif/faeriequeenedisp00spen_0$222
A12777-108-b,https://iiif.archive.org/iiif/faeriequeenedisp00spen_0$223
A12777-109-a,https://iiif.archive.org/iiif/faeriequeenedisp00spen_0$224
A12777-109-b,https://iiif.archive.org/iiif/faeriequeenedisp00spen_0$225
A12777-110-a,https://iiif.archive.org/iiif/faeriequeenedisp00spen_0$226
A12777-110-b,https://iiif.archive.org/iiif/faeriequeenedisp00spen_0$227
A12777-111-a,https://iiif.archive.org/iiif/faeriequeenedisp00spen_0$228
A12777-111-b,https://iiif.archive.org/iiif/faeriequeenedisp00spen_0$229
A12777-112-a,https://iiif.archive.org/iiif/faeriequeenedisp00spen_0$230
A12777-112-b,https://iiif.archive.org/iiif/faeriequeenedisp00spen_0$231
A12777-113-a,https://iiif.archive.org/iiif/faeriequeenedisp00spen_0$232
A12777-113-b,https://iiif.archive.org/iiif/faeriequeenedisp00spen_0$233
A12777-114-a,https://iiif.archive.org/iiif/faeriequeenedisp00spen_0$234
A12777-114-b,https://iiif.archive.org/iiif/faeriequeenedisp00spen_0$235
A12777-115-a,https://iiif.archive.org/iiif/faeriequeenedisp00spen_0$236
A12777-115-b,https://iiif.archive.org/iiif/faeriequeenedisp00spen_0$237
A12777-116-a,https://iiif.archive.org/iiif/faeriequeenedisp00spen_0$238
A12777-116-b,https://iiif.archive.org/iiif/faeriequeenedisp00spen_0$239
A12777-117-a,https://iiif.archive.org/iiif/faeriequeenedisp00spen_0$240
A12777-117-b,https://iiif.archive.org/iiif/faeriequeenedisp00spen_0$241
A12777-118-a,https://iiif.archive.org/iiif/faeriequeenedisp00spen_0$242
A12777-118-b,https://iiif.archive.org/iiif/faeriequeenedisp00spen_0$243
A12777-119-a,https://iiif.archive.org/iiif/faeriequeenedisp00spen_0$244
A12777-119-b,https://iiif.archive.org/iiif/faeriequeenedisp00spen_0$245
A12777-120-a,https://iiif.archive.org/iiif/faeriequeenedisp00spen_0$246
A12777-120-b,https://iiif.archive.org/iiif/faeriequeenedisp00spen_0$247
A12777-121-a,https://iiif.archive.org/iiif/faeriequeenedisp00spen_0$248
A12777-121-b,https://iiif.archive.org/iiif/faeriequeenedisp00spen_0$249
A12777-122-a,https://iiif.archive.org/iiif/faeriequeenedisp00spen_0$250
A12777-122-b,https://iiif.archive.org/iiif/faeriequeenedisp00spen_0$251
A12777-123-a,https://iiif.archive.org/iiif/faeriequeenedisp00spen_0$252
A12777-123-b,https://iiif.archive.org/iiif/faeriequeenedisp00spen_0$253
A12777-124-a,https://iiif.archive.org/iiif/faeriequeenedisp00spen_0$254
A12777-124-b,https://iiif.archive.org/iiif/faeriequeenedisp00spen_0$255
A12777-125-a,https://iiif.archive.org/iiif/faeriequeenedisp00spen_0$256
A12777-125-b,https://iiif.archive.org/iiif/faeriequeenedisp00spen_0$257
A12777-126-a,https://iiif.archive.org/iiif/faeriequeenedisp00spen_0$258
A12777-126-b,https://iiif.archive.org/iiif/faeriequeenedisp00spen_0$259
A12777-127-a,https://iiif.archive.org/iiif/faeriequeenedisp00spen_0$260
A12777-127-b,https://iiif.archive.org/iiif/faeriequeenedisp00spen_0$261
A12777-128-a,https://iiif.archive.org/iiif/faeriequeenedisp00spen_0$262
A12777-128-b,https://iiif.archive.org/iiif/faeriequeenedisp00spen_0$263
A12777-129-a,https://iiif.archive.org/iiif/faeriequeenedisp00spen_0$264
A12777-129-b,https://iiif.archive.org/iiif/faeriequeenedisp00spen_0$265
A12777-130-a,https://iiif.archive.org/iiif/faeriequeenedisp00spen_0$266
A12777-130-b,https://iiif.archive.org/iiif/faeriequeenedisp00spen_0$267
A12777-131-a,https://iiif.archive.org/iiif/faeriequeenedisp00spen_0$268
A12777-131-b,https://iiif.archive.org/iiif/faeriequeenedisp00spen_0$269
A12777-132-a,https://iiif.archive.org/iiif/faeriequeenedisp00spen_0$270
A12777-132-b,https://iiif.archive.org/iiif/faeriequeenedisp00spen_0$271
A12777-133-a,https://iiif.archive.org/iiif/faeriequeenedisp00spen_0$272
A12777-133-b,https://iiif.archive.org/iiif/faeriequeenedisp00spen_0$273
A12777-134-a,https://iiif.archive.org/iiif/faeriequeenedisp00spen_0$274
A12777-134-b,https://iiif.archive.org/iiif/faeriequeenedisp00spen_0$275
A12777-135-a,https://iiif.archive.org/iiif/faeriequeenedisp00spen_0$276
A12777-135-b,https://iiif.archive.org/iiif/faeriequeenedisp00spen_0$277
A12777-136-a,https://iiif.archive.org/iiif/faeriequeenedisp00spen_0$278
A12777-136-b,https://iiif.archive.org/iiif/faeriequeenedisp00spen_0$279
A12777-137-a,https://iiif.archive.org/iiif/faeriequeenedisp00spen_0$280
A12777-137-b,https://iiif.archive.org/iiif/faeriequeenedisp00spen_0$281
A12777-138-a,https://iiif.archive.org/iiif/faeriequeenedisp00spen_0$282
A12777-138-b,https://iiif.archive.org/iiif/faeriequeenedisp00spen_0$283
A12777-139-a,https://iiif.archive.org/iiif/faeriequeenedisp00spen_0$284
A12777-139-b,https://iiif.archive.org/iiif/faeriequeenedisp00spen_0$285
A12777-140-a,https://iiif.archive.org/iiif/faeriequeenedisp00spen_0$286
A12777-140-b,https://iiif.archive.org/iiif/faeriequeenedisp00spen_0$287
A12777-141-a,https://iiif.archive.org/iiif/faeriequeenedisp00spen_0$288
A12777-141-b,https://iiif.archive.org/iiif/faeriequeenedisp00spen_0$289
A12777-142-a,https://iiif.archive.org/iiif/faeriequeenedisp00spen_0$290
A12777-142-b,https://iiif.archive.org/iiif/faeriequeenedisp00spen_0$291
A12777-143-a,https://iiif.archive.org/iiif/faeriequeenedisp00spen_0$292
A12777-143-b,https://iiif.archive.org/iiif/faeriequeenedisp00spen_0$293
A12777-144-a,https://iiif.archive.org/iiif/faeriequeenedisp00spen_0$294
A12777-144-b,https://iiif.archive.org/iiif/faeriequeenedisp00spen_0$295
A12777-145-a,https://iiif.archive.org/iiif/faeriequeenedisp00spen_0$296
A12777-145-b,https://iiif.archive.org/iiif/faeriequeenedisp00spen_0$297
A12777-146-a,https://iiif.archive.org/iiif/faeriequeenedisp00spen_0$298
A12777-146-b,https://iiif.archive.org/iiif/faeriequeenedisp00spen_0$299
A12777-147-a,https://iiif.archive.org/iiif/faeriequeenedisp00spen_0$300
A12777-147-b,https://iiif.archive.org/iiif/faeriequeenedisp00spen_0$301
A12777-148-a,https://iiif.archive.org/iiif/faeriequeenedisp00spen_0$302
A12777-148-b,https://iiif.archive.org/iiif/faeriequeenedisp00spen_0$303
A12777-149-a,https://iiif.archive.org/iiif/faeriequeenedisp00spen_0$304
A12777-149-b,https://iiif.archive.org/iiif/faeriequeenedisp00spen_0$305
A12777-150-a,https://iiif.archive.org/iiif/faeriequeenedisp00spen_0$306
A12777-150-b,https://iiif.archive.org/iiif/faeriequeenedisp00spen_0$307
A12777-151-a,https://iiif.archive.org/iiif/faeriequeenedisp00spen_0$308
A12777-151-b,https://iiif.archive.org/iiif/faeriequeenedisp00spen_0$309
A12777-152-a,https://iiif.archive.org/iiif/faeriequeenedisp00spen_0$310
A12777-152-b,https://iiif.archive.org/iiif/faeriequeenedisp00spen_0$311
A12777-153-a,https://iiif.archive.org/iiif/faeriequeenedisp00spen_0$312
A12777-153-b,https://iiif.archive.org/iiif/faeriequeenedisp00spen_0$313
A12777-154-a,https://iiif.archive.org/iiif/faeriequeenedisp00spen_0$314
A12777-154-b,https://iiif.archive.org/iiif/faeriequeenedisp00spen_0$315
A12777-155-a,https://iiif.archive.org/iiif/faeriequeenedisp00spen_0$316
A12777-155-b,https://iiif.archive.org/iiif/faeriequeenedisp00spen_0$317
A12777-156-a,https://iiif.archive.org/iiif/faeriequeenedisp00spen_0$318
A12777-156-b,https://iiif.archive.org/iiif/faeriequeenedisp00spen_0$319
A12777-157-a,https://iiif.archive.org/iiif/faeriequeenedisp00spen_0$320
A12777-157-b,https://iiif.archive.org/iiif/faeriequeenedisp00spen_0$321
A12777-158-a,https://iiif.archive.org/iiif/faeriequeenedisp00spen_0$322
A12777-158-b,https://iiif.archive.org/iiif/faeriequeenedisp00spen_0$323
A12777-159-a,https://iiif.archive.org/iiif/faeriequeenedisp00spen_0$324
A12777-159-b,https://iiif.archive.org/iiif/faeriequeenedisp00spen_0$325
A12777-160-a,https://iiif.archive.org/iiif/faeriequeenedisp00spen_0$326
A12777-160-b,https://iiif.archive.org/iiif/faeriequeenedisp00spen_0$327
A12777-161-a,https://iiif.archive.org/iiif/faeriequeenedisp00spen_0$328
A12777-161-b,https://iiif.archive.org/iiif/faeriequeenedisp00spen_0$329
A12777-162-a,https://iiif.archive.org/iiif/faeriequeenedisp00spen_0$330
A12777-162-b,https://iiif.archive.org/iiif/faeriequeenedisp00spen_0$331
A12777-163-a,https://iiif.archive.org/iiif/faeriequeenedisp00spen_0$332
A12777-163-b,https://iiif.archive.org/iiif/faeriequeenedisp00spen_0$333
A12777-164-a,https://iiif.archive.org/iiif/faeriequeenedisp00spen_0$334
A12777-164-b,https://iiif.archive.org/iiif/faeriequeenedisp00spen_0$335
A12777-165-a,https://iiif.archive.org/iiif/faeriequeenedisp00spen_0$336
A12777-165-b,https://iiif.archive.org/iiif/faeriequeenedisp00spen_0$337
A12777-166-a,https://iiif.archive.org/iiif/faeriequeenedisp00spen_0$338
A12777-166-b,https://iiif.archive.org/iiif/faeriequeenedisp00spen_0$339
A12777-167-a,https://iiif.archive.org/iiif/faeriequeenedisp00spen_0$340
A12777-167-b,https://iiif.archive.org/iiif/faeriequeenedisp00spen_0$341
A12777-168-a,https://iiif.archive.org/iiif/faeriequeenedisp00spen_0$342
A12777-168-b,https://iiif.archive.org/iiif/faeriequeenedisp00spen_0$343
A12777-169-a,https://iiif.archive.org/iiif/faeriequeenedisp00spen_0$344
A12777-169-b,https://iiif.archive.org/iiif/faeriequeenedisp00spen_0$345
A12777-170-a,https://iiif.archive.org/iiif/faeriequeenedisp00spen_0$346
A12777-170-b,https://iiif.archive.org/iiif/faeriequeenedisp00spen_0$347
A12777-171-a,https://iiif.archive.org/iiif/faeriequeenedisp00spen_0$348
A12777-171-b,https://iiif.archive.org/iiif/faeriequeenedisp00spen_0$349
A12777-172-a,https://iiif.archive.org/iiif/faeriequeenedisp00spen_0$350
A12777-172-b,https://iiif.archive.org/iiif/faeriequeenedisp00spen_0$351
A12777-173-a,https://iiif.archive.org/iiif/faeriequeenedisp00spen_0$352
A12777-173-b,https://iiif.archive.org/iiif/faeriequeenedisp00spen_0$353
A12777-174-a,https://iiif.archive.org/iiif/faeriequeenedisp00spen_0$354
A12777-174-b,https://iiif.archive.org/iiif/faeriequeenedisp00spen_0$355
A12777-175-a,https://iiif.archive.org/iiif/faeriequeenedisp00spen_0$356
A12777-175-b,https://iiif.archive.org/iiif/faeriequeenedisp00spen_0$357
A12777-176-a,https://iiif.archive.org/iiif/faeriequeenedisp00spen_0$358
A12777-176-b,https://iiif.archive.org/iiif/faeriequeenedisp00spen_0$359
A12777-177-a,https://iiif.archive.org/iiif/faeriequeenedisp00spen_0$360
A12777-177-b,https://iiif.archive.org/iiif/faeriequeenedisp00spen_0$361
A12777-178-a,https://iiif.archive.org/iiif/faeriequeenedisp00spen_0$362
A12777-178-b,https://iiif.archive.org/iiif/faeriequeenedisp00spen_0$363
A12777-179-a,https://iiif.archive.org/iiif/faeriequeenedisp00spen_0$364
A12777-179-b,https://iiif.archive.org/iiif/faeriequeenedisp00spen_0$365
A12777-180-a,https://iiif.archive.org/iiif/faeriequeenedisp00spen_0$366
A12777-180-b,https://iiif.archive.org/iiif/faeriequeenedisp00spen_0$367
A12777-181-a,https://iiif.archive.org/iiif/faeriequeenedisp00spen_0$368
A12777-181-b,https://iiif.archive.org/iiif/faeriequeenedisp00spen_0$369
A12777-182-a,https://iiif.archive.org/iiif/faeriequeenedisp00spen_0$370
A12777-182-b,https://iiif.archive.org/iiif/faeriequeenedisp00spen_0$371
A12777-183-a,https://iiif.archive.org/iiif/faeriequeenedisp00spen_0$372
A12777-183-b,https://iiif.archive.org/iiif/faeriequeenedisp00spen_0$373
A12777-184-a,https://iiif.archive.org/iiif/faeriequeenedisp00spen_0$374
A12777-184-b,https://iiif.archive.org/iiif/faeriequeenedisp00spen_0$375
A12777-185-a,https://iiif.archive.org/iiif/faeriequeenedisp00spen_0$376
A12777-185-b,https://iiif.archive.org/iiif/faeriequeenedisp00spen_0$377
A12777-186-a,https://iiif.archive.org/iiif/faeriequeenedisp00spen_0$378
A12777-186-b,https://iiif.archive.org/iiif/faeriequeenedisp00spen_0$379
A12777-187-a,https://iiif.archive.org/iiif/faeriequeenedisp00spen_0$380
A12777-187-b,https://iiif.archive.org/iiif/faeriequeenedisp00spen_0$381
A12777-188-a,https://iiif.archive.org/iiif/faeriequeenedisp00spen_0$382
A12777-188-b,https://iiif.archive.org/iiif/faeriequeenedisp00spen_0$383
A12777-189-a,https://iiif.archive.org/iiif/faeriequeenedisp00spen_0$384
A12777-189-b,https://iiif.archive.org/iiif/faeriequeenedisp00spen_0$385
A12777-190-a,https://iiif.archive.org/iiif/faeriequeenedisp00spen_0$386
A12777-190-b,https://iiif.archive.org/iiif/faeriequeenedisp00spen_0$387
A12777-191-a,https://iiif.archive.org/iiif/faeriequeenedisp00spen_0$388
A12777-191-b,https://iiif.archive.org/iiif/faeriequeenedisp00spen_0$389
A12777-192-a,https://iiif.archive.org/iiif/faeriequeenedisp00spen_0$390
A12777-192-b,https://iiif.archive.org/iiif/faeriequeenedisp00spen_0$391
A12777-193-a,https://iiif.archive.org/iiif/faeriequeenedisp00spen_0$392
A12777-193-b,https://iiif.archive.org/iiif/faeriequeenedisp00spen_0$393
A12777-194-a,https://iiif.archive.org/iiif/faeriequeenedisp00spen_0$394
A12777-194-b,https://iiif.archive.org/iiif/faeriequeenedisp00spen_0$395
A12777-195-a,https://iiif.archive.org/iiif/faeriequeenedisp00spen_0$396
A12777-195-b,https://iiif.archive.org/iiif/faeriequeenedisp00spen_0$397
A12777-196-b,https://iiif.archive.org/iiif/faeriequeenedisp00spen_0$399
A12777-197-a,https://iiif.archive.org/iiif/faeriequeenedisp00spen_0$400
A12777-197-b,https://iiif.archive.org/iiif/faeriequeenedisp00spen_0$401
A12777-198-a,https://iiif.archive.org/iiif/faeriequeenedisp00spen_0$402
A12777-198-b,https://iiif.archive.org/iiif/faeriequeenedisp00spen_0$403
A12777-199-a,https://iiif.archive.org/iiif/faeriequeenedisp00spen_0$404
A12777-199-b,https://iiif.archive.org/iiif/faeriequeenedisp00spen_0$405
A12777-200-a,https://iiif.archive.org/iiif/faeriequeenedisp00spen_0$406
A12777-200-b,https://iiif.archive.org/iiif/faeriequeenedisp00spen_0$407
A12777-201-a,https://iiif.archive.org/iiif/faeriequeenedisp00spen_0$408
A12777-201-b,https://iiif.archive.org/iiif/faeriequeenedisp00spen_0$409
A12777-202-a,https://iiif.archive.org/iiif/faeriequeenedisp00spen_0$410
A12777-202-b,https://iiif.archive.org/iiif/faeriequeenedisp00spen_0$411
A12777-203-a,https://iiif.archive.org/iiif/faeriequeenedisp00spen_0$412
A12777-203-b,https://iiif.archive.org/iiif/faeriequeenedisp00spen_0$413
A12777-204-a,https://iiif.archive.org/iiif/faeriequeenedisp00spen_0$414
A12777-204-b,https://iiif.archive.org/iiif/faeriequeenedisp00spen_0$415
A12777-205-a,https://iiif.archive.org/iiif/faeriequeenedisp00spen_0$416
A12777-205-b,https://iiif.archive.org/iiif/faeriequeenedisp00spen_0$417
A12777-206-a,https://iiif.archive.org/iiif/faeriequeenedisp00spen_0$418
A12777-206-b,https://iiif.archive.org/iiif/faeriequeenedisp00spen_0$419
A12777-207-a,https://iiif.archive.org/iiif/faeriequeenedisp00spen_0$420
A12777-207-b,https://iiif.archive.org/iiif/faeriequeenedisp00spen_0$421
A12777-208-a,https://iiif.archive.org/iiif/faeriequeenedisp00spen_0$422
A12777-208-b,https://iiif.archive.org/iiif/faeriequeenedisp00spen_0$423
A12777-209-a,https://iiif.archive.org/iiif/faeriequeenedisp00spen_0$424
A12777-209-b,https://iiif.archive.org/iiif/faeriequeenedisp00spen_0$425
A12777-210-a,https://iiif.archive.org/iiif/faeriequeenedisp00spen_0$426
A12777-210-b,https://iiif.archive.org/iiif/faeriequeenedisp00spen_0$427
A12777-211-a,https://iiif.archive.org/iiif/faeriequeenedisp00spen_0$428
A12777-211-b,https://iiif.archive.org/iiif/faeriequeenedisp00spen_0$429
A12777-212-a,https://iiif.archive.org/iiif/faeriequeenedisp00spen_0$430
A12777-212-b,https://iiif.archive.org/iiif/faeriequeenedisp00spen_0$431
A12777-213-a,https://iiif.archive.org/iiif/faeriequeenedisp00spen_0$432
A12777-213-b,https://iiif.archive.org/iiif/faeriequeenedisp00spen_0$433
A12777-214-a,https://iiif.archive.org/iiif/faeriequeenedisp00spen_0$434
A12777-214-b,https://iiif.archive.org/iiif/faeriequeenedisp00spen_0$435
A12777-215-a,https://iiif.archive.org/iiif/faeriequeenedisp00spen_0$436
A12777-215-b,https://iiif.archive.org/iiif/faeriequeenedisp00spen_0$437
A12777-216-a,https://iiif.archive.org/iiif/faeriequeenedisp00spen_0$438
A12777-216-b,https://iiif.archive.org/iiif/faeriequeenedisp00spen_0$439
A12777-217-a,https://iiif.archive.org/iiif/faeriequeenedisp00spen_0$440
A12777-217-b,https://iiif.archive.org/iiif/faeriequeenedisp00spen_0$441
A12777-218-a,https://iiif.archive.org/iiif/faeriequeenedisp00spen_0$442
A12777-218-b,https://iiif.archive.org/iiif/faeriequeenedisp00spen_0$443
A12777-219-a,https://iiif.archive.org/iiif/faeriequeenedisp00spen_0$444
A12777-219-b,https://iiif.archive.org/iiif/faeriequeenedisp00spen_0$445
A12777-220-a,https://iiif.archive.org/iiif/faeriequeenedisp00spen_0$446
A12777-220-b,https://iiif.archive.org/iiif/faeriequeenedisp00spen_0$447
A12777-221-a,https://iiif.archive.org/iiif/faeriequeenedisp00spen_0$448
A12777-221-b,https://iiif.archive.org/iiif/faeriequeenedisp00spen_0$449
A12777-222-a,https://iiif.archive.org/iiif/faeriequeenedisp00spen_0$450
A12777-222-b,https://iiif.archive.org/iiif/faeriequeenedisp00spen_0$451
A12777-223-a,https://iiif.archive.org/iiif/faeriequeenedisp00spen_0$452
A12777-223-b,https://iiif.archive.org/iiif/faeriequeenedisp00spen_0$453
A12777-224-a,https://iiif.archive.org/iiif/faeriequeenedisp00spen_0$454
A12777-224-b,https://iiif.archive.org/iiif/faeriequeenedisp00spen_0$455
A12777-225-a,https://iiif.archive.org/iiif/faeriequeenedisp00spen_0$456
A12777-225-b,https://iiif.archive.org/iiif/faeriequeenedisp00spen_0$457
A12777-226-a,https://iiif.archive.org/iiif/faeriequeenedisp00spen_0$458
A12777-226-b,https://iiif.archive.org/iiif/faeriequeenedisp00spen_0$459
A12777-227-a,https://iiif.archive.org/iiif/faeriequeenedisp00spen_0$460
A12777-227-b,https://iiif.archive.org/iiif/faeriequeenedisp00spen_0$461
A12777-228-a,https://iiif.archive.org/iiif/faeriequeenedisp00spen_0$462
A12777-228-b,https://iiif.archive.org/iiif/faeriequeenedisp00spen_0$463
A12777-229-a,https://iiif.archive.org/iiif/faeriequeenedisp00spen_0$464
A12777-229-b,https://iiif.archive.org/iiif/faeriequeenedisp00spen_0$465
A12777-230-a,https://iiif.archive.org/iiif/faeriequeenedisp00spen_0$466
A12777-230-b,https://iiif.archive.org/iiif/faeriequeenedisp00spen_0$467
A12777-231-a,https://iiif.archive.org/iiif/faeriequeenedisp00spen_0$468
A12777-231-b,https://iiif.archive.org/iiif/faeriequeenedisp00spen_0$469
A12777-232-a,https://iiif.archive.org/iiif/faeriequeenedisp00spen_0$470
A12777-232-b,https://iiif.archive.org/iiif/faeriequeenedisp00spen_0$471
A12777-233-a,https://iiif.archive.org/iiif/faeriequeenedisp00spen_0$472
A12777-233-b,https://iiif.archive.org/iiif/faeriequeenedisp00spen_0$473
A12777-234-a,https://iiif.archive.org/iiif/faeriequeenedisp00spen_0$474
A12777-234-b,https://iiif.archive.org/iiif/faeriequeenedisp00spen_0$475
A12777-235-a,https://iiif.archive.org/iiif/faeriequeenedisp00spen_0$476
A12777-235-b,https://iiif.archive.org/iiif/faeriequeenedisp00spen_0$477
A12777-236-a,https://iiif.archive.org/iiif/faeriequeenedisp00spen_0$478
A12777-236-b,https://iiif.archive.org/iiif/faeriequeenedisp00spen_0$479
A12777-237-a,https://iiif.archive.org/iiif/faeriequeenedisp00spen_0$480
A12777-237-b,https://iiif.archive.org/iiif/faeriequeenedisp00spen_0$481
A12777-238-a,https://iiif.archive.org/iiif/faeriequeenedisp00spen_0$482
A12777-238-b,https://iiif.archive.org/iiif/faeriequeenedisp00spen_0$483
A12777-239-a,https://iiif.archive.org/iiif/faeriequeenedisp00spen_0$484
A12777-239-b,https://iiif.archive.org/iiif/faeriequeenedisp00spen_0$485
A12777-240-a,https://iiif.archive.org/iiif/faeriequeenedisp00spen_0$486
A12777-240-b,https://iiif.archive.org/iiif/faeriequeenedisp00spen_0$487
A12777-241-a,https://iiif.archive.org/iiif/faeriequeenedisp00spen_0$488
A12777-241-b,https://iiif.archive.org/iiif/faeriequeenedisp00spen_0$489
A12777-242-a,https://iiif.archive.org/iiif/faeriequeenedisp00spen_0$490
A12777-242-b,https://iiif.archive.org/iiif/faeriequeenedisp00spen_0$491
A12777-243-a,https://iiif.archive.org/iiif/faeriequeenedisp00spen_0$492
A12777-243-b,https://iiif.archive.org/iiif/faeriequeenedisp00spen_0$493
A12777-244-a,https://iiif.archive.org/iiif/faeriequeenedisp00spen_0$494
A12777-244-b,https://iiif.archive.org/iiif/faeriequeenedisp00spen_0$495
A12777-245-a,https://iiif.archive.org/iiif/faeriequeenedisp00spen_0$496
A12777-245-b,https://iiif.archive.org/iiif/faeriequeenedisp00spen_0$497
A12777-246-a,https://iiif.archive.org/iiif/faeriequeenedisp00spen_0$498
A12777-246-b,https://iiif.archive.org/iiif/faeriequeenedisp00spen_0$499
A12777-247-a,https://iiif.archive.org/iiif/faeriequeenedisp00spen_0$500
A12777-247-b,https://iiif.archive.org/iiif/faeriequeenedisp00spen_0$501
A12777-248-a,https://iiif.archive.org/iiif/faeriequeenedisp00spen_0$502
A12777-248-b,https://iiif.archive.org/iiif/faeriequeenedisp00spen_0$503
A12777-249-a,https://iiif.archive.org/iiif/faeriequeenedisp00spen_0$504
A12777-249-b,https://iiif.archive.org/iiif/faeriequeenedisp00spen_0$505
A12777-250-a,https://iiif.archive.org/iiif/faeriequeenedisp00spen_0$506
A12777-250-b,https://iiif.archive.org/iiif/faeriequeenedisp00spen_0$507
A12777-251-a,https://iiif.archive.org/iiif/faeriequeenedisp00spen_0$508
A12777-251-b,https://iiif.archive.org/iiif/faeriequeenedisp00spen_0$509
A12777-252-a,https://iiif.archive.org/iiif/faeriequeenedisp00spen_0$512
A12777-252-b,https://iiif.archive.org/iiif/faeriequeenedisp00spen_0$513
A12777-253-a,https://iiif.archive.org/iiif/faeriequeenedisp00spen_0$514
A12777-253-b,https://iiif.archive.org/iiif/faeriequeenedisp00spen_0$515
A12777-254-a,https://iiif.archive.org/iiif/faeriequeenedisp00spen_0$516
A12777-254-b,https://iiif.archive.org/iiif/faeriequeenedisp00spen_0$517
A12777-255-a,https://iiif.archive.org/iiif/faeriequeenedisp00spen_0$518
A12777-255-b,https://iiif.archive.org/iiif/faeriequeenedisp00spen_0$519
A12777-256-a,https://iiif.archive.org/iiif/faeriequeenedisp00spen_0$520
A12777-256-b,https://iiif.archive.org/iiif/faeriequeenedisp00spen_0$521
A12777-257-a,https://iiif.archive.org/iiif/faeriequeenedisp00spen_0$522
A12777-257-b,https://iiif.archive.org/iiif/faeriequeenedisp00spen_0$523
A12777-258-a,https://iiif.archive.org/iiif/faeriequeenedisp00spen_0$524
A12777-258-b,https://iiif.archive.org/iiif/faeriequeenedisp00spen_0$525
A12777-259-a,https://iiif.archive.org/iiif/faeriequeenedisp00spen_0$526
A12777-259-b,https://iiif.archive.org/iiif/faeriequeenedisp00spen_0$527
A12777-260-a,https://iiif.archive.org/iiif/faeriequeenedisp00spen_0$528
A12777-260-b,https://iiif.archive.org/iiif/faeriequeenedisp00spen_0$529
A12777-261-a,https://iiif.archive.org/iiif/faeriequeenedisp00spen_0$530
A12777-261-b,https://iiif.archive.org/iiif/faeriequeenedisp00spen_0$531
A12777-262-a,https://iiif.archive.org/iiif/faeriequeenedisp00spen_0$532
A12777-262-b,https://iiif.archive.org/iiif/faeriequeenedisp00spen_0$533
A12777-263-a,https://iiif.archive.org/iiif/faeriequeenedisp00spen_0$534
A12777-263-b,https://iiif.archive.org/iiif/faeriequeenedisp00spen_0$535
A12777-264-a,https://iiif.archive.org/iiif/faeriequeenedisp00spen_0$536
A12777-264-b,https://iiif.archive.org/iiif/faeriequeenedisp00spen_0$537
A12777-265-a,https://iiif.archive.org/iiif/faeriequeenedisp00spen_0$538
A12777-265-b,https://iiif.archive.org/iiif/faeriequeenedisp00spen_0$539
A12777-266-a,https://iiif.archive.org/iiif/faeriequeenedisp00spen_0$540
A12777-266-b,https://iiif.archive.org/iiif/faeriequeenedisp00spen_0$541
A12777-267-a,https://iiif.archive.org/iiif/faeriequeenedisp00spen_0$542
A12777-267-b,https://iiif.archive.org/iiif/faeriequeenedisp00spen_0$543
A12777-268-a,https://iiif.archive.org/iiif/faeriequeenedisp00spen_0$544
A12777-268-b,https://iiif.archive.org/iiif/faeriequeenedisp00spen_0$545
A12777-269-a,https://iiif.archive.org/iiif/faeriequeenedisp00spen_0$546
A12777-269-b,https://iiif.archive.org/iiif/faeriequeenedisp00spen_0$547
A12777-270-a,https://iiif.archive.org/iiif/faeriequeenedisp00spen_0$548
A12777-270-b,https://iiif.archive.org/iiif/faeriequeenedisp00spen_0$549
A12777-271-a,https://iiif.archive.org/iiif/faeriequeenedisp00spen_0$550
A12777-271-b,https://iiif.archive.org/iiif/faeriequeenedisp00spen_0$551
A12777-272-a,https://iiif.archive.org/iiif/faeriequeenedisp00spen_0$552
A12777-272-b,https://iiif.archive.org/iiif/faeriequeenedisp00spen_0$553
A12777-273-a,https://iiif.archive.org/iiif/faeriequeenedisp00spen_0$554
A12777-273-b,https://iiif.archive.org/iiif/faeriequeenedisp00spen_0$555
A12777-274-a,https://iiif.archive.org/iiif/faeriequeenedisp00spen_0$556
A12777-274-b,https://iiif.archive.org/iiif/faeriequeenedisp00spen_0$557
A12777-275-a,https://iiif.archive.org/iiif/faeriequeenedisp00spen_0$558
A12777-275-b,https://iiif.archive.org/iiif/faeriequeenedisp00spen_0$559
A12777-276-a,https://iiif.archive.org/iiif/faeriequeenedisp00spen_0$560
A12777-276-b,https://iiif.archive.org/iiif/faeriequeenedisp00spen_0$561
A12777-277-a,https://iiif.archive.org/iiif/faeriequeenedisp00spen_0$562
A12777-277-b,https://iiif.archive.org/iiif/faeriequeenedisp00spen_0$563
A12777-278-a,https://iiif.archive.org/iiif/faeriequeenedisp00spen_0$564
A12777-278-b,https://iiif.archive.org/iiif/faeriequeenedisp00spen_0$565
A12777-279-a,https://iiif.archive.org/iiif/faeriequeenedisp00spen_0$566
A12777-279-b,https://iiif.archive.org/iiif/faeriequeenedisp00spen_0$567
A12777-280-a,https://iiif.archive.org/iiif/faeriequeenedisp00spen_0$568
A12777-280-b,https://iiif.archive.org/iiif/faeriequeenedisp00spen_0$569
A12777-281-a,https://iiif.archive.org/iiif/faeriequeenedisp00spen_0$570
A12777-281-b,https://iiif.archive.org/iiif/faeriequeenedisp00spen_0$571
A12777-282-a,https://iiif.archive.org/iiif/faeriequeenedisp00spen_0$572
A12777-282-b,https://iiif.archive.org/iiif/faeriequeenedisp00spen_0$573
A12777-283-a,https://iiif.archive.org/iiif/faeriequeenedisp00spen_0$574
A12777-283-b,https://iiif.archive.org/iiif/faeriequeenedisp00spen_0$575
A12777-284-a,https://iiif.archive.org/iiif/faeriequeenedisp00spen_0$576
A12777-284-b,https://iiif.archive.org/iiif/faeriequeenedisp00spen_0$577
A12777-285-a,https://iiif.archive.org/iiif/faeriequeenedisp00spen_0$578
A12777-285-b,https://iiif.archive.org/iiif/faeriequeenedisp00spen_0$579
A12777-286-a,https://iiif.archive.org/iiif/faeriequeenedisp00spen_0$580
A12777-286-b,https://iiif.archive.org/iiif/faeriequeenedisp00spen_0$581
A12777-287-a,https://iiif.archive.org/iiif/faeriequeenedisp00spen_0$582
A12777-287-b,https://iiif.archive.org/iiif/faeriequeenedisp00spen_0$583
A12777-288-a,https://iiif.archive.org/iiif/faeriequeenedisp00spen_0$584
A12777-288-b,https://iiif.archive.org/iiif/faeriequeenedisp00spen_0$585
A12777-289-a,https://iiif.archive.org/iiif/faeriequeenedisp00spen_0$586
A12777-289-b,https://iiif.archive.org/iiif/faeriequeenedisp00spen_0$587
A12777-290-a,https://iiif.archive.org/iiif/faeriequeenedisp00spen_0$588
A12777-290-b,https://iiif.archive.org/iiif/faeriequeenedisp00spen_0$589
A12777-291-a,https://iiif.archive.org/iiif/faeriequeenedisp00spen_0$590
A12777-291-b,https://iiif.archive.org/iiif/faeriequeenedisp00spen_0$591
A12777-292-a,https://iiif.archive.org/iiif/faeriequeenedisp00spen_0$592
A12777-292-b,https://iiif.archive.org/iiif/faeriequeenedisp00spen_0$593
A12777-293-a,https://iiif.archive.org/iiif/faeriequeenedisp00spen_0$594
A12777-293-b,https://iiif.archive.org/iiif/faeriequeenedisp00spen_0$595
A12777-294-a,https://iiif.archive.org/iiif/faeriequeenedisp00spen_0$596
A12777-294-b,https://iiif.archive.org/iiif/faeriequeenedisp00spen_0$597
A12777-295-a,https://iiif.archive.org/iiif/faeriequeenedisp00spen_0$598
A12777-295-b,https://iiif.archive.org/iiif/faeriequeenedisp00spen_0$599
A12777-296-a,https://iiif.archive.org/iiif/faeriequeenedisp00spen_0$600
A12777-296-b,https://iiif.archive.org/iiif/faeriequeenedisp00spen_0$601
A12777-297-b,https://iiif.archive.org/iiif/faeriequeenedisp00spen_0$603
A12777-298-a,https://iiif.archive.org/iiif/faeriequeenedisp00spen_0$604
A12777-298-b,https://iiif.archive.org/iiif/faeriequeenedisp00spen_0$605
A12777-299-a,https://iiif.archive.org/iiif/faeriequeenedisp00spen_0$606
A12777-299-b,https://iiif.archive.org/iiif/faeriequeenedisp00spen_0$607
A12777-300-a,https://iiif.archive.org/iiif/faeriequeenedisp00spen_0$608
A12777-300-b,https://iiif.archive.org/iiif/faeriequeenedisp00spen_0$609
A12777-301-a,https://iiif.archive.org/iiif/faeriequeenedisp00spen_0$610
A12777-301-b,https://iiif.archive.org/iiif/faeriequeenedisp00spen_0$611
A12777-302-a,https://iiif.archive.org/iiif/faeriequeenedisp00spen_0$612
A12777-302-b,https://iiif.archive.org/iiif/faeriequeenedisp00spen_0$613
A12777-303-a,https://iiif.archive.org/iiif/faeriequeenedisp00spen_0$614
A12777-303-b,https://iiif.archive.org/iiif/faeriequeenedisp00spen_0$615
A12777-304-a,https://iiif.archive.org/iiif/faeriequeenedisp00spen_0$616
A12777-304-b,https://iiif.archive.org/iiif/faeriequeenedisp00spen_0$617
A12777-305-a,https://iiif.archive.org/iiif/faeriequeenedisp00spen_0$618
A12777-305-b,https://iiif.archive.org/iiif/faeriequeenedisp00spen_0$619
A12777-306-a,https://iiif.archive.org/iiif/faeriequeenedisp00spen_0$620
A12777-306-b,https://iiif.archive.org/iiif/faeriequeenedisp00spen_0$621
A12777-307-a,https://iiif.archive.org/iiif/faeriequeenedisp00spen_0$622
A12777-307-b,https://iiif.archive.org/iiif/faeriequeenedisp00spen_0$623
A12777-308-a,https://iiif.archive.org/iiif/faeriequeenedisp00spen_0$624
A12777-308-b,https://iiif.archive.org/iiif/faeriequeenedisp00spen_0$625
