A14285-001-a,https://hrc.contentdm.oclc.org/digital/iiif/p15878coll17/655
A14285-001-b,https://hrc.contentdm.oclc.org/digital/iiif/p15878coll17/656
A14285-002-a,https://hrc.contentdm.oclc.org/digital/iiif/p15878coll17/657
A14285-002-b,https://hrc.contentdm.oclc.org/digital/iiif/p15878coll17/658
A14285-003-a,https://hrc.contentdm.oclc.org/digital/iiif/p15878coll17/659
A14285-003-b,https://hrc.contentdm.oclc.org/digital/iiif/p15878coll17/660
A14285-004-a,https://hrc.contentdm.oclc.org/digital/iiif/p15878coll17/661
A14285-004-b,https://hrc.contentdm.oclc.org/digital/iiif/p15878coll17/662
A14285-005-a,https://hrc.contentdm.oclc.org/digital/iiif/p15878coll17/663
A14285-005-b,https://hrc.contentdm.oclc.org/digital/iiif/p15878coll17/664
A14285-006-a,https://hrc.contentdm.oclc.org/digital/iiif/p15878coll17/665
A14285-006-b,https://hrc.contentdm.oclc.org/digital/iiif/p15878coll17/666
A14285-007-a,https://hrc.contentdm.oclc.org/digital/iiif/p15878coll17/667
A14285-007-b,https://hrc.contentdm.oclc.org/digital/iiif/p15878coll17/668
A14285-008-a,https://hrc.contentdm.oclc.org/digital/iiif/p15878coll17/669
A14285-008-b,https://hrc.contentdm.oclc.org/digital/iiif/p15878coll17/670
A14285-009-a,https://hrc.contentdm.oclc.org/digital/iiif/p15878coll17/671
A14285-009-b,https://hrc.contentdm.oclc.org/digital/iiif/p15878coll17/672
A14285-010-a,https://hrc.contentdm.oclc.org/digital/iiif/p15878coll17/673
A14285-010-b,https://hrc.contentdm.oclc.org/digital/iiif/p15878coll17/674
A14285-011-a,https://hrc.contentdm.oclc.org/digital/iiif/p15878coll17/675
A14285-011-b,https://hrc.contentdm.oclc.org/digital/iiif/p15878coll17/676
A14285-012-a,https://hrc.contentdm.oclc.org/digital/iiif/p15878coll17/677
A14285-012-b,https://hrc.contentdm.oclc.org/digital/iiif/p15878coll17/678
A14285-013-a,https://hrc.contentdm.oclc.org/digital/iiif/p15878coll17/681
A14285-013-b,https://hrc.contentdm.oclc.org/digital/iiif/p15878coll17/682
A14285-014-a,https://hrc.contentdm.oclc.org/digital/iiif/p15878coll17/683
A14285-014-b,https://hrc.contentdm.oclc.org/digital/iiif/p15878coll17/684
A14285-015-a,https://hrc.contentdm.oclc.org/digital/iiif/p15878coll17/685
A14285-015-b,https://hrc.contentdm.oclc.org/digital/iiif/p15878coll17/686
A14285-016-a,https://hrc.contentdm.oclc.org/digital/iiif/p15878coll17/687
A14285-016-b,https://hrc.contentdm.oclc.org/digital/iiif/p15878coll17/688
A14285-017-a,https://hrc.contentdm.oclc.org/digital/iiif/p15878coll17/689
A14285-017-b,https://hrc.contentdm.oclc.org/digital/iiif/p15878coll17/690
A14285-018-a,https://hrc.contentdm.oclc.org/digital/iiif/p15878coll17/691
A14285-018-b,https://hrc.contentdm.oclc.org/digital/iiif/p15878coll17/692
A14285-019-a,https://hrc.contentdm.oclc.org/digital/iiif/p15878coll17/695
A14285-019-b,https://hrc.contentdm.oclc.org/digital/iiif/p15878coll17/696
