A14559-001-b,https://iiif.archive.org/iiif/thusendethlegend00jaco$9999
A14559-002-a,https://iiif.archive.org/iiif/thusendethlegend00jaco$9999
A14559-002-b,https://iiif.archive.org/iiif/thusendethlegend00jaco$9999
A14559-003-a,https://iiif.archive.org/iiif/thusendethlegend00jaco$9999
A14559-003-b,https://iiif.archive.org/iiif/thusendethlegend00jaco$9999
A14559-004-a,https://iiif.archive.org/iiif/thusendethlegend00jaco$9999
A14559-004-b,https://iiif.archive.org/iiif/thusendethlegend00jaco$9999
A14559-005-a,https://iiif.archive.org/iiif/thusendethlegend00jaco$9999
A14559-005-b,https://iiif.archive.org/iiif/thusendethlegend00jaco$9999
A14559-006-b,https://iiif.archive.org/iiif/thusendethlegend00jaco$9999
A14559-007-a,https://iiif.archive.org/iiif/thusendethlegend00jaco$9999
A14559-007-b,https://iiif.archive.org/iiif/thusendethlegend00jaco$9999
A14559-009-a,https://iiif.archive.org/iiif/thusendethlegend00jaco$9999
A14559-009-b,https://iiif.archive.org/iiif/thusendethlegend00jaco$9999
A14559-010-a,https://iiif.archive.org/iiif/thusendethlegend00jaco$9999
A14559-010-b,https://iiif.archive.org/iiif/thusendethlegend00jaco$9999
A14559-011-a,https://iiif.archive.org/iiif/thusendethlegend00jaco$9999
A14559-011-b,https://iiif.archive.org/iiif/thusendethlegend00jaco$9999
A14559-012-a,https://iiif.archive.org/iiif/thusendethlegend00jaco$9999
A14559-012-b,https://iiif.archive.org/iiif/thusendethlegend00jaco$9999
A14559-013-a,https://iiif.archive.org/iiif/thusendethlegend00jaco$9999
A14559-013-b,https://iiif.archive.org/iiif/thusendethlegend00jaco$9999
A14559-014-a,https://iiif.archive.org/iiif/thusendethlegend00jaco$9999
A14559-014-b,https://iiif.archive.org/iiif/thusendethlegend00jaco$9999
A14559-015-a,https://iiif.archive.org/iiif/thusendethlegend00jaco$9999
A14559-015-b,https://iiif.archive.org/iiif/thusendethlegend00jaco$9999
A14559-016-a,https://iiif.archive.org/iiif/thusendethlegend00jaco$9999
A14559-016-b,https://iiif.archive.org/iiif/thusendethlegend00jaco$9999
A14559-017-a,https://iiif.archive.org/iiif/thusendethlegend00jaco$9999
A14559-017-b,https://iiif.archive.org/iiif/thusendethlegend00jaco$9999
A14559-018-a,https://iiif.archive.org/iiif/thusendethlegend00jaco$9999
A14559-018-b,https://iiif.archive.org/iiif/thusendethlegend00jaco$9999
A14559-020-a,https://iiif.archive.org/iiif/thusendethlegend00jaco$9999
A14559-020-b,https://iiif.archive.org/iiif/thusendethlegend00jaco$9999
A14559-021-a,https://iiif.archive.org/iiif/thusendethlegend00jaco$9999
A14559-021-b,https://iiif.archive.org/iiif/thusendethlegend00jaco$7
A14559-022-a,https://iiif.archive.org/iiif/thusendethlegend00jaco$8
A14559-022-b,https://iiif.archive.org/iiif/thusendethlegend00jaco$9
A14559-023-a,https://iiif.archive.org/iiif/thusendethlegend00jaco$10
A14559-023-b,https://iiif.archive.org/iiif/thusendethlegend00jaco$11
A14559-024-a,https://iiif.archive.org/iiif/thusendethlegend00jaco$12
A14559-024-b,https://iiif.archive.org/iiif/thusendethlegend00jaco$13
A14559-025-a,https://iiif.archive.org/iiif/thusendethlegend00jaco$14
A14559-025-b,https://iiif.archive.org/iiif/thusendethlegend00jaco$15
A14559-026-a,https://iiif.archive.org/iiif/thusendethlegend00jaco$16
A14559-026-b,https://iiif.archive.org/iiif/thusendethlegend00jaco$17
A14559-027-a,https://iiif.archive.org/iiif/thusendethlegend00jaco$18
A14559-027-b,https://iiif.archive.org/iiif/thusendethlegend00jaco$19
A14559-028-a,https://iiif.archive.org/iiif/thusendethlegend00jaco$20
A14559-028-b,https://iiif.archive.org/iiif/thusendethlegend00jaco$21
A14559-029-a,https://iiif.archive.org/iiif/thusendethlegend00jaco$22
A14559-029-b,https://iiif.archive.org/iiif/thusendethlegend00jaco$23
A14559-030-a,https://iiif.archive.org/iiif/thusendethlegend00jaco$24
A14559-030-b,https://iiif.archive.org/iiif/thusendethlegend00jaco$25
A14559-031-a,https://iiif.archive.org/iiif/thusendethlegend00jaco$26
A14559-031-b,https://iiif.archive.org/iiif/thusendethlegend00jaco$27
A14559-032-a,https://iiif.archive.org/iiif/thusendethlegend00jaco$28
A14559-032-b,https://iiif.archive.org/iiif/thusendethlegend00jaco$29
A14559-033-a,https://iiif.archive.org/iiif/thusendethlegend00jaco$30
A14559-033-b,https://iiif.archive.org/iiif/thusendethlegend00jaco$31
A14559-034-a,https://iiif.archive.org/iiif/thusendethlegend00jaco$32
A14559-034-b,https://iiif.archive.org/iiif/thusendethlegend00jaco$33
A14559-035-a,https://iiif.archive.org/iiif/thusendethlegend00jaco$34
A14559-035-b,https://iiif.archive.org/iiif/thusendethlegend00jaco$35
A14559-036-a,https://iiif.archive.org/iiif/thusendethlegend00jaco$36
A14559-036-b,https://iiif.archive.org/iiif/thusendethlegend00jaco$37
A14559-037-a,https://iiif.archive.org/iiif/thusendethlegend00jaco$38
A14559-037-b,https://iiif.archive.org/iiif/thusendethlegend00jaco$39
A14559-038-a,https://iiif.archive.org/iiif/thusendethlegend00jaco$40
A14559-038-b,https://iiif.archive.org/iiif/thusendethlegend00jaco$41
A14559-039-a,https://iiif.archive.org/iiif/thusendethlegend00jaco$42
A14559-039-b,https://iiif.archive.org/iiif/thusendethlegend00jaco$43
A14559-040-a,https://iiif.archive.org/iiif/thusendethlegend00jaco$44
A14559-040-b,https://iiif.archive.org/iiif/thusendethlegend00jaco$45
A14559-041-a,https://iiif.archive.org/iiif/thusendethlegend00jaco$46
A14559-041-b,https://iiif.archive.org/iiif/thusendethlegend00jaco$47
A14559-042-a,https://iiif.archive.org/iiif/thusendethlegend00jaco$48
A14559-042-b,https://iiif.archive.org/iiif/thusendethlegend00jaco$49
A14559-043-a,https://iiif.archive.org/iiif/thusendethlegend00jaco$50
A14559-043-b,https://iiif.archive.org/iiif/thusendethlegend00jaco$51
A14559-044-a,https://iiif.archive.org/iiif/thusendethlegend00jaco$52
A14559-044-b,https://iiif.archive.org/iiif/thusendethlegend00jaco$53
A14559-045-a,https://iiif.archive.org/iiif/thusendethlegend00jaco$54
A14559-045-b,https://iiif.archive.org/iiif/thusendethlegend00jaco$55
A14559-046-a,https://iiif.archive.org/iiif/thusendethlegend00jaco$56
A14559-046-b,https://iiif.archive.org/iiif/thusendethlegend00jaco$57
A14559-047-a,https://iiif.archive.org/iiif/thusendethlegend00jaco$58
A14559-047-b,https://iiif.archive.org/iiif/thusendethlegend00jaco$59
A14559-048-a,https://iiif.archive.org/iiif/thusendethlegend00jaco$60
A14559-048-b,https://iiif.archive.org/iiif/thusendethlegend00jaco$61
A14559-049-a,https://iiif.archive.org/iiif/thusendethlegend00jaco$62
A14559-049-b,https://iiif.archive.org/iiif/thusendethlegend00jaco$63
A14559-050-a,https://iiif.archive.org/iiif/thusendethlegend00jaco$64
A14559-050-b,https://iiif.archive.org/iiif/thusendethlegend00jaco$65
A14559-051-a,https://iiif.archive.org/iiif/thusendethlegend00jaco$66
A14559-051-b,https://iiif.archive.org/iiif/thusendethlegend00jaco$67
A14559-052-a,https://iiif.archive.org/iiif/thusendethlegend00jaco$68
A14559-052-b,https://iiif.archive.org/iiif/thusendethlegend00jaco$69
A14559-053-a,https://iiif.archive.org/iiif/thusendethlegend00jaco$70
A14559-053-b,https://iiif.archive.org/iiif/thusendethlegend00jaco$71
A14559-054-a,https://iiif.archive.org/iiif/thusendethlegend00jaco$72
A14559-054-b,https://iiif.archive.org/iiif/thusendethlegend00jaco$73
A14559-055-a,https://iiif.archive.org/iiif/thusendethlegend00jaco$74
A14559-055-b,https://iiif.archive.org/iiif/thusendethlegend00jaco$75
A14559-056-a,https://iiif.archive.org/iiif/thusendethlegend00jaco$76
A14559-056-b,https://iiif.archive.org/iiif/thusendethlegend00jaco$77
A14559-057-a,https://iiif.archive.org/iiif/thusendethlegend00jaco$78
A14559-057-b,https://iiif.archive.org/iiif/thusendethlegend00jaco$79
A14559-058-a,https://iiif.archive.org/iiif/thusendethlegend00jaco$80
A14559-058-b,https://iiif.archive.org/iiif/thusendethlegend00jaco$81
A14559-059-a,https://iiif.archive.org/iiif/thusendethlegend00jaco$82
A14559-059-b,https://iiif.archive.org/iiif/thusendethlegend00jaco$83
A14559-060-a,https://iiif.archive.org/iiif/thusendethlegend00jaco$84
A14559-060-b,https://iiif.archive.org/iiif/thusendethlegend00jaco$85
A14559-061-a,https://iiif.archive.org/iiif/thusendethlegend00jaco$86
A14559-061-b,https://iiif.archive.org/iiif/thusendethlegend00jaco$87
A14559-062-a,https://iiif.archive.org/iiif/thusendethlegend00jaco$88
A14559-062-b,https://iiif.archive.org/iiif/thusendethlegend00jaco$89
A14559-063-a,https://iiif.archive.org/iiif/thusendethlegend00jaco$90
A14559-063-b,https://iiif.archive.org/iiif/thusendethlegend00jaco$91
A14559-064-a,https://iiif.archive.org/iiif/thusendethlegend00jaco$92
A14559-064-b,https://iiif.archive.org/iiif/thusendethlegend00jaco$93
A14559-065-a,https://iiif.archive.org/iiif/thusendethlegend00jaco$94
A14559-065-b,https://iiif.archive.org/iiif/thusendethlegend00jaco$95
A14559-066-a,https://iiif.archive.org/iiif/thusendethlegend00jaco$96
A14559-066-b,https://iiif.archive.org/iiif/thusendethlegend00jaco$97
A14559-067-a,https://iiif.archive.org/iiif/thusendethlegend00jaco$98
A14559-067-b,https://iiif.archive.org/iiif/thusendethlegend00jaco$99
A14559-068-a,https://iiif.archive.org/iiif/thusendethlegend00jaco$100
A14559-068-b,https://iiif.archive.org/iiif/thusendethlegend00jaco$101
A14559-069-a,https://iiif.archive.org/iiif/thusendethlegend00jaco$102
A14559-069-b,https://iiif.archive.org/iiif/thusendethlegend00jaco$103
A14559-070-a,https://iiif.archive.org/iiif/thusendethlegend00jaco$104
A14559-070-b,https://iiif.archive.org/iiif/thusendethlegend00jaco$105
A14559-071-a,https://iiif.archive.org/iiif/thusendethlegend00jaco$106
A14559-071-b,https://iiif.archive.org/iiif/thusendethlegend00jaco$107
A14559-072-a,https://iiif.archive.org/iiif/thusendethlegend00jaco$108
A14559-072-b,https://iiif.archive.org/iiif/thusendethlegend00jaco$109
A14559-073-a,https://iiif.archive.org/iiif/thusendethlegend00jaco$110
A14559-073-b,https://iiif.archive.org/iiif/thusendethlegend00jaco$111
A14559-074-a,https://iiif.archive.org/iiif/thusendethlegend00jaco$112
A14559-074-b,https://iiif.archive.org/iiif/thusendethlegend00jaco$113
A14559-075-a,https://iiif.archive.org/iiif/thusendethlegend00jaco$114
A14559-075-b,https://iiif.archive.org/iiif/thusendethlegend00jaco$115
A14559-076-a,https://iiif.archive.org/iiif/thusendethlegend00jaco$116
A14559-076-b,https://iiif.archive.org/iiif/thusendethlegend00jaco$117
A14559-077-a,https://iiif.archive.org/iiif/thusendethlegend00jaco$118
A14559-077-b,https://iiif.archive.org/iiif/thusendethlegend00jaco$119
A14559-078-a,https://iiif.archive.org/iiif/thusendethlegend00jaco$120
A14559-078-b,https://iiif.archive.org/iiif/thusendethlegend00jaco$121
A14559-079-a,https://iiif.archive.org/iiif/thusendethlegend00jaco$122
A14559-079-b,https://iiif.archive.org/iiif/thusendethlegend00jaco$123
A14559-080-a,https://iiif.archive.org/iiif/thusendethlegend00jaco$124
A14559-080-b,https://iiif.archive.org/iiif/thusendethlegend00jaco$125
A14559-081-a,https://iiif.archive.org/iiif/thusendethlegend00jaco$126
A14559-081-b,https://iiif.archive.org/iiif/thusendethlegend00jaco$127
A14559-082-a,https://iiif.archive.org/iiif/thusendethlegend00jaco$128
A14559-082-b,https://iiif.archive.org/iiif/thusendethlegend00jaco$129
A14559-083-a,https://iiif.archive.org/iiif/thusendethlegend00jaco$130
A14559-083-b,https://iiif.archive.org/iiif/thusendethlegend00jaco$131
A14559-084-a,https://iiif.archive.org/iiif/thusendethlegend00jaco$132
A14559-084-b,https://iiif.archive.org/iiif/thusendethlegend00jaco$133
A14559-085-a,https://iiif.archive.org/iiif/thusendethlegend00jaco$134
A14559-085-b,https://iiif.archive.org/iiif/thusendethlegend00jaco$135
A14559-086-a,https://iiif.archive.org/iiif/thusendethlegend00jaco$136
A14559-086-b,https://iiif.archive.org/iiif/thusendethlegend00jaco$137
A14559-087-a,https://iiif.archive.org/iiif/thusendethlegend00jaco$138
A14559-087-b,https://iiif.archive.org/iiif/thusendethlegend00jaco$139
A14559-088-a,https://iiif.archive.org/iiif/thusendethlegend00jaco$140
A14559-088-b,https://iiif.archive.org/iiif/thusendethlegend00jaco$141
A14559-089-a,https://iiif.archive.org/iiif/thusendethlegend00jaco$142
A14559-089-b,https://iiif.archive.org/iiif/thusendethlegend00jaco$143
A14559-090-a,https://iiif.archive.org/iiif/thusendethlegend00jaco$144
A14559-090-b,https://iiif.archive.org/iiif/thusendethlegend00jaco$145
A14559-091-a,https://iiif.archive.org/iiif/thusendethlegend00jaco$146
A14559-091-b,https://iiif.archive.org/iiif/thusendethlegend00jaco$147
A14559-092-a,https://iiif.archive.org/iiif/thusendethlegend00jaco$148
A14559-092-b,https://iiif.archive.org/iiif/thusendethlegend00jaco$149
A14559-093-a,https://iiif.archive.org/iiif/thusendethlegend00jaco$150
A14559-093-b,https://iiif.archive.org/iiif/thusendethlegend00jaco$151
A14559-094-a,https://iiif.archive.org/iiif/thusendethlegend00jaco$152
A14559-094-b,https://iiif.archive.org/iiif/thusendethlegend00jaco$153
A14559-095-a,https://iiif.archive.org/iiif/thusendethlegend00jaco$154
A14559-095-b,https://iiif.archive.org/iiif/thusendethlegend00jaco$155
A14559-096-a,https://iiif.archive.org/iiif/thusendethlegend00jaco$156
A14559-096-b,https://iiif.archive.org/iiif/thusendethlegend00jaco$157
A14559-097-a,https://iiif.archive.org/iiif/thusendethlegend00jaco$158
A14559-097-b,https://iiif.archive.org/iiif/thusendethlegend00jaco$159
A14559-098-a,https://iiif.archive.org/iiif/thusendethlegend00jaco$160
A14559-098-b,https://iiif.archive.org/iiif/thusendethlegend00jaco$161
A14559-099-a,https://iiif.archive.org/iiif/thusendethlegend00jaco$162
A14559-099-b,https://iiif.archive.org/iiif/thusendethlegend00jaco$163
A14559-100-a,https://iiif.archive.org/iiif/thusendethlegend00jaco$164
A14559-100-b,https://iiif.archive.org/iiif/thusendethlegend00jaco$165
A14559-101-a,https://iiif.archive.org/iiif/thusendethlegend00jaco$166
A14559-101-b,https://iiif.archive.org/iiif/thusendethlegend00jaco$167
A14559-102-a,https://iiif.archive.org/iiif/thusendethlegend00jaco$168
A14559-102-b,https://iiif.archive.org/iiif/thusendethlegend00jaco$169
A14559-103-a,https://iiif.archive.org/iiif/thusendethlegend00jaco$170
A14559-103-b,https://iiif.archive.org/iiif/thusendethlegend00jaco$171
A14559-104-a,https://iiif.archive.org/iiif/thusendethlegend00jaco$172
A14559-104-b,https://iiif.archive.org/iiif/thusendethlegend00jaco$173
A14559-105-a,https://iiif.archive.org/iiif/thusendethlegend00jaco$174
A14559-105-b,https://iiif.archive.org/iiif/thusendethlegend00jaco$175
A14559-106-a,https://iiif.archive.org/iiif/thusendethlegend00jaco$176
A14559-106-b,https://iiif.archive.org/iiif/thusendethlegend00jaco$177
A14559-107-a,https://iiif.archive.org/iiif/thusendethlegend00jaco$178
A14559-107-b,https://iiif.archive.org/iiif/thusendethlegend00jaco$179
A14559-108-a,https://iiif.archive.org/iiif/thusendethlegend00jaco$180
A14559-108-b,https://iiif.archive.org/iiif/thusendethlegend00jaco$181
A14559-109-a,https://iiif.archive.org/iiif/thusendethlegend00jaco$182
A14559-109-b,https://iiif.archive.org/iiif/thusendethlegend00jaco$183
A14559-110-a,https://iiif.archive.org/iiif/thusendethlegend00jaco$184
A14559-110-b,https://iiif.archive.org/iiif/thusendethlegend00jaco$185
A14559-111-a,https://iiif.archive.org/iiif/thusendethlegend00jaco$186
A14559-111-b,https://iiif.archive.org/iiif/thusendethlegend00jaco$9999
A14559-112-a,https://iiif.archive.org/iiif/thusendethlegend00jaco$9999
A14559-112-b,https://iiif.archive.org/iiif/thusendethlegend00jaco$9999
A14559-113-a,https://iiif.archive.org/iiif/thusendethlegend00jaco$9999
A14559-113-b,https://iiif.archive.org/iiif/thusendethlegend00jaco$190
A14559-114-a,https://iiif.archive.org/iiif/thusendethlegend00jaco$191
A14559-114-b,https://iiif.archive.org/iiif/thusendethlegend00jaco$187
A14559-115-a,https://iiif.archive.org/iiif/thusendethlegend00jaco$188
A14559-115-b,https://iiif.archive.org/iiif/thusendethlegend00jaco$189
A14559-116-a,https://iiif.archive.org/iiif/thusendethlegend00jaco$190
A14559-116-b,https://iiif.archive.org/iiif/thusendethlegend00jaco$191
A14559-117-a,https://iiif.archive.org/iiif/thusendethlegend00jaco$192
A14559-117-b,https://iiif.archive.org/iiif/thusendethlegend00jaco$193
A14559-118-a,https://iiif.archive.org/iiif/thusendethlegend00jaco$194
A14559-118-b,https://iiif.archive.org/iiif/thusendethlegend00jaco$195
A14559-119-a,https://iiif.archive.org/iiif/thusendethlegend00jaco$196
A14559-119-b,https://iiif.archive.org/iiif/thusendethlegend00jaco$197
A14559-120-a,https://iiif.archive.org/iiif/thusendethlegend00jaco$198
A14559-120-b,https://iiif.archive.org/iiif/thusendethlegend00jaco$199
A14559-121-a,https://iiif.archive.org/iiif/thusendethlegend00jaco$200
A14559-121-b,https://iiif.archive.org/iiif/thusendethlegend00jaco$201
A14559-122-a,https://iiif.archive.org/iiif/thusendethlegend00jaco$202
A14559-122-b,https://iiif.archive.org/iiif/thusendethlegend00jaco$203
A14559-123-a,https://iiif.archive.org/iiif/thusendethlegend00jaco$204
A14559-123-b,https://iiif.archive.org/iiif/thusendethlegend00jaco$205
A14559-124-a,https://iiif.archive.org/iiif/thusendethlegend00jaco$206
A14559-124-b,https://iiif.archive.org/iiif/thusendethlegend00jaco$207
A14559-125-a,https://iiif.archive.org/iiif/thusendethlegend00jaco$208
A14559-125-b,https://iiif.archive.org/iiif/thusendethlegend00jaco$209
A14559-126-a,https://iiif.archive.org/iiif/thusendethlegend00jaco$210
A14559-126-b,https://iiif.archive.org/iiif/thusendethlegend00jaco$211
A14559-127-a,https://iiif.archive.org/iiif/thusendethlegend00jaco$212
A14559-127-b,https://iiif.archive.org/iiif/thusendethlegend00jaco$213
A14559-128-a,https://iiif.archive.org/iiif/thusendethlegend00jaco$214
A14559-128-b,https://iiif.archive.org/iiif/thusendethlegend00jaco$215
A14559-129-a,https://iiif.archive.org/iiif/thusendethlegend00jaco$216
A14559-129-b,https://iiif.archive.org/iiif/thusendethlegend00jaco$217
A14559-130-a,https://iiif.archive.org/iiif/thusendethlegend00jaco$218
A14559-130-b,https://iiif.archive.org/iiif/thusendethlegend00jaco$219
A14559-131-a,https://iiif.archive.org/iiif/thusendethlegend00jaco$220
A14559-131-b,https://iiif.archive.org/iiif/thusendethlegend00jaco$221
A14559-132-a,https://iiif.archive.org/iiif/thusendethlegend00jaco$222
A14559-132-b,https://iiif.archive.org/iiif/thusendethlegend00jaco$223
A14559-133-a,https://iiif.archive.org/iiif/thusendethlegend00jaco$224
A14559-133-b,https://iiif.archive.org/iiif/thusendethlegend00jaco$225
A14559-134-a,https://iiif.archive.org/iiif/thusendethlegend00jaco$226
A14559-134-b,https://iiif.archive.org/iiif/thusendethlegend00jaco$227
A14559-135-a,https://iiif.archive.org/iiif/thusendethlegend00jaco$228
A14559-135-b,https://iiif.archive.org/iiif/thusendethlegend00jaco$229
A14559-136-a,https://iiif.archive.org/iiif/thusendethlegend00jaco$230
A14559-136-b,https://iiif.archive.org/iiif/thusendethlegend00jaco$231
A14559-137-a,https://iiif.archive.org/iiif/thusendethlegend00jaco$232
A14559-137-b,https://iiif.archive.org/iiif/thusendethlegend00jaco$233
A14559-138-a,https://iiif.archive.org/iiif/thusendethlegend00jaco$234
A14559-138-b,https://iiif.archive.org/iiif/thusendethlegend00jaco$235
A14559-139-a,https://iiif.archive.org/iiif/thusendethlegend00jaco$236
A14559-139-b,https://iiif.archive.org/iiif/thusendethlegend00jaco$237
A14559-140-a,https://iiif.archive.org/iiif/thusendethlegend00jaco$238
A14559-140-b,https://iiif.archive.org/iiif/thusendethlegend00jaco$239
A14559-141-a,https://iiif.archive.org/iiif/thusendethlegend00jaco$240
A14559-141-b,https://iiif.archive.org/iiif/thusendethlegend00jaco$241
A14559-142-a,https://iiif.archive.org/iiif/thusendethlegend00jaco$242
A14559-142-b,https://iiif.archive.org/iiif/thusendethlegend00jaco$243
A14559-143-a,https://iiif.archive.org/iiif/thusendethlegend00jaco$244
A14559-143-b,https://iiif.archive.org/iiif/thusendethlegend00jaco$245
A14559-144-a,https://iiif.archive.org/iiif/thusendethlegend00jaco$246
A14559-144-b,https://iiif.archive.org/iiif/thusendethlegend00jaco$247
A14559-145-a,https://iiif.archive.org/iiif/thusendethlegend00jaco$248
A14559-145-b,https://iiif.archive.org/iiif/thusendethlegend00jaco$249
A14559-146-a,https://iiif.archive.org/iiif/thusendethlegend00jaco$250
A14559-146-b,https://iiif.archive.org/iiif/thusendethlegend00jaco$251
A14559-147-a,https://iiif.archive.org/iiif/thusendethlegend00jaco$252
A14559-147-b,https://iiif.archive.org/iiif/thusendethlegend00jaco$253
A14559-148-a,https://iiif.archive.org/iiif/thusendethlegend00jaco$254
A14559-149-a,https://iiif.archive.org/iiif/thusendethlegend00jaco$9999
A14559-149-b,https://iiif.archive.org/iiif/thusendethlegend00jaco$9999
A14559-150-a,https://iiif.archive.org/iiif/thusendethlegend00jaco$256
A14559-150-b,https://iiif.archive.org/iiif/thusendethlegend00jaco$257
A14559-151-a,https://iiif.archive.org/iiif/thusendethlegend00jaco$258
A14559-151-b,https://iiif.archive.org/iiif/thusendethlegend00jaco$259
A14559-152-a,https://iiif.archive.org/iiif/thusendethlegend00jaco$260
A14559-152-b,https://iiif.archive.org/iiif/thusendethlegend00jaco$261
A14559-153-a,https://iiif.archive.org/iiif/thusendethlegend00jaco$262
A14559-153-b,https://iiif.archive.org/iiif/thusendethlegend00jaco$263
A14559-154-a,https://iiif.archive.org/iiif/thusendethlegend00jaco$264
A14559-154-b,https://iiif.archive.org/iiif/thusendethlegend00jaco$265
A14559-155-a,https://iiif.archive.org/iiif/thusendethlegend00jaco$266
A14559-155-b,https://iiif.archive.org/iiif/thusendethlegend00jaco$267
A14559-156-a,https://iiif.archive.org/iiif/thusendethlegend00jaco$268
A14559-156-b,https://iiif.archive.org/iiif/thusendethlegend00jaco$269
A14559-157-a,https://iiif.archive.org/iiif/thusendethlegend00jaco$270
A14559-157-b,https://iiif.archive.org/iiif/thusendethlegend00jaco$271
A14559-158-a,https://iiif.archive.org/iiif/thusendethlegend00jaco$272
A14559-158-b,https://iiif.archive.org/iiif/thusendethlegend00jaco$273
A14559-160-a,https://iiif.archive.org/iiif/thusendethlegend00jaco$274
A14559-160-b,https://iiif.archive.org/iiif/thusendethlegend00jaco$275
A14559-161-a,https://iiif.archive.org/iiif/thusendethlegend00jaco$276
A14559-161-b,https://iiif.archive.org/iiif/thusendethlegend00jaco$277
A14559-162-a,https://iiif.archive.org/iiif/thusendethlegend00jaco$278
A14559-162-b,https://iiif.archive.org/iiif/thusendethlegend00jaco$279
A14559-163-a,https://iiif.archive.org/iiif/thusendethlegend00jaco$280
A14559-163-b,https://iiif.archive.org/iiif/thusendethlegend00jaco$281
A14559-164-a,https://iiif.archive.org/iiif/thusendethlegend00jaco$282
A14559-164-b,https://iiif.archive.org/iiif/thusendethlegend00jaco$283
A14559-165-a,https://iiif.archive.org/iiif/thusendethlegend00jaco$284
A14559-165-b,https://iiif.archive.org/iiif/thusendethlegend00jaco$285
A14559-166-a,https://iiif.archive.org/iiif/thusendethlegend00jaco$286
A14559-166-b,https://iiif.archive.org/iiif/thusendethlegend00jaco$287
A14559-167-a,https://iiif.archive.org/iiif/thusendethlegend00jaco$288
A14559-167-b,https://iiif.archive.org/iiif/thusendethlegend00jaco$289
A14559-168-a,https://iiif.archive.org/iiif/thusendethlegend00jaco$290
A14559-168-b,https://iiif.archive.org/iiif/thusendethlegend00jaco$291
A14559-169-a,https://iiif.archive.org/iiif/thusendethlegend00jaco$292
A14559-169-b,https://iiif.archive.org/iiif/thusendethlegend00jaco$293
A14559-170-a,https://iiif.archive.org/iiif/thusendethlegend00jaco$294
A14559-170-b,https://iiif.archive.org/iiif/thusendethlegend00jaco$295
A14559-171-a,https://iiif.archive.org/iiif/thusendethlegend00jaco$296
A14559-171-b,https://iiif.archive.org/iiif/thusendethlegend00jaco$297
A14559-172-a,https://iiif.archive.org/iiif/thusendethlegend00jaco$298
A14559-172-b,https://iiif.archive.org/iiif/thusendethlegend00jaco$299
A14559-173-a,https://iiif.archive.org/iiif/thusendethlegend00jaco$300
A14559-173-b,https://iiif.archive.org/iiif/thusendethlegend00jaco$301
A14559-174-a,https://iiif.archive.org/iiif/thusendethlegend00jaco$302
A14559-174-b,https://iiif.archive.org/iiif/thusendethlegend00jaco$303
A14559-175-a,https://iiif.archive.org/iiif/thusendethlegend00jaco$304
A14559-175-b,https://iiif.archive.org/iiif/thusendethlegend00jaco$305
A14559-176-a,https://iiif.archive.org/iiif/thusendethlegend00jaco$306
A14559-176-b,https://iiif.archive.org/iiif/thusendethlegend00jaco$307
A14559-177-a,https://iiif.archive.org/iiif/thusendethlegend00jaco$308
A14559-177-b,https://iiif.archive.org/iiif/thusendethlegend00jaco$309
A14559-178-a,https://iiif.archive.org/iiif/thusendethlegend00jaco$310
A14559-178-b,https://iiif.archive.org/iiif/thusendethlegend00jaco$311
A14559-179-a,https://iiif.archive.org/iiif/thusendethlegend00jaco$312
A14559-179-b,https://iiif.archive.org/iiif/thusendethlegend00jaco$313
A14559-180-a,https://iiif.archive.org/iiif/thusendethlegend00jaco$314
A14559-180-b,https://iiif.archive.org/iiif/thusendethlegend00jaco$315
A14559-181-a,https://iiif.archive.org/iiif/thusendethlegend00jaco$316
A14559-181-b,https://iiif.archive.org/iiif/thusendethlegend00jaco$317
A14559-182-a,https://iiif.archive.org/iiif/thusendethlegend00jaco$318
A14559-182-b,https://iiif.archive.org/iiif/thusendethlegend00jaco$319
A14559-183-a,https://iiif.archive.org/iiif/thusendethlegend00jaco$320
A14559-183-b,https://iiif.archive.org/iiif/thusendethlegend00jaco$321
A14559-184-a,https://iiif.archive.org/iiif/thusendethlegend00jaco$322
A14559-184-b,https://iiif.archive.org/iiif/thusendethlegend00jaco$323
A14559-185-a,https://iiif.archive.org/iiif/thusendethlegend00jaco$324
A14559-185-b,https://iiif.archive.org/iiif/thusendethlegend00jaco$325
A14559-186-a,https://iiif.archive.org/iiif/thusendethlegend00jaco$326
A14559-186-b,https://iiif.archive.org/iiif/thusendethlegend00jaco$327
A14559-187-a,https://iiif.archive.org/iiif/thusendethlegend00jaco$328
A14559-187-b,https://iiif.archive.org/iiif/thusendethlegend00jaco$329
A14559-188-a,https://iiif.archive.org/iiif/thusendethlegend00jaco$330
A14559-188-b,https://iiif.archive.org/iiif/thusendethlegend00jaco$331
A14559-189-a,https://iiif.archive.org/iiif/thusendethlegend00jaco$332
A14559-189-b,https://iiif.archive.org/iiif/thusendethlegend00jaco$333
A14559-190-a,https://iiif.archive.org/iiif/thusendethlegend00jaco$334
A14559-190-b,https://iiif.archive.org/iiif/thusendethlegend00jaco$335
A14559-191-a,https://iiif.archive.org/iiif/thusendethlegend00jaco$336
A14559-191-b,https://iiif.archive.org/iiif/thusendethlegend00jaco$337
A14559-192-a,https://iiif.archive.org/iiif/thusendethlegend00jaco$338
A14559-192-b,https://iiif.archive.org/iiif/thusendethlegend00jaco$339
A14559-193-a,https://iiif.archive.org/iiif/thusendethlegend00jaco$340
A14559-193-b,https://iiif.archive.org/iiif/thusendethlegend00jaco$341
A14559-194-a,https://iiif.archive.org/iiif/thusendethlegend00jaco$342
A14559-194-b,https://iiif.archive.org/iiif/thusendethlegend00jaco$343
A14559-195-a,https://iiif.archive.org/iiif/thusendethlegend00jaco$344
A14559-195-b,https://iiif.archive.org/iiif/thusendethlegend00jaco$345
A14559-196-a,https://iiif.archive.org/iiif/thusendethlegend00jaco$346
A14559-196-b,https://iiif.archive.org/iiif/thusendethlegend00jaco$347
A14559-197-a,https://iiif.archive.org/iiif/thusendethlegend00jaco$348
A14559-197-b,https://iiif.archive.org/iiif/thusendethlegend00jaco$349
A14559-198-a,https://iiif.archive.org/iiif/thusendethlegend00jaco$350
A14559-198-b,https://iiif.archive.org/iiif/thusendethlegend00jaco$351
A14559-199-a,https://iiif.archive.org/iiif/thusendethlegend00jaco$352
A14559-199-b,https://iiif.archive.org/iiif/thusendethlegend00jaco$353
A14559-200-a,https://iiif.archive.org/iiif/thusendethlegend00jaco$354
A14559-200-b,https://iiif.archive.org/iiif/thusendethlegend00jaco$355
A14559-201-a,https://iiif.archive.org/iiif/thusendethlegend00jaco$356
A14559-201-b,https://iiif.archive.org/iiif/thusendethlegend00jaco$357
A14559-202-a,https://iiif.archive.org/iiif/thusendethlegend00jaco$358
A14559-202-b,https://iiif.archive.org/iiif/thusendethlegend00jaco$359
A14559-203-a,https://iiif.archive.org/iiif/thusendethlegend00jaco$360
A14559-203-b,https://iiif.archive.org/iiif/thusendethlegend00jaco$361
A14559-204-a,https://iiif.archive.org/iiif/thusendethlegend00jaco$362
A14559-204-b,https://iiif.archive.org/iiif/thusendethlegend00jaco$363
A14559-205-a,https://iiif.archive.org/iiif/thusendethlegend00jaco$364
A14559-205-b,https://iiif.archive.org/iiif/thusendethlegend00jaco$365
A14559-206-a,https://iiif.archive.org/iiif/thusendethlegend00jaco$366
A14559-206-b,https://iiif.archive.org/iiif/thusendethlegend00jaco$367
A14559-207-a,https://iiif.archive.org/iiif/thusendethlegend00jaco$368
A14559-207-b,https://iiif.archive.org/iiif/thusendethlegend00jaco$369
A14559-208-a,https://iiif.archive.org/iiif/thusendethlegend00jaco$370
A14559-208-b,https://iiif.archive.org/iiif/thusendethlegend00jaco$371
A14559-209-a,https://iiif.archive.org/iiif/thusendethlegend00jaco$372
A14559-209-b,https://iiif.archive.org/iiif/thusendethlegend00jaco$373
A14559-210-a,https://iiif.archive.org/iiif/thusendethlegend00jaco$374
A14559-210-b,https://iiif.archive.org/iiif/thusendethlegend00jaco$375
A14559-211-a,https://iiif.archive.org/iiif/thusendethlegend00jaco$376
A14559-211-b,https://iiif.archive.org/iiif/thusendethlegend00jaco$377
A14559-212-a,https://iiif.archive.org/iiif/thusendethlegend00jaco$378
A14559-212-b,https://iiif.archive.org/iiif/thusendethlegend00jaco$379
A14559-213-a,https://iiif.archive.org/iiif/thusendethlegend00jaco$380
A14559-213-b,https://iiif.archive.org/iiif/thusendethlegend00jaco$381
A14559-214-a,https://iiif.archive.org/iiif/thusendethlegend00jaco$382
A14559-214-b,https://iiif.archive.org/iiif/thusendethlegend00jaco$383
A14559-215-a,https://iiif.archive.org/iiif/thusendethlegend00jaco$384
A14559-215-b,https://iiif.archive.org/iiif/thusendethlegend00jaco$385
A14559-216-a,https://iiif.archive.org/iiif/thusendethlegend00jaco$386
A14559-216-b,https://iiif.archive.org/iiif/thusendethlegend00jaco$387
A14559-217-a,https://iiif.archive.org/iiif/thusendethlegend00jaco$388
A14559-217-b,https://iiif.archive.org/iiif/thusendethlegend00jaco$389
A14559-218-a,https://iiif.archive.org/iiif/thusendethlegend00jaco$390
A14559-218-b,https://iiif.archive.org/iiif/thusendethlegend00jaco$9999
A14559-219-a,https://iiif.archive.org/iiif/thusendethlegend00jaco$9999
A14559-219-b,https://iiif.archive.org/iiif/thusendethlegend00jaco$391
A14559-220-a,https://iiif.archive.org/iiif/thusendethlegend00jaco$392
A14559-220-b,https://iiif.archive.org/iiif/thusendethlegend00jaco$393
A14559-221-a,https://iiif.archive.org/iiif/thusendethlegend00jaco$394
A14559-221-b,https://iiif.archive.org/iiif/thusendethlegend00jaco$395
A14559-222-a,https://iiif.archive.org/iiif/thusendethlegend00jaco$396
A14559-222-b,https://iiif.archive.org/iiif/thusendethlegend00jaco$397
A14559-223-a,https://iiif.archive.org/iiif/thusendethlegend00jaco$398
A14559-223-b,https://iiif.archive.org/iiif/thusendethlegend00jaco$399
A14559-224-a,https://iiif.archive.org/iiif/thusendethlegend00jaco$400
A14559-224-b,https://iiif.archive.org/iiif/thusendethlegend00jaco$401
A14559-225-a,https://iiif.archive.org/iiif/thusendethlegend00jaco$402
A14559-225-b,https://iiif.archive.org/iiif/thusendethlegend00jaco$403
A14559-226-a,https://iiif.archive.org/iiif/thusendethlegend00jaco$404
A14559-226-b,https://iiif.archive.org/iiif/thusendethlegend00jaco$405
A14559-227-a,https://iiif.archive.org/iiif/thusendethlegend00jaco$406
A14559-227-b,https://iiif.archive.org/iiif/thusendethlegend00jaco$407
A14559-228-a,https://iiif.archive.org/iiif/thusendethlegend00jaco$408
A14559-228-b,https://iiif.archive.org/iiif/thusendethlegend00jaco$409
A14559-229-a,https://iiif.archive.org/iiif/thusendethlegend00jaco$410
A14559-229-b,https://iiif.archive.org/iiif/thusendethlegend00jaco$411
A14559-230-a,https://iiif.archive.org/iiif/thusendethlegend00jaco$412
A14559-230-b,https://iiif.archive.org/iiif/thusendethlegend00jaco$413
A14559-231-a,https://iiif.archive.org/iiif/thusendethlegend00jaco$414
A14559-231-b,https://iiif.archive.org/iiif/thusendethlegend00jaco$415
A14559-232-a,https://iiif.archive.org/iiif/thusendethlegend00jaco$416
A14559-232-b,https://iiif.archive.org/iiif/thusendethlegend00jaco$417
A14559-233-a,https://iiif.archive.org/iiif/thusendethlegend00jaco$418
A14559-233-b,https://iiif.archive.org/iiif/thusendethlegend00jaco$419
A14559-234-a,https://iiif.archive.org/iiif/thusendethlegend00jaco$420
A14559-234-b,https://iiif.archive.org/iiif/thusendethlegend00jaco$421
A14559-235-a,https://iiif.archive.org/iiif/thusendethlegend00jaco$422
A14559-235-b,https://iiif.archive.org/iiif/thusendethlegend00jaco$423
A14559-236-a,https://iiif.archive.org/iiif/thusendethlegend00jaco$424
A14559-236-b,https://iiif.archive.org/iiif/thusendethlegend00jaco$425
A14559-237-a,https://iiif.archive.org/iiif/thusendethlegend00jaco$426
A14559-237-b,https://iiif.archive.org/iiif/thusendethlegend00jaco$427
A14559-238-a,https://iiif.archive.org/iiif/thusendethlegend00jaco$428
A14559-238-b,https://iiif.archive.org/iiif/thusendethlegend00jaco$429
A14559-239-a,https://iiif.archive.org/iiif/thusendethlegend00jaco$430
A14559-239-b,https://iiif.archive.org/iiif/thusendethlegend00jaco$431
A14559-240-a,https://iiif.archive.org/iiif/thusendethlegend00jaco$432
A14559-240-b,https://iiif.archive.org/iiif/thusendethlegend00jaco$433
A14559-241-a,https://iiif.archive.org/iiif/thusendethlegend00jaco$434
A14559-241-b,https://iiif.archive.org/iiif/thusendethlegend00jaco$435
A14559-242-a,https://iiif.archive.org/iiif/thusendethlegend00jaco$436
A14559-242-b,https://iiif.archive.org/iiif/thusendethlegend00jaco$437
A14559-243-a,https://iiif.archive.org/iiif/thusendethlegend00jaco$438
A14559-243-b,https://iiif.archive.org/iiif/thusendethlegend00jaco$439
A14559-244-a,https://iiif.archive.org/iiif/thusendethlegend00jaco$440
A14559-244-b,https://iiif.archive.org/iiif/thusendethlegend00jaco$441
A14559-245-a,https://iiif.archive.org/iiif/thusendethlegend00jaco$442
A14559-245-b,https://iiif.archive.org/iiif/thusendethlegend00jaco$443
A14559-246-a,https://iiif.archive.org/iiif/thusendethlegend00jaco$444
A14559-246-b,https://iiif.archive.org/iiif/thusendethlegend00jaco$445
A14559-247-a,https://iiif.archive.org/iiif/thusendethlegend00jaco$446
A14559-247-b,https://iiif.archive.org/iiif/thusendethlegend00jaco$447
A14559-248-a,https://iiif.archive.org/iiif/thusendethlegend00jaco$448
A14559-248-b,https://iiif.archive.org/iiif/thusendethlegend00jaco$449
A14559-249-a,https://iiif.archive.org/iiif/thusendethlegend00jaco$450
A14559-249-b,https://iiif.archive.org/iiif/thusendethlegend00jaco$451
A14559-250-a,https://iiif.archive.org/iiif/thusendethlegend00jaco$452
A14559-250-b,https://iiif.archive.org/iiif/thusendethlegend00jaco$453
A14559-251-a,https://iiif.archive.org/iiif/thusendethlegend00jaco$454
A14559-251-b,https://iiif.archive.org/iiif/thusendethlegend00jaco$455
A14559-252-a,https://iiif.archive.org/iiif/thusendethlegend00jaco$456
A14559-252-b,https://iiif.archive.org/iiif/thusendethlegend00jaco$457
A14559-253-a,https://iiif.archive.org/iiif/thusendethlegend00jaco$458
A14559-253-b,https://iiif.archive.org/iiif/thusendethlegend00jaco$459
A14559-254-a,https://iiif.archive.org/iiif/thusendethlegend00jaco$460
A14559-254-b,https://iiif.archive.org/iiif/thusendethlegend00jaco$461
A14559-255-a,https://iiif.archive.org/iiif/thusendethlegend00jaco$462
A14559-255-b,https://iiif.archive.org/iiif/thusendethlegend00jaco$463
A14559-256-a,https://iiif.archive.org/iiif/thusendethlegend00jaco$464
A14559-256-c,https://iiif.archive.org/iiif/thusendethlegend00jaco$465
A14559-257-a,https://iiif.archive.org/iiif/thusendethlegend00jaco$466
A14559-257-b,https://iiif.archive.org/iiif/thusendethlegend00jaco$467
A14559-258-a,https://iiif.archive.org/iiif/thusendethlegend00jaco$468
A14559-258-b,https://iiif.archive.org/iiif/thusendethlegend00jaco$469
A14559-259-a,https://iiif.archive.org/iiif/thusendethlegend00jaco$470
A14559-259-b,https://iiif.archive.org/iiif/thusendethlegend00jaco$471
A14559-260-a,https://iiif.archive.org/iiif/thusendethlegend00jaco$472
A14559-260-b,https://iiif.archive.org/iiif/thusendethlegend00jaco$473
A14559-261-a,https://iiif.archive.org/iiif/thusendethlegend00jaco$474
A14559-261-b,https://iiif.archive.org/iiif/thusendethlegend00jaco$475
A14559-262-a,https://iiif.archive.org/iiif/thusendethlegend00jaco$476
A14559-262-b,https://iiif.archive.org/iiif/thusendethlegend00jaco$477
A14559-263-a,https://iiif.archive.org/iiif/thusendethlegend00jaco$478
A14559-263-b,https://iiif.archive.org/iiif/thusendethlegend00jaco$479
A14559-264-a,https://iiif.archive.org/iiif/thusendethlegend00jaco$480
A14559-264-b,https://iiif.archive.org/iiif/thusendethlegend00jaco$481
A14559-265-a,https://iiif.archive.org/iiif/thusendethlegend00jaco$482
A14559-265-b,https://iiif.archive.org/iiif/thusendethlegend00jaco$483
A14559-266-a,https://iiif.archive.org/iiif/thusendethlegend00jaco$484
A14559-266-b,https://iiif.archive.org/iiif/thusendethlegend00jaco$485
A14559-267-a,https://iiif.archive.org/iiif/thusendethlegend00jaco$486
A14559-267-b,https://iiif.archive.org/iiif/thusendethlegend00jaco$487
A14559-268-a,https://iiif.archive.org/iiif/thusendethlegend00jaco$488
A14559-268-b,https://iiif.archive.org/iiif/thusendethlegend00jaco$489
A14559-269-a,https://iiif.archive.org/iiif/thusendethlegend00jaco$490
A14559-269-b,https://iiif.archive.org/iiif/thusendethlegend00jaco$491
A14559-270-a,https://iiif.archive.org/iiif/thusendethlegend00jaco$492
A14559-270-b,https://iiif.archive.org/iiif/thusendethlegend00jaco$493
A14559-271-a,https://iiif.archive.org/iiif/thusendethlegend00jaco$494
A14559-271-b,https://iiif.archive.org/iiif/thusendethlegend00jaco$495
A14559-272-a,https://iiif.archive.org/iiif/thusendethlegend00jaco$496
A14559-272-b,https://iiif.archive.org/iiif/thusendethlegend00jaco$497
A14559-273-a,https://iiif.archive.org/iiif/thusendethlegend00jaco$498
A14559-273-b,https://iiif.archive.org/iiif/thusendethlegend00jaco$499
A14559-274-a,https://iiif.archive.org/iiif/thusendethlegend00jaco$500
A14559-274-b,https://iiif.archive.org/iiif/thusendethlegend00jaco$501
A14559-275-a,https://iiif.archive.org/iiif/thusendethlegend00jaco$502
A14559-275-b,https://iiif.archive.org/iiif/thusendethlegend00jaco$503
A14559-276-a,https://iiif.archive.org/iiif/thusendethlegend00jaco$504
A14559-276-b,https://iiif.archive.org/iiif/thusendethlegend00jaco$505
A14559-277-a,https://iiif.archive.org/iiif/thusendethlegend00jaco$506
A14559-277-b,https://iiif.archive.org/iiif/thusendethlegend00jaco$507
A14559-278-a,https://iiif.archive.org/iiif/thusendethlegend00jaco$508
A14559-278-b,https://iiif.archive.org/iiif/thusendethlegend00jaco$509
A14559-279-a,https://iiif.archive.org/iiif/thusendethlegend00jaco$510
A14559-279-b,https://iiif.archive.org/iiif/thusendethlegend00jaco$511
A14559-280-a,https://iiif.archive.org/iiif/thusendethlegend00jaco$512
A14559-280-b,https://iiif.archive.org/iiif/thusendethlegend00jaco$513
A14559-281-a,https://iiif.archive.org/iiif/thusendethlegend00jaco$514
A14559-281-b,https://iiif.archive.org/iiif/thusendethlegend00jaco$515
A14559-282-a,https://iiif.archive.org/iiif/thusendethlegend00jaco$516
A14559-282-b,https://iiif.archive.org/iiif/thusendethlegend00jaco$517
A14559-283-a,https://iiif.archive.org/iiif/thusendethlegend00jaco$518
A14559-283-b,https://iiif.archive.org/iiif/thusendethlegend00jaco$519
A14559-284-a,https://iiif.archive.org/iiif/thusendethlegend00jaco$520
A14559-284-b,https://iiif.archive.org/iiif/thusendethlegend00jaco$521
A14559-285-a,https://iiif.archive.org/iiif/thusendethlegend00jaco$522
A14559-285-b,https://iiif.archive.org/iiif/thusendethlegend00jaco$523
A14559-286-a,https://iiif.archive.org/iiif/thusendethlegend00jaco$524
A14559-286-b,https://iiif.archive.org/iiif/thusendethlegend00jaco$525
A14559-287-a,https://iiif.archive.org/iiif/thusendethlegend00jaco$526
A14559-287-b,https://iiif.archive.org/iiif/thusendethlegend00jaco$527
A14559-288-a,https://iiif.archive.org/iiif/thusendethlegend00jaco$528
A14559-288-b,https://iiif.archive.org/iiif/thusendethlegend00jaco$529
A14559-289-a,https://iiif.archive.org/iiif/thusendethlegend00jaco$530
A14559-289-b,https://iiif.archive.org/iiif/thusendethlegend00jaco$531
A14559-290-a,https://iiif.archive.org/iiif/thusendethlegend00jaco$532
A14559-290-b,https://iiif.archive.org/iiif/thusendethlegend00jaco$533
A14559-291-a,https://iiif.archive.org/iiif/thusendethlegend00jaco$534
A14559-291-b,https://iiif.archive.org/iiif/thusendethlegend00jaco$535
A14559-292-a,https://iiif.archive.org/iiif/thusendethlegend00jaco$536
A14559-292-b,https://iiif.archive.org/iiif/thusendethlegend00jaco$537
A14559-293-a,https://iiif.archive.org/iiif/thusendethlegend00jaco$538
A14559-293-b,https://iiif.archive.org/iiif/thusendethlegend00jaco$539
A14559-294-a,https://iiif.archive.org/iiif/thusendethlegend00jaco$540
A14559-294-b,https://iiif.archive.org/iiif/thusendethlegend00jaco$541
A14559-295-a,https://iiif.archive.org/iiif/thusendethlegend00jaco$542
A14559-295-b,https://iiif.archive.org/iiif/thusendethlegend00jaco$543
A14559-296-a,https://iiif.archive.org/iiif/thusendethlegend00jaco$544
A14559-296-b,https://iiif.archive.org/iiif/thusendethlegend00jaco$545
A14559-297-a,https://iiif.archive.org/iiif/thusendethlegend00jaco$546
A14559-297-b,https://iiif.archive.org/iiif/thusendethlegend00jaco$547
A14559-298-a,https://iiif.archive.org/iiif/thusendethlegend00jaco$548
A14559-298-b,https://iiif.archive.org/iiif/thusendethlegend00jaco$549
A14559-299-a,https://iiif.archive.org/iiif/thusendethlegend00jaco$550
A14559-299-b,https://iiif.archive.org/iiif/thusendethlegend00jaco$551
A14559-300-a,https://iiif.archive.org/iiif/thusendethlegend00jaco$552
A14559-300-b,https://iiif.archive.org/iiif/thusendethlegend00jaco$553
A14559-301-a,https://iiif.archive.org/iiif/thusendethlegend00jaco$554
A14559-301-b,https://iiif.archive.org/iiif/thusendethlegend00jaco$555
A14559-302-a,https://iiif.archive.org/iiif/thusendethlegend00jaco$556
A14559-302-b,https://iiif.archive.org/iiif/thusendethlegend00jaco$557
A14559-303-a,https://iiif.archive.org/iiif/thusendethlegend00jaco$558
A14559-303-b,https://iiif.archive.org/iiif/thusendethlegend00jaco$559
A14559-304-a,https://iiif.archive.org/iiif/thusendethlegend00jaco$560
A14559-304-b,https://iiif.archive.org/iiif/thusendethlegend00jaco$561
A14559-305-a,https://iiif.archive.org/iiif/thusendethlegend00jaco$562
A14559-305-b,https://iiif.archive.org/iiif/thusendethlegend00jaco$563
A14559-306-a,https://iiif.archive.org/iiif/thusendethlegend00jaco$564
A14559-306-b,https://iiif.archive.org/iiif/thusendethlegend00jaco$565
A14559-307-a,https://iiif.archive.org/iiif/thusendethlegend00jaco$566
A14559-307-b,https://iiif.archive.org/iiif/thusendethlegend00jaco$567
A14559-308-a,https://iiif.archive.org/iiif/thusendethlegend00jaco$568
A14559-308-b,https://iiif.archive.org/iiif/thusendethlegend00jaco$569
A14559-309-a,https://iiif.archive.org/iiif/thusendethlegend00jaco$570
A14559-309-b,https://iiif.archive.org/iiif/thusendethlegend00jaco$571
A14559-310-a,https://iiif.archive.org/iiif/thusendethlegend00jaco$572
A14559-310-b,https://iiif.archive.org/iiif/thusendethlegend00jaco$573
A14559-311-a,https://iiif.archive.org/iiif/thusendethlegend00jaco$574
A14559-311-b,https://iiif.archive.org/iiif/thusendethlegend00jaco$575
A14559-312-a,https://iiif.archive.org/iiif/thusendethlegend00jaco$576
A14559-312-b,https://iiif.archive.org/iiif/thusendethlegend00jaco$577
A14559-313-a,https://iiif.archive.org/iiif/thusendethlegend00jaco$578
A14559-313-b,https://iiif.archive.org/iiif/thusendethlegend00jaco$579
A14559-314-a,https://iiif.archive.org/iiif/thusendethlegend00jaco$580
A14559-314-b,https://iiif.archive.org/iiif/thusendethlegend00jaco$581
A14559-315-a,https://iiif.archive.org/iiif/thusendethlegend00jaco$582
A14559-315-b,https://iiif.archive.org/iiif/thusendethlegend00jaco$583
A14559-316-a,https://iiif.archive.org/iiif/thusendethlegend00jaco$584
A14559-316-b,https://iiif.archive.org/iiif/thusendethlegend00jaco$585
A14559-317-a,https://iiif.archive.org/iiif/thusendethlegend00jaco$586
A14559-317-b,https://iiif.archive.org/iiif/thusendethlegend00jaco$587
A14559-318-a,https://iiif.archive.org/iiif/thusendethlegend00jaco$588
A14559-318-b,https://iiif.archive.org/iiif/thusendethlegend00jaco$589
A14559-319-a,https://iiif.archive.org/iiif/thusendethlegend00jaco$590
A14559-319-b,https://iiif.archive.org/iiif/thusendethlegend00jaco$591
A14559-320-a,https://iiif.archive.org/iiif/thusendethlegend00jaco$592
A14559-320-b,https://iiif.archive.org/iiif/thusendethlegend00jaco$593
A14559-321-a,https://iiif.archive.org/iiif/thusendethlegend00jaco$594
A14559-321-b,https://iiif.archive.org/iiif/thusendethlegend00jaco$595
A14559-322-a,https://iiif.archive.org/iiif/thusendethlegend00jaco$596
A14559-322-b,https://iiif.archive.org/iiif/thusendethlegend00jaco$597
A14559-323-a,https://iiif.archive.org/iiif/thusendethlegend00jaco$598
A14559-323-b,https://iiif.archive.org/iiif/thusendethlegend00jaco$599
A14559-324-a,https://iiif.archive.org/iiif/thusendethlegend00jaco$600
A14559-324-b,https://iiif.archive.org/iiif/thusendethlegend00jaco$601
A14559-325-a,https://iiif.archive.org/iiif/thusendethlegend00jaco$602
A14559-325-b,https://iiif.archive.org/iiif/thusendethlegend00jaco$603
A14559-326-a,https://iiif.archive.org/iiif/thusendethlegend00jaco$604
A14559-326-b,https://iiif.archive.org/iiif/thusendethlegend00jaco$605
A14559-328-a,https://iiif.archive.org/iiif/thusendethlegend00jaco$606
A14559-328-b,https://iiif.archive.org/iiif/thusendethlegend00jaco$607
A14559-329-a,https://iiif.archive.org/iiif/thusendethlegend00jaco$608
A14559-329-b,https://iiif.archive.org/iiif/thusendethlegend00jaco$609
A14559-330-a,https://iiif.archive.org/iiif/thusendethlegend00jaco$610
A14559-330-b,https://iiif.archive.org/iiif/thusendethlegend00jaco$611
A14559-331-a,https://iiif.archive.org/iiif/thusendethlegend00jaco$612
A14559-331-b,https://iiif.archive.org/iiif/thusendethlegend00jaco$613
A14559-332-a,https://iiif.archive.org/iiif/thusendethlegend00jaco$614
A14559-332-b,https://iiif.archive.org/iiif/thusendethlegend00jaco$615
A14559-333-a,https://iiif.archive.org/iiif/thusendethlegend00jaco$616
A14559-333-b,https://iiif.archive.org/iiif/thusendethlegend00jaco$617
A14559-334-a,https://iiif.archive.org/iiif/thusendethlegend00jaco$618
A14559-334-b,https://iiif.archive.org/iiif/thusendethlegend00jaco$619
A14559-335-a,https://iiif.archive.org/iiif/thusendethlegend00jaco$620
A14559-335-b,https://iiif.archive.org/iiif/thusendethlegend00jaco$621
A14559-336-a,https://iiif.archive.org/iiif/thusendethlegend00jaco$622
A14559-336-b,https://iiif.archive.org/iiif/thusendethlegend00jaco$623
A14559-337-a,https://iiif.archive.org/iiif/thusendethlegend00jaco$624
A14559-337-b,https://iiif.archive.org/iiif/thusendethlegend00jaco$625
A14559-339-a,https://iiif.archive.org/iiif/thusendethlegend00jaco$626
A14559-339-b,https://iiif.archive.org/iiif/thusendethlegend00jaco$627
A14559-340-a,https://iiif.archive.org/iiif/thusendethlegend00jaco$628
A14559-340-b,https://iiif.archive.org/iiif/thusendethlegend00jaco$629
A14559-341-a,https://iiif.archive.org/iiif/thusendethlegend00jaco$630
A14559-341-b,https://iiif.archive.org/iiif/thusendethlegend00jaco$631
A14559-342-a,https://iiif.archive.org/iiif/thusendethlegend00jaco$632
A14559-342-b,https://iiif.archive.org/iiif/thusendethlegend00jaco$633
A14559-343-a,https://iiif.archive.org/iiif/thusendethlegend00jaco$634
A14559-343-b,https://iiif.archive.org/iiif/thusendethlegend00jaco$635
A14559-344-a,https://iiif.archive.org/iiif/thusendethlegend00jaco$636
A14559-344-b,https://iiif.archive.org/iiif/thusendethlegend00jaco$637
A14559-345-a,https://iiif.archive.org/iiif/thusendethlegend00jaco$638
A14559-345-b,https://iiif.archive.org/iiif/thusendethlegend00jaco$639
A14559-346-a,https://iiif.archive.org/iiif/thusendethlegend00jaco$640
A14559-346-b,https://iiif.archive.org/iiif/thusendethlegend00jaco$641
A14559-347-a,https://iiif.archive.org/iiif/thusendethlegend00jaco$642
A14559-347-b,https://iiif.archive.org/iiif/thusendethlegend00jaco$643
A14559-348-a,https://iiif.archive.org/iiif/thusendethlegend00jaco$644
A14559-348-b,https://iiif.archive.org/iiif/thusendethlegend00jaco$645
A14559-349-a,https://iiif.archive.org/iiif/thusendethlegend00jaco$646
A14559-349-b,https://iiif.archive.org/iiif/thusendethlegend00jaco$647
A14559-350-a,https://iiif.archive.org/iiif/thusendethlegend00jaco$648
A14559-350-b,https://iiif.archive.org/iiif/thusendethlegend00jaco$649
A14559-351-a,https://iiif.archive.org/iiif/thusendethlegend00jaco$650
A14559-351-b,https://iiif.archive.org/iiif/thusendethlegend00jaco$651
A14559-352-a,https://iiif.archive.org/iiif/thusendethlegend00jaco$652
A14559-352-b,https://iiif.archive.org/iiif/thusendethlegend00jaco$653
A14559-353-a,https://iiif.archive.org/iiif/thusendethlegend00jaco$654
A14559-353-b,https://iiif.archive.org/iiif/thusendethlegend00jaco$655
A14559-354-a,https://iiif.archive.org/iiif/thusendethlegend00jaco$656
A14559-354-b,https://iiif.archive.org/iiif/thusendethlegend00jaco$657
A14559-356-a,https://iiif.archive.org/iiif/thusendethlegend00jaco$658
A14559-356-b,https://iiif.archive.org/iiif/thusendethlegend00jaco$659
A14559-357-a,https://iiif.archive.org/iiif/thusendethlegend00jaco$660
A14559-357-b,https://iiif.archive.org/iiif/thusendethlegend00jaco$661
A14559-358-a,https://iiif.archive.org/iiif/thusendethlegend00jaco$662
A14559-358-b,https://iiif.archive.org/iiif/thusendethlegend00jaco$663
A14559-359-a,https://iiif.archive.org/iiif/thusendethlegend00jaco$664
A14559-359-b,https://iiif.archive.org/iiif/thusendethlegend00jaco$665
A14559-360-a,https://iiif.archive.org/iiif/thusendethlegend00jaco$666
A14559-360-b,https://iiif.archive.org/iiif/thusendethlegend00jaco$667
A14559-361-a,https://iiif.archive.org/iiif/thusendethlegend00jaco$668
A14559-361-b,https://iiif.archive.org/iiif/thusendethlegend00jaco$669
A14559-363-a,https://iiif.archive.org/iiif/thusendethlegend00jaco$670
A14559-363-b,https://iiif.archive.org/iiif/thusendethlegend00jaco$671
A14559-364-a,https://iiif.archive.org/iiif/thusendethlegend00jaco$672
A14559-364-b,https://iiif.archive.org/iiif/thusendethlegend00jaco$673
A14559-365-a,https://iiif.archive.org/iiif/thusendethlegend00jaco$674
A14559-365-b,https://iiif.archive.org/iiif/thusendethlegend00jaco$675
A14559-366-a,https://iiif.archive.org/iiif/thusendethlegend00jaco$676
A14559-366-b,https://iiif.archive.org/iiif/thusendethlegend00jaco$677
A14559-367-a,https://iiif.archive.org/iiif/thusendethlegend00jaco$678
A14559-367-b,https://iiif.archive.org/iiif/thusendethlegend00jaco$679
A14559-368-a,https://iiif.archive.org/iiif/thusendethlegend00jaco$680
A14559-368-b,https://iiif.archive.org/iiif/thusendethlegend00jaco$681
A14559-369-a,https://iiif.archive.org/iiif/thusendethlegend00jaco$682
A14559-369-b,https://iiif.archive.org/iiif/thusendethlegend00jaco$683
A14559-370-a,https://iiif.archive.org/iiif/thusendethlegend00jaco$684
A14559-370-b,https://iiif.archive.org/iiif/thusendethlegend00jaco$685
A14559-371-a,https://iiif.archive.org/iiif/thusendethlegend00jaco$686
A14559-371-b,https://iiif.archive.org/iiif/thusendethlegend00jaco$687
A14559-373-a,https://iiif.archive.org/iiif/thusendethlegend00jaco$688
A14559-373-b,https://iiif.archive.org/iiif/thusendethlegend00jaco$689
A14559-374-a,https://iiif.archive.org/iiif/thusendethlegend00jaco$690
A14559-374-b,https://iiif.archive.org/iiif/thusendethlegend00jaco$691
A14559-375-a,https://iiif.archive.org/iiif/thusendethlegend00jaco$692
A14559-375-b,https://iiif.archive.org/iiif/thusendethlegend00jaco$693
A14559-376-a,https://iiif.archive.org/iiif/thusendethlegend00jaco$694
A14559-376-b,https://iiif.archive.org/iiif/thusendethlegend00jaco$695
A14559-377-a,https://iiif.archive.org/iiif/thusendethlegend00jaco$696
A14559-377-b,https://iiif.archive.org/iiif/thusendethlegend00jaco$697
A14559-378-a,https://iiif.archive.org/iiif/thusendethlegend00jaco$698
A14559-378-b,https://iiif.archive.org/iiif/thusendethlegend00jaco$699
A14559-379-a,https://iiif.archive.org/iiif/thusendethlegend00jaco$700
A14559-379-b,https://iiif.archive.org/iiif/thusendethlegend00jaco$701
A14559-380-a,https://iiif.archive.org/iiif/thusendethlegend00jaco$702
A14559-380-b,https://iiif.archive.org/iiif/thusendethlegend00jaco$703
A14559-381-a,https://iiif.archive.org/iiif/thusendethlegend00jaco$704
A14559-381-b,https://iiif.archive.org/iiif/thusendethlegend00jaco$705
A14559-382-a,https://iiif.archive.org/iiif/thusendethlegend00jaco$706
A14559-382-b,https://iiif.archive.org/iiif/thusendethlegend00jaco$707
A14559-383-a,https://iiif.archive.org/iiif/thusendethlegend00jaco$708
A14559-383-b,https://iiif.archive.org/iiif/thusendethlegend00jaco$709
A14559-384-a,https://iiif.archive.org/iiif/thusendethlegend00jaco$710
A14559-384-b,https://iiif.archive.org/iiif/thusendethlegend00jaco$711
A14559-385-a,https://iiif.archive.org/iiif/thusendethlegend00jaco$712
A14559-385-b,https://iiif.archive.org/iiif/thusendethlegend00jaco$713
A14559-386-a,https://iiif.archive.org/iiif/thusendethlegend00jaco$714
A14559-386-b,https://iiif.archive.org/iiif/thusendethlegend00jaco$715
A14559-387-a,https://iiif.archive.org/iiif/thusendethlegend00jaco$716
A14559-387-b,https://iiif.archive.org/iiif/thusendethlegend00jaco$717
A14559-388-a,https://iiif.archive.org/iiif/thusendethlegend00jaco$718
A14559-388-b,https://iiif.archive.org/iiif/thusendethlegend00jaco$719
A14559-389-a,https://iiif.archive.org/iiif/thusendethlegend00jaco$720
A14559-389-b,https://iiif.archive.org/iiif/thusendethlegend00jaco$721
A14559-390-a,https://iiif.archive.org/iiif/thusendethlegend00jaco$722
A14559-390-b,https://iiif.archive.org/iiif/thusendethlegend00jaco$723
A14559-391-a,https://iiif.archive.org/iiif/thusendethlegend00jaco$724
A14559-391-b,https://iiif.archive.org/iiif/thusendethlegend00jaco$725
A14559-392-a,https://iiif.archive.org/iiif/thusendethlegend00jaco$726
A14559-392-b,https://iiif.archive.org/iiif/thusendethlegend00jaco$727
A14559-393-a,https://iiif.archive.org/iiif/thusendethlegend00jaco$728
A14559-393-b,https://iiif.archive.org/iiif/thusendethlegend00jaco$729
A14559-394-a,https://iiif.archive.org/iiif/thusendethlegend00jaco$730
A14559-394-b,https://iiif.archive.org/iiif/thusendethlegend00jaco$731
A14559-395-a,https://iiif.archive.org/iiif/thusendethlegend00jaco$732
A14559-395-b,https://iiif.archive.org/iiif/thusendethlegend00jaco$733
A14559-396-a,https://iiif.archive.org/iiif/thusendethlegend00jaco$734
A14559-396-b,https://iiif.archive.org/iiif/thusendethlegend00jaco$735
A14559-397-a,https://iiif.archive.org/iiif/thusendethlegend00jaco$736
A14559-397-b,https://iiif.archive.org/iiif/thusendethlegend00jaco$737
A14559-398-a,https://iiif.archive.org/iiif/thusendethlegend00jaco$738
A14559-398-b,https://iiif.archive.org/iiif/thusendethlegend00jaco$739
A14559-398-b1,https://iiif.archive.org/iiif/thusendethlegend00jaco$740
A14559-399-a,https://iiif.archive.org/iiif/thusendethlegend00jaco$741
A14559-400-a,https://iiif.archive.org/iiif/thusendethlegend00jaco$742
A14559-400-b,https://iiif.archive.org/iiif/thusendethlegend00jaco$743
A14559-401-a,https://iiif.archive.org/iiif/thusendethlegend00jaco$744
A14559-401-b,https://iiif.archive.org/iiif/thusendethlegend00jaco$745
A14559-402-a,https://iiif.archive.org/iiif/thusendethlegend00jaco$746
A14559-402-b,https://iiif.archive.org/iiif/thusendethlegend00jaco$747
A14559-403-a,https://iiif.archive.org/iiif/thusendethlegend00jaco$748
A14559-403-b,https://iiif.archive.org/iiif/thusendethlegend00jaco$749
A14559-404-a,https://iiif.archive.org/iiif/thusendethlegend00jaco$750
A14559-404-b,https://iiif.archive.org/iiif/thusendethlegend00jaco$751
A14559-405-a,https://iiif.archive.org/iiif/thusendethlegend00jaco$752
A14559-405-b,https://iiif.archive.org/iiif/thusendethlegend00jaco$753
A14559-406-a,https://iiif.archive.org/iiif/thusendethlegend00jaco$754
A14559-406-b,https://iiif.archive.org/iiif/thusendethlegend00jaco$755
A14559-407-a,https://iiif.archive.org/iiif/thusendethlegend00jaco$756
A14559-407-b,https://iiif.archive.org/iiif/thusendethlegend00jaco$757
A14559-408-a,https://iiif.archive.org/iiif/thusendethlegend00jaco$758
A14559-408-b,https://iiif.archive.org/iiif/thusendethlegend00jaco$759
A14559-409-a,https://iiif.archive.org/iiif/thusendethlegend00jaco$760
A14559-409-b,https://iiif.archive.org/iiif/thusendethlegend00jaco$761
A14559-410-a,https://iiif.archive.org/iiif/thusendethlegend00jaco$762
A14559-410-b,https://iiif.archive.org/iiif/thusendethlegend00jaco$763
A14559-411-a,https://iiif.archive.org/iiif/thusendethlegend00jaco$764
A14559-411-b,https://iiif.archive.org/iiif/thusendethlegend00jaco$765
A14559-412-a,https://iiif.archive.org/iiif/thusendethlegend00jaco$766
A14559-412-b,https://iiif.archive.org/iiif/thusendethlegend00jaco$767
A14559-413-a,https://iiif.archive.org/iiif/thusendethlegend00jaco$768
A14559-413-b,https://iiif.archive.org/iiif/thusendethlegend00jaco$769
A14559-414-a,https://iiif.archive.org/iiif/thusendethlegend00jaco$770
A14559-414-b,https://iiif.archive.org/iiif/thusendethlegend00jaco$771
A14559-415-a,https://iiif.archive.org/iiif/thusendethlegend00jaco$772
A14559-415-b,https://iiif.archive.org/iiif/thusendethlegend00jaco$773
A14559-416-a,https://iiif.archive.org/iiif/thusendethlegend00jaco$774
A14559-416-b,https://iiif.archive.org/iiif/thusendethlegend00jaco$775
A14559-417-a,https://iiif.archive.org/iiif/thusendethlegend00jaco$776
A14559-417-b,https://iiif.archive.org/iiif/thusendethlegend00jaco$777
A14559-418-a,https://iiif.archive.org/iiif/thusendethlegend00jaco$778
A14559-418-b,https://iiif.archive.org/iiif/thusendethlegend00jaco$779
A14559-419-a,https://iiif.archive.org/iiif/thusendethlegend00jaco$780
A14559-419-b,https://iiif.archive.org/iiif/thusendethlegend00jaco$781
A14559-420-a,https://iiif.archive.org/iiif/thusendethlegend00jaco$782
A14559-420-b,https://iiif.archive.org/iiif/thusendethlegend00jaco$783
A14559-421-a,https://iiif.archive.org/iiif/thusendethlegend00jaco$784
A14559-421-b,https://iiif.archive.org/iiif/thusendethlegend00jaco$785
A14559-422-a,https://iiif.archive.org/iiif/thusendethlegend00jaco$786
A14559-422-b,https://iiif.archive.org/iiif/thusendethlegend00jaco$787
A14559-423-a,https://iiif.archive.org/iiif/thusendethlegend00jaco$788
A14559-423-b,https://iiif.archive.org/iiif/thusendethlegend00jaco$789
A14559-424-a,https://iiif.archive.org/iiif/thusendethlegend00jaco$790
A14559-424-b,https://iiif.archive.org/iiif/thusendethlegend00jaco$791
A14559-425-a,https://iiif.archive.org/iiif/thusendethlegend00jaco$792
A14559-425-b,https://iiif.archive.org/iiif/thusendethlegend00jaco$793
A14559-426-a,https://iiif.archive.org/iiif/thusendethlegend00jaco$794
A14559-426-b,https://iiif.archive.org/iiif/thusendethlegend00jaco$795
A14559-427-a,https://iiif.archive.org/iiif/thusendethlegend00jaco$796
A14559-427-b,https://iiif.archive.org/iiif/thusendethlegend00jaco$797
A14559-428-a,https://iiif.archive.org/iiif/thusendethlegend00jaco$798
A14559-428-b,https://iiif.archive.org/iiif/thusendethlegend00jaco$799
A14559-429-a,https://iiif.archive.org/iiif/thusendethlegend00jaco$800
A14559-429-b,https://iiif.archive.org/iiif/thusendethlegend00jaco$801
A14559-430-a,https://iiif.archive.org/iiif/thusendethlegend00jaco$802
A14559-430-b,https://iiif.archive.org/iiif/thusendethlegend00jaco$803
A14559-431-a,https://iiif.archive.org/iiif/thusendethlegend00jaco$804
A14559-431-b,https://iiif.archive.org/iiif/thusendethlegend00jaco$805
A14559-432-a,https://iiif.archive.org/iiif/thusendethlegend00jaco$806
A14559-432-b,https://iiif.archive.org/iiif/thusendethlegend00jaco$807
A14559-433-a,https://iiif.archive.org/iiif/thusendethlegend00jaco$808
A14559-433-b,https://iiif.archive.org/iiif/thusendethlegend00jaco$809
A14559-434-a,https://iiif.archive.org/iiif/thusendethlegend00jaco$810
A14559-434-b,https://iiif.archive.org/iiif/thusendethlegend00jaco$811
A14559-435-a,https://iiif.archive.org/iiif/thusendethlegend00jaco$812
A14559-435-b,https://iiif.archive.org/iiif/thusendethlegend00jaco$813
A14559-436-a,https://iiif.archive.org/iiif/thusendethlegend00jaco$814
A14559-436-b,https://iiif.archive.org/iiif/thusendethlegend00jaco$815
A14559-437-a,https://iiif.archive.org/iiif/thusendethlegend00jaco$816
A14559-437-b,https://iiif.archive.org/iiif/thusendethlegend00jaco$817
A14559-438-a,https://iiif.archive.org/iiif/thusendethlegend00jaco$818
A14559-438-b,https://iiif.archive.org/iiif/thusendethlegend00jaco$819
A14559-439-a,https://iiif.archive.org/iiif/thusendethlegend00jaco$820
A14559-439-b,https://iiif.archive.org/iiif/thusendethlegend00jaco$821
A14559-440-a,https://iiif.archive.org/iiif/thusendethlegend00jaco$822
A14559-440-b,https://iiif.archive.org/iiif/thusendethlegend00jaco$823
A14559-441-a,https://iiif.archive.org/iiif/thusendethlegend00jaco$824
A14559-441-b,https://iiif.archive.org/iiif/thusendethlegend00jaco$825
A14559-442-a,https://iiif.archive.org/iiif/thusendethlegend00jaco$826
A14559-442-b,https://iiif.archive.org/iiif/thusendethlegend00jaco$827
A14559-443-a,https://iiif.archive.org/iiif/thusendethlegend00jaco$828
A14559-443-b,https://iiif.archive.org/iiif/thusendethlegend00jaco$829
A14559-444-a,https://iiif.archive.org/iiif/thusendethlegend00jaco$830
A14559-444-b,https://iiif.archive.org/iiif/thusendethlegend00jaco$831
A14559-445-a,https://iiif.archive.org/iiif/thusendethlegend00jaco$832
A14559-445-b,https://iiif.archive.org/iiif/thusendethlegend00jaco$833
A14559-446-a,https://iiif.archive.org/iiif/thusendethlegend00jaco$834
A14559-446-b,https://iiif.archive.org/iiif/thusendethlegend00jaco$835
A14559-447-a,https://iiif.archive.org/iiif/thusendethlegend00jaco$836
A14559-447-b,https://iiif.archive.org/iiif/thusendethlegend00jaco$837
A14559-448-a,https://iiif.archive.org/iiif/thusendethlegend00jaco$838
A14559-448-b,https://iiif.archive.org/iiif/thusendethlegend00jaco$839
A14559-449-a,https://iiif.archive.org/iiif/thusendethlegend00jaco$840
A14559-449-b,https://iiif.archive.org/iiif/thusendethlegend00jaco$841
A14559-450-a,https://iiif.archive.org/iiif/thusendethlegend00jaco$842
A14559-450-b,https://iiif.archive.org/iiif/thusendethlegend00jaco$843
A14559-451-a,https://iiif.archive.org/iiif/thusendethlegend00jaco$844
A14559-451-b,https://iiif.archive.org/iiif/thusendethlegend00jaco$9999
A14559-452-a,https://iiif.archive.org/iiif/thusendethlegend00jaco$9999
A14559-452-b,https://iiif.archive.org/iiif/thusendethlegend00jaco$845
A14559-453-a,https://iiif.archive.org/iiif/thusendethlegend00jaco$846
A14559-453-b,https://iiif.archive.org/iiif/thusendethlegend00jaco$847
A14559-454-a,https://iiif.archive.org/iiif/thusendethlegend00jaco$848
A14559-454-b,https://iiif.archive.org/iiif/thusendethlegend00jaco$9999
A14559-455-a,https://iiif.archive.org/iiif/thusendethlegend00jaco$9999
A14559-455-b,https://iiif.archive.org/iiif/thusendethlegend00jaco$9999
