A15498-001-a,9999
A15498-001-b,https://iiif.archive.org/iiif/2tragedyoftancre00wilmuoft$011
A15498-002-a,9999
A15498-002-b,https://iiif.archive.org/iiif/2tragedyoftancre00wilmuoft$015
A15498-003-a,https://iiif.archive.org/iiif/2tragedyoftancre00wilmuoft$016
A15498-003-b,https://iiif.archive.org/iiif/2tragedyoftancre00wilmuoft$019
A15498-004-a,https://iiif.archive.org/iiif/2tragedyoftancre00wilmuoft$020
A15498-004-b,https://iiif.archive.org/iiif/2tragedyoftancre00wilmuoft$023
A15498-005-a,https://iiif.archive.org/iiif/2tragedyoftancre00wilmuoft$024
A15498-005-b,https://iiif.archive.org/iiif/2tragedyoftancre00wilmuoft$027
A15498-006-a,https://iiif.archive.org/iiif/2tragedyoftancre00wilmuoft$028
A15498-006-b,https://iiif.archive.org/iiif/2tragedyoftancre00wilmuoft$031
A15498-007-a,https://iiif.archive.org/iiif/2tragedyoftancre00wilmuoft$032
A15498-007-b,https://iiif.archive.org/iiif/2tragedyoftancre00wilmuoft$035
A15498-008-a,https://iiif.archive.org/iiif/2tragedyoftancre00wilmuoft$036
A15498-008-b,https://iiif.archive.org/iiif/2tragedyoftancre00wilmuoft$039
A15498-009-a,https://iiif.archive.org/iiif/2tragedyoftancre00wilmuoft$040
A15498-009-b,https://iiif.archive.org/iiif/2tragedyoftancre00wilmuoft$043
A15498-010-a,https://iiif.archive.org/iiif/2tragedyoftancre00wilmuoft$044
A15498-010-b,https://iiif.archive.org/iiif/2tragedyoftancre00wilmuoft$047
A15498-011-a,https://iiif.archive.org/iiif/2tragedyoftancre00wilmuoft$048
A15498-011-b,https://iiif.archive.org/iiif/2tragedyoftancre00wilmuoft$051
A15498-012-a,https://iiif.archive.org/iiif/2tragedyoftancre00wilmuoft$052
A15498-012-b,https://iiif.archive.org/iiif/2tragedyoftancre00wilmuoft$055
A15498-013-a,https://iiif.archive.org/iiif/2tragedyoftancre00wilmuoft$056
A15498-013-b,https://iiif.archive.org/iiif/2tragedyoftancre00wilmuoft$059
A15498-014-a,https://iiif.archive.org/iiif/2tragedyoftancre00wilmuoft$060
A15498-014-b,https://iiif.archive.org/iiif/2tragedyoftancre00wilmuoft$063
A15498-015-a,https://iiif.archive.org/iiif/2tragedyoftancre00wilmuoft$064
A15498-015-b,https://iiif.archive.org/iiif/2tragedyoftancre00wilmuoft$067
A15498-016-a,https://iiif.archive.org/iiif/2tragedyoftancre00wilmuoft$068
A15498-016-b,https://iiif.archive.org/iiif/2tragedyoftancre00wilmuoft$071
A15498-017-a,https://iiif.archive.org/iiif/2tragedyoftancre00wilmuoft$072
A15498-017-b,https://iiif.archive.org/iiif/2tragedyoftancre00wilmuoft$075
A15498-018-a,https://iiif.archive.org/iiif/2tragedyoftancre00wilmuoft$076
A15498-018-b,https://iiif.archive.org/iiif/2tragedyoftancre00wilmuoft$079
A15498-019-a,https://iiif.archive.org/iiif/2tragedyoftancre00wilmuoft$080
A15498-019-b,https://iiif.archive.org/iiif/2tragedyoftancre00wilmuoft$083
A15498-020-a,https://iiif.archive.org/iiif/2tragedyoftancre00wilmuoft$084
A15498-020-b,https://iiif.archive.org/iiif/2tragedyoftancre00wilmuoft$087
A15498-021-a,https://iiif.archive.org/iiif/2tragedyoftancre00wilmuoft$088
A15498-021-b,https://iiif.archive.org/iiif/2tragedyoftancre00wilmuoft$091
A15498-022-a,https://iiif.archive.org/iiif/2tragedyoftancre00wilmuoft$092
A15498-022-b,https://iiif.archive.org/iiif/2tragedyoftancre00wilmuoft$095
A15498-023-a,https://iiif.archive.org/iiif/2tragedyoftancre00wilmuoft$096
A15498-023-b,https://iiif.archive.org/iiif/2tragedyoftancre00wilmuoft$099
A15498-024-a,https://iiif.archive.org/iiif/2tragedyoftancre00wilmuoft$100
A15498-024-b,https://iiif.archive.org/iiif/2tragedyoftancre00wilmuoft$103
A15498-025-a,https://iiif.archive.org/iiif/2tragedyoftancre00wilmuoft$104
A15498-025-b,https://iiif.archive.org/iiif/2tragedyoftancre00wilmuoft$107
A15498-026-a,https://iiif.archive.org/iiif/2tragedyoftancre00wilmuoft$108
A15498-026-b,https://iiif.archive.org/iiif/2tragedyoftancre00wilmuoft$111
A15498-027-a,https://iiif.archive.org/iiif/2tragedyoftancre00wilmuoft$112
A15498-027-b,https://iiif.archive.org/iiif/2tragedyoftancre00wilmuoft$115
A15498-028-a,https://iiif.archive.org/iiif/2tragedyoftancre00wilmuoft$116
A15498-028-b,https://iiif.archive.org/iiif/2tragedyoftancre00wilmuoft$119
A15498-029-a,https://iiif.archive.org/iiif/2tragedyoftancre00wilmuoft$120
A15498-029-b,https://iiif.archive.org/iiif/2tragedyoftancre00wilmuoft$123
A15498-030-a,https://iiif.archive.org/iiif/2tragedyoftancre00wilmuoft$124
A15498-030-b,https://iiif.archive.org/iiif/2tragedyoftancre00wilmuoft$127
A15498-031-a,https://iiif.archive.org/iiif/2tragedyoftancre00wilmuoft$128
A15498-031-b,https://iiif.archive.org/iiif/2tragedyoftancre00wilmuoft$131
A15498-032-a,https://iiif.archive.org/iiif/2tragedyoftancre00wilmuoft$134
A15498-032-b,https://iiif.archive.org/iiif/2tragedyoftancre00wilmuoft$137
A15498-033-a,https://iiif.archive.org/iiif/2tragedyoftancre00wilmuoft$138
A15498-033-b,https://iiif.archive.org/iiif/2tragedyoftancre00wilmuoft$141
A15498-034-a,https://iiif.archive.org/iiif/2tragedyoftancre00wilmuoft$142
A15498-034-b,https://iiif.archive.org/iiif/2tragedyoftancre00wilmuoft$145
A15498-035-a,https://iiif.archive.org/iiif/2tragedyoftancre00wilmuoft$146
A15498-035-b,https://iiif.archive.org/iiif/2tragedyoftancre00wilmuoft$149
A15498-036-a,https://iiif.archive.org/iiif/2tragedyoftancre00wilmuoft$150
A15498-036-b,https://iiif.archive.org/iiif/2tragedyoftancre00wilmuoft$155
A15498-037-a,https://iiif.archive.org/iiif/2tragedyoftancre00wilmuoft$156
A15498-037-b,9999
