A15685-001-a,https://iiif.archive.org/iiif/newenglandsprosp01wood$6
A15685-001-b,https://iiif.archive.org/iiif/newenglandsprosp01wood$7
A15685-002-a,https://iiif.archive.org/iiif/newenglandsprosp01wood$8
A15685-002-b,https://iiif.archive.org/iiif/newenglandsprosp01wood$9
A15685-003-a,https://iiif.archive.org/iiif/newenglandsprosp01wood$10
A15685-003-b,https://iiif.archive.org/iiif/newenglandsprosp01wood$11
A15685-004-a,https://iiif.archive.org/iiif/newenglandsprosp01wood$12
A15685-004-b,https://iiif.archive.org/iiif/newenglandsprosp01wood$13
A15685-005-a,https://iiif.archive.org/iiif/newenglandsprosp01wood$14
A15685-005-b,https://iiif.archive.org/iiif/newenglandsprosp01wood$15
A15685-006-a,9999
A15685-006-b,https://iiif.archive.org/iiif/newenglandsprosp01wood$16
A15685-007-a,9999
A15685-007-b,https://iiif.archive.org/iiif/newenglandsprosp01wood$17
A15685-008-a,https://iiif.archive.org/iiif/newenglandsprosp01wood$18
A15685-008-b,https://iiif.archive.org/iiif/newenglandsprosp01wood$19
A15685-009-a,https://iiif.archive.org/iiif/newenglandsprosp01wood$20
A15685-009-b,https://iiif.archive.org/iiif/newenglandsprosp01wood$21
A15685-010-a,https://iiif.archive.org/iiif/newenglandsprosp01wood$22
A15685-010-b,https://iiif.archive.org/iiif/newenglandsprosp01wood$23
A15685-011-a,https://iiif.archive.org/iiif/newenglandsprosp01wood$24
A15685-011-b,https://iiif.archive.org/iiif/newenglandsprosp01wood$25
A15685-012-a,https://iiif.archive.org/iiif/newenglandsprosp01wood$26
A15685-012-b,https://iiif.archive.org/iiif/newenglandsprosp01wood$27
A15685-013-a,https://iiif.archive.org/iiif/newenglandsprosp01wood$28
A15685-013-b,https://iiif.archive.org/iiif/newenglandsprosp01wood$29
A15685-014-a,https://iiif.archive.org/iiif/newenglandsprosp01wood$30
A15685-014-b,https://iiif.archive.org/iiif/newenglandsprosp01wood$31
A15685-015-a,https://iiif.archive.org/iiif/newenglandsprosp01wood$32
A15685-015-b,https://iiif.archive.org/iiif/newenglandsprosp01wood$33
A15685-016-a,https://iiif.archive.org/iiif/newenglandsprosp01wood$34
A15685-016-b,https://iiif.archive.org/iiif/newenglandsprosp01wood$35
A15685-017-a,https://iiif.archive.org/iiif/newenglandsprosp01wood$36
A15685-017-b,https://iiif.archive.org/iiif/newenglandsprosp01wood$37
A15685-018-a,https://iiif.archive.org/iiif/newenglandsprosp01wood$38
A15685-018-b,https://iiif.archive.org/iiif/newenglandsprosp01wood$39
A15685-019-a,https://iiif.archive.org/iiif/newenglandsprosp01wood$40
A15685-019-b,https://iiif.archive.org/iiif/newenglandsprosp01wood$41
A15685-020-a,https://iiif.archive.org/iiif/newenglandsprosp01wood$42
A15685-020-b,https://iiif.archive.org/iiif/newenglandsprosp01wood$43
A15685-021-a,https://iiif.archive.org/iiif/newenglandsprosp01wood$44
A15685-021-b,https://iiif.archive.org/iiif/newenglandsprosp01wood$45
A15685-022-a,https://iiif.archive.org/iiif/newenglandsprosp01wood$46
A15685-022-b,https://iiif.archive.org/iiif/newenglandsprosp01wood$47
A15685-023-a,https://iiif.archive.org/iiif/newenglandsprosp01wood$48
A15685-023-b,https://iiif.archive.org/iiif/newenglandsprosp01wood$49
A15685-024-a,https://iiif.archive.org/iiif/newenglandsprosp01wood$50
A15685-024-b,https://iiif.archive.org/iiif/newenglandsprosp01wood$51
A15685-025-a,https://iiif.archive.org/iiif/newenglandsprosp01wood$52
A15685-025-b,https://iiif.archive.org/iiif/newenglandsprosp01wood$53
A15685-026-a,https://iiif.archive.org/iiif/newenglandsprosp01wood$54
A15685-026-b,https://iiif.archive.org/iiif/newenglandsprosp01wood$55
A15685-027-a,https://iiif.archive.org/iiif/newenglandsprosp01wood$56
A15685-027-b,https://iiif.archive.org/iiif/newenglandsprosp01wood$57
A15685-028-a,https://iiif.archive.org/iiif/newenglandsprosp01wood$58
A15685-028-b,https://iiif.archive.org/iiif/newenglandsprosp01wood$59
A15685-029-a,https://iiif.archive.org/iiif/newenglandsprosp01wood$60
A15685-029-b,https://iiif.archive.org/iiif/newenglandsprosp01wood$61
A15685-030-a,https://iiif.archive.org/iiif/newenglandsprosp01wood$62
A15685-030-b,https://iiif.archive.org/iiif/newenglandsprosp01wood$63
A15685-031-a,https://iiif.archive.org/iiif/newenglandsprosp01wood$64
A15685-031-b,https://iiif.archive.org/iiif/newenglandsprosp01wood$65
A15685-032-a,https://iiif.archive.org/iiif/newenglandsprosp01wood$66
A15685-032-b,https://iiif.archive.org/iiif/newenglandsprosp01wood$67
A15685-033-a,https://iiif.archive.org/iiif/newenglandsprosp01wood$68
A15685-033-b,https://iiif.archive.org/iiif/newenglandsprosp01wood$69
A15685-034-a,https://iiif.archive.org/iiif/newenglandsprosp01wood$70
A15685-034-b,https://iiif.archive.org/iiif/newenglandsprosp01wood$71
A15685-035-a,https://iiif.archive.org/iiif/newenglandsprosp01wood$72
A15685-035-b,https://iiif.archive.org/iiif/newenglandsprosp01wood$73
A15685-036-a,https://iiif.archive.org/iiif/newenglandsprosp01wood$74
A15685-036-b,https://iiif.archive.org/iiif/newenglandsprosp01wood$75
A15685-037-a,https://iiif.archive.org/iiif/newenglandsprosp01wood$76
A15685-037-b,https://iiif.archive.org/iiif/newenglandsprosp01wood$77
A15685-038-a,https://iiif.archive.org/iiif/newenglandsprosp01wood$78
A15685-038-b,https://iiif.archive.org/iiif/newenglandsprosp01wood$79
A15685-039-a,https://iiif.archive.org/iiif/newenglandsprosp01wood$80
A15685-039-b,https://iiif.archive.org/iiif/newenglandsprosp01wood$81
A15685-040-a,https://iiif.archive.org/iiif/newenglandsprosp01wood$82
A15685-040-b,https://iiif.archive.org/iiif/newenglandsprosp01wood$83
A15685-041-a,https://iiif.archive.org/iiif/newenglandsprosp01wood$84
A15685-041-b,https://iiif.archive.org/iiif/newenglandsprosp01wood$85
A15685-042-a,https://iiif.archive.org/iiif/newenglandsprosp01wood$86
A15685-042-b,https://iiif.archive.org/iiif/newenglandsprosp01wood$87
A15685-043-a,https://iiif.archive.org/iiif/newenglandsprosp01wood$88
A15685-043-b,https://iiif.archive.org/iiif/newenglandsprosp01wood$89
A15685-044-a,https://iiif.archive.org/iiif/newenglandsprosp01wood$90
A15685-044-b,https://iiif.archive.org/iiif/newenglandsprosp01wood$91
A15685-045-a,https://iiif.archive.org/iiif/newenglandsprosp01wood$92
A15685-045-b,https://iiif.archive.org/iiif/newenglandsprosp01wood$93
A15685-046-a,https://iiif.archive.org/iiif/newenglandsprosp01wood$94
A15685-046-b,https://iiif.archive.org/iiif/newenglandsprosp01wood$95
A15685-047-a,https://iiif.archive.org/iiif/newenglandsprosp01wood$96
A15685-047-b,https://iiif.archive.org/iiif/newenglandsprosp01wood$97
A15685-048-a,https://iiif.archive.org/iiif/newenglandsprosp01wood$98
A15685-048-b,https://iiif.archive.org/iiif/newenglandsprosp01wood$99
A15685-049-a,https://iiif.archive.org/iiif/newenglandsprosp01wood$100
A15685-049-b,https://iiif.archive.org/iiif/newenglandsprosp01wood$101
A15685-050-a,https://iiif.archive.org/iiif/newenglandsprosp01wood$102
A15685-050-b,https://iiif.archive.org/iiif/newenglandsprosp01wood$103
A15685-051-a,https://iiif.archive.org/iiif/newenglandsprosp01wood$104
A15685-051-b,https://iiif.archive.org/iiif/newenglandsprosp01wood$105
A15685-052-a,https://iiif.archive.org/iiif/newenglandsprosp01wood$106
A15685-052-b,https://iiif.archive.org/iiif/newenglandsprosp01wood$107
A15685-053-a,https://iiif.archive.org/iiif/newenglandsprosp01wood$108
A15685-053-b,https://iiif.archive.org/iiif/newenglandsprosp01wood$109
A15685-054-a,https://iiif.archive.org/iiif/newenglandsprosp01wood$110
A15685-054-b,https://iiif.archive.org/iiif/newenglandsprosp01wood$111
A15685-055-a,https://iiif.archive.org/iiif/newenglandsprosp01wood$112
A15685-055-b,https://iiif.archive.org/iiif/newenglandsprosp01wood$113
A15685-056-a,https://iiif.archive.org/iiif/newenglandsprosp01wood$114
A15685-056-b,https://iiif.archive.org/iiif/newenglandsprosp01wood$115
A15685-057-a,https://iiif.archive.org/iiif/newenglandsprosp01wood$116
A15685-057-b,https://iiif.archive.org/iiif/newenglandsprosp01wood$117
A15685-058-a,https://iiif.archive.org/iiif/newenglandsprosp01wood$118
A15685-058-b,https://iiif.archive.org/iiif/newenglandsprosp01wood$119
