A15742-001-b,https://iiif.archive.org/iiif/architectureelem00wott$5
A15742-002-b,https://iiif.archive.org/iiif/architectureelem00wott$7
A15742-003-a,https://iiif.archive.org/iiif/architectureelem00wott$8
A15742-003-b,https://iiif.archive.org/iiif/architectureelem00wott$9
A15742-004-a,https://iiif.archive.org/iiif/architectureelem00wott$10
A15742-004-b,https://iiif.archive.org/iiif/architectureelem00wott$11
A15742-005-a,https://iiif.archive.org/iiif/architectureelem00wott$12
A15742-005-b,https://iiif.archive.org/iiif/architectureelem00wott$13
A15742-006-a,https://iiif.archive.org/iiif/architectureelem00wott$14
A15742-006-b,https://iiif.archive.org/iiif/architectureelem00wott$15
A15742-007-a,https://iiif.archive.org/iiif/architectureelem00wott$16
A15742-007-b,https://iiif.archive.org/iiif/architectureelem00wott$17
A15742-008-a,https://iiif.archive.org/iiif/architectureelem00wott$18
A15742-008-b,https://iiif.archive.org/iiif/architectureelem00wott$19
A15742-009-a,https://iiif.archive.org/iiif/architectureelem00wott$20
A15742-009-b,https://iiif.archive.org/iiif/architectureelem00wott$21
A15742-010-a,https://iiif.archive.org/iiif/architectureelem00wott$22
A15742-010-b,https://iiif.archive.org/iiif/architectureelem00wott$23
A15742-011-a,https://iiif.archive.org/iiif/architectureelem00wott$24
A15742-011-b,https://iiif.archive.org/iiif/architectureelem00wott$25
A15742-012-a,https://iiif.archive.org/iiif/architectureelem00wott$26
A15742-012-b,https://iiif.archive.org/iiif/architectureelem00wott$27
A15742-013-a,https://iiif.archive.org/iiif/architectureelem00wott$28
A15742-013-b,https://iiif.archive.org/iiif/architectureelem00wott$29
A15742-014-a,https://iiif.archive.org/iiif/architectureelem00wott$30
A15742-014-b,https://iiif.archive.org/iiif/architectureelem00wott$31
A15742-015-a,https://iiif.archive.org/iiif/architectureelem00wott$32
A15742-015-b,https://iiif.archive.org/iiif/architectureelem00wott$33
A15742-016-a,https://iiif.archive.org/iiif/architectureelem00wott$34
A15742-016-b,https://iiif.archive.org/iiif/architectureelem00wott$35
A15742-017-a,https://iiif.archive.org/iiif/architectureelem00wott$36
A15742-017-b,https://iiif.archive.org/iiif/architectureelem00wott$37
A15742-018-a,https://iiif.archive.org/iiif/architectureelem00wott$38
A15742-018-b,https://iiif.archive.org/iiif/architectureelem00wott$39
A15742-019-a,https://iiif.archive.org/iiif/architectureelem00wott$40
A15742-019-b,https://iiif.archive.org/iiif/architectureelem00wott$41
A15742-020-a,https://iiif.archive.org/iiif/architectureelem00wott$42
A15742-020-b,https://iiif.archive.org/iiif/architectureelem00wott$43
A15742-021-a,https://iiif.archive.org/iiif/architectureelem00wott$44
A15742-021-b,https://iiif.archive.org/iiif/architectureelem00wott$45
A15742-022-a,https://iiif.archive.org/iiif/architectureelem00wott$46
A15742-022-b,https://iiif.archive.org/iiif/architectureelem00wott$47
A15742-023-a,https://iiif.archive.org/iiif/architectureelem00wott$48
A15742-023-b,https://iiif.archive.org/iiif/architectureelem00wott$49
A15742-024-a,https://iiif.archive.org/iiif/architectureelem00wott$50
A15742-024-b,https://iiif.archive.org/iiif/architectureelem00wott$51
A15742-025-a,https://iiif.archive.org/iiif/architectureelem00wott$52
A15742-025-b,https://iiif.archive.org/iiif/architectureelem00wott$53
A15742-026-a,https://iiif.archive.org/iiif/architectureelem00wott$54
A15742-026-b,https://iiif.archive.org/iiif/architectureelem00wott$55
A15742-027-a,https://iiif.archive.org/iiif/architectureelem00wott$56
A15742-027-b,https://iiif.archive.org/iiif/architectureelem00wott$57
A15742-028-a,https://iiif.archive.org/iiif/architectureelem00wott$58
A15742-028-b,https://iiif.archive.org/iiif/architectureelem00wott$59
A15742-029-a,https://iiif.archive.org/iiif/architectureelem00wott$60
A15742-029-b,https://iiif.archive.org/iiif/architectureelem00wott$61
A15742-030-a,https://iiif.archive.org/iiif/architectureelem00wott$62
A15742-030-b,https://iiif.archive.org/iiif/architectureelem00wott$63
A15742-031-a,https://iiif.archive.org/iiif/architectureelem00wott$64
A15742-031-b,https://iiif.archive.org/iiif/architectureelem00wott$65
A15742-032-a,https://iiif.archive.org/iiif/architectureelem00wott$66
A15742-032-b,https://iiif.archive.org/iiif/architectureelem00wott$67
A15742-033-a,https://iiif.archive.org/iiif/architectureelem00wott$68
A15742-033-b,https://iiif.archive.org/iiif/architectureelem00wott$69
A15742-034-a,https://iiif.archive.org/iiif/architectureelem00wott$70
A15742-034-b,https://iiif.archive.org/iiif/architectureelem00wott$71
A15742-035-a,https://iiif.archive.org/iiif/architectureelem00wott$72
A15742-035-b,https://iiif.archive.org/iiif/architectureelem00wott$73
A15742-036-a,https://iiif.archive.org/iiif/architectureelem00wott$74
A15742-036-b,https://iiif.archive.org/iiif/architectureelem00wott$75
A15742-037-a,https://iiif.archive.org/iiif/architectureelem00wott$76
A15742-037-b,https://iiif.archive.org/iiif/architectureelem00wott$77
A15742-038-a,https://iiif.archive.org/iiif/architectureelem00wott$78
A15742-038-b,https://iiif.archive.org/iiif/architectureelem00wott$79
A15742-039-a,https://iiif.archive.org/iiif/architectureelem00wott$80
A15742-039-b,https://iiif.archive.org/iiif/architectureelem00wott$81
A15742-040-a,https://iiif.archive.org/iiif/architectureelem00wott$82
A15742-040-b,https://iiif.archive.org/iiif/architectureelem00wott$83
A15742-041-a,https://iiif.archive.org/iiif/architectureelem00wott$84
A15742-041-b,https://iiif.archive.org/iiif/architectureelem00wott$85
A15742-042-a,https://iiif.archive.org/iiif/architectureelem00wott$86
A15742-042-b,https://iiif.archive.org/iiif/architectureelem00wott$87
A15742-043-a,https://iiif.archive.org/iiif/architectureelem00wott$88
A15742-043-b,https://iiif.archive.org/iiif/architectureelem00wott$89
A15742-044-a,https://iiif.archive.org/iiif/architectureelem00wott$90
A15742-044-b,https://iiif.archive.org/iiif/architectureelem00wott$91
A15742-045-a,https://iiif.archive.org/iiif/architectureelem00wott$92
A15742-045-b,https://iiif.archive.org/iiif/architectureelem00wott$93
A15742-046-a,https://iiif.archive.org/iiif/architectureelem00wott$94
A15742-046-b,https://iiif.archive.org/iiif/architectureelem00wott$95
A15742-047-a,https://iiif.archive.org/iiif/architectureelem00wott$96
A15742-047-b,https://iiif.archive.org/iiif/architectureelem00wott$97
A15742-048-a,https://iiif.archive.org/iiif/architectureelem00wott$98
A15742-048-b,https://iiif.archive.org/iiif/architectureelem00wott$99
A15742-049-a,https://iiif.archive.org/iiif/architectureelem00wott$100
A15742-049-b,https://iiif.archive.org/iiif/architectureelem00wott$101
A15742-050-a,https://iiif.archive.org/iiif/architectureelem00wott$102
A15742-050-b,https://iiif.archive.org/iiif/architectureelem00wott$103
A15742-051-a,https://iiif.archive.org/iiif/architectureelem00wott$104
A15742-051-b,https://iiif.archive.org/iiif/architectureelem00wott$105
A15742-052-a,https://iiif.archive.org/iiif/architectureelem00wott$106
A15742-052-b,https://iiif.archive.org/iiif/architectureelem00wott$107
A15742-053-a,https://iiif.archive.org/iiif/architectureelem00wott$108
A15742-053-b,https://iiif.archive.org/iiif/architectureelem00wott$109
A15742-054-a,https://iiif.archive.org/iiif/architectureelem00wott$110
A15742-054-b,https://iiif.archive.org/iiif/architectureelem00wott$111
A15742-055-a,https://iiif.archive.org/iiif/architectureelem00wott$112
A15742-055-b,https://iiif.archive.org/iiif/architectureelem00wott$113
A15742-056-a,https://iiif.archive.org/iiif/architectureelem00wott$114
A15742-056-b,https://iiif.archive.org/iiif/architectureelem00wott$115
A15742-057-a,https://iiif.archive.org/iiif/architectureelem00wott$116
A15742-057-b,https://iiif.archive.org/iiif/architectureelem00wott$117
A15742-058-a,https://iiif.archive.org/iiif/architectureelem00wott$118
A15742-058-b,https://iiif.archive.org/iiif/architectureelem00wott$119
A15742-059-a,https://iiif.archive.org/iiif/architectureelem00wott$120
A15742-059-b,https://iiif.archive.org/iiif/architectureelem00wott$121
A15742-060-a,https://iiif.archive.org/iiif/architectureelem00wott$122
A15742-060-b,https://iiif.archive.org/iiif/architectureelem00wott$123
A15742-061-a,https://iiif.archive.org/iiif/architectureelem00wott$124
A15742-061-b,https://iiif.archive.org/iiif/architectureelem00wott$125
A15742-062-a,https://iiif.archive.org/iiif/architectureelem00wott$126
A15742-062-b,https://iiif.archive.org/iiif/architectureelem00wott$127
A15742-063-a,https://iiif.archive.org/iiif/architectureelem00wott$128
A15742-063-b,https://iiif.archive.org/iiif/architectureelem00wott$129
A15742-064-a,https://iiif.archive.org/iiif/architectureelem00wott$130
A15742-064-b,https://iiif.archive.org/iiif/architectureelem00wott$131
A15742-065-a,https://iiif.archive.org/iiif/architectureelem00wott$132
A15742-065-b,https://iiif.archive.org/iiif/architectureelem00wott$133
A15742-066-a,https://iiif.archive.org/iiif/architectureelem00wott$134
A15742-066-b,https://iiif.archive.org/iiif/architectureelem00wott$135
A15742-067-a,https://iiif.archive.org/iiif/architectureelem00wott$136
A15742-067-b,https://iiif.archive.org/iiif/architectureelem00wott$137
