A15970-001-a,https://iiif.archive.org/image/iiif/3/whortran00park%2Fwhortran00park_jp2.zip%2Fwhortran00park_jp2%2Fwhortran00park_0006.jp2
A15970-001-b,https://iiif.archive.org/image/iiif/3/whortran00park%2Fwhortran00park_jp2.zip%2Fwhortran00park_jp2%2Fwhortran00park_0007.jp2
A15970-002-a,https://iiif.archive.org/image/iiif/3/whortran00park%2Fwhortran00park_jp2.zip%2Fwhortran00park_jp2%2Fwhortran00park_0008.jp2
A15970-002-b,https://iiif.archive.org/image/iiif/3/whortran00park%2Fwhortran00park_jp2.zip%2Fwhortran00park_jp2%2Fwhortran00park_0009.jp2
A15970-003-a,https://iiif.archive.org/image/iiif/3/whortran00park%2Fwhortran00park_jp2.zip%2Fwhortran00park_jp2%2Fwhortran00park_0010.jp2
A15970-003-b,https://iiif.archive.org/image/iiif/3/whortran00park%2Fwhortran00park_jp2.zip%2Fwhortran00park_jp2%2Fwhortran00park_0011.jp2
A15970-004-a,https://iiif.archive.org/image/iiif/3/whortran00park%2Fwhortran00park_jp2.zip%2Fwhortran00park_jp2%2Fwhortran00park_0012.jp2
A15970-004-b,https://iiif.archive.org/image/iiif/3/whortran00park%2Fwhortran00park_jp2.zip%2Fwhortran00park_jp2%2Fwhortran00park_0013.jp2
A15970-005-a,https://iiif.archive.org/image/iiif/3/whortran00park%2Fwhortran00park_jp2.zip%2Fwhortran00park_jp2%2Fwhortran00park_0014.jp2
A15970-005-b,https://iiif.archive.org/image/iiif/3/whortran00park%2Fwhortran00park_jp2.zip%2Fwhortran00park_jp2%2Fwhortran00park_0015.jp2
A15970-006-a,https://iiif.archive.org/image/iiif/3/whortran00park%2Fwhortran00park_jp2.zip%2Fwhortran00park_jp2%2Fwhortran00park_0016.jp2
A15970-006-b,https://iiif.archive.org/image/iiif/3/whortran00park%2Fwhortran00park_jp2.zip%2Fwhortran00park_jp2%2Fwhortran00park_0017.jp2
A15970-007-a,https://iiif.archive.org/image/iiif/3/whortran00park%2Fwhortran00park_jp2.zip%2Fwhortran00park_jp2%2Fwhortran00park_0018.jp2
A15970-007-b,https://iiif.archive.org/image/iiif/3/whortran00park%2Fwhortran00park_jp2.zip%2Fwhortran00park_jp2%2Fwhortran00park_0019.jp2
A15970-008-a,https://iiif.archive.org/image/iiif/3/whortran00park%2Fwhortran00park_jp2.zip%2Fwhortran00park_jp2%2Fwhortran00park_0020.jp2
A15970-008-b,https://iiif.archive.org/image/iiif/3/whortran00park%2Fwhortran00park_jp2.zip%2Fwhortran00park_jp2%2Fwhortran00park_0021.jp2
A15970-009-a,https://iiif.archive.org/image/iiif/3/whortran00park%2Fwhortran00park_jp2.zip%2Fwhortran00park_jp2%2Fwhortran00park_0022.jp2
A15970-009-b,https://iiif.archive.org/image/iiif/3/whortran00park%2Fwhortran00park_jp2.zip%2Fwhortran00park_jp2%2Fwhortran00park_0023.jp2
A15970-010-a,https://iiif.archive.org/image/iiif/3/whortran00park%2Fwhortran00park_jp2.zip%2Fwhortran00park_jp2%2Fwhortran00park_0024.jp2
A15970-010-b,https://iiif.archive.org/image/iiif/3/whortran00park%2Fwhortran00park_jp2.zip%2Fwhortran00park_jp2%2Fwhortran00park_0025.jp2
A15970-011-a,https://iiif.archive.org/image/iiif/3/whortran00park%2Fwhortran00park_jp2.zip%2Fwhortran00park_jp2%2Fwhortran00park_0026.jp2
A15970-011-b,https://iiif.archive.org/image/iiif/3/whortran00park%2Fwhortran00park_jp2.zip%2Fwhortran00park_jp2%2Fwhortran00park_0027.jp2
A15970-012-a,https://iiif.archive.org/image/iiif/3/whortran00park%2Fwhortran00park_jp2.zip%2Fwhortran00park_jp2%2Fwhortran00park_0028.jp2
A15970-012-b,https://iiif.archive.org/image/iiif/3/whortran00park%2Fwhortran00park_jp2.zip%2Fwhortran00park_jp2%2Fwhortran00park_0029.jp2
A15970-013-a,https://iiif.archive.org/image/iiif/3/whortran00park%2Fwhortran00park_jp2.zip%2Fwhortran00park_jp2%2Fwhortran00park_0030.jp2
A15970-013-b,https://iiif.archive.org/image/iiif/3/whortran00park%2Fwhortran00park_jp2.zip%2Fwhortran00park_jp2%2Fwhortran00park_0031.jp2
A15970-014-a,https://iiif.archive.org/image/iiif/3/whortran00park%2Fwhortran00park_jp2.zip%2Fwhortran00park_jp2%2Fwhortran00park_0032.jp2
A15970-014-b,https://iiif.archive.org/image/iiif/3/whortran00park%2Fwhortran00park_jp2.zip%2Fwhortran00park_jp2%2Fwhortran00park_0033.jp2
A15970-015-a,https://iiif.archive.org/image/iiif/3/whortran00park%2Fwhortran00park_jp2.zip%2Fwhortran00park_jp2%2Fwhortran00park_0034.jp2
A15970-015-b,https://iiif.archive.org/image/iiif/3/whortran00park%2Fwhortran00park_jp2.zip%2Fwhortran00park_jp2%2Fwhortran00park_0035.jp2
A15970-016-a,https://iiif.archive.org/image/iiif/3/whortran00park%2Fwhortran00park_jp2.zip%2Fwhortran00park_jp2%2Fwhortran00park_0036.jp2
A15970-016-b,https://iiif.archive.org/image/iiif/3/whortran00park%2Fwhortran00park_jp2.zip%2Fwhortran00park_jp2%2Fwhortran00park_0037.jp2
A15970-017-a,https://iiif.archive.org/image/iiif/3/whortran00park%2Fwhortran00park_jp2.zip%2Fwhortran00park_jp2%2Fwhortran00park_0038.jp2
A15970-017-b,https://iiif.archive.org/image/iiif/3/whortran00park%2Fwhortran00park_jp2.zip%2Fwhortran00park_jp2%2Fwhortran00park_0039.jp2
A15970-018-a,https://iiif.archive.org/image/iiif/3/whortran00park%2Fwhortran00park_jp2.zip%2Fwhortran00park_jp2%2Fwhortran00park_0040.jp2
A15970-018-b,https://iiif.archive.org/image/iiif/3/whortran00park%2Fwhortran00park_jp2.zip%2Fwhortran00park_jp2%2Fwhortran00park_0041.jp2
A15970-019-a,https://iiif.archive.org/image/iiif/3/whortran00park%2Fwhortran00park_jp2.zip%2Fwhortran00park_jp2%2Fwhortran00park_0042.jp2
A15970-019-b,https://iiif.archive.org/image/iiif/3/whortran00park%2Fwhortran00park_jp2.zip%2Fwhortran00park_jp2%2Fwhortran00park_0043.jp2
A15970-020-a,https://iiif.archive.org/image/iiif/3/whortran00park%2Fwhortran00park_jp2.zip%2Fwhortran00park_jp2%2Fwhortran00park_0044.jp2
A15970-020-b,https://iiif.archive.org/image/iiif/3/whortran00park%2Fwhortran00park_jp2.zip%2Fwhortran00park_jp2%2Fwhortran00park_0045.jp2
A15970-021-a,https://iiif.archive.org/image/iiif/3/whortran00park%2Fwhortran00park_jp2.zip%2Fwhortran00park_jp2%2Fwhortran00park_0046.jp2
A15970-021-b,https://iiif.archive.org/image/iiif/3/whortran00park%2Fwhortran00park_jp2.zip%2Fwhortran00park_jp2%2Fwhortran00park_0047.jp2
A15970-022-a,https://iiif.archive.org/image/iiif/3/whortran00park%2Fwhortran00park_jp2.zip%2Fwhortran00park_jp2%2Fwhortran00park_0048.jp2
A15970-022-b,https://iiif.archive.org/image/iiif/3/whortran00park%2Fwhortran00park_jp2.zip%2Fwhortran00park_jp2%2Fwhortran00park_0049.jp2
A15970-023-a,https://iiif.archive.org/image/iiif/3/whortran00park%2Fwhortran00park_jp2.zip%2Fwhortran00park_jp2%2Fwhortran00park_0050.jp2
A15970-023-b,https://iiif.archive.org/image/iiif/3/whortran00park%2Fwhortran00park_jp2.zip%2Fwhortran00park_jp2%2Fwhortran00park_0051.jp2
A15970-024-a,https://iiif.archive.org/image/iiif/3/whortran00park%2Fwhortran00park_jp2.zip%2Fwhortran00park_jp2%2Fwhortran00park_0052.jp2
A15970-024-b,https://iiif.archive.org/image/iiif/3/whortran00park%2Fwhortran00park_jp2.zip%2Fwhortran00park_jp2%2Fwhortran00park_0053.jp2
A15970-025-a,https://iiif.archive.org/image/iiif/3/whortran00park%2Fwhortran00park_jp2.zip%2Fwhortran00park_jp2%2Fwhortran00park_0054.jp2
A15970-025-b,https://iiif.archive.org/image/iiif/3/whortran00park%2Fwhortran00park_jp2.zip%2Fwhortran00park_jp2%2Fwhortran00park_0055.jp2
A15970-026-a,https://iiif.archive.org/image/iiif/3/whortran00park%2Fwhortran00park_jp2.zip%2Fwhortran00park_jp2%2Fwhortran00park_0056.jp2
A15970-026-b,https://iiif.archive.org/image/iiif/3/whortran00park%2Fwhortran00park_jp2.zip%2Fwhortran00park_jp2%2Fwhortran00park_0057.jp2
A15970-027-a,https://iiif.archive.org/image/iiif/3/whortran00park%2Fwhortran00park_jp2.zip%2Fwhortran00park_jp2%2Fwhortran00park_0058.jp2
A15970-027-b,https://iiif.archive.org/image/iiif/3/whortran00park%2Fwhortran00park_jp2.zip%2Fwhortran00park_jp2%2Fwhortran00park_0059.jp2
A15970-028-a,https://iiif.archive.org/image/iiif/3/whortran00park%2Fwhortran00park_jp2.zip%2Fwhortran00park_jp2%2Fwhortran00park_0060.jp2
A15970-028-b,https://iiif.archive.org/image/iiif/3/whortran00park%2Fwhortran00park_jp2.zip%2Fwhortran00park_jp2%2Fwhortran00park_0061.jp2
A15970-029-a,https://iiif.archive.org/image/iiif/3/whortran00park%2Fwhortran00park_jp2.zip%2Fwhortran00park_jp2%2Fwhortran00park_0062.jp2
A15970-029-b,https://iiif.archive.org/image/iiif/3/whortran00park%2Fwhortran00park_jp2.zip%2Fwhortran00park_jp2%2Fwhortran00park_0063.jp2
A15970-030-a,https://iiif.archive.org/image/iiif/3/whortran00park%2Fwhortran00park_jp2.zip%2Fwhortran00park_jp2%2Fwhortran00park_0064.jp2
A15970-030-b,https://iiif.archive.org/image/iiif/3/whortran00park%2Fwhortran00park_jp2.zip%2Fwhortran00park_jp2%2Fwhortran00park_0065.jp2
A15970-031-a,https://iiif.archive.org/image/iiif/3/whortran00park%2Fwhortran00park_jp2.zip%2Fwhortran00park_jp2%2Fwhortran00park_0066.jp2
A15970-031-b,https://iiif.archive.org/image/iiif/3/whortran00park%2Fwhortran00park_jp2.zip%2Fwhortran00park_jp2%2Fwhortran00park_0067.jp2
A15970-032-a,https://iiif.archive.org/image/iiif/3/whortran00park%2Fwhortran00park_jp2.zip%2Fwhortran00park_jp2%2Fwhortran00park_0068.jp2
A15970-032-b,https://iiif.archive.org/image/iiif/3/whortran00park%2Fwhortran00park_jp2.zip%2Fwhortran00park_jp2%2Fwhortran00park_0069.jp2
A15970-033-a,https://iiif.archive.org/image/iiif/3/whortran00park%2Fwhortran00park_jp2.zip%2Fwhortran00park_jp2%2Fwhortran00park_0070.jp2
A15970-033-b,https://iiif.archive.org/image/iiif/3/whortran00park%2Fwhortran00park_jp2.zip%2Fwhortran00park_jp2%2Fwhortran00park_0071.jp2
A15970-034-a,https://iiif.archive.org/image/iiif/3/whortran00park%2Fwhortran00park_jp2.zip%2Fwhortran00park_jp2%2Fwhortran00park_0072.jp2
A15970-034-b,https://iiif.archive.org/image/iiif/3/whortran00park%2Fwhortran00park_jp2.zip%2Fwhortran00park_jp2%2Fwhortran00park_0073.jp2
A15970-035-a,https://iiif.archive.org/image/iiif/3/whortran00park%2Fwhortran00park_jp2.zip%2Fwhortran00park_jp2%2Fwhortran00park_0074.jp2
A15970-035-b,https://iiif.archive.org/image/iiif/3/whortran00park%2Fwhortran00park_jp2.zip%2Fwhortran00park_jp2%2Fwhortran00park_0075.jp2
A15970-036-a,https://iiif.archive.org/image/iiif/3/whortran00park%2Fwhortran00park_jp2.zip%2Fwhortran00park_jp2%2Fwhortran00park_0076.jp2
A15970-036-b,https://iiif.archive.org/image/iiif/3/whortran00park%2Fwhortran00park_jp2.zip%2Fwhortran00park_jp2%2Fwhortran00park_0077.jp2
A15970-037-a,https://iiif.archive.org/image/iiif/3/whortran00park%2Fwhortran00park_jp2.zip%2Fwhortran00park_jp2%2Fwhortran00park_0078.jp2
A15970-037-b,https://iiif.archive.org/image/iiif/3/whortran00park%2Fwhortran00park_jp2.zip%2Fwhortran00park_jp2%2Fwhortran00park_0079.jp2
A15970-038-a,https://iiif.archive.org/image/iiif/3/whortran00park%2Fwhortran00park_jp2.zip%2Fwhortran00park_jp2%2Fwhortran00park_0080.jp2
A15970-038-b,https://iiif.archive.org/image/iiif/3/whortran00park%2Fwhortran00park_jp2.zip%2Fwhortran00park_jp2%2Fwhortran00park_0081.jp2
A15970-039-a,https://iiif.archive.org/image/iiif/3/whortran00park%2Fwhortran00park_jp2.zip%2Fwhortran00park_jp2%2Fwhortran00park_0082.jp2
A15970-039-b,https://iiif.archive.org/image/iiif/3/whortran00park%2Fwhortran00park_jp2.zip%2Fwhortran00park_jp2%2Fwhortran00park_0083.jp2
A15970-040-a,https://iiif.archive.org/image/iiif/3/whortran00park%2Fwhortran00park_jp2.zip%2Fwhortran00park_jp2%2Fwhortran00park_0084.jp2
A15970-040-b,https://iiif.archive.org/image/iiif/3/whortran00park%2Fwhortran00park_jp2.zip%2Fwhortran00park_jp2%2Fwhortran00park_0085.jp2
A15970-041-a,https://iiif.archive.org/image/iiif/3/whortran00park%2Fwhortran00park_jp2.zip%2Fwhortran00park_jp2%2Fwhortran00park_0086.jp2
A15970-041-b,https://iiif.archive.org/image/iiif/3/whortran00park%2Fwhortran00park_jp2.zip%2Fwhortran00park_jp2%2Fwhortran00park_0087.jp2
A15970-042-a,https://iiif.archive.org/image/iiif/3/whortran00park%2Fwhortran00park_jp2.zip%2Fwhortran00park_jp2%2Fwhortran00park_0088.jp2
A15970-042-b,https://iiif.archive.org/image/iiif/3/whortran00park%2Fwhortran00park_jp2.zip%2Fwhortran00park_jp2%2Fwhortran00park_0089.jp2
A15970-043-a,https://iiif.archive.org/image/iiif/3/whortran00park%2Fwhortran00park_jp2.zip%2Fwhortran00park_jp2%2Fwhortran00park_0090.jp2
A15970-043-b,https://iiif.archive.org/image/iiif/3/whortran00park%2Fwhortran00park_jp2.zip%2Fwhortran00park_jp2%2Fwhortran00park_0091.jp2
A15970-044-a,https://iiif.archive.org/image/iiif/3/whortran00park%2Fwhortran00park_jp2.zip%2Fwhortran00park_jp2%2Fwhortran00park_0092.jp2
A15970-044-b,https://iiif.archive.org/image/iiif/3/whortran00park%2Fwhortran00park_jp2.zip%2Fwhortran00park_jp2%2Fwhortran00park_0093.jp2
A15970-045-a,https://iiif.archive.org/image/iiif/3/whortran00park%2Fwhortran00park_jp2.zip%2Fwhortran00park_jp2%2Fwhortran00park_0094.jp2
A15970-045-b,https://iiif.archive.org/image/iiif/3/whortran00park%2Fwhortran00park_jp2.zip%2Fwhortran00park_jp2%2Fwhortran00park_0095.jp2
A15970-046-a,https://iiif.archive.org/image/iiif/3/whortran00park%2Fwhortran00park_jp2.zip%2Fwhortran00park_jp2%2Fwhortran00park_0096.jp2
A15970-046-b,https://iiif.archive.org/image/iiif/3/whortran00park%2Fwhortran00park_jp2.zip%2Fwhortran00park_jp2%2Fwhortran00park_0097.jp2
A15970-047-a,https://iiif.archive.org/image/iiif/3/whortran00park%2Fwhortran00park_jp2.zip%2Fwhortran00park_jp2%2Fwhortran00park_0098.jp2
A15970-047-b,https://iiif.archive.org/image/iiif/3/whortran00park%2Fwhortran00park_jp2.zip%2Fwhortran00park_jp2%2Fwhortran00park_0099.jp2
A15970-048-a,https://iiif.archive.org/image/iiif/3/whortran00park%2Fwhortran00park_jp2.zip%2Fwhortran00park_jp2%2Fwhortran00park_0100.jp2
A15970-048-b,https://iiif.archive.org/image/iiif/3/whortran00park%2Fwhortran00park_jp2.zip%2Fwhortran00park_jp2%2Fwhortran00park_0101.jp2
A15970-049-a,https://iiif.archive.org/image/iiif/3/whortran00park%2Fwhortran00park_jp2.zip%2Fwhortran00park_jp2%2Fwhortran00park_0102.jp2
A15970-049-b,https://iiif.archive.org/image/iiif/3/whortran00park%2Fwhortran00park_jp2.zip%2Fwhortran00park_jp2%2Fwhortran00park_0103.jp2
A15970-050-a,https://iiif.archive.org/image/iiif/3/whortran00park%2Fwhortran00park_jp2.zip%2Fwhortran00park_jp2%2Fwhortran00park_0104.jp2
A15970-050-b,https://iiif.archive.org/image/iiif/3/whortran00park%2Fwhortran00park_jp2.zip%2Fwhortran00park_jp2%2Fwhortran00park_0105.jp2
A15970-051-a,https://iiif.archive.org/image/iiif/3/whortran00park%2Fwhortran00park_jp2.zip%2Fwhortran00park_jp2%2Fwhortran00park_0106.jp2
A15970-051-b,https://iiif.archive.org/image/iiif/3/whortran00park%2Fwhortran00park_jp2.zip%2Fwhortran00park_jp2%2Fwhortran00park_0107.jp2
A15970-052-a,https://iiif.archive.org/image/iiif/3/whortran00park%2Fwhortran00park_jp2.zip%2Fwhortran00park_jp2%2Fwhortran00park_0108.jp2
A15970-052-b,https://iiif.archive.org/image/iiif/3/whortran00park%2Fwhortran00park_jp2.zip%2Fwhortran00park_jp2%2Fwhortran00park_0109.jp2
A15970-053-a,https://iiif.archive.org/image/iiif/3/whortran00park%2Fwhortran00park_jp2.zip%2Fwhortran00park_jp2%2Fwhortran00park_0110.jp2
A15970-053-b,https://iiif.archive.org/image/iiif/3/whortran00park%2Fwhortran00park_jp2.zip%2Fwhortran00park_jp2%2Fwhortran00park_0111.jp2
A15970-054-a,https://iiif.archive.org/image/iiif/3/whortran00park%2Fwhortran00park_jp2.zip%2Fwhortran00park_jp2%2Fwhortran00park_0112.jp2
A15970-054-b,https://iiif.archive.org/image/iiif/3/whortran00park%2Fwhortran00park_jp2.zip%2Fwhortran00park_jp2%2Fwhortran00park_0113.jp2
A15970-055-a,https://iiif.archive.org/image/iiif/3/whortran00park%2Fwhortran00park_jp2.zip%2Fwhortran00park_jp2%2Fwhortran00park_0114.jp2
A15970-055-b,https://iiif.archive.org/image/iiif/3/whortran00park%2Fwhortran00park_jp2.zip%2Fwhortran00park_jp2%2Fwhortran00park_0115.jp2
A15970-056-a,https://iiif.archive.org/image/iiif/3/whortran00park%2Fwhortran00park_jp2.zip%2Fwhortran00park_jp2%2Fwhortran00park_0116.jp2
A15970-056-b,https://iiif.archive.org/image/iiif/3/whortran00park%2Fwhortran00park_jp2.zip%2Fwhortran00park_jp2%2Fwhortran00park_0117.jp2
A15970-057-a,https://iiif.archive.org/image/iiif/3/whortran00park%2Fwhortran00park_jp2.zip%2Fwhortran00park_jp2%2Fwhortran00park_0118.jp2
A15970-057-b,https://iiif.archive.org/image/iiif/3/whortran00park%2Fwhortran00park_jp2.zip%2Fwhortran00park_jp2%2Fwhortran00park_0119.jp2
A15970-058-a,https://iiif.archive.org/image/iiif/3/whortran00park%2Fwhortran00park_jp2.zip%2Fwhortran00park_jp2%2Fwhortran00park_0120.jp2
A15970-058-b,https://iiif.archive.org/image/iiif/3/whortran00park%2Fwhortran00park_jp2.zip%2Fwhortran00park_jp2%2Fwhortran00park_0121.jp2
A15970-059-a,https://iiif.archive.org/image/iiif/3/whortran00park%2Fwhortran00park_jp2.zip%2Fwhortran00park_jp2%2Fwhortran00park_0122.jp2
A15970-059-b,https://iiif.archive.org/image/iiif/3/whortran00park%2Fwhortran00park_jp2.zip%2Fwhortran00park_jp2%2Fwhortran00park_0123.jp2
A15970-060-a,https://iiif.archive.org/image/iiif/3/whortran00park%2Fwhortran00park_jp2.zip%2Fwhortran00park_jp2%2Fwhortran00park_0124.jp2
A15970-060-b,https://iiif.archive.org/image/iiif/3/whortran00park%2Fwhortran00park_jp2.zip%2Fwhortran00park_jp2%2Fwhortran00park_0125.jp2
A15970-061-a,https://iiif.archive.org/image/iiif/3/whortran00park%2Fwhortran00park_jp2.zip%2Fwhortran00park_jp2%2Fwhortran00park_0126.jp2
A15970-061-b,https://iiif.archive.org/image/iiif/3/whortran00park%2Fwhortran00park_jp2.zip%2Fwhortran00park_jp2%2Fwhortran00park_0127.jp2
A15970-062-a,https://iiif.archive.org/image/iiif/3/whortran00park%2Fwhortran00park_jp2.zip%2Fwhortran00park_jp2%2Fwhortran00park_0128.jp2
A15970-062-b,https://iiif.archive.org/image/iiif/3/whortran00park%2Fwhortran00park_jp2.zip%2Fwhortran00park_jp2%2Fwhortran00park_0129.jp2
A15970-063-a,https://iiif.archive.org/image/iiif/3/whortran00park%2Fwhortran00park_jp2.zip%2Fwhortran00park_jp2%2Fwhortran00park_0130.jp2
A15970-063-b,https://iiif.archive.org/image/iiif/3/whortran00park%2Fwhortran00park_jp2.zip%2Fwhortran00park_jp2%2Fwhortran00park_0131.jp2
A15970-064-a,https://iiif.archive.org/image/iiif/3/whortran00park%2Fwhortran00park_jp2.zip%2Fwhortran00park_jp2%2Fwhortran00park_0132.jp2
A15970-064-b,https://iiif.archive.org/image/iiif/3/whortran00park%2Fwhortran00park_jp2.zip%2Fwhortran00park_jp2%2Fwhortran00park_0133.jp2
A15970-065-a,https://iiif.archive.org/image/iiif/3/whortran00park%2Fwhortran00park_jp2.zip%2Fwhortran00park_jp2%2Fwhortran00park_0134.jp2
A15970-065-b,https://iiif.archive.org/image/iiif/3/whortran00park%2Fwhortran00park_jp2.zip%2Fwhortran00park_jp2%2Fwhortran00park_0135.jp2
A15970-066-a,https://iiif.archive.org/image/iiif/3/whortran00park%2Fwhortran00park_jp2.zip%2Fwhortran00park_jp2%2Fwhortran00park_0136.jp2
A15970-066-b,https://iiif.archive.org/image/iiif/3/whortran00park%2Fwhortran00park_jp2.zip%2Fwhortran00park_jp2%2Fwhortran00park_0137.jp2
A15970-067-a,https://iiif.archive.org/image/iiif/3/whortran00park%2Fwhortran00park_jp2.zip%2Fwhortran00park_jp2%2Fwhortran00park_0138.jp2
A15970-067-b,https://iiif.archive.org/image/iiif/3/whortran00park%2Fwhortran00park_jp2.zip%2Fwhortran00park_jp2%2Fwhortran00park_0139.jp2
A15970-068-a,https://iiif.archive.org/image/iiif/3/whortran00park%2Fwhortran00park_jp2.zip%2Fwhortran00park_jp2%2Fwhortran00park_0140.jp2
A15970-068-b,https://iiif.archive.org/image/iiif/3/whortran00park%2Fwhortran00park_jp2.zip%2Fwhortran00park_jp2%2Fwhortran00park_0141.jp2
A15970-069-a,https://iiif.archive.org/image/iiif/3/whortran00park%2Fwhortran00park_jp2.zip%2Fwhortran00park_jp2%2Fwhortran00park_0142.jp2
A15970-069-b,https://iiif.archive.org/image/iiif/3/whortran00park%2Fwhortran00park_jp2.zip%2Fwhortran00park_jp2%2Fwhortran00park_0143.jp2
A15970-070-a,https://iiif.archive.org/image/iiif/3/whortran00park%2Fwhortran00park_jp2.zip%2Fwhortran00park_jp2%2Fwhortran00park_0144.jp2
A15970-070-b,https://iiif.archive.org/image/iiif/3/whortran00park%2Fwhortran00park_jp2.zip%2Fwhortran00park_jp2%2Fwhortran00park_0145.jp2
A15970-071-a,https://iiif.archive.org/image/iiif/3/whortran00park%2Fwhortran00park_jp2.zip%2Fwhortran00park_jp2%2Fwhortran00park_0146.jp2
A15970-071-b,https://iiif.archive.org/image/iiif/3/whortran00park%2Fwhortran00park_jp2.zip%2Fwhortran00park_jp2%2Fwhortran00park_0147.jp2
A15970-072-a,https://iiif.archive.org/image/iiif/3/whortran00park%2Fwhortran00park_jp2.zip%2Fwhortran00park_jp2%2Fwhortran00park_0148.jp2
A15970-072-b,https://iiif.archive.org/image/iiif/3/whortran00park%2Fwhortran00park_jp2.zip%2Fwhortran00park_jp2%2Fwhortran00park_0149.jp2
A15970-073-a,https://iiif.archive.org/image/iiif/3/whortran00park%2Fwhortran00park_jp2.zip%2Fwhortran00park_jp2%2Fwhortran00park_0150.jp2
A15970-073-b,https://iiif.archive.org/image/iiif/3/whortran00park%2Fwhortran00park_jp2.zip%2Fwhortran00park_jp2%2Fwhortran00park_0151.jp2
A15970-074-a,https://iiif.archive.org/image/iiif/3/whortran00park%2Fwhortran00park_jp2.zip%2Fwhortran00park_jp2%2Fwhortran00park_0152.jp2
A15970-074-b,https://iiif.archive.org/image/iiif/3/whortran00park%2Fwhortran00park_jp2.zip%2Fwhortran00park_jp2%2Fwhortran00park_0153.jp2
A15970-075-a,https://iiif.archive.org/image/iiif/3/whortran00park%2Fwhortran00park_jp2.zip%2Fwhortran00park_jp2%2Fwhortran00park_0154.jp2
A15970-075-b,https://iiif.archive.org/image/iiif/3/whortran00park%2Fwhortran00park_jp2.zip%2Fwhortran00park_jp2%2Fwhortran00park_0155.jp2
A15970-076-a,https://iiif.archive.org/image/iiif/3/whortran00park%2Fwhortran00park_jp2.zip%2Fwhortran00park_jp2%2Fwhortran00park_0156.jp2
A15970-076-b,https://iiif.archive.org/image/iiif/3/whortran00park%2Fwhortran00park_jp2.zip%2Fwhortran00park_jp2%2Fwhortran00park_0157.jp2
A15970-077-a,https://iiif.archive.org/image/iiif/3/whortran00park%2Fwhortran00park_jp2.zip%2Fwhortran00park_jp2%2Fwhortran00park_0158.jp2
A15970-077-b,https://iiif.archive.org/image/iiif/3/whortran00park%2Fwhortran00park_jp2.zip%2Fwhortran00park_jp2%2Fwhortran00park_0159.jp2
A15970-078-a,https://iiif.archive.org/image/iiif/3/whortran00park%2Fwhortran00park_jp2.zip%2Fwhortran00park_jp2%2Fwhortran00park_0160.jp2
A15970-078-b,https://iiif.archive.org/image/iiif/3/whortran00park%2Fwhortran00park_jp2.zip%2Fwhortran00park_jp2%2Fwhortran00park_0161.jp2
A15970-079-a,9999
A15970-079-b,9999
A15970-080-a,https://iiif.archive.org/image/iiif/3/whortran00park%2Fwhortran00park_jp2.zip%2Fwhortran00park_jp2%2Fwhortran00park_0162.jp2
A15970-080-b,https://iiif.archive.org/image/iiif/3/whortran00park%2Fwhortran00park_jp2.zip%2Fwhortran00park_jp2%2Fwhortran00park_0163.jp2
A15970-081-a,https://iiif.archive.org/image/iiif/3/whortran00park%2Fwhortran00park_jp2.zip%2Fwhortran00park_jp2%2Fwhortran00park_0164.jp2
A15970-081-b,https://iiif.archive.org/image/iiif/3/whortran00park%2Fwhortran00park_jp2.zip%2Fwhortran00park_jp2%2Fwhortran00park_0165.jp2
A15970-082-a,https://iiif.archive.org/image/iiif/3/whortran00park%2Fwhortran00park_jp2.zip%2Fwhortran00park_jp2%2Fwhortran00park_0166.jp2
A15970-082-b,https://iiif.archive.org/image/iiif/3/whortran00park%2Fwhortran00park_jp2.zip%2Fwhortran00park_jp2%2Fwhortran00park_0167.jp2
A15970-083-a,9999
A15970-083-b,9999
A15970-084-a,https://iiif.archive.org/image/iiif/3/whortran00park%2Fwhortran00park_jp2.zip%2Fwhortran00park_jp2%2Fwhortran00park_0168.jp2
A15970-084-b,https://iiif.archive.org/image/iiif/3/whortran00park%2Fwhortran00park_jp2.zip%2Fwhortran00park_jp2%2Fwhortran00park_0169.jp2
A15970-085-a,https://iiif.archive.org/image/iiif/3/whortran00park%2Fwhortran00park_jp2.zip%2Fwhortran00park_jp2%2Fwhortran00park_0170.jp2
A15970-085-b,https://iiif.archive.org/image/iiif/3/whortran00park%2Fwhortran00park_jp2.zip%2Fwhortran00park_jp2%2Fwhortran00park_0171.jp2
A15970-086-a,https://iiif.archive.org/image/iiif/3/whortran00park%2Fwhortran00park_jp2.zip%2Fwhortran00park_jp2%2Fwhortran00park_0172.jp2
A15970-086-b,https://iiif.archive.org/image/iiif/3/whortran00park%2Fwhortran00park_jp2.zip%2Fwhortran00park_jp2%2Fwhortran00park_0173.jp2
A15970-087-a,https://iiif.archive.org/image/iiif/3/whortran00park%2Fwhortran00park_jp2.zip%2Fwhortran00park_jp2%2Fwhortran00park_0174.jp2
A15970-087-b,https://iiif.archive.org/image/iiif/3/whortran00park%2Fwhortran00park_jp2.zip%2Fwhortran00park_jp2%2Fwhortran00park_0175.jp2
A15970-088-a,https://iiif.archive.org/image/iiif/3/whortran00park%2Fwhortran00park_jp2.zip%2Fwhortran00park_jp2%2Fwhortran00park_0176.jp2
A15970-088-b,https://iiif.archive.org/image/iiif/3/whortran00park%2Fwhortran00park_jp2.zip%2Fwhortran00park_jp2%2Fwhortran00park_0177.jp2
A15970-089-a,https://iiif.archive.org/image/iiif/3/whortran00park%2Fwhortran00park_jp2.zip%2Fwhortran00park_jp2%2Fwhortran00park_0178.jp2
A15970-089-b,https://iiif.archive.org/image/iiif/3/whortran00park%2Fwhortran00park_jp2.zip%2Fwhortran00park_jp2%2Fwhortran00park_0179.jp2
A15970-090-a,https://iiif.archive.org/image/iiif/3/whortran00park%2Fwhortran00park_jp2.zip%2Fwhortran00park_jp2%2Fwhortran00park_0180.jp2
A15970-090-b,https://iiif.archive.org/image/iiif/3/whortran00park%2Fwhortran00park_jp2.zip%2Fwhortran00park_jp2%2Fwhortran00park_0181.jp2
A15970-091-a,https://iiif.archive.org/image/iiif/3/whortran00park%2Fwhortran00park_jp2.zip%2Fwhortran00park_jp2%2Fwhortran00park_0182.jp2
A15970-091-b,https://iiif.archive.org/image/iiif/3/whortran00park%2Fwhortran00park_jp2.zip%2Fwhortran00park_jp2%2Fwhortran00park_0183.jp2
A15970-092-a,https://iiif.archive.org/image/iiif/3/whortran00park%2Fwhortran00park_jp2.zip%2Fwhortran00park_jp2%2Fwhortran00park_0184.jp2
A15970-092-b,https://iiif.archive.org/image/iiif/3/whortran00park%2Fwhortran00park_jp2.zip%2Fwhortran00park_jp2%2Fwhortran00park_0185.jp2
A15970-093-a,https://iiif.archive.org/image/iiif/3/whortran00park%2Fwhortran00park_jp2.zip%2Fwhortran00park_jp2%2Fwhortran00park_0186.jp2
A15970-093-b,https://iiif.archive.org/image/iiif/3/whortran00park%2Fwhortran00park_jp2.zip%2Fwhortran00park_jp2%2Fwhortran00park_0187.jp2
A15970-094-a,https://iiif.archive.org/image/iiif/3/whortran00park%2Fwhortran00park_jp2.zip%2Fwhortran00park_jp2%2Fwhortran00park_0188.jp2
A15970-094-b,https://iiif.archive.org/image/iiif/3/whortran00park%2Fwhortran00park_jp2.zip%2Fwhortran00park_jp2%2Fwhortran00park_0189.jp2
A15970-095-a,https://iiif.archive.org/image/iiif/3/whortran00park%2Fwhortran00park_jp2.zip%2Fwhortran00park_jp2%2Fwhortran00park_0190.jp2
A15970-095-b,https://iiif.archive.org/image/iiif/3/whortran00park%2Fwhortran00park_jp2.zip%2Fwhortran00park_jp2%2Fwhortran00park_0191.jp2
A15970-096-a,https://iiif.archive.org/image/iiif/3/whortran00park%2Fwhortran00park_jp2.zip%2Fwhortran00park_jp2%2Fwhortran00park_0192.jp2
A15970-096-b,https://iiif.archive.org/image/iiif/3/whortran00park%2Fwhortran00park_jp2.zip%2Fwhortran00park_jp2%2Fwhortran00park_0193.jp2
A15970-097-a,https://iiif.archive.org/image/iiif/3/whortran00park%2Fwhortran00park_jp2.zip%2Fwhortran00park_jp2%2Fwhortran00park_0194.jp2
A15970-097-b,https://iiif.archive.org/image/iiif/3/whortran00park%2Fwhortran00park_jp2.zip%2Fwhortran00park_jp2%2Fwhortran00park_0195.jp2
A15970-098-a,https://iiif.archive.org/image/iiif/3/whortran00park%2Fwhortran00park_jp2.zip%2Fwhortran00park_jp2%2Fwhortran00park_0196.jp2
A15970-098-b,https://iiif.archive.org/image/iiif/3/whortran00park%2Fwhortran00park_jp2.zip%2Fwhortran00park_jp2%2Fwhortran00park_0197.jp2
A15970-099-a,https://iiif.archive.org/image/iiif/3/whortran00park%2Fwhortran00park_jp2.zip%2Fwhortran00park_jp2%2Fwhortran00park_0198.jp2
A15970-099-b,https://iiif.archive.org/image/iiif/3/whortran00park%2Fwhortran00park_jp2.zip%2Fwhortran00park_jp2%2Fwhortran00park_0199.jp2
A15970-100-a,https://iiif.archive.org/image/iiif/3/whortran00park%2Fwhortran00park_jp2.zip%2Fwhortran00park_jp2%2Fwhortran00park_0200.jp2
A15970-100-b,https://iiif.archive.org/image/iiif/3/whortran00park%2Fwhortran00park_jp2.zip%2Fwhortran00park_jp2%2Fwhortran00park_0201.jp2
A15970-101-a,https://iiif.archive.org/image/iiif/3/whortran00park%2Fwhortran00park_jp2.zip%2Fwhortran00park_jp2%2Fwhortran00park_0202.jp2
A15970-101-b,https://iiif.archive.org/image/iiif/3/whortran00park%2Fwhortran00park_jp2.zip%2Fwhortran00park_jp2%2Fwhortran00park_0203.jp2
A15970-102-a,https://iiif.archive.org/image/iiif/3/whortran00park%2Fwhortran00park_jp2.zip%2Fwhortran00park_jp2%2Fwhortran00park_0204.jp2
A15970-102-b,https://iiif.archive.org/image/iiif/3/whortran00park%2Fwhortran00park_jp2.zip%2Fwhortran00park_jp2%2Fwhortran00park_0205.jp2
A15970-103-a,https://iiif.archive.org/image/iiif/3/whortran00park%2Fwhortran00park_jp2.zip%2Fwhortran00park_jp2%2Fwhortran00park_0206.jp2
A15970-103-b,https://iiif.archive.org/image/iiif/3/whortran00park%2Fwhortran00park_jp2.zip%2Fwhortran00park_jp2%2Fwhortran00park_0207.jp2
A15970-104-a,https://iiif.archive.org/image/iiif/3/whortran00park%2Fwhortran00park_jp2.zip%2Fwhortran00park_jp2%2Fwhortran00park_0208.jp2
A15970-104-b,https://iiif.archive.org/image/iiif/3/whortran00park%2Fwhortran00park_jp2.zip%2Fwhortran00park_jp2%2Fwhortran00park_0209.jp2
A15970-105-a,https://iiif.archive.org/image/iiif/3/whortran00park%2Fwhortran00park_jp2.zip%2Fwhortran00park_jp2%2Fwhortran00park_0210.jp2
A15970-105-b,https://iiif.archive.org/image/iiif/3/whortran00park%2Fwhortran00park_jp2.zip%2Fwhortran00park_jp2%2Fwhortran00park_0211.jp2
A15970-106-a,https://iiif.archive.org/image/iiif/3/whortran00park%2Fwhortran00park_jp2.zip%2Fwhortran00park_jp2%2Fwhortran00park_0212.jp2
A15970-106-b,https://iiif.archive.org/image/iiif/3/whortran00park%2Fwhortran00park_jp2.zip%2Fwhortran00park_jp2%2Fwhortran00park_0213.jp2
A15970-107-a,https://iiif.archive.org/image/iiif/3/whortran00park%2Fwhortran00park_jp2.zip%2Fwhortran00park_jp2%2Fwhortran00park_0214.jp2
A15970-107-b,https://iiif.archive.org/image/iiif/3/whortran00park%2Fwhortran00park_jp2.zip%2Fwhortran00park_jp2%2Fwhortran00park_0215.jp2
A15970-108-a,https://iiif.archive.org/image/iiif/3/whortran00park%2Fwhortran00park_jp2.zip%2Fwhortran00park_jp2%2Fwhortran00park_0216.jp2
A15970-108-b,https://iiif.archive.org/image/iiif/3/whortran00park%2Fwhortran00park_jp2.zip%2Fwhortran00park_jp2%2Fwhortran00park_0217.jp2
A15970-109-a,https://iiif.archive.org/image/iiif/3/whortran00park%2Fwhortran00park_jp2.zip%2Fwhortran00park_jp2%2Fwhortran00park_0218.jp2
A15970-109-b,https://iiif.archive.org/image/iiif/3/whortran00park%2Fwhortran00park_jp2.zip%2Fwhortran00park_jp2%2Fwhortran00park_0219.jp2
A15970-110-a,https://iiif.archive.org/image/iiif/3/whortran00park%2Fwhortran00park_jp2.zip%2Fwhortran00park_jp2%2Fwhortran00park_0220.jp2
A15970-110-b,https://iiif.archive.org/image/iiif/3/whortran00park%2Fwhortran00park_jp2.zip%2Fwhortran00park_jp2%2Fwhortran00park_0221.jp2
A15970-111-a,https://iiif.archive.org/image/iiif/3/whortran00park%2Fwhortran00park_jp2.zip%2Fwhortran00park_jp2%2Fwhortran00park_0222.jp2
A15970-111-b,https://iiif.archive.org/image/iiif/3/whortran00park%2Fwhortran00park_jp2.zip%2Fwhortran00park_jp2%2Fwhortran00park_0223.jp2
A15970-112-a,https://iiif.archive.org/image/iiif/3/whortran00park%2Fwhortran00park_jp2.zip%2Fwhortran00park_jp2%2Fwhortran00park_0224.jp2
A15970-112-b,https://iiif.archive.org/image/iiif/3/whortran00park%2Fwhortran00park_jp2.zip%2Fwhortran00park_jp2%2Fwhortran00park_0225.jp2
A15970-113-a,https://iiif.archive.org/image/iiif/3/whortran00park%2Fwhortran00park_jp2.zip%2Fwhortran00park_jp2%2Fwhortran00park_0226.jp2
A15970-113-b,https://iiif.archive.org/image/iiif/3/whortran00park%2Fwhortran00park_jp2.zip%2Fwhortran00park_jp2%2Fwhortran00park_0227.jp2
A15970-114-a,https://iiif.archive.org/image/iiif/3/whortran00park%2Fwhortran00park_jp2.zip%2Fwhortran00park_jp2%2Fwhortran00park_0228.jp2
A15970-114-b,https://iiif.archive.org/image/iiif/3/whortran00park%2Fwhortran00park_jp2.zip%2Fwhortran00park_jp2%2Fwhortran00park_0229.jp2
A15970-115-a,https://iiif.archive.org/image/iiif/3/whortran00park%2Fwhortran00park_jp2.zip%2Fwhortran00park_jp2%2Fwhortran00park_0230.jp2
A15970-115-b,https://iiif.archive.org/image/iiif/3/whortran00park%2Fwhortran00park_jp2.zip%2Fwhortran00park_jp2%2Fwhortran00park_0231.jp2
A15970-116-a,https://iiif.archive.org/image/iiif/3/whortran00park%2Fwhortran00park_jp2.zip%2Fwhortran00park_jp2%2Fwhortran00park_0232.jp2
A15970-116-b,https://iiif.archive.org/image/iiif/3/whortran00park%2Fwhortran00park_jp2.zip%2Fwhortran00park_jp2%2Fwhortran00park_0233.jp2
A15970-117-a,https://iiif.archive.org/image/iiif/3/whortran00park%2Fwhortran00park_jp2.zip%2Fwhortran00park_jp2%2Fwhortran00park_0234.jp2
A15970-117-b,https://iiif.archive.org/image/iiif/3/whortran00park%2Fwhortran00park_jp2.zip%2Fwhortran00park_jp2%2Fwhortran00park_0235.jp2
A15970-118-a,https://iiif.archive.org/image/iiif/3/whortran00park%2Fwhortran00park_jp2.zip%2Fwhortran00park_jp2%2Fwhortran00park_0236.jp2
A15970-118-b,https://iiif.archive.org/image/iiif/3/whortran00park%2Fwhortran00park_jp2.zip%2Fwhortran00park_jp2%2Fwhortran00park_0237.jp2
A15970-119-a,https://iiif.archive.org/image/iiif/3/whortran00park%2Fwhortran00park_jp2.zip%2Fwhortran00park_jp2%2Fwhortran00park_0238.jp2
A15970-119-b,https://iiif.archive.org/image/iiif/3/whortran00park%2Fwhortran00park_jp2.zip%2Fwhortran00park_jp2%2Fwhortran00park_0239.jp2
A15970-120-a,https://iiif.archive.org/image/iiif/3/whortran00park%2Fwhortran00park_jp2.zip%2Fwhortran00park_jp2%2Fwhortran00park_0240.jp2
A15970-120-b,https://iiif.archive.org/image/iiif/3/whortran00park%2Fwhortran00park_jp2.zip%2Fwhortran00park_jp2%2Fwhortran00park_0241.jp2
A15970-121-a,https://iiif.archive.org/image/iiif/3/whortran00park%2Fwhortran00park_jp2.zip%2Fwhortran00park_jp2%2Fwhortran00park_0242.jp2
A15970-121-b,https://iiif.archive.org/image/iiif/3/whortran00park%2Fwhortran00park_jp2.zip%2Fwhortran00park_jp2%2Fwhortran00park_0243.jp2
A15970-122-a,https://iiif.archive.org/image/iiif/3/whortran00park%2Fwhortran00park_jp2.zip%2Fwhortran00park_jp2%2Fwhortran00park_0244.jp2
A15970-122-b,https://iiif.archive.org/image/iiif/3/whortran00park%2Fwhortran00park_jp2.zip%2Fwhortran00park_jp2%2Fwhortran00park_0245.jp2
A15970-123-a,https://iiif.archive.org/image/iiif/3/whortran00park%2Fwhortran00park_jp2.zip%2Fwhortran00park_jp2%2Fwhortran00park_0246.jp2
A15970-123-b,https://iiif.archive.org/image/iiif/3/whortran00park%2Fwhortran00park_jp2.zip%2Fwhortran00park_jp2%2Fwhortran00park_0247.jp2
A15970-124-a,https://iiif.archive.org/image/iiif/3/whortran00park%2Fwhortran00park_jp2.zip%2Fwhortran00park_jp2%2Fwhortran00park_0248.jp2
A15970-124-b,https://iiif.archive.org/image/iiif/3/whortran00park%2Fwhortran00park_jp2.zip%2Fwhortran00park_jp2%2Fwhortran00park_0249.jp2
A15970-125-a,https://iiif.archive.org/image/iiif/3/whortran00park%2Fwhortran00park_jp2.zip%2Fwhortran00park_jp2%2Fwhortran00park_0250.jp2
A15970-125-b,https://iiif.archive.org/image/iiif/3/whortran00park%2Fwhortran00park_jp2.zip%2Fwhortran00park_jp2%2Fwhortran00park_0251.jp2
A15970-126-a,https://iiif.archive.org/image/iiif/3/whortran00park%2Fwhortran00park_jp2.zip%2Fwhortran00park_jp2%2Fwhortran00park_0252.jp2
A15970-126-b,https://iiif.archive.org/image/iiif/3/whortran00park%2Fwhortran00park_jp2.zip%2Fwhortran00park_jp2%2Fwhortran00park_0253.jp2
A15970-127-a,https://iiif.archive.org/image/iiif/3/whortran00park%2Fwhortran00park_jp2.zip%2Fwhortran00park_jp2%2Fwhortran00park_0254.jp2
A15970-127-b,https://iiif.archive.org/image/iiif/3/whortran00park%2Fwhortran00park_jp2.zip%2Fwhortran00park_jp2%2Fwhortran00park_0255.jp2
A15970-128-a,https://iiif.archive.org/image/iiif/3/whortran00park%2Fwhortran00park_jp2.zip%2Fwhortran00park_jp2%2Fwhortran00park_0256.jp2
A15970-128-b,https://iiif.archive.org/image/iiif/3/whortran00park%2Fwhortran00park_jp2.zip%2Fwhortran00park_jp2%2Fwhortran00park_0257.jp2
A15970-129-a,https://iiif.archive.org/image/iiif/3/whortran00park%2Fwhortran00park_jp2.zip%2Fwhortran00park_jp2%2Fwhortran00park_0258.jp2
A15970-129-b,https://iiif.archive.org/image/iiif/3/whortran00park%2Fwhortran00park_jp2.zip%2Fwhortran00park_jp2%2Fwhortran00park_0259.jp2
A15970-130-a,https://iiif.archive.org/image/iiif/3/whortran00park%2Fwhortran00park_jp2.zip%2Fwhortran00park_jp2%2Fwhortran00park_0260.jp2
A15970-130-b,https://iiif.archive.org/image/iiif/3/whortran00park%2Fwhortran00park_jp2.zip%2Fwhortran00park_jp2%2Fwhortran00park_0261.jp2
A15970-131-a,https://iiif.archive.org/image/iiif/3/whortran00park%2Fwhortran00park_jp2.zip%2Fwhortran00park_jp2%2Fwhortran00park_0262.jp2
A15970-131-b,https://iiif.archive.org/image/iiif/3/whortran00park%2Fwhortran00park_jp2.zip%2Fwhortran00park_jp2%2Fwhortran00park_0263.jp2
A15970-132-a,https://iiif.archive.org/image/iiif/3/whortran00park%2Fwhortran00park_jp2.zip%2Fwhortran00park_jp2%2Fwhortran00park_0264.jp2
A15970-132-b,https://iiif.archive.org/image/iiif/3/whortran00park%2Fwhortran00park_jp2.zip%2Fwhortran00park_jp2%2Fwhortran00park_0265.jp2
A15970-133-a,https://iiif.archive.org/image/iiif/3/whortran00park%2Fwhortran00park_jp2.zip%2Fwhortran00park_jp2%2Fwhortran00park_0266.jp2
A15970-133-b,https://iiif.archive.org/image/iiif/3/whortran00park%2Fwhortran00park_jp2.zip%2Fwhortran00park_jp2%2Fwhortran00park_0267.jp2
A15970-134-a,https://iiif.archive.org/image/iiif/3/whortran00park%2Fwhortran00park_jp2.zip%2Fwhortran00park_jp2%2Fwhortran00park_0268.jp2
A15970-134-b,https://iiif.archive.org/image/iiif/3/whortran00park%2Fwhortran00park_jp2.zip%2Fwhortran00park_jp2%2Fwhortran00park_0269.jp2
A15970-135-a,https://iiif.archive.org/image/iiif/3/whortran00park%2Fwhortran00park_jp2.zip%2Fwhortran00park_jp2%2Fwhortran00park_0270.jp2
A15970-135-b,https://iiif.archive.org/image/iiif/3/whortran00park%2Fwhortran00park_jp2.zip%2Fwhortran00park_jp2%2Fwhortran00park_0271.jp2
A15970-136-a,https://iiif.archive.org/image/iiif/3/whortran00park%2Fwhortran00park_jp2.zip%2Fwhortran00park_jp2%2Fwhortran00park_0272.jp2
A15970-136-b,https://iiif.archive.org/image/iiif/3/whortran00park%2Fwhortran00park_jp2.zip%2Fwhortran00park_jp2%2Fwhortran00park_0273.jp2
A15970-137-a,https://iiif.archive.org/image/iiif/3/whortran00park%2Fwhortran00park_jp2.zip%2Fwhortran00park_jp2%2Fwhortran00park_0274.jp2
A15970-137-b,https://iiif.archive.org/image/iiif/3/whortran00park%2Fwhortran00park_jp2.zip%2Fwhortran00park_jp2%2Fwhortran00park_0275.jp2
A15970-138-a,https://iiif.archive.org/image/iiif/3/whortran00park%2Fwhortran00park_jp2.zip%2Fwhortran00park_jp2%2Fwhortran00park_0276.jp2
A15970-138-b,https://iiif.archive.org/image/iiif/3/whortran00park%2Fwhortran00park_jp2.zip%2Fwhortran00park_jp2%2Fwhortran00park_0277.jp2
A15970-139-a,https://iiif.archive.org/image/iiif/3/whortran00park%2Fwhortran00park_jp2.zip%2Fwhortran00park_jp2%2Fwhortran00park_0278.jp2
A15970-139-b,https://iiif.archive.org/image/iiif/3/whortran00park%2Fwhortran00park_jp2.zip%2Fwhortran00park_jp2%2Fwhortran00park_0279.jp2
A15970-140-a,https://iiif.archive.org/image/iiif/3/whortran00park%2Fwhortran00park_jp2.zip%2Fwhortran00park_jp2%2Fwhortran00park_0280.jp2
A15970-140-b,https://iiif.archive.org/image/iiif/3/whortran00park%2Fwhortran00park_jp2.zip%2Fwhortran00park_jp2%2Fwhortran00park_0281.jp2
A15970-141-a,https://iiif.archive.org/image/iiif/3/whortran00park%2Fwhortran00park_jp2.zip%2Fwhortran00park_jp2%2Fwhortran00park_0282.jp2
A15970-141-b,https://iiif.archive.org/image/iiif/3/whortran00park%2Fwhortran00park_jp2.zip%2Fwhortran00park_jp2%2Fwhortran00park_0283.jp2
A15970-142-a,https://iiif.archive.org/image/iiif/3/whortran00park%2Fwhortran00park_jp2.zip%2Fwhortran00park_jp2%2Fwhortran00park_0284.jp2
A15970-142-b,https://iiif.archive.org/image/iiif/3/whortran00park%2Fwhortran00park_jp2.zip%2Fwhortran00park_jp2%2Fwhortran00park_0285.jp2
A15970-143-a,https://iiif.archive.org/image/iiif/3/whortran00park%2Fwhortran00park_jp2.zip%2Fwhortran00park_jp2%2Fwhortran00park_0286.jp2
A15970-143-b,https://iiif.archive.org/image/iiif/3/whortran00park%2Fwhortran00park_jp2.zip%2Fwhortran00park_jp2%2Fwhortran00park_0287.jp2
A15970-144-a,https://iiif.archive.org/image/iiif/3/whortran00park%2Fwhortran00park_jp2.zip%2Fwhortran00park_jp2%2Fwhortran00park_0288.jp2
A15970-144-b,https://iiif.archive.org/image/iiif/3/whortran00park%2Fwhortran00park_jp2.zip%2Fwhortran00park_jp2%2Fwhortran00park_0289.jp2
A15970-145-a,https://iiif.archive.org/image/iiif/3/whortran00park%2Fwhortran00park_jp2.zip%2Fwhortran00park_jp2%2Fwhortran00park_0290.jp2
A15970-145-b,https://iiif.archive.org/image/iiif/3/whortran00park%2Fwhortran00park_jp2.zip%2Fwhortran00park_jp2%2Fwhortran00park_0291.jp2
A15970-146-a,https://iiif.archive.org/image/iiif/3/whortran00park%2Fwhortran00park_jp2.zip%2Fwhortran00park_jp2%2Fwhortran00park_0292.jp2
A15970-146-b,https://iiif.archive.org/image/iiif/3/whortran00park%2Fwhortran00park_jp2.zip%2Fwhortran00park_jp2%2Fwhortran00park_0293.jp2
A15970-147-a,https://iiif.archive.org/image/iiif/3/whortran00park%2Fwhortran00park_jp2.zip%2Fwhortran00park_jp2%2Fwhortran00park_0294.jp2
A15970-147-b,https://iiif.archive.org/image/iiif/3/whortran00park%2Fwhortran00park_jp2.zip%2Fwhortran00park_jp2%2Fwhortran00park_0295.jp2
A15970-148-a,https://iiif.archive.org/image/iiif/3/whortran00park%2Fwhortran00park_jp2.zip%2Fwhortran00park_jp2%2Fwhortran00park_0296.jp2
A15970-148-b,https://iiif.archive.org/image/iiif/3/whortran00park%2Fwhortran00park_jp2.zip%2Fwhortran00park_jp2%2Fwhortran00park_0297.jp2
A15970-149-a,https://iiif.archive.org/image/iiif/3/whortran00park%2Fwhortran00park_jp2.zip%2Fwhortran00park_jp2%2Fwhortran00park_0298.jp2
A15970-149-b,https://iiif.archive.org/image/iiif/3/whortran00park%2Fwhortran00park_jp2.zip%2Fwhortran00park_jp2%2Fwhortran00park_0299.jp2
A15970-150-a,https://iiif.archive.org/image/iiif/3/whortran00park%2Fwhortran00park_jp2.zip%2Fwhortran00park_jp2%2Fwhortran00park_0300.jp2
A15970-150-b,https://iiif.archive.org/image/iiif/3/whortran00park%2Fwhortran00park_jp2.zip%2Fwhortran00park_jp2%2Fwhortran00park_0301.jp2
A15970-151-a,https://iiif.archive.org/image/iiif/3/whortran00park%2Fwhortran00park_jp2.zip%2Fwhortran00park_jp2%2Fwhortran00park_0302.jp2
A15970-151-b,https://iiif.archive.org/image/iiif/3/whortran00park%2Fwhortran00park_jp2.zip%2Fwhortran00park_jp2%2Fwhortran00park_0303.jp2
A15970-152-a,https://iiif.archive.org/image/iiif/3/whortran00park%2Fwhortran00park_jp2.zip%2Fwhortran00park_jp2%2Fwhortran00park_0304.jp2
A15970-152-b,https://iiif.archive.org/image/iiif/3/whortran00park%2Fwhortran00park_jp2.zip%2Fwhortran00park_jp2%2Fwhortran00park_0305.jp2
A15970-153-a,https://iiif.archive.org/image/iiif/3/whortran00park%2Fwhortran00park_jp2.zip%2Fwhortran00park_jp2%2Fwhortran00park_0306.jp2
A15970-153-b,https://iiif.archive.org/image/iiif/3/whortran00park%2Fwhortran00park_jp2.zip%2Fwhortran00park_jp2%2Fwhortran00park_0307.jp2
A15970-154-a,https://iiif.archive.org/image/iiif/3/whortran00park%2Fwhortran00park_jp2.zip%2Fwhortran00park_jp2%2Fwhortran00park_0308.jp2
A15970-154-b,https://iiif.archive.org/image/iiif/3/whortran00park%2Fwhortran00park_jp2.zip%2Fwhortran00park_jp2%2Fwhortran00park_0309.jp2
A15970-155-a,https://iiif.archive.org/image/iiif/3/whortran00park%2Fwhortran00park_jp2.zip%2Fwhortran00park_jp2%2Fwhortran00park_0310.jp2
A15970-155-b,https://iiif.archive.org/image/iiif/3/whortran00park%2Fwhortran00park_jp2.zip%2Fwhortran00park_jp2%2Fwhortran00park_0311.jp2
A15970-156-a,https://iiif.archive.org/image/iiif/3/whortran00park%2Fwhortran00park_jp2.zip%2Fwhortran00park_jp2%2Fwhortran00park_0312.jp2
A15970-156-b,https://iiif.archive.org/image/iiif/3/whortran00park%2Fwhortran00park_jp2.zip%2Fwhortran00park_jp2%2Fwhortran00park_0313.jp2
A15970-157-a,9999
A15970-157-b,9999
A15970-158-a,https://iiif.archive.org/image/iiif/3/whortran00park%2Fwhortran00park_jp2.zip%2Fwhortran00park_jp2%2Fwhortran00park_0314.jp2
A15970-158-b,https://iiif.archive.org/image/iiif/3/whortran00park%2Fwhortran00park_jp2.zip%2Fwhortran00park_jp2%2Fwhortran00park_0315.jp2
A15970-159-a,https://iiif.archive.org/image/iiif/3/whortran00park%2Fwhortran00park_jp2.zip%2Fwhortran00park_jp2%2Fwhortran00park_0316.jp2
A15970-159-b,https://iiif.archive.org/image/iiif/3/whortran00park%2Fwhortran00park_jp2.zip%2Fwhortran00park_jp2%2Fwhortran00park_0317.jp2
A15970-160-a,https://iiif.archive.org/image/iiif/3/whortran00park%2Fwhortran00park_jp2.zip%2Fwhortran00park_jp2%2Fwhortran00park_0318.jp2
A15970-160-b,https://iiif.archive.org/image/iiif/3/whortran00park%2Fwhortran00park_jp2.zip%2Fwhortran00park_jp2%2Fwhortran00park_0319.jp2
A15970-161-a,https://iiif.archive.org/image/iiif/3/whortran00park%2Fwhortran00park_jp2.zip%2Fwhortran00park_jp2%2Fwhortran00park_0320.jp2
A15970-161-b,https://iiif.archive.org/image/iiif/3/whortran00park%2Fwhortran00park_jp2.zip%2Fwhortran00park_jp2%2Fwhortran00park_0321.jp2
A15970-162-a,https://iiif.archive.org/image/iiif/3/whortran00park%2Fwhortran00park_jp2.zip%2Fwhortran00park_jp2%2Fwhortran00park_0322.jp2
A15970-162-b,https://iiif.archive.org/image/iiif/3/whortran00park%2Fwhortran00park_jp2.zip%2Fwhortran00park_jp2%2Fwhortran00park_0323.jp2
A15970-163-a,https://iiif.archive.org/image/iiif/3/whortran00park%2Fwhortran00park_jp2.zip%2Fwhortran00park_jp2%2Fwhortran00park_0324.jp2
A15970-163-b,https://iiif.archive.org/image/iiif/3/whortran00park%2Fwhortran00park_jp2.zip%2Fwhortran00park_jp2%2Fwhortran00park_0325.jp2
A15970-164-a,https://iiif.archive.org/image/iiif/3/whortran00park%2Fwhortran00park_jp2.zip%2Fwhortran00park_jp2%2Fwhortran00park_0326.jp2
A15970-164-b,https://iiif.archive.org/image/iiif/3/whortran00park%2Fwhortran00park_jp2.zip%2Fwhortran00park_jp2%2Fwhortran00park_0327.jp2
A15970-165-a,https://iiif.archive.org/image/iiif/3/whortran00park%2Fwhortran00park_jp2.zip%2Fwhortran00park_jp2%2Fwhortran00park_0328.jp2
A15970-165-b,https://iiif.archive.org/image/iiif/3/whortran00park%2Fwhortran00park_jp2.zip%2Fwhortran00park_jp2%2Fwhortran00park_0329.jp2
A15970-166-a,https://iiif.archive.org/image/iiif/3/whortran00park%2Fwhortran00park_jp2.zip%2Fwhortran00park_jp2%2Fwhortran00park_0330.jp2
A15970-166-b,https://iiif.archive.org/image/iiif/3/whortran00park%2Fwhortran00park_jp2.zip%2Fwhortran00park_jp2%2Fwhortran00park_0331.jp2
A15970-167-a,https://iiif.archive.org/image/iiif/3/whortran00park%2Fwhortran00park_jp2.zip%2Fwhortran00park_jp2%2Fwhortran00park_0332.jp2
A15970-167-b,https://iiif.archive.org/image/iiif/3/whortran00park%2Fwhortran00park_jp2.zip%2Fwhortran00park_jp2%2Fwhortran00park_0333.jp2
A15970-168-a,https://iiif.archive.org/image/iiif/3/whortran00park%2Fwhortran00park_jp2.zip%2Fwhortran00park_jp2%2Fwhortran00park_0334.jp2
A15970-168-b,https://iiif.archive.org/image/iiif/3/whortran00park%2Fwhortran00park_jp2.zip%2Fwhortran00park_jp2%2Fwhortran00park_0335.jp2
A15970-169-a,https://iiif.archive.org/image/iiif/3/whortran00park%2Fwhortran00park_jp2.zip%2Fwhortran00park_jp2%2Fwhortran00park_0336.jp2
A15970-169-b,https://iiif.archive.org/image/iiif/3/whortran00park%2Fwhortran00park_jp2.zip%2Fwhortran00park_jp2%2Fwhortran00park_0337.jp2
A15970-170-a,https://iiif.archive.org/image/iiif/3/whortran00park%2Fwhortran00park_jp2.zip%2Fwhortran00park_jp2%2Fwhortran00park_0338.jp2
A15970-170-b,https://iiif.archive.org/image/iiif/3/whortran00park%2Fwhortran00park_jp2.zip%2Fwhortran00park_jp2%2Fwhortran00park_0339.jp2
A15970-171-a,https://iiif.archive.org/image/iiif/3/whortran00park%2Fwhortran00park_jp2.zip%2Fwhortran00park_jp2%2Fwhortran00park_0340.jp2
A15970-171-b,https://iiif.archive.org/image/iiif/3/whortran00park%2Fwhortran00park_jp2.zip%2Fwhortran00park_jp2%2Fwhortran00park_0341.jp2
A15970-172-a,https://iiif.archive.org/image/iiif/3/whortran00park%2Fwhortran00park_jp2.zip%2Fwhortran00park_jp2%2Fwhortran00park_0342.jp2
A15970-172-b,https://iiif.archive.org/image/iiif/3/whortran00park%2Fwhortran00park_jp2.zip%2Fwhortran00park_jp2%2Fwhortran00park_0343.jp2
A15970-173-a,https://iiif.archive.org/image/iiif/3/whortran00park%2Fwhortran00park_jp2.zip%2Fwhortran00park_jp2%2Fwhortran00park_0344.jp2
A15970-173-b,https://iiif.archive.org/image/iiif/3/whortran00park%2Fwhortran00park_jp2.zip%2Fwhortran00park_jp2%2Fwhortran00park_0345.jp2
A15970-174-a,https://iiif.archive.org/image/iiif/3/whortran00park%2Fwhortran00park_jp2.zip%2Fwhortran00park_jp2%2Fwhortran00park_0346.jp2
A15970-174-b,https://iiif.archive.org/image/iiif/3/whortran00park%2Fwhortran00park_jp2.zip%2Fwhortran00park_jp2%2Fwhortran00park_0347.jp2
A15970-175-a,https://iiif.archive.org/image/iiif/3/whortran00park%2Fwhortran00park_jp2.zip%2Fwhortran00park_jp2%2Fwhortran00park_0348.jp2
A15970-175-b,https://iiif.archive.org/image/iiif/3/whortran00park%2Fwhortran00park_jp2.zip%2Fwhortran00park_jp2%2Fwhortran00park_0349.jp2
A15970-176-a,https://iiif.archive.org/image/iiif/3/whortran00park%2Fwhortran00park_jp2.zip%2Fwhortran00park_jp2%2Fwhortran00park_0350.jp2
A15970-176-b,https://iiif.archive.org/image/iiif/3/whortran00park%2Fwhortran00park_jp2.zip%2Fwhortran00park_jp2%2Fwhortran00park_0351.jp2
A15970-177-a,https://iiif.archive.org/image/iiif/3/whortran00park%2Fwhortran00park_jp2.zip%2Fwhortran00park_jp2%2Fwhortran00park_0352.jp2
A15970-177-b,https://iiif.archive.org/image/iiif/3/whortran00park%2Fwhortran00park_jp2.zip%2Fwhortran00park_jp2%2Fwhortran00park_0353.jp2
A15970-178-a,https://iiif.archive.org/image/iiif/3/whortran00park%2Fwhortran00park_jp2.zip%2Fwhortran00park_jp2%2Fwhortran00park_0354.jp2
A15970-178-b,https://iiif.archive.org/image/iiif/3/whortran00park%2Fwhortran00park_jp2.zip%2Fwhortran00park_jp2%2Fwhortran00park_0355.jp2
A15970-179-a,https://iiif.archive.org/image/iiif/3/whortran00park%2Fwhortran00park_jp2.zip%2Fwhortran00park_jp2%2Fwhortran00park_0356.jp2
A15970-179-b,https://iiif.archive.org/image/iiif/3/whortran00park%2Fwhortran00park_jp2.zip%2Fwhortran00park_jp2%2Fwhortran00park_0357.jp2
A15970-180-a,https://iiif.archive.org/image/iiif/3/whortran00park%2Fwhortran00park_jp2.zip%2Fwhortran00park_jp2%2Fwhortran00park_0358.jp2
A15970-180-b,https://iiif.archive.org/image/iiif/3/whortran00park%2Fwhortran00park_jp2.zip%2Fwhortran00park_jp2%2Fwhortran00park_0359.jp2
A15970-181-a,https://iiif.archive.org/image/iiif/3/whortran00park%2Fwhortran00park_jp2.zip%2Fwhortran00park_jp2%2Fwhortran00park_0360.jp2
A15970-181-b,https://iiif.archive.org/image/iiif/3/whortran00park%2Fwhortran00park_jp2.zip%2Fwhortran00park_jp2%2Fwhortran00park_0361.jp2
A15970-182-a,https://iiif.archive.org/image/iiif/3/whortran00park%2Fwhortran00park_jp2.zip%2Fwhortran00park_jp2%2Fwhortran00park_0362.jp2
A15970-182-b,https://iiif.archive.org/image/iiif/3/whortran00park%2Fwhortran00park_jp2.zip%2Fwhortran00park_jp2%2Fwhortran00park_0363.jp2
A15970-183-a,https://iiif.archive.org/image/iiif/3/whortran00park%2Fwhortran00park_jp2.zip%2Fwhortran00park_jp2%2Fwhortran00park_0364.jp2
A15970-183-b,https://iiif.archive.org/image/iiif/3/whortran00park%2Fwhortran00park_jp2.zip%2Fwhortran00park_jp2%2Fwhortran00park_0365.jp2
A15970-184-a,https://iiif.archive.org/image/iiif/3/whortran00park%2Fwhortran00park_jp2.zip%2Fwhortran00park_jp2%2Fwhortran00park_0366.jp2
A15970-184-b,https://iiif.archive.org/image/iiif/3/whortran00park%2Fwhortran00park_jp2.zip%2Fwhortran00park_jp2%2Fwhortran00park_0367.jp2
A15970-185-a,https://iiif.archive.org/image/iiif/3/whortran00park%2Fwhortran00park_jp2.zip%2Fwhortran00park_jp2%2Fwhortran00park_0368.jp2
A15970-185-b,https://iiif.archive.org/image/iiif/3/whortran00park%2Fwhortran00park_jp2.zip%2Fwhortran00park_jp2%2Fwhortran00park_0369.jp2
A15970-186-a,https://iiif.archive.org/image/iiif/3/whortran00park%2Fwhortran00park_jp2.zip%2Fwhortran00park_jp2%2Fwhortran00park_0370.jp2
A15970-186-b,https://iiif.archive.org/image/iiif/3/whortran00park%2Fwhortran00park_jp2.zip%2Fwhortran00park_jp2%2Fwhortran00park_0371.jp2
A15970-187-a,https://iiif.archive.org/image/iiif/3/whortran00park%2Fwhortran00park_jp2.zip%2Fwhortran00park_jp2%2Fwhortran00park_0372.jp2
A15970-187-b,https://iiif.archive.org/image/iiif/3/whortran00park%2Fwhortran00park_jp2.zip%2Fwhortran00park_jp2%2Fwhortran00park_0373.jp2
A15970-188-a,https://iiif.archive.org/image/iiif/3/whortran00park%2Fwhortran00park_jp2.zip%2Fwhortran00park_jp2%2Fwhortran00park_0374.jp2
A15970-188-b,https://iiif.archive.org/image/iiif/3/whortran00park%2Fwhortran00park_jp2.zip%2Fwhortran00park_jp2%2Fwhortran00park_0375.jp2
A15970-189-a,https://iiif.archive.org/image/iiif/3/whortran00park%2Fwhortran00park_jp2.zip%2Fwhortran00park_jp2%2Fwhortran00park_0376.jp2
A15970-189-b,https://iiif.archive.org/image/iiif/3/whortran00park%2Fwhortran00park_jp2.zip%2Fwhortran00park_jp2%2Fwhortran00park_0377.jp2
A15970-190-a,https://iiif.archive.org/image/iiif/3/whortran00park%2Fwhortran00park_jp2.zip%2Fwhortran00park_jp2%2Fwhortran00park_0378.jp2
A15970-190-b,https://iiif.archive.org/image/iiif/3/whortran00park%2Fwhortran00park_jp2.zip%2Fwhortran00park_jp2%2Fwhortran00park_0379.jp2
A15970-191-a,https://iiif.archive.org/image/iiif/3/whortran00park%2Fwhortran00park_jp2.zip%2Fwhortran00park_jp2%2Fwhortran00park_0380.jp2
A15970-191-b,https://iiif.archive.org/image/iiif/3/whortran00park%2Fwhortran00park_jp2.zip%2Fwhortran00park_jp2%2Fwhortran00park_0381.jp2
A15970-192-a,https://iiif.archive.org/image/iiif/3/whortran00park%2Fwhortran00park_jp2.zip%2Fwhortran00park_jp2%2Fwhortran00park_0382.jp2
A15970-192-b,https://iiif.archive.org/image/iiif/3/whortran00park%2Fwhortran00park_jp2.zip%2Fwhortran00park_jp2%2Fwhortran00park_0383.jp2
A15970-193-a,https://iiif.archive.org/image/iiif/3/whortran00park%2Fwhortran00park_jp2.zip%2Fwhortran00park_jp2%2Fwhortran00park_0384.jp2
A15970-193-b,https://iiif.archive.org/image/iiif/3/whortran00park%2Fwhortran00park_jp2.zip%2Fwhortran00park_jp2%2Fwhortran00park_0385.jp2
A15970-194-a,https://iiif.archive.org/image/iiif/3/whortran00park%2Fwhortran00park_jp2.zip%2Fwhortran00park_jp2%2Fwhortran00park_0386.jp2
A15970-194-b,https://iiif.archive.org/image/iiif/3/whortran00park%2Fwhortran00park_jp2.zip%2Fwhortran00park_jp2%2Fwhortran00park_0387.jp2
A15970-195-a,https://iiif.archive.org/image/iiif/3/whortran00park%2Fwhortran00park_jp2.zip%2Fwhortran00park_jp2%2Fwhortran00park_0388.jp2
A15970-195-b,https://iiif.archive.org/image/iiif/3/whortran00park%2Fwhortran00park_jp2.zip%2Fwhortran00park_jp2%2Fwhortran00park_0389.jp2
A15970-196-a,https://iiif.archive.org/image/iiif/3/whortran00park%2Fwhortran00park_jp2.zip%2Fwhortran00park_jp2%2Fwhortran00park_0390.jp2
A15970-196-b,https://iiif.archive.org/image/iiif/3/whortran00park%2Fwhortran00park_jp2.zip%2Fwhortran00park_jp2%2Fwhortran00park_0391.jp2
A15970-197-a,https://iiif.archive.org/image/iiif/3/whortran00park%2Fwhortran00park_jp2.zip%2Fwhortran00park_jp2%2Fwhortran00park_0392.jp2
A15970-197-b,https://iiif.archive.org/image/iiif/3/whortran00park%2Fwhortran00park_jp2.zip%2Fwhortran00park_jp2%2Fwhortran00park_0393.jp2
A15970-198-a,https://iiif.archive.org/image/iiif/3/whortran00park%2Fwhortran00park_jp2.zip%2Fwhortran00park_jp2%2Fwhortran00park_0394.jp2
A15970-198-b,https://iiif.archive.org/image/iiif/3/whortran00park%2Fwhortran00park_jp2.zip%2Fwhortran00park_jp2%2Fwhortran00park_0395.jp2
A15970-199-a,https://iiif.archive.org/image/iiif/3/whortran00park%2Fwhortran00park_jp2.zip%2Fwhortran00park_jp2%2Fwhortran00park_0396.jp2
A15970-199-b,https://iiif.archive.org/image/iiif/3/whortran00park%2Fwhortran00park_jp2.zip%2Fwhortran00park_jp2%2Fwhortran00park_0397.jp2
A15970-200-a,https://iiif.archive.org/image/iiif/3/whortran00park%2Fwhortran00park_jp2.zip%2Fwhortran00park_jp2%2Fwhortran00park_0398.jp2
A15970-200-b,https://iiif.archive.org/image/iiif/3/whortran00park%2Fwhortran00park_jp2.zip%2Fwhortran00park_jp2%2Fwhortran00park_0399.jp2
A15970-201-a,https://iiif.archive.org/image/iiif/3/whortran00park%2Fwhortran00park_jp2.zip%2Fwhortran00park_jp2%2Fwhortran00park_0400.jp2
A15970-201-b,https://iiif.archive.org/image/iiif/3/whortran00park%2Fwhortran00park_jp2.zip%2Fwhortran00park_jp2%2Fwhortran00park_0401.jp2
A15970-202-a,https://iiif.archive.org/image/iiif/3/whortran00park%2Fwhortran00park_jp2.zip%2Fwhortran00park_jp2%2Fwhortran00park_0402.jp2
A15970-202-b,https://iiif.archive.org/image/iiif/3/whortran00park%2Fwhortran00park_jp2.zip%2Fwhortran00park_jp2%2Fwhortran00park_0403.jp2
A15970-203-a,https://iiif.archive.org/image/iiif/3/whortran00park%2Fwhortran00park_jp2.zip%2Fwhortran00park_jp2%2Fwhortran00park_0404.jp2
A15970-203-b,https://iiif.archive.org/image/iiif/3/whortran00park%2Fwhortran00park_jp2.zip%2Fwhortran00park_jp2%2Fwhortran00park_0405.jp2
A15970-204-a,https://iiif.archive.org/image/iiif/3/whortran00park%2Fwhortran00park_jp2.zip%2Fwhortran00park_jp2%2Fwhortran00park_0406.jp2
A15970-204-b,https://iiif.archive.org/image/iiif/3/whortran00park%2Fwhortran00park_jp2.zip%2Fwhortran00park_jp2%2Fwhortran00park_0407.jp2
A15970-205-a,https://iiif.archive.org/image/iiif/3/whortran00park%2Fwhortran00park_jp2.zip%2Fwhortran00park_jp2%2Fwhortran00park_0408.jp2
A15970-205-b,https://iiif.archive.org/image/iiif/3/whortran00park%2Fwhortran00park_jp2.zip%2Fwhortran00park_jp2%2Fwhortran00park_0409.jp2
A15970-206-a,https://iiif.archive.org/image/iiif/3/whortran00park%2Fwhortran00park_jp2.zip%2Fwhortran00park_jp2%2Fwhortran00park_0410.jp2
A15970-206-b,https://iiif.archive.org/image/iiif/3/whortran00park%2Fwhortran00park_jp2.zip%2Fwhortran00park_jp2%2Fwhortran00park_0411.jp2
A15970-207-a,https://iiif.archive.org/image/iiif/3/whortran00park%2Fwhortran00park_jp2.zip%2Fwhortran00park_jp2%2Fwhortran00park_0412.jp2
A15970-207-b,https://iiif.archive.org/image/iiif/3/whortran00park%2Fwhortran00park_jp2.zip%2Fwhortran00park_jp2%2Fwhortran00park_0413.jp2
A15970-208-a,https://iiif.archive.org/image/iiif/3/whortran00park%2Fwhortran00park_jp2.zip%2Fwhortran00park_jp2%2Fwhortran00park_0414.jp2
A15970-208-b,https://iiif.archive.org/image/iiif/3/whortran00park%2Fwhortran00park_jp2.zip%2Fwhortran00park_jp2%2Fwhortran00park_0415.jp2
A15970-209-a,https://iiif.archive.org/image/iiif/3/whortran00park%2Fwhortran00park_jp2.zip%2Fwhortran00park_jp2%2Fwhortran00park_0416.jp2
A15970-209-b,https://iiif.archive.org/image/iiif/3/whortran00park%2Fwhortran00park_jp2.zip%2Fwhortran00park_jp2%2Fwhortran00park_0417.jp2
A15970-210-a,https://iiif.archive.org/image/iiif/3/whortran00park%2Fwhortran00park_jp2.zip%2Fwhortran00park_jp2%2Fwhortran00park_0418.jp2
A15970-210-b,https://iiif.archive.org/image/iiif/3/whortran00park%2Fwhortran00park_jp2.zip%2Fwhortran00park_jp2%2Fwhortran00park_0419.jp2
A15970-211-a,https://iiif.archive.org/image/iiif/3/whortran00park%2Fwhortran00park_jp2.zip%2Fwhortran00park_jp2%2Fwhortran00park_0420.jp2
A15970-211-b,https://iiif.archive.org/image/iiif/3/whortran00park%2Fwhortran00park_jp2.zip%2Fwhortran00park_jp2%2Fwhortran00park_0421.jp2
A15970-212-a,https://iiif.archive.org/image/iiif/3/whortran00park%2Fwhortran00park_jp2.zip%2Fwhortran00park_jp2%2Fwhortran00park_0422.jp2
A15970-212-b,https://iiif.archive.org/image/iiif/3/whortran00park%2Fwhortran00park_jp2.zip%2Fwhortran00park_jp2%2Fwhortran00park_0423.jp2
A15970-213-a,https://iiif.archive.org/image/iiif/3/whortran00park%2Fwhortran00park_jp2.zip%2Fwhortran00park_jp2%2Fwhortran00park_0424.jp2
A15970-213-b,https://iiif.archive.org/image/iiif/3/whortran00park%2Fwhortran00park_jp2.zip%2Fwhortran00park_jp2%2Fwhortran00park_0425.jp2
A15970-214-a,https://iiif.archive.org/image/iiif/3/whortran00park%2Fwhortran00park_jp2.zip%2Fwhortran00park_jp2%2Fwhortran00park_0426.jp2
A15970-214-b,https://iiif.archive.org/image/iiif/3/whortran00park%2Fwhortran00park_jp2.zip%2Fwhortran00park_jp2%2Fwhortran00park_0427.jp2
A15970-215-a,https://iiif.archive.org/image/iiif/3/whortran00park%2Fwhortran00park_jp2.zip%2Fwhortran00park_jp2%2Fwhortran00park_0428.jp2
A15970-215-b,https://iiif.archive.org/image/iiif/3/whortran00park%2Fwhortran00park_jp2.zip%2Fwhortran00park_jp2%2Fwhortran00park_0429.jp2
A15970-216-a,https://iiif.archive.org/image/iiif/3/whortran00park%2Fwhortran00park_jp2.zip%2Fwhortran00park_jp2%2Fwhortran00park_0430.jp2
A15970-216-b,https://iiif.archive.org/image/iiif/3/whortran00park%2Fwhortran00park_jp2.zip%2Fwhortran00park_jp2%2Fwhortran00park_0431.jp2
A15970-217-a,https://iiif.archive.org/image/iiif/3/whortran00park%2Fwhortran00park_jp2.zip%2Fwhortran00park_jp2%2Fwhortran00park_0432.jp2
A15970-217-b,https://iiif.archive.org/image/iiif/3/whortran00park%2Fwhortran00park_jp2.zip%2Fwhortran00park_jp2%2Fwhortran00park_0433.jp2
A15970-218-a,https://iiif.archive.org/image/iiif/3/whortran00park%2Fwhortran00park_jp2.zip%2Fwhortran00park_jp2%2Fwhortran00park_0434.jp2
A15970-218-b,https://iiif.archive.org/image/iiif/3/whortran00park%2Fwhortran00park_jp2.zip%2Fwhortran00park_jp2%2Fwhortran00park_0435.jp2
A15970-219-a,https://iiif.archive.org/image/iiif/3/whortran00park%2Fwhortran00park_jp2.zip%2Fwhortran00park_jp2%2Fwhortran00park_0436.jp2
A15970-219-b,https://iiif.archive.org/image/iiif/3/whortran00park%2Fwhortran00park_jp2.zip%2Fwhortran00park_jp2%2Fwhortran00park_0437.jp2
A15970-220-a,https://iiif.archive.org/image/iiif/3/whortran00park%2Fwhortran00park_jp2.zip%2Fwhortran00park_jp2%2Fwhortran00park_0438.jp2
A15970-220-b,https://iiif.archive.org/image/iiif/3/whortran00park%2Fwhortran00park_jp2.zip%2Fwhortran00park_jp2%2Fwhortran00park_0439.jp2
A15970-221-a,https://iiif.archive.org/image/iiif/3/whortran00park%2Fwhortran00park_jp2.zip%2Fwhortran00park_jp2%2Fwhortran00park_0440.jp2
A15970-221-b,https://iiif.archive.org/image/iiif/3/whortran00park%2Fwhortran00park_jp2.zip%2Fwhortran00park_jp2%2Fwhortran00park_0441.jp2
A15970-222-a,https://iiif.archive.org/image/iiif/3/whortran00park%2Fwhortran00park_jp2.zip%2Fwhortran00park_jp2%2Fwhortran00park_0442.jp2
A15970-222-b,https://iiif.archive.org/image/iiif/3/whortran00park%2Fwhortran00park_jp2.zip%2Fwhortran00park_jp2%2Fwhortran00park_0443.jp2
A15970-223-a,https://iiif.archive.org/image/iiif/3/whortran00park%2Fwhortran00park_jp2.zip%2Fwhortran00park_jp2%2Fwhortran00park_0444.jp2
A15970-223-b,https://iiif.archive.org/image/iiif/3/whortran00park%2Fwhortran00park_jp2.zip%2Fwhortran00park_jp2%2Fwhortran00park_0445.jp2
A15970-224-a,https://iiif.archive.org/image/iiif/3/whortran00park%2Fwhortran00park_jp2.zip%2Fwhortran00park_jp2%2Fwhortran00park_0446.jp2
A15970-224-b,https://iiif.archive.org/image/iiif/3/whortran00park%2Fwhortran00park_jp2.zip%2Fwhortran00park_jp2%2Fwhortran00park_0447.jp2
A15970-225-a,https://iiif.archive.org/image/iiif/3/whortran00park%2Fwhortran00park_jp2.zip%2Fwhortran00park_jp2%2Fwhortran00park_0448.jp2
A15970-225-b,https://iiif.archive.org/image/iiif/3/whortran00park%2Fwhortran00park_jp2.zip%2Fwhortran00park_jp2%2Fwhortran00park_0449.jp2
A15970-226-a,https://iiif.archive.org/image/iiif/3/whortran00park%2Fwhortran00park_jp2.zip%2Fwhortran00park_jp2%2Fwhortran00park_0450.jp2
A15970-226-b,https://iiif.archive.org/image/iiif/3/whortran00park%2Fwhortran00park_jp2.zip%2Fwhortran00park_jp2%2Fwhortran00park_0451.jp2
A15970-227-a,https://iiif.archive.org/image/iiif/3/whortran00park%2Fwhortran00park_jp2.zip%2Fwhortran00park_jp2%2Fwhortran00park_0452.jp2
A15970-227-b,https://iiif.archive.org/image/iiif/3/whortran00park%2Fwhortran00park_jp2.zip%2Fwhortran00park_jp2%2Fwhortran00park_0453.jp2
A15970-228-a,https://iiif.archive.org/image/iiif/3/whortran00park%2Fwhortran00park_jp2.zip%2Fwhortran00park_jp2%2Fwhortran00park_0454.jp2
A15970-228-b,https://iiif.archive.org/image/iiif/3/whortran00park%2Fwhortran00park_jp2.zip%2Fwhortran00park_jp2%2Fwhortran00park_0455.jp2
A15970-229-a,https://iiif.archive.org/image/iiif/3/whortran00park%2Fwhortran00park_jp2.zip%2Fwhortran00park_jp2%2Fwhortran00park_0456.jp2
A15970-229-b,https://iiif.archive.org/image/iiif/3/whortran00park%2Fwhortran00park_jp2.zip%2Fwhortran00park_jp2%2Fwhortran00park_0457.jp2
A15970-230-a,https://iiif.archive.org/image/iiif/3/whortran00park%2Fwhortran00park_jp2.zip%2Fwhortran00park_jp2%2Fwhortran00park_0458.jp2
A15970-230-b,https://iiif.archive.org/image/iiif/3/whortran00park%2Fwhortran00park_jp2.zip%2Fwhortran00park_jp2%2Fwhortran00park_0459.jp2
A15970-231-a,https://iiif.archive.org/image/iiif/3/whortran00park%2Fwhortran00park_jp2.zip%2Fwhortran00park_jp2%2Fwhortran00park_0460.jp2
A15970-231-b,https://iiif.archive.org/image/iiif/3/whortran00park%2Fwhortran00park_jp2.zip%2Fwhortran00park_jp2%2Fwhortran00park_0461.jp2
A15970-232-a,https://iiif.archive.org/image/iiif/3/whortran00park%2Fwhortran00park_jp2.zip%2Fwhortran00park_jp2%2Fwhortran00park_0462.jp2
A15970-232-b,https://iiif.archive.org/image/iiif/3/whortran00park%2Fwhortran00park_jp2.zip%2Fwhortran00park_jp2%2Fwhortran00park_0463.jp2
A15970-233-a,https://iiif.archive.org/image/iiif/3/whortran00park%2Fwhortran00park_jp2.zip%2Fwhortran00park_jp2%2Fwhortran00park_0464.jp2
A15970-233-b,https://iiif.archive.org/image/iiif/3/whortran00park%2Fwhortran00park_jp2.zip%2Fwhortran00park_jp2%2Fwhortran00park_0465.jp2
A15970-234-a,https://iiif.archive.org/image/iiif/3/whortran00park%2Fwhortran00park_jp2.zip%2Fwhortran00park_jp2%2Fwhortran00park_0466.jp2
A15970-234-b,https://iiif.archive.org/image/iiif/3/whortran00park%2Fwhortran00park_jp2.zip%2Fwhortran00park_jp2%2Fwhortran00park_0467.jp2
A15970-235-a,https://iiif.archive.org/image/iiif/3/whortran00park%2Fwhortran00park_jp2.zip%2Fwhortran00park_jp2%2Fwhortran00park_0468.jp2
A15970-235-b,https://iiif.archive.org/image/iiif/3/whortran00park%2Fwhortran00park_jp2.zip%2Fwhortran00park_jp2%2Fwhortran00park_0469.jp2
A15970-236-a,https://iiif.archive.org/image/iiif/3/whortran00park%2Fwhortran00park_jp2.zip%2Fwhortran00park_jp2%2Fwhortran00park_0470.jp2
A15970-236-b,https://iiif.archive.org/image/iiif/3/whortran00park%2Fwhortran00park_jp2.zip%2Fwhortran00park_jp2%2Fwhortran00park_0471.jp2
A15970-237-a,https://iiif.archive.org/image/iiif/3/whortran00park%2Fwhortran00park_jp2.zip%2Fwhortran00park_jp2%2Fwhortran00park_0472.jp2
A15970-237-b,https://iiif.archive.org/image/iiif/3/whortran00park%2Fwhortran00park_jp2.zip%2Fwhortran00park_jp2%2Fwhortran00park_0473.jp2
A15970-238-a,https://iiif.archive.org/image/iiif/3/whortran00park%2Fwhortran00park_jp2.zip%2Fwhortran00park_jp2%2Fwhortran00park_0474.jp2
A15970-238-b,https://iiif.archive.org/image/iiif/3/whortran00park%2Fwhortran00park_jp2.zip%2Fwhortran00park_jp2%2Fwhortran00park_0475.jp2
A15970-239-a,https://iiif.archive.org/image/iiif/3/whortran00park%2Fwhortran00park_jp2.zip%2Fwhortran00park_jp2%2Fwhortran00park_0476.jp2
A15970-239-b,https://iiif.archive.org/image/iiif/3/whortran00park%2Fwhortran00park_jp2.zip%2Fwhortran00park_jp2%2Fwhortran00park_0477.jp2
A15970-240-a,https://iiif.archive.org/image/iiif/3/whortran00park%2Fwhortran00park_jp2.zip%2Fwhortran00park_jp2%2Fwhortran00park_0478.jp2
A15970-240-b,https://iiif.archive.org/image/iiif/3/whortran00park%2Fwhortran00park_jp2.zip%2Fwhortran00park_jp2%2Fwhortran00park_0479.jp2
A15970-241-a,https://iiif.archive.org/image/iiif/3/whortran00park%2Fwhortran00park_jp2.zip%2Fwhortran00park_jp2%2Fwhortran00park_0480.jp2
A15970-241-b,https://iiif.archive.org/image/iiif/3/whortran00park%2Fwhortran00park_jp2.zip%2Fwhortran00park_jp2%2Fwhortran00park_0481.jp2
A15970-242-a,https://iiif.archive.org/image/iiif/3/whortran00park%2Fwhortran00park_jp2.zip%2Fwhortran00park_jp2%2Fwhortran00park_0482.jp2
A15970-242-b,https://iiif.archive.org/image/iiif/3/whortran00park%2Fwhortran00park_jp2.zip%2Fwhortran00park_jp2%2Fwhortran00park_0483.jp2
A15970-243-a,https://iiif.archive.org/image/iiif/3/whortran00park%2Fwhortran00park_jp2.zip%2Fwhortran00park_jp2%2Fwhortran00park_0484.jp2
A15970-243-b,https://iiif.archive.org/image/iiif/3/whortran00park%2Fwhortran00park_jp2.zip%2Fwhortran00park_jp2%2Fwhortran00park_0485.jp2
A15970-244-a,https://iiif.archive.org/image/iiif/3/whortran00park%2Fwhortran00park_jp2.zip%2Fwhortran00park_jp2%2Fwhortran00park_0486.jp2
A15970-244-b,https://iiif.archive.org/image/iiif/3/whortran00park%2Fwhortran00park_jp2.zip%2Fwhortran00park_jp2%2Fwhortran00park_0487.jp2
A15970-245-a,https://iiif.archive.org/image/iiif/3/whortran00park%2Fwhortran00park_jp2.zip%2Fwhortran00park_jp2%2Fwhortran00park_0488.jp2
A15970-245-b,https://iiif.archive.org/image/iiif/3/whortran00park%2Fwhortran00park_jp2.zip%2Fwhortran00park_jp2%2Fwhortran00park_0489.jp2
A15970-246-a,https://iiif.archive.org/image/iiif/3/whortran00park%2Fwhortran00park_jp2.zip%2Fwhortran00park_jp2%2Fwhortran00park_0490.jp2
A15970-246-b,https://iiif.archive.org/image/iiif/3/whortran00park%2Fwhortran00park_jp2.zip%2Fwhortran00park_jp2%2Fwhortran00park_0491.jp2
A15970-247-a,https://iiif.archive.org/image/iiif/3/whortran00park%2Fwhortran00park_jp2.zip%2Fwhortran00park_jp2%2Fwhortran00park_0492.jp2
A15970-247-b,https://iiif.archive.org/image/iiif/3/whortran00park%2Fwhortran00park_jp2.zip%2Fwhortran00park_jp2%2Fwhortran00park_0493.jp2
A15970-248-a,https://iiif.archive.org/image/iiif/3/whortran00park%2Fwhortran00park_jp2.zip%2Fwhortran00park_jp2%2Fwhortran00park_0494.jp2
A15970-248-b,https://iiif.archive.org/image/iiif/3/whortran00park%2Fwhortran00park_jp2.zip%2Fwhortran00park_jp2%2Fwhortran00park_0495.jp2
A15970-249-a,https://iiif.archive.org/image/iiif/3/whortran00park%2Fwhortran00park_jp2.zip%2Fwhortran00park_jp2%2Fwhortran00park_0496.jp2
A15970-249-b,https://iiif.archive.org/image/iiif/3/whortran00park%2Fwhortran00park_jp2.zip%2Fwhortran00park_jp2%2Fwhortran00park_0497.jp2
A15970-250-a,https://iiif.archive.org/image/iiif/3/whortran00park%2Fwhortran00park_jp2.zip%2Fwhortran00park_jp2%2Fwhortran00park_0498.jp2
A15970-250-b,https://iiif.archive.org/image/iiif/3/whortran00park%2Fwhortran00park_jp2.zip%2Fwhortran00park_jp2%2Fwhortran00park_0499.jp2
A15970-251-a,https://iiif.archive.org/image/iiif/3/whortran00park%2Fwhortran00park_jp2.zip%2Fwhortran00park_jp2%2Fwhortran00park_0500.jp2
A15970-251-b,https://iiif.archive.org/image/iiif/3/whortran00park%2Fwhortran00park_jp2.zip%2Fwhortran00park_jp2%2Fwhortran00park_0501.jp2
A15970-252-a,https://iiif.archive.org/image/iiif/3/whortran00park%2Fwhortran00park_jp2.zip%2Fwhortran00park_jp2%2Fwhortran00park_0502.jp2
A15970-252-b,https://iiif.archive.org/image/iiif/3/whortran00park%2Fwhortran00park_jp2.zip%2Fwhortran00park_jp2%2Fwhortran00park_0503.jp2
A15970-253-a,https://iiif.archive.org/image/iiif/3/whortran00park%2Fwhortran00park_jp2.zip%2Fwhortran00park_jp2%2Fwhortran00park_0504.jp2
A15970-253-b,https://iiif.archive.org/image/iiif/3/whortran00park%2Fwhortran00park_jp2.zip%2Fwhortran00park_jp2%2Fwhortran00park_0505.jp2
A15970-254-a,https://iiif.archive.org/image/iiif/3/whortran00park%2Fwhortran00park_jp2.zip%2Fwhortran00park_jp2%2Fwhortran00park_0506.jp2
A15970-254-b,https://iiif.archive.org/image/iiif/3/whortran00park%2Fwhortran00park_jp2.zip%2Fwhortran00park_jp2%2Fwhortran00park_0507.jp2
A15970-255-a,https://iiif.archive.org/image/iiif/3/whortran00park%2Fwhortran00park_jp2.zip%2Fwhortran00park_jp2%2Fwhortran00park_0508.jp2
A15970-255-b,https://iiif.archive.org/image/iiif/3/whortran00park%2Fwhortran00park_jp2.zip%2Fwhortran00park_jp2%2Fwhortran00park_0509.jp2
A15970-256-a,https://iiif.archive.org/image/iiif/3/whortran00park%2Fwhortran00park_jp2.zip%2Fwhortran00park_jp2%2Fwhortran00park_0510.jp2
A15970-256-b,https://iiif.archive.org/image/iiif/3/whortran00park%2Fwhortran00park_jp2.zip%2Fwhortran00park_jp2%2Fwhortran00park_0511.jp2
A15970-257-a,https://iiif.archive.org/image/iiif/3/whortran00park%2Fwhortran00park_jp2.zip%2Fwhortran00park_jp2%2Fwhortran00park_0512.jp2
A15970-257-b,https://iiif.archive.org/image/iiif/3/whortran00park%2Fwhortran00park_jp2.zip%2Fwhortran00park_jp2%2Fwhortran00park_0513.jp2
A15970-258-a,https://iiif.archive.org/image/iiif/3/whortran00park%2Fwhortran00park_jp2.zip%2Fwhortran00park_jp2%2Fwhortran00park_0514.jp2
A15970-258-b,https://iiif.archive.org/image/iiif/3/whortran00park%2Fwhortran00park_jp2.zip%2Fwhortran00park_jp2%2Fwhortran00park_0515.jp2
A15970-259-a,https://iiif.archive.org/image/iiif/3/whortran00park%2Fwhortran00park_jp2.zip%2Fwhortran00park_jp2%2Fwhortran00park_0516.jp2
A15970-259-b,https://iiif.archive.org/image/iiif/3/whortran00park%2Fwhortran00park_jp2.zip%2Fwhortran00park_jp2%2Fwhortran00park_0517.jp2
A15970-260-a,https://iiif.archive.org/image/iiif/3/whortran00park%2Fwhortran00park_jp2.zip%2Fwhortran00park_jp2%2Fwhortran00park_0518.jp2
A15970-260-b,https://iiif.archive.org/image/iiif/3/whortran00park%2Fwhortran00park_jp2.zip%2Fwhortran00park_jp2%2Fwhortran00park_0519.jp2
A15970-261-a,https://iiif.archive.org/image/iiif/3/whortran00park%2Fwhortran00park_jp2.zip%2Fwhortran00park_jp2%2Fwhortran00park_0520.jp2
A15970-261-b,https://iiif.archive.org/image/iiif/3/whortran00park%2Fwhortran00park_jp2.zip%2Fwhortran00park_jp2%2Fwhortran00park_0521.jp2
A15970-262-a,https://iiif.archive.org/image/iiif/3/whortran00park%2Fwhortran00park_jp2.zip%2Fwhortran00park_jp2%2Fwhortran00park_0522.jp2
A15970-262-b,https://iiif.archive.org/image/iiif/3/whortran00park%2Fwhortran00park_jp2.zip%2Fwhortran00park_jp2%2Fwhortran00park_0523.jp2
A15970-263-a,https://iiif.archive.org/image/iiif/3/whortran00park%2Fwhortran00park_jp2.zip%2Fwhortran00park_jp2%2Fwhortran00park_0524.jp2
A15970-263-b,https://iiif.archive.org/image/iiif/3/whortran00park%2Fwhortran00park_jp2.zip%2Fwhortran00park_jp2%2Fwhortran00park_0525.jp2
A15970-264-a,https://iiif.archive.org/image/iiif/3/whortran00park%2Fwhortran00park_jp2.zip%2Fwhortran00park_jp2%2Fwhortran00park_0526.jp2
A15970-264-b,https://iiif.archive.org/image/iiif/3/whortran00park%2Fwhortran00park_jp2.zip%2Fwhortran00park_jp2%2Fwhortran00park_0527.jp2
A15970-265-a,https://iiif.archive.org/image/iiif/3/whortran00park%2Fwhortran00park_jp2.zip%2Fwhortran00park_jp2%2Fwhortran00park_0528.jp2
A15970-265-b,https://iiif.archive.org/image/iiif/3/whortran00park%2Fwhortran00park_jp2.zip%2Fwhortran00park_jp2%2Fwhortran00park_0529.jp2
A15970-266-a,https://iiif.archive.org/image/iiif/3/whortran00park%2Fwhortran00park_jp2.zip%2Fwhortran00park_jp2%2Fwhortran00park_0530.jp2
A15970-266-b,https://iiif.archive.org/image/iiif/3/whortran00park%2Fwhortran00park_jp2.zip%2Fwhortran00park_jp2%2Fwhortran00park_0531.jp2
A15970-267-a,https://iiif.archive.org/image/iiif/3/whortran00park%2Fwhortran00park_jp2.zip%2Fwhortran00park_jp2%2Fwhortran00park_0532.jp2
A15970-267-b,https://iiif.archive.org/image/iiif/3/whortran00park%2Fwhortran00park_jp2.zip%2Fwhortran00park_jp2%2Fwhortran00park_0533.jp2
A15970-268-a,https://iiif.archive.org/image/iiif/3/whortran00park%2Fwhortran00park_jp2.zip%2Fwhortran00park_jp2%2Fwhortran00park_0534.jp2
A15970-268-b,https://iiif.archive.org/image/iiif/3/whortran00park%2Fwhortran00park_jp2.zip%2Fwhortran00park_jp2%2Fwhortran00park_0535.jp2
A15970-269-a,https://iiif.archive.org/image/iiif/3/whortran00park%2Fwhortran00park_jp2.zip%2Fwhortran00park_jp2%2Fwhortran00park_0536.jp2
A15970-269-b,https://iiif.archive.org/image/iiif/3/whortran00park%2Fwhortran00park_jp2.zip%2Fwhortran00park_jp2%2Fwhortran00park_0537.jp2
A15970-270-a,https://iiif.archive.org/image/iiif/3/whortran00park%2Fwhortran00park_jp2.zip%2Fwhortran00park_jp2%2Fwhortran00park_0538.jp2
A15970-270-b,https://iiif.archive.org/image/iiif/3/whortran00park%2Fwhortran00park_jp2.zip%2Fwhortran00park_jp2%2Fwhortran00park_0539.jp2
A15970-271-a,https://iiif.archive.org/image/iiif/3/whortran00park%2Fwhortran00park_jp2.zip%2Fwhortran00park_jp2%2Fwhortran00park_0540.jp2
A15970-271-b,https://iiif.archive.org/image/iiif/3/whortran00park%2Fwhortran00park_jp2.zip%2Fwhortran00park_jp2%2Fwhortran00park_0541.jp2
A15970-272-a,https://iiif.archive.org/image/iiif/3/whortran00park%2Fwhortran00park_jp2.zip%2Fwhortran00park_jp2%2Fwhortran00park_0542.jp2
A15970-272-b,https://iiif.archive.org/image/iiif/3/whortran00park%2Fwhortran00park_jp2.zip%2Fwhortran00park_jp2%2Fwhortran00park_0543.jp2
