A16527-089-a,https://iiif.archive.org/iiif/monarchicketrage00stir$203
A16527-090-a ,https://iiif.archive.org/iiif/monarchicketrage00stir$204
A16527-090-b,https://iiif.archive.org/iiif/monarchicketrage00stir$205
A16527-091-a,https://iiif.archive.org/iiif/monarchicketrage00stir$206
A16527-091-b,https://iiif.archive.org/iiif/monarchicketrage00stir$207
A16527-092-a,https://iiif.archive.org/iiif/monarchicketrage00stir$208
A16527-092-b,https://iiif.archive.org/iiif/monarchicketrage00stir$209
A16527-093-a,https://iiif.archive.org/iiif/monarchicketrage00stir$210
A16527-093-b,https://iiif.archive.org/iiif/monarchicketrage00stir$211
A16527-094-a,https://iiif.archive.org/iiif/monarchicketrage00stir$212
A16527-094-b,https://iiif.archive.org/iiif/monarchicketrage00stir$213
A16527-095-a,https://iiif.archive.org/iiif/monarchicketrage00stir$214
A16527-095-b,https://iiif.archive.org/iiif/monarchicketrage00stir$215
A16527-096-a,https://iiif.archive.org/iiif/monarchicketrage00stir$216
A16527-096-b,https://iiif.archive.org/iiif/monarchicketrage00stir$217
A16527-097-a,https://iiif.archive.org/iiif/monarchicketrage00stir$218
A16527-097-b,https://iiif.archive.org/iiif/monarchicketrage00stir$219
A16527-098-a,https://iiif.archive.org/iiif/monarchicketrage00stir$220
A16527-098-b,https://iiif.archive.org/iiif/monarchicketrage00stir$221
A16527-099-a,https://iiif.archive.org/iiif/monarchicketrage00stir$222
A16527-099-b,https://iiif.archive.org/iiif/monarchicketrage00stir$223
A16527-100-a,https://iiif.archive.org/iiif/monarchicketrage00stir$224
A16527-100-b,https://iiif.archive.org/iiif/monarchicketrage00stir$225
A16527-101-a,https://iiif.archive.org/iiif/monarchicketrage00stir$226
A16527-101-b,https://iiif.archive.org/iiif/monarchicketrage00stir$227
A16527-102-a,https://iiif.archive.org/iiif/monarchicketrage00stir$228
A16527-102-b,https://iiif.archive.org/iiif/monarchicketrage00stir$229
A16527-103-a,https://iiif.archive.org/iiif/monarchicketrage00stir$230
A16527-103-b,https://iiif.archive.org/iiif/monarchicketrage00stir$231
A16527-104-a,https://iiif.archive.org/iiif/monarchicketrage00stir$232
A16527-104-b,https://iiif.archive.org/iiif/monarchicketrage00stir$233
A16527-105-a,https://iiif.archive.org/iiif/monarchicketrage00stir$234
A16527-105-b,https://iiif.archive.org/iiif/monarchicketrage00stir$235
A16527-106-a,https://iiif.archive.org/iiif/monarchicketrage00stir$236
A16527-106-b,https://iiif.archive.org/iiif/monarchicketrage00stir$237
A16527-107-a,https://iiif.archive.org/iiif/monarchicketrage00stir$238
A16527-107-b,https://iiif.archive.org/iiif/monarchicketrage00stir$239
A16527-108-a,https://iiif.archive.org/iiif/monarchicketrage00stir$240
A16527-108-b,https://iiif.archive.org/iiif/monarchicketrage00stir$241
A16527-109-a,https://iiif.archive.org/iiif/monarchicketrage00stir$242
A16527-109-b,https://iiif.archive.org/iiif/monarchicketrage00stir$243
A16527-110-a,https://iiif.archive.org/iiif/monarchicketrage00stir$244
A16527-110-b,https://iiif.archive.org/iiif/monarchicketrage00stir$245
A16527-111-a,https://iiif.archive.org/iiif/monarchicketrage00stir$246
A16527-111-b,https://iiif.archive.org/iiif/monarchicketrage00stir$247
A16527-112-a,https://iiif.archive.org/iiif/monarchicketrage00stir$248
A16527-112-b,https://iiif.archive.org/iiif/monarchicketrage00stir$249
A16527-113-a,https://iiif.archive.org/iiif/monarchicketrage00stir$250
A16527-113-b,https://iiif.archive.org/iiif/monarchicketrage00stir$251
A16527-114-a,https://iiif.archive.org/iiif/monarchicketrage00stir$252
A16527-114-b,https://iiif.archive.org/iiif/monarchicketrage00stir$253
A16527-115-a,https://iiif.archive.org/iiif/monarchicketrage00stir$254
A16527-115-b,https://iiif.archive.org/iiif/monarchicketrage00stir$255
A16527-116-a,https://iiif.archive.org/iiif/monarchicketrage00stir$256
A16527-116-b,https://iiif.archive.org/iiif/monarchicketrage00stir$257
A16527-117-a,https://iiif.archive.org/iiif/monarchicketrage00stir$258
A16527-117-b,https://iiif.archive.org/iiif/monarchicketrage00stir$259
A16527-118-a,https://iiif.archive.org/iiif/monarchicketrage00stir$260
A16527-118-b,https://iiif.archive.org/iiif/monarchicketrage00stir$261
A16527-119-a,https://iiif.archive.org/iiif/monarchicketrage00stir$262
A16527-119-b,https://iiif.archive.org/iiif/monarchicketrage00stir$263
A16527-120-a,https://iiif.archive.org/iiif/monarchicketrage00stir$264
A16527-120-b,https://iiif.archive.org/iiif/monarchicketrage00stir$265
A16527-121-a,https://iiif.archive.org/iiif/monarchicketrage00stir$266
A16527-121-b,https://iiif.archive.org/iiif/monarchicketrage00stir$267
A16527-122-a,https://iiif.archive.org/iiif/monarchicketrage00stir$268
A16527-122-b,https://iiif.archive.org/iiif/monarchicketrage00stir$269
A16527-123-a,https://iiif.archive.org/iiif/monarchicketrage00stir$270
A16527-123-b,https://iiif.archive.org/iiif/monarchicketrage00stir$271
A16527-124-a,https://iiif.archive.org/iiif/monarchicketrage00stir$272
A16527-124-b,https://iiif.archive.org/iiif/monarchicketrage00stir$273
A16527-126-a,https://iiif.archive.org/iiif/monarchicketrage00stir$274
A16527-126-b,https://iiif.archive.org/iiif/monarchicketrage00stir$275
A16527-127-a,https://iiif.archive.org/iiif/monarchicketrage00stir$276
A16527-127-b,https://iiif.archive.org/iiif/monarchicketrage00stir$277
A16527-128-a,https://iiif.archive.org/iiif/monarchicketrage00stir$278
A16527-128-b,https://iiif.archive.org/iiif/monarchicketrage00stir$279
A16527-129-a,https://iiif.archive.org/iiif/monarchicketrage00stir$280
A16527-129-b,https://iiif.archive.org/iiif/monarchicketrage00stir$281
A16527-130-a,https://iiif.archive.org/iiif/monarchicketrage00stir$282
A16527-130-b,https://iiif.archive.org/iiif/monarchicketrage00stir$283
A16527-131-a,https://iiif.archive.org/iiif/monarchicketrage00stir$284
A16527-131-b,https://iiif.archive.org/iiif/monarchicketrage00stir$285
A16527-132-a,https://iiif.archive.org/iiif/monarchicketrage00stir$286
A16527-132-b,https://iiif.archive.org/iiif/monarchicketrage00stir$287
A16527-133-a,https://iiif.archive.org/iiif/monarchicketrage00stir$288
A16527-133-b,https://iiif.archive.org/iiif/monarchicketrage00stir$289
A16527-134-a,https://iiif.archive.org/iiif/monarchicketrage00stir$290
A16527-134-b,https://iiif.archive.org/iiif/monarchicketrage00stir$291
A16527-135-a,https://iiif.archive.org/iiif/monarchicketrage00stir$292
A16527-135-b,https://iiif.archive.org/iiif/monarchicketrage00stir$293
A16527-136-a,https://iiif.archive.org/iiif/monarchicketrage00stir$294
A16527-136-b,https://iiif.archive.org/iiif/monarchicketrage00stir$295
A16527-137-a,https://iiif.archive.org/iiif/monarchicketrage00stir$296
A16527-137-b,https://iiif.archive.org/iiif/monarchicketrage00stir$297
A16527-138-a,https://iiif.archive.org/iiif/monarchicketrage00stir$298
A16527-138-b,https://iiif.archive.org/iiif/monarchicketrage00stir$299
A16527-139-a,https://iiif.archive.org/iiif/monarchicketrage00stir$300
A16527-139-b,https://iiif.archive.org/iiif/monarchicketrage00stir$301
A16527-140-a,https://iiif.archive.org/iiif/monarchicketrage00stir$302
A16527-140-b,https://iiif.archive.org/iiif/monarchicketrage00stir$303
A16527-141-a,https://iiif.archive.org/iiif/monarchicketrage00stir$304
A16527-141-b,https://iiif.archive.org/iiif/monarchicketrage00stir$305
A16527-142-a,https://iiif.archive.org/iiif/monarchicketrage00stir$306
A16527-142-b,https://iiif.archive.org/iiif/monarchicketrage00stir$307
A16527-143-a,https://iiif.archive.org/iiif/monarchicketrage00stir$308
A16527-143-b,https://iiif.archive.org/iiif/monarchicketrage00stir$309
A16527-144-a,https://iiif.archive.org/iiif/monarchicketrage00stir$310
A16527-144-b,https://iiif.archive.org/iiif/monarchicketrage00stir$311
