A16527-003-a,https://iiif.archive.org/iiif/monarchicketrage00stir$24
A16527-003-b,https://iiif.archive.org/iiif/monarchicketrage00stir$25
A16527-004-a,https://iiif.archive.org/iiif/monarchicketrage00stir$26
A16527-004-b,https://iiif.archive.org/iiif/monarchicketrage00stir$27
A16527-005-a,https://iiif.archive.org/iiif/monarchicketrage00stir$28
A16527-005-b,https://iiif.archive.org/iiif/monarchicketrage00stir$29
A16527-006-a,https://iiif.archive.org/iiif/monarchicketrage00stir$30
A16527-006-b,https://iiif.archive.org/iiif/monarchicketrage00stir$31
A16527-007-a,https://iiif.archive.org/iiif/monarchicketrage00stir$32
A16527-007-b,https://iiif.archive.org/iiif/monarchicketrage00stir$33
A16527-008-a,https://iiif.archive.org/iiif/monarchicketrage00stir$34
A16527-008-b,https://iiif.archive.org/iiif/monarchicketrage00stir$35
A16527-009-a,https://iiif.archive.org/iiif/monarchicketrage00stir$36
A16527-009-b,https://iiif.archive.org/iiif/monarchicketrage00stir$37
A16527-010-a,https://iiif.archive.org/iiif/monarchicketrage00stir$38
A16527-010-b,https://iiif.archive.org/iiif/monarchicketrage00stir$39
A16527-011-a,https://iiif.archive.org/iiif/monarchicketrage00stir$40
A16527-011-b,https://iiif.archive.org/iiif/monarchicketrage00stir$41
A16527-012-a,https://iiif.archive.org/iiif/monarchicketrage00stir$42
A16527-012-b,https://iiif.archive.org/iiif/monarchicketrage00stir$43
A16527-013-a,https://iiif.archive.org/iiif/monarchicketrage00stir$44
A16527-013-b,https://iiif.archive.org/iiif/monarchicketrage00stir$45
A16527-014-a,https://iiif.archive.org/iiif/monarchicketrage00stir$46
A16527-014-b,https://iiif.archive.org/iiif/monarchicketrage00stir$47
A16527-015-a,https://iiif.archive.org/iiif/monarchicketrage00stir$48
A16527-015-b,https://iiif.archive.org/iiif/monarchicketrage00stir$49
A16527-016-a,https://iiif.archive.org/iiif/monarchicketrage00stir$50
A16527-016-b,https://iiif.archive.org/iiif/monarchicketrage00stir$51
A16527-017-a,https://iiif.archive.org/iiif/monarchicketrage00stir$52
A16527-017-b,https://iiif.archive.org/iiif/monarchicketrage00stir$53
A16527-018-a,https://iiif.archive.org/iiif/monarchicketrage00stir$54
A16527-018-b,https://iiif.archive.org/iiif/monarchicketrage00stir$55
A16527-019-a,https://iiif.archive.org/iiif/monarchicketrage00stir$56
A16527-019-b,https://iiif.archive.org/iiif/monarchicketrage00stir$57
A16527-020-a,https://iiif.archive.org/iiif/monarchicketrage00stir$58
A16527-020-b,https://iiif.archive.org/iiif/monarchicketrage00stir$59
A16527-021-a,https://iiif.archive.org/iiif/monarchicketrage00stir$60
A16527-021-b,https://iiif.archive.org/iiif/monarchicketrage00stir$61
A16527-022-a,https://iiif.archive.org/iiif/monarchicketrage00stir$62
A16527-022-b,https://iiif.archive.org/iiif/monarchicketrage00stir$63
A16527-023-a,https://iiif.archive.org/iiif/monarchicketrage00stir$64
A16527-023-b,https://iiif.archive.org/iiif/monarchicketrage00stir$65
A16527-024-a,https://iiif.archive.org/iiif/monarchicketrage00stir$66
A16527-024-b,https://iiif.archive.org/iiif/monarchicketrage00stir$67
A16527-025-a,https://iiif.archive.org/iiif/monarchicketrage00stir$68
A16527-025-b,https://iiif.archive.org/iiif/monarchicketrage00stir$69
A16527-026-a,https://iiif.archive.org/iiif/monarchicketrage00stir$70
A16527-026-b,https://iiif.archive.org/iiif/monarchicketrage00stir$71
A16527-027-a,https://iiif.archive.org/iiif/monarchicketrage00stir$72
A16527-027-b,https://iiif.archive.org/iiif/monarchicketrage00stir$73
A16527-028-a,https://iiif.archive.org/iiif/monarchicketrage00stir$76
A16527-028-b,https://iiif.archive.org/iiif/monarchicketrage00stir$77
A16527-029-a,https://iiif.archive.org/iiif/monarchicketrage00stir$78
A16527-029-b,https://iiif.archive.org/iiif/monarchicketrage00stir$79
A16527-030-a,https://iiif.archive.org/iiif/monarchicketrage00stir$80
A16527-030-b,https://iiif.archive.org/iiif/monarchicketrage00stir$81
A16527-031-a,https://iiif.archive.org/iiif/monarchicketrage00stir$82
A16527-031-b,https://iiif.archive.org/iiif/monarchicketrage00stir$83
A16527-032-a,https://iiif.archive.org/iiif/monarchicketrage00stir$84
A16527-032-b,https://iiif.archive.org/iiif/monarchicketrage00stir$85
A16527-033-a,https://iiif.archive.org/iiif/monarchicketrage00stir$86
A16527-033-b,https://iiif.archive.org/iiif/monarchicketrage00stir$87
A16527-034-a,https://iiif.archive.org/iiif/monarchicketrage00stir$88
A16527-034-b,https://iiif.archive.org/iiif/monarchicketrage00stir$89
A16527-035-a,https://iiif.archive.org/iiif/monarchicketrage00stir$90
A16527-035-b,https://iiif.archive.org/iiif/monarchicketrage00stir$91
A16527-036-a,https://iiif.archive.org/iiif/monarchicketrage00stir$92
A16527-036-b,https://iiif.archive.org/iiif/monarchicketrage00stir$93
A16527-037-a,https://iiif.archive.org/iiif/monarchicketrage00stir$94
A16527-037-b,https://iiif.archive.org/iiif/monarchicketrage00stir$95
A16527-038-a,https://iiif.archive.org/iiif/monarchicketrage00stir$96
A16527-038-b,https://iiif.archive.org/iiif/monarchicketrage00stir$97
A16527-039-a,https://iiif.archive.org/iiif/monarchicketrage00stir$98
A16527-039-b,https://iiif.archive.org/iiif/monarchicketrage00stir$99
A16527-040-a,https://iiif.archive.org/iiif/monarchicketrage00stir$100
A16527-040-b,https://iiif.archive.org/iiif/monarchicketrage00stir$101
A16527-041-a,https://iiif.archive.org/iiif/monarchicketrage00stir$102
A16527-041-b,https://iiif.archive.org/iiif/monarchicketrage00stir$103
A16527-042-a,https://iiif.archive.org/iiif/monarchicketrage00stir$104
A16527-042-b,https://iiif.archive.org/iiif/monarchicketrage00stir$105
A16527-043-a,https://iiif.archive.org/iiif/monarchicketrage00stir$106
A16527-043-b,https://iiif.archive.org/iiif/monarchicketrage00stir$107
A16527-044-a,https://iiif.archive.org/iiif/monarchicketrage00stir$108
A16527-044-b,https://iiif.archive.org/iiif/monarchicketrage00stir$109
A16527-045-a,https://iiif.archive.org/iiif/monarchicketrage00stir$110
A16527-045-b,https://iiif.archive.org/iiif/monarchicketrage00stir$111
A16527-046-a,https://iiif.archive.org/iiif/monarchicketrage00stir$112
A16527-046-b,https://iiif.archive.org/iiif/monarchicketrage00stir$113
A16527-047-a,https://iiif.archive.org/iiif/monarchicketrage00stir$114
A16527-047-b,https://iiif.archive.org/iiif/monarchicketrage00stir$115
A16527-048-a,https://iiif.archive.org/iiif/monarchicketrage00stir$116
A16527-048-b,https://iiif.archive.org/iiif/monarchicketrage00stir$117
A16527-049-a,https://iiif.archive.org/iiif/monarchicketrage00stir$118
A16527-049-b,https://iiif.archive.org/iiif/monarchicketrage00stir$119
