A18426-001-b,https://iiif.archive.org/iiif/vviddovvesteares00chap$7
A18426-002-b,https://iiif.archive.org/iiif/vviddovvesteares00chap$9
A18426-003-a,https://iiif.archive.org/iiif/vviddovvesteares00chap$10
A18426-003-b,https://iiif.archive.org/iiif/vviddovvesteares00chap$11
A18426-004-a,https://iiif.archive.org/iiif/vviddovvesteares00chap$12
A18426-004-b,https://iiif.archive.org/iiif/vviddovvesteares00chap$13
A18426-005-a,https://iiif.archive.org/iiif/vviddovvesteares00chap$14
A18426-005-b,https://iiif.archive.org/iiif/vviddovvesteares00chap$15
A18426-006-a,https://iiif.archive.org/iiif/vviddovvesteares00chap$16
A18426-006-b,https://iiif.archive.org/iiif/vviddovvesteares00chap$17
A18426-007-a,https://iiif.archive.org/iiif/vviddovvesteares00chap$18
A18426-007-b,https://iiif.archive.org/iiif/vviddovvesteares00chap$19
A18426-008-a,https://iiif.archive.org/iiif/vviddovvesteares00chap$20
A18426-008-b,https://iiif.archive.org/iiif/vviddovvesteares00chap$21
A18426-009-a,https://iiif.archive.org/iiif/vviddovvesteares00chap$22
A18426-009-b,https://iiif.archive.org/iiif/vviddovvesteares00chap$23
A18426-010-a,https://iiif.archive.org/iiif/vviddovvesteares00chap$24
A18426-010-b,https://iiif.archive.org/iiif/vviddovvesteares00chap$25
A18426-011-a,https://iiif.archive.org/iiif/vviddovvesteares00chap$26
A18426-011-b,https://iiif.archive.org/iiif/vviddovvesteares00chap$27
A18426-012-a,https://iiif.archive.org/iiif/vviddovvesteares00chap$28
A18426-012-b,https://iiif.archive.org/iiif/vviddovvesteares00chap$29
A18426-013-a,https://iiif.archive.org/iiif/vviddovvesteares00chap$30
A18426-013-b,https://iiif.archive.org/iiif/vviddovvesteares00chap$31
A18426-014-a,https://iiif.archive.org/iiif/vviddovvesteares00chap$32
A18426-014-b,https://iiif.archive.org/iiif/vviddovvesteares00chap$33
A18426-015-a,https://iiif.archive.org/iiif/vviddovvesteares00chap$34
A18426-015-b,https://iiif.archive.org/iiif/vviddovvesteares00chap$35
A18426-016-a,https://iiif.archive.org/iiif/vviddovvesteares00chap$36
A18426-016-b,https://iiif.archive.org/iiif/vviddovvesteares00chap$37
A18426-017-a,https://iiif.archive.org/iiif/vviddovvesteares00chap$38
A18426-017-b,https://iiif.archive.org/iiif/vviddovvesteares00chap$39
A18426-018-a,https://iiif.archive.org/iiif/vviddovvesteares00chap$40
A18426-018-b,https://iiif.archive.org/iiif/vviddovvesteares00chap$41
A18426-019-a,https://iiif.archive.org/iiif/vviddovvesteares00chap$42
A18426-019-b,https://iiif.archive.org/iiif/vviddovvesteares00chap$43
A18426-020-a,https://iiif.archive.org/iiif/vviddovvesteares00chap$44
A18426-020-b,https://iiif.archive.org/iiif/vviddovvesteares00chap$45
A18426-020-b1,https://iiif.archive.org/iiif/vviddovvesteares00chap$46
A18426-020-b2,https://iiif.archive.org/iiif/vviddovvesteares00chap$47
A18426-021-a,https://iiif.archive.org/iiif/vviddovvesteares00chap$48
A18426-021-b,https://iiif.archive.org/iiif/vviddovvesteares00chap$49
A18426-022-a,https://iiif.archive.org/iiif/vviddovvesteares00chap$50
A18426-022-b,https://iiif.archive.org/iiif/vviddovvesteares00chap$51
A18426-023-a,https://iiif.archive.org/iiif/vviddovvesteares00chap$52
A18426-023-b,https://iiif.archive.org/iiif/vviddovvesteares00chap$53
A18426-024-a,https://iiif.archive.org/iiif/vviddovvesteares00chap$54
A18426-024-b,https://iiif.archive.org/iiif/vviddovvesteares00chap$55
A18426-025-a,https://iiif.archive.org/iiif/vviddovvesteares00chap$56
A18426-025-b,https://iiif.archive.org/iiif/vviddovvesteares00chap$57
A18426-026-a,https://iiif.archive.org/iiif/vviddovvesteares00chap$58
A18426-026-b,https://iiif.archive.org/iiif/vviddovvesteares00chap$59
A18426-027-a,https://iiif.archive.org/iiif/vviddovvesteares00chap$60
A18426-027-b,https://iiif.archive.org/iiif/vviddovvesteares00chap$61
A18426-028-a,https://iiif.archive.org/iiif/vviddovvesteares00chap$62
A18426-028-b,https://iiif.archive.org/iiif/vviddovvesteares00chap$63
A18426-029-a,https://iiif.archive.org/iiif/vviddovvesteares00chap$64
A18426-029-b,https://iiif.archive.org/iiif/vviddovvesteares00chap$65
A18426-030-a,https://iiif.archive.org/iiif/vviddovvesteares00chap$66
A18426-030-b,https://iiif.archive.org/iiif/vviddovvesteares00chap$67
A18426-031-a,https://iiif.archive.org/iiif/vviddovvesteares00chap$68
A18426-031-b,https://iiif.archive.org/iiif/vviddovvesteares00chap$69
A18426-032-a,https://iiif.archive.org/iiif/vviddovvesteares00chap$70
A18426-032-b,https://iiif.archive.org/iiif/vviddovvesteares00chap$71
A18426-033-a,https://iiif.archive.org/iiif/vviddovvesteares00chap$72
A18426-033-b,https://iiif.archive.org/iiif/vviddovvesteares00chap$73
A18426-034-a,https://iiif.archive.org/iiif/vviddovvesteares00chap$74
A18426-034-b,https://iiif.archive.org/iiif/vviddovvesteares00chap$75
A18426-035-a,https://iiif.archive.org/iiif/vviddovvesteares00chap$76
A18426-035-b,https://iiif.archive.org/iiif/vviddovvesteares00chap$77
A18426-036-a,https://iiif.archive.org/iiif/vviddovvesteares00chap$78
A18426-036-b,https://iiif.archive.org/iiif/vviddovvesteares00chap$79
A18426-037-a,https://iiif.archive.org/iiif/vviddovvesteares00chap$80
A18426-037-b,https://iiif.archive.org/iiif/vviddovvesteares00chap$81
A18426-038-a,https://iiif.archive.org/iiif/vviddovvesteares00chap$82
A18426-038-b,https://iiif.archive.org/iiif/vviddovvesteares00chap$83
A18426-039-a,https://iiif.archive.org/iiif/vviddovvesteares00chap$84
A18426-039-b,https://iiif.archive.org/iiif/vviddovvesteares00chap$85
A18426-040-a,https://iiif.archive.org/iiif/vviddovvesteares00chap$86
