A18407-001-b,https://iiif.archive.org/iiif/eastwardhoeasitw00chap$7
A18407-002-a,https://iiif.archive.org/iiif/eastwardhoeasitw00chap$8
A18407-002-b,https://iiif.archive.org/iiif/eastwardhoeasitw00chap$9
A18407-003-a,https://iiif.archive.org/iiif/eastwardhoeasitw00chap$10
A18407-003-b,https://iiif.archive.org/iiif/eastwardhoeasitw00chap$11
A18407-004-a,https://iiif.archive.org/iiif/eastwardhoeasitw00chap$12
A18407-004-b,https://iiif.archive.org/iiif/eastwardhoeasitw00chap$13
A18407-005-a,https://iiif.archive.org/iiif/eastwardhoeasitw00chap$14
A18407-005-b,https://iiif.archive.org/iiif/eastwardhoeasitw00chap$15
A18407-006-a,https://iiif.archive.org/iiif/eastwardhoeasitw00chap$16
A18407-006-b,https://iiif.archive.org/iiif/eastwardhoeasitw00chap$17
A18407-007-a,https://iiif.archive.org/iiif/eastwardhoeasitw00chap$18
A18407-007-b,https://iiif.archive.org/iiif/eastwardhoeasitw00chap$19
A18407-008-a,https://iiif.archive.org/iiif/eastwardhoeasitw00chap$20
A18407-008-b,https://iiif.archive.org/iiif/eastwardhoeasitw00chap$21
A18407-009-a,https://iiif.archive.org/iiif/eastwardhoeasitw00chap$22
A18407-009-b,https://iiif.archive.org/iiif/eastwardhoeasitw00chap$23
A18407-010-a,https://iiif.archive.org/iiif/eastwardhoeasitw00chap$24
A18407-010-b,https://iiif.archive.org/iiif/eastwardhoeasitw00chap$25
A18407-011-a,https://iiif.archive.org/iiif/eastwardhoeasitw00chap$26
A18407-011-b,https://iiif.archive.org/iiif/eastwardhoeasitw00chap$27
A18407-012-a,https://iiif.archive.org/iiif/eastwardhoeasitw00chap$28
A18407-012-b,https://iiif.archive.org/iiif/eastwardhoeasitw00chap$29
A18407-013-a,https://iiif.archive.org/iiif/eastwardhoeasitw00chap$30
A18407-013-b,https://iiif.archive.org/iiif/eastwardhoeasitw00chap$31
A18407-014-a,https://iiif.archive.org/iiif/eastwardhoeasitw00chap$32
A18407-014-b,https://iiif.archive.org/iiif/eastwardhoeasitw00chap$33
A18407-015-a,https://iiif.archive.org/iiif/eastwardhoeasitw00chap$34
A18407-015-b,https://iiif.archive.org/iiif/eastwardhoeasitw00chap$35
A18407-016-a,https://iiif.archive.org/iiif/eastwardhoeasitw00chap$36
A18407-016-b,https://iiif.archive.org/iiif/eastwardhoeasitw00chap$37
A18407-017-a,https://iiif.archive.org/iiif/eastwardhoeasitw00chap$38
A18407-017-b,https://iiif.archive.org/iiif/eastwardhoeasitw00chap$39
A18407-018-a,https://iiif.archive.org/iiif/eastwardhoeasitw00chap$40
A18407-018-b,https://iiif.archive.org/iiif/eastwardhoeasitw00chap$41
A18407-019-a,https://iiif.archive.org/iiif/eastwardhoeasitw00chap$42
A18407-019-b,https://iiif.archive.org/iiif/eastwardhoeasitw00chap$43
A18407-020-a,https://iiif.archive.org/iiif/eastwardhoeasitw00chap$44
A18407-020-b,https://iiif.archive.org/iiif/eastwardhoeasitw00chap$45
A18407-021-a,https://iiif.archive.org/iiif/eastwardhoeasitw00chap$46
A18407-021-b,https://iiif.archive.org/iiif/eastwardhoeasitw00chap$47
A18407-022-a,https://iiif.archive.org/iiif/eastwardhoeasitw00chap$48
A18407-022-b,https://iiif.archive.org/iiif/eastwardhoeasitw00chap$49
A18407-023-a,https://iiif.archive.org/iiif/eastwardhoeasitw00chap$50
A18407-023-b,https://iiif.archive.org/iiif/eastwardhoeasitw00chap$51
A18407-024-a,https://iiif.archive.org/iiif/eastwardhoeasitw00chap$52
A18407-024-b,https://iiif.archive.org/iiif/eastwardhoeasitw00chap$53
A18407-025-a,https://iiif.archive.org/iiif/eastwardhoeasitw00chap$54
A18407-025-b,https://iiif.archive.org/iiif/eastwardhoeasitw00chap$55
A18407-026-a,https://iiif.archive.org/iiif/eastwardhoeasitw00chap$56
A18407-026-b,https://iiif.archive.org/iiif/eastwardhoeasitw00chap$57
A18407-027-a,https://iiif.archive.org/iiif/eastwardhoeasitw00chap$58
A18407-027-b,https://iiif.archive.org/iiif/eastwardhoeasitw00chap$59
A18407-028-a,https://iiif.archive.org/iiif/eastwardhoeasitw00chap$60
A18407-028-b,https://iiif.archive.org/iiif/eastwardhoeasitw00chap$61
A18407-029-a,https://iiif.archive.org/iiif/eastwardhoeasitw00chap$62
A18407-029-b,https://iiif.archive.org/iiif/eastwardhoeasitw00chap$63
A18407-030-a,https://iiif.archive.org/iiif/eastwardhoeasitw00chap$64
A18407-030-b,https://iiif.archive.org/iiif/eastwardhoeasitw00chap$65
A18407-031-a,https://iiif.archive.org/iiif/eastwardhoeasitw00chap$66
A18407-031-b,https://iiif.archive.org/iiif/eastwardhoeasitw00chap$67
A18407-032-a,https://iiif.archive.org/iiif/eastwardhoeasitw00chap$68
A18407-032-b,https://iiif.archive.org/iiif/eastwardhoeasitw00chap$69
A18407-033-a,https://iiif.archive.org/iiif/eastwardhoeasitw00chap$70
A18407-033-b,https://iiif.archive.org/iiif/eastwardhoeasitw00chap$71
A18407-034-a,https://iiif.archive.org/iiif/eastwardhoeasitw00chap$72
A18407-034-b,https://iiif.archive.org/iiif/eastwardhoeasitw00chap$73
A18407-035-a,https://iiif.archive.org/iiif/eastwardhoeasitw00chap$74
A18407-035-b,https://iiif.archive.org/iiif/eastwardhoeasitw00chap$75
A18407-036-a,https://iiif.archive.org/iiif/eastwardhoeasitw00chap$76
A18407-036-b,https://iiif.archive.org/iiif/eastwardhoeasitw00chap$77
