A20689-001-b,https://iiif.archive.org/iiif/firstbookeofsong00dowl$7
A20689-002-a,https://iiif.archive.org/iiif/firstbookeofsong00dowl$8
A20689-002-b,https://iiif.archive.org/iiif/firstbookeofsong00dowl$9
A20689-003-a,https://iiif.archive.org/iiif/firstbookeofsong00dowl$10
A20689-003-b,https://iiif.archive.org/iiif/firstbookeofsong00dowl$11
A20689-004-a,https://iiif.archive.org/iiif/firstbookeofsong00dowl$12
A20689-004-b,https://iiif.archive.org/iiif/firstbookeofsong00dowl$13
A20689-005-a,https://iiif.archive.org/iiif/firstbookeofsong00dowl$14
A20689-005-b,https://iiif.archive.org/iiif/firstbookeofsong00dowl$15
A20689-006-a,https://iiif.archive.org/iiif/firstbookeofsong00dowl$16
A20689-006-b,https://iiif.archive.org/iiif/firstbookeofsong00dowl$17
A20689-007-a,https://iiif.archive.org/iiif/firstbookeofsong00dowl$18
A20689-007-b,https://iiif.archive.org/iiif/firstbookeofsong00dowl$19
A20689-008-a,https://iiif.archive.org/iiif/firstbookeofsong00dowl$20
A20689-008-b,https://iiif.archive.org/iiif/firstbookeofsong00dowl$21
A20689-009-a,https://iiif.archive.org/iiif/firstbookeofsong00dowl$22
A20689-009-b,https://iiif.archive.org/iiif/firstbookeofsong00dowl$23
A20689-010-a,https://iiif.archive.org/iiif/firstbookeofsong00dowl$24
A20689-010-b,https://iiif.archive.org/iiif/firstbookeofsong00dowl$25
A20689-011-a,https://iiif.archive.org/iiif/firstbookeofsong00dowl$26
A20689-011-b,https://iiif.archive.org/iiif/firstbookeofsong00dowl$27
A20689-012-a,https://iiif.archive.org/iiif/firstbookeofsong00dowl$28
A20689-012-b,https://iiif.archive.org/iiif/firstbookeofsong00dowl$29
A20689-013-a,https://iiif.archive.org/iiif/firstbookeofsong00dowl$30
A20689-013-b,https://iiif.archive.org/iiif/firstbookeofsong00dowl$31
A20689-014-a,https://iiif.archive.org/iiif/firstbookeofsong00dowl$32
A20689-014-b,https://iiif.archive.org/iiif/firstbookeofsong00dowl$33
A20689-015-a,https://iiif.archive.org/iiif/firstbookeofsong00dowl$34
A20689-015-b,https://iiif.archive.org/iiif/firstbookeofsong00dowl$35
A20689-016-a,https://iiif.archive.org/iiif/firstbookeofsong00dowl$36
A20689-016-b,https://iiif.archive.org/iiif/firstbookeofsong00dowl$37
A20689-017-a,https://iiif.archive.org/iiif/firstbookeofsong00dowl$38
A20689-017-b,https://iiif.archive.org/iiif/firstbookeofsong00dowl$39
A20689-018-a,https://iiif.archive.org/iiif/firstbookeofsong00dowl$40
A20689-018-b,https://iiif.archive.org/iiif/firstbookeofsong00dowl$41
A20689-019-a,https://iiif.archive.org/iiif/firstbookeofsong00dowl$42
A20689-019-b,https://iiif.archive.org/iiif/firstbookeofsong00dowl$43
A20689-020-a,https://iiif.archive.org/iiif/firstbookeofsong00dowl$44
A20689-020-b,https://iiif.archive.org/iiif/firstbookeofsong00dowl$45
A20689-021-a,https://iiif.archive.org/iiif/firstbookeofsong00dowl$46
A20689-021-b,https://iiif.archive.org/iiif/firstbookeofsong00dowl$47
A20689-022-a,https://iiif.archive.org/iiif/firstbookeofsong00dowl$48
A20689-022-b,https://iiif.archive.org/iiif/firstbookeofsong00dowl$49
A20689-023-a,https://iiif.archive.org/iiif/firstbookeofsong00dowl$50
A20689-023-b,https://iiif.archive.org/iiif/firstbookeofsong00dowl$51
A20689-024-a,https://iiif.archive.org/iiif/firstbookeofsong00dowl$52
A20689-024-b,https://iiif.archive.org/iiif/firstbookeofsong00dowl$53
A20689-025-a,https://iiif.archive.org/iiif/firstbookeofsong00dowl$54
