A21159-001-a,https://iiif.archive.org/iiif/damonandpithias100edwauoft$
A21159-001-b,https://iiif.archive.org/iiif/damonandpithias100edwauoft$17
A21159-002-a,https://iiif.archive.org/iiif/damonandpithias100edwauoft$
A21159-002-b,https://iiif.archive.org/iiif/damonandpithias100edwauoft$21
A21159-003-a,https://iiif.archive.org/iiif/damonandpithias100edwauoft$22
A21159-003-b,https://iiif.archive.org/iiif/damonandpithias100edwauoft$25
A21159-004-a,https://iiif.archive.org/iiif/damonandpithias100edwauoft$26
A21159-004-b,https://iiif.archive.org/iiif/damonandpithias100edwauoft$29
A21159-005-a,https://iiif.archive.org/iiif/damonandpithias100edwauoft$30
A21159-005-b,https://iiif.archive.org/iiif/damonandpithias100edwauoft$33
A21159-006-a,https://iiif.archive.org/iiif/damonandpithias100edwauoft$34
A21159-006-b,https://iiif.archive.org/iiif/damonandpithias100edwauoft$37
A21159-007-a,https://iiif.archive.org/iiif/damonandpithias100edwauoft$38
A21159-007-b,https://iiif.archive.org/iiif/damonandpithias100edwauoft$41
A21159-008-a,https://iiif.archive.org/iiif/damonandpithias100edwauoft$42
A21159-008-b,https://iiif.archive.org/iiif/damonandpithias100edwauoft$45
A21159-009-a,https://iiif.archive.org/iiif/damonandpithias100edwauoft$46
A21159-009-b,https://iiif.archive.org/iiif/damonandpithias100edwauoft$49
A21159-010-a,https://iiif.archive.org/iiif/damonandpithias100edwauoft$50
A21159-010-b,https://iiif.archive.org/iiif/damonandpithias100edwauoft$53
A21159-011-a,https://iiif.archive.org/iiif/damonandpithias100edwauoft$54
A21159-011-b,https://iiif.archive.org/iiif/damonandpithias100edwauoft$57
A21159-012-a,https://iiif.archive.org/iiif/damonandpithias100edwauoft$58
A21159-012-b,https://iiif.archive.org/iiif/damonandpithias100edwauoft$61
A21159-013-a,https://iiif.archive.org/iiif/damonandpithias100edwauoft$62
A21159-013-b,https://iiif.archive.org/iiif/damonandpithias100edwauoft$65
A21159-014-a,https://iiif.archive.org/iiif/damonandpithias100edwauoft$66
A21159-014-b,https://iiif.archive.org/iiif/damonandpithias100edwauoft$69
A21159-015-a,https://iiif.archive.org/iiif/damonandpithias100edwauoft$70
A21159-015-b,https://iiif.archive.org/iiif/damonandpithias100edwauoft$73
A21159-016-a,https://iiif.archive.org/iiif/damonandpithias100edwauoft$74
A21159-016-b,https://iiif.archive.org/iiif/damonandpithias100edwauoft$77
A21159-017-a,https://iiif.archive.org/iiif/damonandpithias100edwauoft$78
A21159-017-b,https://iiif.archive.org/iiif/damonandpithias100edwauoft$81
A21159-018-a,https://iiif.archive.org/iiif/damonandpithias100edwauoft$82
A21159-018-b,https://iiif.archive.org/iiif/damonandpithias100edwauoft$85
A21159-019-a,https://iiif.archive.org/iiif/damonandpithias100edwauoft$86
A21159-019-b,https://iiif.archive.org/iiif/damonandpithias100edwauoft$89
A21159-020-a,https://iiif.archive.org/iiif/damonandpithias100edwauoft$90
A21159-020-b,https://iiif.archive.org/iiif/damonandpithias100edwauoft$93
A21159-021-a,https://iiif.archive.org/iiif/damonandpithias100edwauoft$94
A21159-021-b,https://iiif.archive.org/iiif/damonandpithias100edwauoft$97
A21159-022-a,https://iiif.archive.org/iiif/damonandpithias100edwauoft$98
A21159-022-b,https://iiif.archive.org/iiif/damonandpithias100edwauoft$101
A21159-023-a,https://iiif.archive.org/iiif/damonandpithias100edwauoft$102
A21159-023-b,https://iiif.archive.org/iiif/damonandpithias100edwauoft$105
A21159-024-a,https://iiif.archive.org/iiif/damonandpithias100edwauoft$106
A21159-024-b,https://iiif.archive.org/iiif/damonandpithias100edwauoft$109
A21159-025-a,https://iiif.archive.org/iiif/damonandpithias100edwauoft$110
A21159-025-b,https://iiif.archive.org/iiif/damonandpithias100edwauoft$113
A21159-026-a,https://iiif.archive.org/iiif/damonandpithias100edwauoft$114
A21159-026-b,https://iiif.archive.org/iiif/damonandpithias100edwauoft$117
A21159-027-a,https://iiif.archive.org/iiif/damonandpithias100edwauoft$118
A21159-027-b,https://iiif.archive.org/iiif/damonandpithias100edwauoft$121
A21159-028-a,https://iiif.archive.org/iiif/damonandpithias100edwauoft$122
A21159-028-b,https://iiif.archive.org/iiif/damonandpithias100edwauoft$125
A21159-029-a,https://iiif.archive.org/iiif/damonandpithias100edwauoft$126
A21159-029-b,https://iiif.archive.org/iiif/damonandpithias100edwauoft$129
A21159-030-a,https://iiif.archive.org/iiif/damonandpithias100edwauoft$130
A21159-030-b,https://iiif.archive.org/iiif/damonandpithias100edwauoft$133
