A26296-001-b,https://iiif.archive.org/iiif/voyagesadventure00ayre$7
A26296-002-b,https://iiif.archive.org/iiif/voyagesadventure00ayre$9
A26296-003-a,https://iiif.archive.org/iiif/voyagesadventure00ayre$10
A26296-003-b,https://iiif.archive.org/iiif/voyagesadventure00ayre$11
A26296-004-a,https://iiif.archive.org/iiif/voyagesadventure00ayre$12
A26296-004-b,https://iiif.archive.org/iiif/voyagesadventure00ayre$13
A26296-005-a,https://iiif.archive.org/iiif/voyagesadventure00ayre$14
A26296-005-b,https://iiif.archive.org/iiif/voyagesadventure00ayre$15
A26296-006-a,https://iiif.archive.org/iiif/voyagesadventure00ayre$16
A26296-006-b,https://iiif.archive.org/iiif/voyagesadventure00ayre$17
A26296-007-a,https://iiif.archive.org/iiif/voyagesadventure00ayre$18
A26296-007-b,https://iiif.archive.org/iiif/voyagesadventure00ayre$19
A26296-008-a,https://iiif.archive.org/iiif/voyagesadventure00ayre$20
A26296-008-b,https://iiif.archive.org/iiif/voyagesadventure00ayre$21
A26296-009-a,https://iiif.archive.org/iiif/voyagesadventure00ayre$22
A26296-009-b,https://iiif.archive.org/iiif/voyagesadventure00ayre$23
A26296-010-a,https://iiif.archive.org/iiif/voyagesadventure00ayre$24
A26296-010-b,https://iiif.archive.org/iiif/voyagesadventure00ayre$25
A26296-011-a,https://iiif.archive.org/iiif/voyagesadventure00ayre$26
A26296-011-b,https://iiif.archive.org/iiif/voyagesadventure00ayre$27
A26296-012-a,https://iiif.archive.org/iiif/voyagesadventure00ayre$28
A26296-012-b,https://iiif.archive.org/iiif/voyagesadventure00ayre$29
A26296-013-b,https://iiif.archive.org/iiif/voyagesadventure00ayre$31
A26296-014-a,https://iiif.archive.org/iiif/voyagesadventure00ayre$32
A26296-014-b,https://iiif.archive.org/iiif/voyagesadventure00ayre$33
A26296-015-a,https://iiif.archive.org/iiif/voyagesadventure00ayre$34
A26296-015-b,https://iiif.archive.org/iiif/voyagesadventure00ayre$35
A26296-016-a,https://iiif.archive.org/iiif/voyagesadventure00ayre$36
A26296-016-b,https://iiif.archive.org/iiif/voyagesadventure00ayre$37
A26296-017-a,https://iiif.archive.org/iiif/voyagesadventure00ayre$38
A26296-017-b,https://iiif.archive.org/iiif/voyagesadventure00ayre$39
A26296-018-a,https://iiif.archive.org/iiif/voyagesadventure00ayre$40
A26296-018-b,https://iiif.archive.org/iiif/voyagesadventure00ayre$41
A26296-019-a,https://iiif.archive.org/iiif/voyagesadventure00ayre$42
A26296-019-b,https://iiif.archive.org/iiif/voyagesadventure00ayre$43
A26296-020-a,https://iiif.archive.org/iiif/voyagesadventure00ayre$44
A26296-020-b,https://iiif.archive.org/iiif/voyagesadventure00ayre$45
A26296-021-a,https://iiif.archive.org/iiif/voyagesadventure00ayre$46
A26296-021-b,https://iiif.archive.org/iiif/voyagesadventure00ayre$47
A26296-022-a,https://iiif.archive.org/iiif/voyagesadventure00ayre$48
A26296-022-b,https://iiif.archive.org/iiif/voyagesadventure00ayre$49
A26296-023-a,https://iiif.archive.org/iiif/voyagesadventure00ayre$50
A26296-023-b,https://iiif.archive.org/iiif/voyagesadventure00ayre$51
A26296-024-a,https://iiif.archive.org/iiif/voyagesadventure00ayre$52
A26296-024-b,https://iiif.archive.org/iiif/voyagesadventure00ayre$53
A26296-025-a,https://iiif.archive.org/iiif/voyagesadventure00ayre$54
A26296-025-b,https://iiif.archive.org/iiif/voyagesadventure00ayre$55
A26296-026-a,https://iiif.archive.org/iiif/voyagesadventure00ayre$56
A26296-026-b,https://iiif.archive.org/iiif/voyagesadventure00ayre$57
A26296-027-a,https://iiif.archive.org/iiif/voyagesadventure00ayre$58
A26296-027-b,https://iiif.archive.org/iiif/voyagesadventure00ayre$59
A26296-028-a,https://iiif.archive.org/iiif/voyagesadventure00ayre$60
A26296-028-b,https://iiif.archive.org/iiif/voyagesadventure00ayre$61
A26296-029-a,https://iiif.archive.org/iiif/voyagesadventure00ayre$62
A26296-029-b,https://iiif.archive.org/iiif/voyagesadventure00ayre$63
A26296-030-a,https://iiif.archive.org/iiif/voyagesadventure00ayre$64
A26296-030-b,https://iiif.archive.org/iiif/voyagesadventure00ayre$65
A26296-031-a,https://iiif.archive.org/iiif/voyagesadventure00ayre$66
A26296-031-b,https://iiif.archive.org/iiif/voyagesadventure00ayre$67
A26296-032-a,https://iiif.archive.org/iiif/voyagesadventure00ayre$68
A26296-032-b,https://iiif.archive.org/iiif/voyagesadventure00ayre$69
A26296-033-a,https://iiif.archive.org/iiif/voyagesadventure00ayre$70
A26296-033-b,https://iiif.archive.org/iiif/voyagesadventure00ayre$71
A26296-034-a,https://iiif.archive.org/iiif/voyagesadventure00ayre$72
A26296-034-b,https://iiif.archive.org/iiif/voyagesadventure00ayre$73
A26296-035-a,https://iiif.archive.org/iiif/voyagesadventure00ayre$74
A26296-035-b,https://iiif.archive.org/iiif/voyagesadventure00ayre$75
A26296-036-a,https://iiif.archive.org/iiif/voyagesadventure00ayre$76
A26296-036-b,https://iiif.archive.org/iiif/voyagesadventure00ayre$77
A26296-037-a,https://iiif.archive.org/iiif/voyagesadventure00ayre$78
A26296-037-b,https://iiif.archive.org/iiif/voyagesadventure00ayre$79
A26296-038-a,https://iiif.archive.org/iiif/voyagesadventure00ayre$80
A26296-038-b,https://iiif.archive.org/iiif/voyagesadventure00ayre$81
A26296-039-a,https://iiif.archive.org/iiif/voyagesadventure00ayre$82
A26296-039-b,https://iiif.archive.org/iiif/voyagesadventure00ayre$83
A26296-040-a,https://iiif.archive.org/iiif/voyagesadventure00ayre$84
A26296-040-b,https://iiif.archive.org/iiif/voyagesadventure00ayre$85
A26296-041-a,https://iiif.archive.org/iiif/voyagesadventure00ayre$86
A26296-041-b,https://iiif.archive.org/iiif/voyagesadventure00ayre$87
A26296-042-a,https://iiif.archive.org/iiif/voyagesadventure00ayre$88
A26296-042-b,https://iiif.archive.org/iiif/voyagesadventure00ayre$89
A26296-043-a,https://iiif.archive.org/iiif/voyagesadventure00ayre$90
A26296-043-b,https://iiif.archive.org/iiif/voyagesadventure00ayre$91
A26296-044-a,https://iiif.archive.org/iiif/voyagesadventure00ayre$92
A26296-044-b,https://iiif.archive.org/iiif/voyagesadventure00ayre$93
A26296-045-a,https://iiif.archive.org/iiif/voyagesadventure00ayre$94
A26296-045-b,https://iiif.archive.org/iiif/voyagesadventure00ayre$95
A26296-046-a,https://iiif.archive.org/iiif/voyagesadventure00ayre$96
A26296-046-b,https://iiif.archive.org/iiif/voyagesadventure00ayre$97
A26296-047-a,https://iiif.archive.org/iiif/voyagesadventure00ayre$98
A26296-047-b,https://iiif.archive.org/iiif/voyagesadventure00ayre$99
A26296-048-a,https://iiif.archive.org/iiif/voyagesadventure00ayre$100
A26296-048-b,https://iiif.archive.org/iiif/voyagesadventure00ayre$101
A26296-049-a,https://iiif.archive.org/iiif/voyagesadventure00ayre$102
A26296-049-b,https://iiif.archive.org/iiif/voyagesadventure00ayre$103
A26296-050-a,https://iiif.archive.org/iiif/voyagesadventure00ayre$104
A26296-050-b,https://iiif.archive.org/iiif/voyagesadventure00ayre$105
A26296-051-a,https://iiif.archive.org/iiif/voyagesadventure00ayre$106
A26296-051-b,https://iiif.archive.org/iiif/voyagesadventure00ayre$107
A26296-052-a,https://iiif.archive.org/iiif/voyagesadventure00ayre$108
A26296-052-b,https://iiif.archive.org/iiif/voyagesadventure00ayre$109
A26296-053-a,https://iiif.archive.org/iiif/voyagesadventure00ayre$110
A26296-053-b,https://iiif.archive.org/iiif/voyagesadventure00ayre$111
A26296-054-a,https://iiif.archive.org/iiif/voyagesadventure00ayre$112
A26296-054-b,https://iiif.archive.org/iiif/voyagesadventure00ayre$113
A26296-055-a,https://iiif.archive.org/iiif/voyagesadventure00ayre$114
A26296-055-b,https://iiif.archive.org/iiif/voyagesadventure00ayre$115
A26296-056-a,https://iiif.archive.org/iiif/voyagesadventure00ayre$116
A26296-056-b,https://iiif.archive.org/iiif/voyagesadventure00ayre$117
A26296-057-a,https://iiif.archive.org/iiif/voyagesadventure00ayre$118
A26296-057-b,https://iiif.archive.org/iiif/voyagesadventure00ayre$119
A26296-058-a,https://iiif.archive.org/iiif/voyagesadventure00ayre$120
A26296-058-b,https://iiif.archive.org/iiif/voyagesadventure00ayre$121
A26296-059-a,https://iiif.archive.org/iiif/voyagesadventure00ayre$122
A26296-059-b,https://iiif.archive.org/iiif/voyagesadventure00ayre$123
A26296-060-a,https://iiif.archive.org/iiif/voyagesadventure00ayre$124
A26296-060-b,https://iiif.archive.org/iiif/voyagesadventure00ayre$125
A26296-061-a,https://iiif.archive.org/iiif/voyagesadventure00ayre$126
A26296-061-b,https://iiif.archive.org/iiif/voyagesadventure00ayre$127
A26296-062-a,https://iiif.archive.org/iiif/voyagesadventure00ayre$128
A26296-062-b,https://iiif.archive.org/iiif/voyagesadventure00ayre$129
A26296-063-a,https://iiif.archive.org/iiif/voyagesadventure00ayre$130
A26296-063-b,https://iiif.archive.org/iiif/voyagesadventure00ayre$131
A26296-064-a,https://iiif.archive.org/iiif/voyagesadventure00ayre$132
A26296-064-b,https://iiif.archive.org/iiif/voyagesadventure00ayre$133
A26296-065-a,https://iiif.archive.org/iiif/voyagesadventure00ayre$134
A26296-065-b,https://iiif.archive.org/iiif/voyagesadventure00ayre$135
A26296-066-a,https://iiif.archive.org/iiif/voyagesadventure00ayre$136
A26296-066-b,https://iiif.archive.org/iiif/voyagesadventure00ayre$137
A26296-067-a,https://iiif.archive.org/iiif/voyagesadventure00ayre$138
A26296-067-b,https://iiif.archive.org/iiif/voyagesadventure00ayre$139
A26296-068-a,https://iiif.archive.org/iiif/voyagesadventure00ayre$140
A26296-068-b,https://iiif.archive.org/iiif/voyagesadventure00ayre$141
A26296-069-a,https://iiif.archive.org/iiif/voyagesadventure00ayre$142
A26296-069-b,https://iiif.archive.org/iiif/voyagesadventure00ayre$143
A26296-070-a,https://iiif.archive.org/iiif/voyagesadventure00ayre$144
A26296-070-b,https://iiif.archive.org/iiif/voyagesadventure00ayre$145
A26296-071-a,https://iiif.archive.org/iiif/voyagesadventure00ayre$146
A26296-071-b,https://iiif.archive.org/iiif/voyagesadventure00ayre$147
A26296-072-a,https://iiif.archive.org/iiif/voyagesadventure00ayre$148
A26296-072-b,https://iiif.archive.org/iiif/voyagesadventure00ayre$149
A26296-073-a,https://iiif.archive.org/iiif/voyagesadventure00ayre$150
A26296-073-b,https://iiif.archive.org/iiif/voyagesadventure00ayre$151
A26296-074-a,https://iiif.archive.org/iiif/voyagesadventure00ayre$152
A26296-074-b,https://iiif.archive.org/iiif/voyagesadventure00ayre$153
A26296-075-a,https://iiif.archive.org/iiif/voyagesadventure00ayre$154
A26296-075-b,https://iiif.archive.org/iiif/voyagesadventure00ayre$155
A26296-076-a,https://iiif.archive.org/iiif/voyagesadventure00ayre$156
A26296-076-b,https://iiif.archive.org/iiif/voyagesadventure00ayre$157
A26296-077-a,https://iiif.archive.org/iiif/voyagesadventure00ayre$158
A26296-077-b,https://iiif.archive.org/iiif/voyagesadventure00ayre$159
A26296-078-a,https://iiif.archive.org/iiif/voyagesadventure00ayre$160
A26296-078-b,https://iiif.archive.org/iiif/voyagesadventure00ayre$161
A26296-079-a,https://iiif.archive.org/iiif/voyagesadventure00ayre$162
A26296-079-b,https://iiif.archive.org/iiif/voyagesadventure00ayre$163
A26296-080-a,https://iiif.archive.org/iiif/voyagesadventure00ayre$164
A26296-080-b,https://iiif.archive.org/iiif/voyagesadventure00ayre$165
A26296-081-a,https://iiif.archive.org/iiif/voyagesadventure00ayre$166
A26296-081-b,https://iiif.archive.org/iiif/voyagesadventure00ayre$167
A26296-082-a,https://iiif.archive.org/iiif/voyagesadventure00ayre$168
A26296-082-b,https://iiif.archive.org/iiif/voyagesadventure00ayre$169
A26296-083-a,https://iiif.archive.org/iiif/voyagesadventure00ayre$170
A26296-083-b,https://iiif.archive.org/iiif/voyagesadventure00ayre$171
A26296-084-a,https://iiif.archive.org/iiif/voyagesadventure00ayre$172
A26296-084-b,https://iiif.archive.org/iiif/voyagesadventure00ayre$173
A26296-085-a,https://iiif.archive.org/iiif/voyagesadventure00ayre$174
A26296-085-b,https://iiif.archive.org/iiif/voyagesadventure00ayre$175
A26296-086-a,https://iiif.archive.org/iiif/voyagesadventure00ayre$176
A26296-086-b,https://iiif.archive.org/iiif/voyagesadventure00ayre$177
A26296-087-a,https://iiif.archive.org/iiif/voyagesadventure00ayre$178
A26296-087-b,https://iiif.archive.org/iiif/voyagesadventure00ayre$179
A26296-088-a,https://iiif.archive.org/iiif/voyagesadventure00ayre$180
A26296-088-b,https://iiif.archive.org/iiif/voyagesadventure00ayre$181
A26296-089-a,https://iiif.archive.org/iiif/voyagesadventure00ayre$182
A26296-089-b,https://iiif.archive.org/iiif/voyagesadventure00ayre$183
A26296-090-a,https://iiif.archive.org/iiif/voyagesadventure00ayre$184
A26296-090-b,https://iiif.archive.org/iiif/voyagesadventure00ayre$185
A26296-091-a,https://iiif.archive.org/iiif/voyagesadventure00ayre$186
A26296-091-b,https://iiif.archive.org/iiif/voyagesadventure00ayre$187
A26296-092-a,https://iiif.archive.org/iiif/voyagesadventure00ayre$188
A26296-092-b,https://iiif.archive.org/iiif/voyagesadventure00ayre$189
A26296-093-a,https://iiif.archive.org/iiif/voyagesadventure00ayre$190
A26296-093-b,https://iiif.archive.org/iiif/voyagesadventure00ayre$191
A26296-094-a,https://iiif.archive.org/iiif/voyagesadventure00ayre$192
A26296-094-b,https://iiif.archive.org/iiif/voyagesadventure00ayre$193
A26296-095-a,https://iiif.archive.org/iiif/voyagesadventure00ayre$194
A26296-095-b,https://iiif.archive.org/iiif/voyagesadventure00ayre$195
A26296-096-a,https://iiif.archive.org/iiif/voyagesadventure00ayre$196
A26296-096-b,https://iiif.archive.org/iiif/voyagesadventure00ayre$197
A26296-097-a,https://iiif.archive.org/iiif/voyagesadventure00ayre$198
A26296-097-b,https://iiif.archive.org/iiif/voyagesadventure00ayre$199
A26296-098-a,https://iiif.archive.org/iiif/voyagesadventure00ayre$200
A26296-098-b,https://iiif.archive.org/iiif/voyagesadventure00ayre$201
A26296-099-a,https://iiif.archive.org/iiif/voyagesadventure00ayre$202
