A26615-001-b,https://iiif.archive.org/iiif/protestancytobee00aber$5
A26615-002-b,https://iiif.archive.org/iiif/protestancytobee00aber$7
A26615-003-a,https://iiif.archive.org/iiif/protestancytobee00aber$8
A26615-003-b,https://iiif.archive.org/iiif/protestancytobee00aber$9
A26615-004-a,https://iiif.archive.org/iiif/protestancytobee00aber$10
A26615-004-b,https://iiif.archive.org/iiif/protestancytobee00aber$11
A26615-005-a,https://iiif.archive.org/iiif/protestancytobee00aber$12
A26615-005-b,https://iiif.archive.org/iiif/protestancytobee00aber$13
A26615-006-a,https://iiif.archive.org/iiif/protestancytobee00aber$14
A26615-006-b,https://iiif.archive.org/iiif/protestancytobee00aber$15
A26615-007-a,https://iiif.archive.org/iiif/protestancytobee00aber$16
A26615-007-b,https://iiif.archive.org/iiif/protestancytobee00aber$17
A26615-008-a,https://iiif.archive.org/iiif/protestancytobee00aber$18
A26615-008-b,https://iiif.archive.org/iiif/protestancytobee00aber$19
A26615-009-a,https://iiif.archive.org/iiif/protestancytobee00aber$20
A26615-009-b,https://iiif.archive.org/iiif/protestancytobee00aber$21
A26615-010-a,https://iiif.archive.org/iiif/protestancytobee00aber$22
A26615-010-b,https://iiif.archive.org/iiif/protestancytobee00aber$23
A26615-011-a,https://iiif.archive.org/iiif/protestancytobee00aber$24
A26615-011-b,https://iiif.archive.org/iiif/protestancytobee00aber$25
A26615-012-a,https://iiif.archive.org/iiif/protestancytobee00aber$26
A26615-012-b,https://iiif.archive.org/iiif/protestancytobee00aber$27
A26615-013-a,https://iiif.archive.org/iiif/protestancytobee00aber$28
A26615-013-b,https://iiif.archive.org/iiif/protestancytobee00aber$29
A26615-014-a,https://iiif.archive.org/iiif/protestancytobee00aber$30
A26615-014-b,https://iiif.archive.org/iiif/protestancytobee00aber$31
A26615-015-a,https://iiif.archive.org/iiif/protestancytobee00aber$32
A26615-015-b,https://iiif.archive.org/iiif/protestancytobee00aber$33
A26615-016-a,https://iiif.archive.org/iiif/protestancytobee00aber$34
A26615-016-b,https://iiif.archive.org/iiif/protestancytobee00aber$35
A26615-017-a,https://iiif.archive.org/iiif/protestancytobee00aber$36
A26615-017-b,https://iiif.archive.org/iiif/protestancytobee00aber$37
A26615-018-a,https://iiif.archive.org/iiif/protestancytobee00aber$38
A26615-018-b,https://iiif.archive.org/iiif/protestancytobee00aber$39
A26615-019-a,https://iiif.archive.org/iiif/protestancytobee00aber$40
A26615-019-b,https://iiif.archive.org/iiif/protestancytobee00aber$41
A26615-021-a,https://iiif.archive.org/iiif/protestancytobee00aber$42
A26615-021-b,https://iiif.archive.org/iiif/protestancytobee00aber$43
A26615-022-a,https://iiif.archive.org/iiif/protestancytobee00aber$44
A26615-022-b,https://iiif.archive.org/iiif/protestancytobee00aber$45
A26615-023-a,https://iiif.archive.org/iiif/protestancytobee00aber$46
A26615-023-b,https://iiif.archive.org/iiif/protestancytobee00aber$47
A26615-024-a,https://iiif.archive.org/iiif/protestancytobee00aber$48
A26615-024-b,https://iiif.archive.org/iiif/protestancytobee00aber$49
A26615-025-a,https://iiif.archive.org/iiif/protestancytobee00aber$50
A26615-025-b,https://iiif.archive.org/iiif/protestancytobee00aber$51
A26615-026-a,https://iiif.archive.org/iiif/protestancytobee00aber$52
A26615-026-b,https://iiif.archive.org/iiif/protestancytobee00aber$53
A26615-027-a,https://iiif.archive.org/iiif/protestancytobee00aber$54
A26615-027-b,https://iiif.archive.org/iiif/protestancytobee00aber$55
A26615-028-a,https://iiif.archive.org/iiif/protestancytobee00aber$56
A26615-028-b,https://iiif.archive.org/iiif/protestancytobee00aber$57
A26615-029-a,https://iiif.archive.org/iiif/protestancytobee00aber$58
A26615-029-b,https://iiif.archive.org/iiif/protestancytobee00aber$59
A26615-030-a,https://iiif.archive.org/iiif/protestancytobee00aber$60
A26615-030-b,https://iiif.archive.org/iiif/protestancytobee00aber$61
A26615-031-a,https://iiif.archive.org/iiif/protestancytobee00aber$62
A26615-031-b,https://iiif.archive.org/iiif/protestancytobee00aber$63
A26615-032-a,https://iiif.archive.org/iiif/protestancytobee00aber$64
A26615-032-b,https://iiif.archive.org/iiif/protestancytobee00aber$65
A26615-033-a,https://iiif.archive.org/iiif/protestancytobee00aber$66
A26615-033-b,https://iiif.archive.org/iiif/protestancytobee00aber$67
A26615-034-a,https://iiif.archive.org/iiif/protestancytobee00aber$68
A26615-034-b,https://iiif.archive.org/iiif/protestancytobee00aber$69
A26615-035-a,https://iiif.archive.org/iiif/protestancytobee00aber$70
A26615-035-b,https://iiif.archive.org/iiif/protestancytobee00aber$71
A26615-036-a,https://iiif.archive.org/iiif/protestancytobee00aber$72
A26615-036-b,https://iiif.archive.org/iiif/protestancytobee00aber$73
A26615-037-a,https://iiif.archive.org/iiif/protestancytobee00aber$74
A26615-037-b,https://iiif.archive.org/iiif/protestancytobee00aber$75
A26615-038-a,https://iiif.archive.org/iiif/protestancytobee00aber$76
A26615-038-b,https://iiif.archive.org/iiif/protestancytobee00aber$77
A26615-039-a,https://iiif.archive.org/iiif/protestancytobee00aber$78
A26615-039-b,https://iiif.archive.org/iiif/protestancytobee00aber$79
A26615-040-a,https://iiif.archive.org/iiif/protestancytobee00aber$80
A26615-040-b,https://iiif.archive.org/iiif/protestancytobee00aber$81
A26615-041-a,https://iiif.archive.org/iiif/protestancytobee00aber$82
A26615-041-b,https://iiif.archive.org/iiif/protestancytobee00aber$83
A26615-042-a,https://iiif.archive.org/iiif/protestancytobee00aber$84
A26615-042-b,https://iiif.archive.org/iiif/protestancytobee00aber$85
A26615-043-a,https://iiif.archive.org/iiif/protestancytobee00aber$86
A26615-043-b,https://iiif.archive.org/iiif/protestancytobee00aber$87
A26615-044-a,https://iiif.archive.org/iiif/protestancytobee00aber$88
A26615-044-b,https://iiif.archive.org/iiif/protestancytobee00aber$89
A26615-046-a,https://iiif.archive.org/iiif/protestancytobee00aber$90
A26615-046-b,https://iiif.archive.org/iiif/protestancytobee00aber$91
A26615-047-a,https://iiif.archive.org/iiif/protestancytobee00aber$92
A26615-047-b,https://iiif.archive.org/iiif/protestancytobee00aber$93
A26615-048-a,https://iiif.archive.org/iiif/protestancytobee00aber$94
A26615-048-b,https://iiif.archive.org/iiif/protestancytobee00aber$95
A26615-049-a,https://iiif.archive.org/iiif/protestancytobee00aber$96
A26615-049-b,https://iiif.archive.org/iiif/protestancytobee00aber$97
A26615-050-a,https://iiif.archive.org/iiif/protestancytobee00aber$98
A26615-050-b,https://iiif.archive.org/iiif/protestancytobee00aber$99
A26615-051-a,https://iiif.archive.org/iiif/protestancytobee00aber$100
A26615-051-b,https://iiif.archive.org/iiif/protestancytobee00aber$101
A26615-052-a,https://iiif.archive.org/iiif/protestancytobee00aber$102
A26615-052-b,https://iiif.archive.org/iiif/protestancytobee00aber$103
A26615-053-a,https://iiif.archive.org/iiif/protestancytobee00aber$104
A26615-053-b,https://iiif.archive.org/iiif/protestancytobee00aber$105
A26615-054-a,https://iiif.archive.org/iiif/protestancytobee00aber$106
A26615-054-b,https://iiif.archive.org/iiif/protestancytobee00aber$107
A26615-056-a,https://iiif.archive.org/iiif/protestancytobee00aber$108
A26615-056-b,https://iiif.archive.org/iiif/protestancytobee00aber$109
A26615-057-a,https://iiif.archive.org/iiif/protestancytobee00aber$110
A26615-057-b,https://iiif.archive.org/iiif/protestancytobee00aber$111
A26615-058-a,https://iiif.archive.org/iiif/protestancytobee00aber$112
A26615-058-b,https://iiif.archive.org/iiif/protestancytobee00aber$113
A26615-059-a,https://iiif.archive.org/iiif/protestancytobee00aber$114
A26615-059-b,https://iiif.archive.org/iiif/protestancytobee00aber$115
A26615-060-a,https://iiif.archive.org/iiif/protestancytobee00aber$116
A26615-060-b,https://iiif.archive.org/iiif/protestancytobee00aber$117
A26615-061-a,https://iiif.archive.org/iiif/protestancytobee00aber$118
A26615-061-b,https://iiif.archive.org/iiif/protestancytobee00aber$119
A26615-062-a,https://iiif.archive.org/iiif/protestancytobee00aber$120
A26615-062-b,https://iiif.archive.org/iiif/protestancytobee00aber$121
A26615-063-a,https://iiif.archive.org/iiif/protestancytobee00aber$122
A26615-063-b,https://iiif.archive.org/iiif/protestancytobee00aber$123
A26615-064-a,https://iiif.archive.org/iiif/protestancytobee00aber$124
A26615-064-b,https://iiif.archive.org/iiif/protestancytobee00aber$125
A26615-065-a,https://iiif.archive.org/iiif/protestancytobee00aber$126
A26615-065-b,https://iiif.archive.org/iiif/protestancytobee00aber$127
A26615-066-a,https://iiif.archive.org/iiif/protestancytobee00aber$128
A26615-066-b,https://iiif.archive.org/iiif/protestancytobee00aber$129
A26615-067-a,https://iiif.archive.org/iiif/protestancytobee00aber$130
A26615-067-b,https://iiif.archive.org/iiif/protestancytobee00aber$131
A26615-068-a,https://iiif.archive.org/iiif/protestancytobee00aber$132
A26615-068-b,https://iiif.archive.org/iiif/protestancytobee00aber$133
A26615-069-a,https://iiif.archive.org/iiif/protestancytobee00aber$134
A26615-069-b,https://iiif.archive.org/iiif/protestancytobee00aber$135
A26615-070-a,https://iiif.archive.org/iiif/protestancytobee00aber$136
A26615-070-b,https://iiif.archive.org/iiif/protestancytobee00aber$137
A26615-071-a,https://iiif.archive.org/iiif/protestancytobee00aber$138
A26615-071-b,https://iiif.archive.org/iiif/protestancytobee00aber$139
A26615-072-a,https://iiif.archive.org/iiif/protestancytobee00aber$140
A26615-072-b,https://iiif.archive.org/iiif/protestancytobee00aber$141
A26615-073-a,https://iiif.archive.org/iiif/protestancytobee00aber$142
A26615-073-b,https://iiif.archive.org/iiif/protestancytobee00aber$143
A26615-074-a,https://iiif.archive.org/iiif/protestancytobee00aber$144
A26615-074-b,https://iiif.archive.org/iiif/protestancytobee00aber$145
A26615-075-a,https://iiif.archive.org/iiif/protestancytobee00aber$146
A26615-075-b,https://iiif.archive.org/iiif/protestancytobee00aber$147
A26615-076-a,https://iiif.archive.org/iiif/protestancytobee00aber$148
A26615-076-b,https://iiif.archive.org/iiif/protestancytobee00aber$149
A26615-077-a,https://iiif.archive.org/iiif/protestancytobee00aber$150
A26615-077-b,https://iiif.archive.org/iiif/protestancytobee00aber$151
A26615-078-a,https://iiif.archive.org/iiif/protestancytobee00aber$152
A26615-078-b,https://iiif.archive.org/iiif/protestancytobee00aber$153
A26615-079-a,https://iiif.archive.org/iiif/protestancytobee00aber$154
A26615-079-b,https://iiif.archive.org/iiif/protestancytobee00aber$155
A26615-080-a,https://iiif.archive.org/iiif/protestancytobee00aber$156
A26615-080-b,https://iiif.archive.org/iiif/protestancytobee00aber$157
A26615-081-a,https://iiif.archive.org/iiif/protestancytobee00aber$158
A26615-081-b,https://iiif.archive.org/iiif/protestancytobee00aber$159
A26615-082-a,https://iiif.archive.org/iiif/protestancytobee00aber$160
A26615-082-b,https://iiif.archive.org/iiif/protestancytobee00aber$161
A26615-083-a,https://iiif.archive.org/iiif/protestancytobee00aber$162
A26615-083-b,https://iiif.archive.org/iiif/protestancytobee00aber$163
A26615-084-a,https://iiif.archive.org/iiif/protestancytobee00aber$164
A26615-084-b,https://iiif.archive.org/iiif/protestancytobee00aber$165
A26615-085-a,https://iiif.archive.org/iiif/protestancytobee00aber$166
A26615-085-b,https://iiif.archive.org/iiif/protestancytobee00aber$167
A26615-086-a,https://iiif.archive.org/iiif/protestancytobee00aber$168
A26615-086-b,https://iiif.archive.org/iiif/protestancytobee00aber$169
A26615-087-a,https://iiif.archive.org/iiif/protestancytobee00aber$170
A26615-087-b,https://iiif.archive.org/iiif/protestancytobee00aber$171
