A27177-304,https://imageserver.earlyprint.org:8443/iiif/2/A27177_11%2FA27177_11-304.jpg
A27177-305,https://imageserver.earlyprint.org:8443/iiif/2/A27177_11%2FA27177_11-305.jpg
A27177-306,https://imageserver.earlyprint.org:8443/iiif/2/A27177_11%2FA27177_11-306.jpg
A27177-307,https://imageserver.earlyprint.org:8443/iiif/2/A27177_11%2FA27177_11-307.jpg
A27177-308,https://imageserver.earlyprint.org:8443/iiif/2/A27177_11%2FA27177_11-308.jpg
A27177-309,https://imageserver.earlyprint.org:8443/iiif/2/A27177_11%2FA27177_11-309.jpg
A27177-310,https://imageserver.earlyprint.org:8443/iiif/2/A27177_11%2FA27177_11-310.jpg
A27177-311,https://imageserver.earlyprint.org:8443/iiif/2/A27177_11%2FA27177_11-311.jpg
A27177-312,https://imageserver.earlyprint.org:8443/iiif/2/A27177_11%2FA27177_11-312.jpg
A27177-313,https://imageserver.earlyprint.org:8443/iiif/2/A27177_11%2FA27177_11-313.jpg
A27177-314,https://imageserver.earlyprint.org:8443/iiif/2/A27177_11%2FA27177_11-314.jpg
A27177-315,https://imageserver.earlyprint.org:8443/iiif/2/A27177_11%2FA27177_11-315.jpg
A27177-316,https://imageserver.earlyprint.org:8443/iiif/2/A27177_11%2FA27177_11-316.jpg
A27177-317,https://imageserver.earlyprint.org:8443/iiif/2/A27177_11%2FA27177_11-317.jpg
A27177-318,https://imageserver.earlyprint.org:8443/iiif/2/A27177_11%2FA27177_11-318.jpg
A27177-319,https://imageserver.earlyprint.org:8443/iiif/2/A27177_11%2FA27177_11-319.jpg
A27177-320,https://imageserver.earlyprint.org:8443/iiif/2/A27177_11%2FA27177_11-320.jpg
A27177-321,https://imageserver.earlyprint.org:8443/iiif/2/A27177_11%2FA27177_11-321.jpg
A27177-322,https://imageserver.earlyprint.org:8443/iiif/2/A27177_11%2FA27177_11-322.jpg
A27177-323,https://imageserver.earlyprint.org:8443/iiif/2/A27177_11%2FA27177_11-323.jpg
A27177-324,https://imageserver.earlyprint.org:8443/iiif/2/A27177_11%2FA27177_11-324.jpg
A27177-325,https://imageserver.earlyprint.org:8443/iiif/2/A27177_11%2FA27177_11-325.jpg
A27177-326,https://imageserver.earlyprint.org:8443/iiif/2/A27177_11%2FA27177_11-326.jpg
A27177-327,https://imageserver.earlyprint.org:8443/iiif/2/A27177_11%2FA27177_11-327.jpg
A27177-328,https://imageserver.earlyprint.org:8443/iiif/2/A27177_11%2FA27177_11-328.jpg
A27177-329,https://imageserver.earlyprint.org:8443/iiif/2/A27177_11%2FA27177_11-329.jpg
A27177-330,https://imageserver.earlyprint.org:8443/iiif/2/A27177_11%2FA27177_11-330.jpg
A27177-331,https://imageserver.earlyprint.org:8443/iiif/2/A27177_11%2FA27177_11-331.jpg
A27177-332,https://imageserver.earlyprint.org:8443/iiif/2/A27177_11%2FA27177_11-332.jpg
