A27177-282,https://imageserver.earlyprint.org:8443/iiif/2/A27177_10%2FA27177_10-282.jpg
A27177-283,https://imageserver.earlyprint.org:8443/iiif/2/A27177_10%2FA27177_10-283.jpg
A27177-284,https://imageserver.earlyprint.org:8443/iiif/2/A27177_10%2FA27177_10-284.jpg
A27177-285,https://imageserver.earlyprint.org:8443/iiif/2/A27177_10%2FA27177_10-285.jpg
A27177-286,https://imageserver.earlyprint.org:8443/iiif/2/A27177_10%2FA27177_10-286.jpg
A27177-287,https://imageserver.earlyprint.org:8443/iiif/2/A27177_10%2FA27177_10-287.jpg
A27177-288,https://imageserver.earlyprint.org:8443/iiif/2/A27177_10%2FA27177_10-288.jpg
A27177-289,https://imageserver.earlyprint.org:8443/iiif/2/A27177_10%2FA27177_10-289.jpg
A27177-290,https://imageserver.earlyprint.org:8443/iiif/2/A27177_10%2FA27177_10-290.jpg
A27177-291,https://imageserver.earlyprint.org:8443/iiif/2/A27177_10%2FA27177_10-291.jpg
A27177-292,https://imageserver.earlyprint.org:8443/iiif/2/A27177_10%2FA27177_10-292.jpg
A27177-293,https://imageserver.earlyprint.org:8443/iiif/2/A27177_10%2FA27177_10-293.jpg
A27177-294,https://imageserver.earlyprint.org:8443/iiif/2/A27177_10%2FA27177_10-294.jpg
A27177-295,https://imageserver.earlyprint.org:8443/iiif/2/A27177_10%2FA27177_10-295.jpg
A27177-296,https://imageserver.earlyprint.org:8443/iiif/2/A27177_10%2FA27177_10-296.jpg
A27177-297,https://imageserver.earlyprint.org:8443/iiif/2/A27177_10%2FA27177_10-297.jpg
A27177-298,https://imageserver.earlyprint.org:8443/iiif/2/A27177_10%2FA27177_10-298.jpg
A27177-299,https://imageserver.earlyprint.org:8443/iiif/2/A27177_10%2FA27177_10-299.jpg
A27177-300,https://imageserver.earlyprint.org:8443/iiif/2/A27177_10%2FA27177_10-300.jpg
A27177-301,https://imageserver.earlyprint.org:8443/iiif/2/A27177_10%2FA27177_10-301.jpg
A27177-302,https://imageserver.earlyprint.org:8443/iiif/2/A27177_10%2FA27177_10-302.jpg
A27177-303,https://imageserver.earlyprint.org:8443/iiif/2/A27177_10%2FA27177_10-303.jpg
