A27177-542,https://imageserver.earlyprint.org:8443/iiif/2/A27177_21%2FA27177_21-542.jpg
A27177-543,https://imageserver.earlyprint.org:8443/iiif/2/A27177_21%2FA27177_21-543.jpg
A27177-544,https://imageserver.earlyprint.org:8443/iiif/2/A27177_21%2FA27177_21-544.jpg
A27177-545,https://imageserver.earlyprint.org:8443/iiif/2/A27177_21%2FA27177_21-545.jpg
A27177-546,https://imageserver.earlyprint.org:8443/iiif/2/A27177_21%2FA27177_21-546.jpg
A27177-547,https://imageserver.earlyprint.org:8443/iiif/2/A27177_21%2FA27177_21-547.jpg
A27177-548,https://imageserver.earlyprint.org:8443/iiif/2/A27177_21%2FA27177_21-548.jpg
A27177-549,https://imageserver.earlyprint.org:8443/iiif/2/A27177_21%2FA27177_21-549.jpg
A27177-550,https://imageserver.earlyprint.org:8443/iiif/2/A27177_21%2FA27177_21-550.jpg
A27177-551,https://imageserver.earlyprint.org:8443/iiif/2/A27177_21%2FA27177_21-551.jpg
A27177-552,https://imageserver.earlyprint.org:8443/iiif/2/A27177_21%2FA27177_21-552.jpg
A27177-553,https://imageserver.earlyprint.org:8443/iiif/2/A27177_21%2FA27177_21-553.jpg
A27177-554,https://imageserver.earlyprint.org:8443/iiif/2/A27177_21%2FA27177_21-554.jpg
A27177-555,https://imageserver.earlyprint.org:8443/iiif/2/A27177_21%2FA27177_21-555.jpg
A27177-556,https://imageserver.earlyprint.org:8443/iiif/2/A27177_21%2FA27177_21-556.jpg
A27177-557,https://imageserver.earlyprint.org:8443/iiif/2/A27177_21%2FA27177_21-557.jpg
A27177-558,https://imageserver.earlyprint.org:8443/iiif/2/A27177_21%2FA27177_21-558.jpg
A27177-559,https://imageserver.earlyprint.org:8443/iiif/2/A27177_21%2FA27177_21-559.jpg
A27177-560,https://imageserver.earlyprint.org:8443/iiif/2/A27177_21%2FA27177_21-560.jpg
A27177-561,https://imageserver.earlyprint.org:8443/iiif/2/A27177_21%2FA27177_21-561.jpg
A27177-562,https://imageserver.earlyprint.org:8443/iiif/2/A27177_21%2FA27177_21-562.jpg
A27177-563,https://imageserver.earlyprint.org:8443/iiif/2/A27177_21%2FA27177_21-563.jpg
A27177-564,https://imageserver.earlyprint.org:8443/iiif/2/A27177_21%2FA27177_21-564.jpg
A27177-565,https://imageserver.earlyprint.org:8443/iiif/2/A27177_21%2FA27177_21-565.jpg
A27177-566,https://imageserver.earlyprint.org:8443/iiif/2/A27177_21%2FA27177_21-566.jpg
A27177-567,https://imageserver.earlyprint.org:8443/iiif/2/A27177_21%2FA27177_21-567.jpg
A27177-568,https://imageserver.earlyprint.org:8443/iiif/2/A27177_21%2FA27177_21-568.jpg
