A27177-786,https://imageserver.earlyprint.org:8443/iiif/2/A27177_31%2FA27177_31-786.jpg
A27177-788,https://imageserver.earlyprint.org:8443/iiif/2/A27177_31%2FA27177_31-788.jpg
A27177-789,https://imageserver.earlyprint.org:8443/iiif/2/A27177_31%2FA27177_31-789.jpg
A27177-790,https://imageserver.earlyprint.org:8443/iiif/2/A27177_31%2FA27177_31-790.jpg
A27177-791,https://imageserver.earlyprint.org:8443/iiif/2/A27177_31%2FA27177_31-791.jpg
A27177-792,https://imageserver.earlyprint.org:8443/iiif/2/A27177_31%2FA27177_31-792.jpg
A27177-793,https://imageserver.earlyprint.org:8443/iiif/2/A27177_31%2FA27177_31-793.jpg
A27177-794,https://imageserver.earlyprint.org:8443/iiif/2/A27177_31%2FA27177_31-794.jpg
A27177-795,https://imageserver.earlyprint.org:8443/iiif/2/A27177_31%2FA27177_31-795.jpg
A27177-796,https://imageserver.earlyprint.org:8443/iiif/2/A27177_31%2FA27177_31-796.jpg
A27177-797,https://imageserver.earlyprint.org:8443/iiif/2/A27177_31%2FA27177_31-797.jpg
A27177-798,https://imageserver.earlyprint.org:8443/iiif/2/A27177_31%2FA27177_31-798.jpg
A27177-799,https://imageserver.earlyprint.org:8443/iiif/2/A27177_31%2FA27177_31-799.jpg
A27177-800,https://imageserver.earlyprint.org:8443/iiif/2/A27177_31%2FA27177_31-800.jpg
A27177-801,https://imageserver.earlyprint.org:8443/iiif/2/A27177_31%2FA27177_31-801.jpg
A27177-802,https://imageserver.earlyprint.org:8443/iiif/2/A27177_31%2FA27177_31-802.jpg
A27177-803,https://imageserver.earlyprint.org:8443/iiif/2/A27177_31%2FA27177_31-803.jpg
A27177-804,https://imageserver.earlyprint.org:8443/iiif/2/A27177_31%2FA27177_31-804.jpg
A27177-805,https://imageserver.earlyprint.org:8443/iiif/2/A27177_31%2FA27177_31-805.jpg
A27177-806,https://imageserver.earlyprint.org:8443/iiif/2/A27177_31%2FA27177_31-806.jpg
A27177-807,https://imageserver.earlyprint.org:8443/iiif/2/A27177_31%2FA27177_31-807.jpg
A27177-808,https://imageserver.earlyprint.org:8443/iiif/2/A27177_31%2FA27177_31-808.jpg
A27177-809,https://imageserver.earlyprint.org:8443/iiif/2/A27177_31%2FA27177_31-809.jpg
A27177-810,https://imageserver.earlyprint.org:8443/iiif/2/A27177_31%2FA27177_31-810.jpg
A27177-811,https://imageserver.earlyprint.org:8443/iiif/2/A27177_31%2FA27177_31-811.jpg
A27177-812,https://imageserver.earlyprint.org:8443/iiif/2/A27177_31%2FA27177_31-812.jpg
A27177-813,https://imageserver.earlyprint.org:8443/iiif/2/A27177_31%2FA27177_31-813.jpg
A27177-814,https://imageserver.earlyprint.org:8443/iiif/2/A27177_31%2FA27177_31-814.jpg
