A27177-814,https://imageserver.earlyprint.org:8443/iiif/2/A27177_32%2FA27177_32-814.jpg
A27177-816,https://imageserver.earlyprint.org:8443/iiif/2/A27177_32%2FA27177_32-816.jpg
A27177-817,https://imageserver.earlyprint.org:8443/iiif/2/A27177_32%2FA27177_32-817.jpg
A27177-818,https://imageserver.earlyprint.org:8443/iiif/2/A27177_32%2FA27177_32-818.jpg
A27177-819,https://imageserver.earlyprint.org:8443/iiif/2/A27177_32%2FA27177_32-819.jpg
A27177-820,https://imageserver.earlyprint.org:8443/iiif/2/A27177_32%2FA27177_32-820.jpg
A27177-821,https://imageserver.earlyprint.org:8443/iiif/2/A27177_32%2FA27177_32-821.jpg
A27177-822,https://imageserver.earlyprint.org:8443/iiif/2/A27177_32%2FA27177_32-822.jpg
A27177-823,https://imageserver.earlyprint.org:8443/iiif/2/A27177_32%2FA27177_32-823.jpg
A27177-824,https://imageserver.earlyprint.org:8443/iiif/2/A27177_32%2FA27177_32-824.jpg
A27177-825,https://imageserver.earlyprint.org:8443/iiif/2/A27177_32%2FA27177_32-825.jpg
A27177-826,https://imageserver.earlyprint.org:8443/iiif/2/A27177_32%2FA27177_32-826.jpg
A27177-827,https://imageserver.earlyprint.org:8443/iiif/2/A27177_32%2FA27177_32-827.jpg
A27177-828,https://imageserver.earlyprint.org:8443/iiif/2/A27177_32%2FA27177_32-828.jpg
A27177-829,https://imageserver.earlyprint.org:8443/iiif/2/A27177_32%2FA27177_32-829.jpg
A27177-830,https://imageserver.earlyprint.org:8443/iiif/2/A27177_32%2FA27177_32-830.jpg
A27177-831,https://imageserver.earlyprint.org:8443/iiif/2/A27177_32%2FA27177_32-831.jpg
A27177-832,https://imageserver.earlyprint.org:8443/iiif/2/A27177_32%2FA27177_32-832.jpg
A27177-833,https://imageserver.earlyprint.org:8443/iiif/2/A27177_32%2FA27177_32-833.jpg
A27177-834,https://imageserver.earlyprint.org:8443/iiif/2/A27177_32%2FA27177_32-834.jpg
A27177-835,https://imageserver.earlyprint.org:8443/iiif/2/A27177_32%2FA27177_32-835.jpg
A27177-836,https://imageserver.earlyprint.org:8443/iiif/2/A27177_32%2FA27177_32-836.jpg
A27177-837,https://imageserver.earlyprint.org:8443/iiif/2/A27177_32%2FA27177_32-837.jpg
A27177-838,https://imageserver.earlyprint.org:8443/iiif/2/A27177_32%2FA27177_32-838.jpg
