A27177-694,https://imageserver.earlyprint.org:8443/iiif/2/A27177_27%2FA27177_27-694.jpg
A27177-696,https://imageserver.earlyprint.org:8443/iiif/2/A27177_27%2FA27177_27-696.jpg
A27177-697,https://imageserver.earlyprint.org:8443/iiif/2/A27177_27%2FA27177_27-697.jpg
A27177-698,https://imageserver.earlyprint.org:8443/iiif/2/A27177_27%2FA27177_27-698.jpg
A27177-699,https://imageserver.earlyprint.org:8443/iiif/2/A27177_27%2FA27177_27-699.jpg
A27177-700,https://imageserver.earlyprint.org:8443/iiif/2/A27177_27%2FA27177_27-700.jpg
A27177-701,https://imageserver.earlyprint.org:8443/iiif/2/A27177_27%2FA27177_27-701.jpg
A27177-702,https://imageserver.earlyprint.org:8443/iiif/2/A27177_27%2FA27177_27-702.jpg
A27177-703,https://imageserver.earlyprint.org:8443/iiif/2/A27177_27%2FA27177_27-703.jpg
A27177-704,https://imageserver.earlyprint.org:8443/iiif/2/A27177_27%2FA27177_27-704.jpg
A27177-705,https://imageserver.earlyprint.org:8443/iiif/2/A27177_27%2FA27177_27-705.jpg
A27177-706,https://imageserver.earlyprint.org:8443/iiif/2/A27177_27%2FA27177_27-706.jpg
A27177-707,https://imageserver.earlyprint.org:8443/iiif/2/A27177_27%2FA27177_27-707.jpg
A27177-708,https://imageserver.earlyprint.org:8443/iiif/2/A27177_27%2FA27177_27-708.jpg
A27177-709,https://imageserver.earlyprint.org:8443/iiif/2/A27177_27%2FA27177_27-709.jpg
A27177-710,https://imageserver.earlyprint.org:8443/iiif/2/A27177_27%2FA27177_27-710.jpg
A27177-711,https://imageserver.earlyprint.org:8443/iiif/2/A27177_27%2FA27177_27-711.jpg
A27177-712,https://imageserver.earlyprint.org:8443/iiif/2/A27177_27%2FA27177_27-712.jpg
A27177-713,https://imageserver.earlyprint.org:8443/iiif/2/A27177_27%2FA27177_27-713.jpg
A27177-714,https://imageserver.earlyprint.org:8443/iiif/2/A27177_27%2FA27177_27-714.jpg
A27177-715,https://imageserver.earlyprint.org:8443/iiif/2/A27177_27%2FA27177_27-715.jpg
A27177-716,https://imageserver.earlyprint.org:8443/iiif/2/A27177_27%2FA27177_27-716.jpg
A27177-717,https://imageserver.earlyprint.org:8443/iiif/2/A27177_27%2FA27177_27-717.jpg
