A27177-718,https://imageserver.earlyprint.org:8443/iiif/2/A27177_28%2FA27177_28-718.jpg
A27177-719,https://imageserver.earlyprint.org:8443/iiif/2/A27177_28%2FA27177_28-719.jpg
A27177-720,https://imageserver.earlyprint.org:8443/iiif/2/A27177_28%2FA27177_28-720.jpg
A27177-721,https://imageserver.earlyprint.org:8443/iiif/2/A27177_28%2FA27177_28-721.jpg
A27177-722,https://imageserver.earlyprint.org:8443/iiif/2/A27177_28%2FA27177_28-722.jpg
A27177-723,https://imageserver.earlyprint.org:8443/iiif/2/A27177_28%2FA27177_28-723.jpg
A27177-724,https://imageserver.earlyprint.org:8443/iiif/2/A27177_28%2FA27177_28-724.jpg
A27177-725,https://imageserver.earlyprint.org:8443/iiif/2/A27177_28%2FA27177_28-725.jpg
A27177-726,https://imageserver.earlyprint.org:8443/iiif/2/A27177_28%2FA27177_28-726.jpg
A27177-727,https://imageserver.earlyprint.org:8443/iiif/2/A27177_28%2FA27177_28-727.jpg
A27177-728,https://imageserver.earlyprint.org:8443/iiif/2/A27177_28%2FA27177_28-728.jpg
A27177-729,https://imageserver.earlyprint.org:8443/iiif/2/A27177_28%2FA27177_28-729.jpg
A27177-730,https://imageserver.earlyprint.org:8443/iiif/2/A27177_28%2FA27177_28-730.jpg
A27177-731,https://imageserver.earlyprint.org:8443/iiif/2/A27177_28%2FA27177_28-731.jpg
A27177-732,https://imageserver.earlyprint.org:8443/iiif/2/A27177_28%2FA27177_28-732.jpg
A27177-733,https://imageserver.earlyprint.org:8443/iiif/2/A27177_28%2FA27177_28-733.jpg
A27177-734,https://imageserver.earlyprint.org:8443/iiif/2/A27177_28%2FA27177_28-734.jpg
A27177-735,https://imageserver.earlyprint.org:8443/iiif/2/A27177_28%2FA27177_28-735.jpg
A27177-736,https://imageserver.earlyprint.org:8443/iiif/2/A27177_28%2FA27177_28-736.jpg
A27177-737,https://imageserver.earlyprint.org:8443/iiif/2/A27177_28%2FA27177_28-737.jpg
A27177-738,https://imageserver.earlyprint.org:8443/iiif/2/A27177_28%2FA27177_28-738.jpg
A27177-739,https://imageserver.earlyprint.org:8443/iiif/2/A27177_28%2FA27177_28-739.jpg
A27177-740,https://imageserver.earlyprint.org:8443/iiif/2/A27177_28%2FA27177_28-740.jpg
