A27305-001-a,https://hrc.contentdm.oclc.org/digital/iiif/p15878coll17/1061
A27305-001-b,https://hrc.contentdm.oclc.org/digital/iiif/p15878coll17/1062
A27305-002-a,https://hrc.contentdm.oclc.org/digital/iiif/p15878coll17/1063
A27305-002-b,https://hrc.contentdm.oclc.org/digital/iiif/p15878coll17/1064
A27305-003-a,https://hrc.contentdm.oclc.org/digital/iiif/p15878coll17/1065
A27305-003-b,https://hrc.contentdm.oclc.org/digital/iiif/p15878coll17/1066
A27305-004-a,https://hrc.contentdm.oclc.org/digital/iiif/p15878coll17/1067
A27305-004-b,https://hrc.contentdm.oclc.org/digital/iiif/p15878coll17/1068
A27305-005-a,https://hrc.contentdm.oclc.org/digital/iiif/p15878coll17/1069
A27305-005-b,https://hrc.contentdm.oclc.org/digital/iiif/p15878coll17/1070
A27305-006-a,https://hrc.contentdm.oclc.org/digital/iiif/p15878coll17/1071
A27305-006-b,https://hrc.contentdm.oclc.org/digital/iiif/p15878coll17/1072
A27305-007-a,https://hrc.contentdm.oclc.org/digital/iiif/p15878coll17/1073
A27305-007-b,https://hrc.contentdm.oclc.org/digital/iiif/p15878coll17/1074
A27305-008-a,https://hrc.contentdm.oclc.org/digital/iiif/p15878coll17/1075
A27305-008-b,https://hrc.contentdm.oclc.org/digital/iiif/p15878coll17/1076
A27305-009-a,https://hrc.contentdm.oclc.org/digital/iiif/p15878coll17/1077
A27305-009-b,https://hrc.contentdm.oclc.org/digital/iiif/p15878coll17/1078
A27305-010-a,https://hrc.contentdm.oclc.org/digital/iiif/p15878coll17/1079
A27305-010-b,https://hrc.contentdm.oclc.org/digital/iiif/p15878coll17/1080
A27305-011-a,https://hrc.contentdm.oclc.org/digital/iiif/p15878coll17/1081
A27305-011-b,https://hrc.contentdm.oclc.org/digital/iiif/p15878coll17/1082
A27305-012-a,https://hrc.contentdm.oclc.org/digital/iiif/p15878coll17/1083
A27305-012-b,https://hrc.contentdm.oclc.org/digital/iiif/p15878coll17/1084
A27305-013-a,https://hrc.contentdm.oclc.org/digital/iiif/p15878coll17/1085
A27305-013-b,https://hrc.contentdm.oclc.org/digital/iiif/p15878coll17/1086
A27305-014-a,https://hrc.contentdm.oclc.org/digital/iiif/p15878coll17/1087
A27305-014-b,https://hrc.contentdm.oclc.org/digital/iiif/p15878coll17/1088
A27305-015-a,https://hrc.contentdm.oclc.org/digital/iiif/p15878coll17/1089
A27305-015-b,https://hrc.contentdm.oclc.org/digital/iiif/p15878coll17/1090
A27305-016-a,https://hrc.contentdm.oclc.org/digital/iiif/p15878coll17/1091
A27305-016-b,https://hrc.contentdm.oclc.org/digital/iiif/p15878coll17/1092
A27305-017-a,https://hrc.contentdm.oclc.org/digital/iiif/p15878coll17/1093
A27305-017-b,https://hrc.contentdm.oclc.org/digital/iiif/p15878coll17/1094
A27305-018-a,https://hrc.contentdm.oclc.org/digital/iiif/p15878coll17/1095
A27305-018-b,https://hrc.contentdm.oclc.org/digital/iiif/p15878coll17/1096
A27305-019-a,https://hrc.contentdm.oclc.org/digital/iiif/p15878coll17/1097
A27305-019-b,https://hrc.contentdm.oclc.org/digital/iiif/p15878coll17/1098
A27305-020-a,https://hrc.contentdm.oclc.org/digital/iiif/p15878coll17/1099
A27305-020-b,https://hrc.contentdm.oclc.org/digital/iiif/p15878coll17/1100
A27305-021-a,https://hrc.contentdm.oclc.org/digital/iiif/p15878coll17/1101
A27305-021-b,https://hrc.contentdm.oclc.org/digital/iiif/p15878coll17/1102
A27305-022-a,https://hrc.contentdm.oclc.org/digital/iiif/p15878coll17/1103
A27305-022-b,https://hrc.contentdm.oclc.org/digital/iiif/p15878coll17/1104
A27305-023-a,https://hrc.contentdm.oclc.org/digital/iiif/p15878coll17/1105
A27305-023-b,https://hrc.contentdm.oclc.org/digital/iiif/p15878coll17/1106
A27305-024-a,https://hrc.contentdm.oclc.org/digital/iiif/p15878coll17/1107
A27305-024-b,https://hrc.contentdm.oclc.org/digital/iiif/p15878coll17/1108
A27305-025-a,https://hrc.contentdm.oclc.org/digital/iiif/p15878coll17/1109
A27305-025-b,https://hrc.contentdm.oclc.org/digital/iiif/p15878coll17/1110
A27305-026-a,https://hrc.contentdm.oclc.org/digital/iiif/p15878coll17/1111
A27305-026-b,https://hrc.contentdm.oclc.org/digital/iiif/p15878coll17/1112
A27305-027-a,https://hrc.contentdm.oclc.org/digital/iiif/p15878coll17/1113
A27305-027-b,https://hrc.contentdm.oclc.org/digital/iiif/p15878coll17/1114
A27305-028-a,https://hrc.contentdm.oclc.org/digital/iiif/p15878coll17/1115
A27305-028-b,https://hrc.contentdm.oclc.org/digital/iiif/p15878coll17/1116
A27305-029-a,https://hrc.contentdm.oclc.org/digital/iiif/p15878coll17/1117
A27305-029-b,https://hrc.contentdm.oclc.org/digital/iiif/p15878coll17/1118
A27305-030-a,https://hrc.contentdm.oclc.org/digital/iiif/p15878coll17/1119
A27305-030-b,https://hrc.contentdm.oclc.org/digital/iiif/p15878coll17/1120
A27305-031-a,https://hrc.contentdm.oclc.org/digital/iiif/p15878coll17/1121
A27305-031-b,https://hrc.contentdm.oclc.org/digital/iiif/p15878coll17/1122
A27305-032-a,https://hrc.contentdm.oclc.org/digital/iiif/p15878coll17/1123
A27305-032-b,https://hrc.contentdm.oclc.org/digital/iiif/p15878coll17/1124
A27305-033-a,https://hrc.contentdm.oclc.org/digital/iiif/p15878coll17/1125
A27305-033-b,https://hrc.contentdm.oclc.org/digital/iiif/p15878coll17/1126
A27305-034-a,https://hrc.contentdm.oclc.org/digital/iiif/p15878coll17/1127
A27305-034-b,https://hrc.contentdm.oclc.org/digital/iiif/p15878coll17/1128
A27305-035-a,https://hrc.contentdm.oclc.org/digital/iiif/p15878coll17/1129
A27305-035-b,https://hrc.contentdm.oclc.org/digital/iiif/p15878coll17/1130
A27305-036-a,https://hrc.contentdm.oclc.org/digital/iiif/p15878coll17/1131
A27305-036-b,https://hrc.contentdm.oclc.org/digital/iiif/p15878coll17/1132
A27305-037-a,https://hrc.contentdm.oclc.org/digital/iiif/p15878coll17/1133
A27305-037-b,https://hrc.contentdm.oclc.org/digital/iiif/p15878coll17/1134
A27305-038-a,https://hrc.contentdm.oclc.org/digital/iiif/p15878coll17/1135
A27305-038-b,https://hrc.contentdm.oclc.org/digital/iiif/p15878coll17/1136
A27305-039-a,https://hrc.contentdm.oclc.org/digital/iiif/p15878coll17/1137
A27305-039-b,https://hrc.contentdm.oclc.org/digital/iiif/p15878coll17/1138
A27305-040-a,https://hrc.contentdm.oclc.org/digital/iiif/p15878coll17/1139
A27305-040-b,https://hrc.contentdm.oclc.org/digital/iiif/p15878coll17/1140
A27305-041-a,https://hrc.contentdm.oclc.org/digital/iiif/p15878coll17/1141
A27305-041-b,https://hrc.contentdm.oclc.org/digital/iiif/p15878coll17/1142
A27305-042-a,https://hrc.contentdm.oclc.org/digital/iiif/p15878coll17/1143
A27305-042-b,https://hrc.contentdm.oclc.org/digital/iiif/p15878coll17/1144
A27305-043-a,https://hrc.contentdm.oclc.org/digital/iiif/p15878coll17/1145
A27305-043-b,https://hrc.contentdm.oclc.org/digital/iiif/p15878coll17/1146
A27305-044-a,https://hrc.contentdm.oclc.org/digital/iiif/p15878coll17/1147
A27305-044-b,https://hrc.contentdm.oclc.org/digital/iiif/p15878coll17/1148
A27305-045-a,https://hrc.contentdm.oclc.org/digital/iiif/p15878coll17/1149
A27305-045-b,https://hrc.contentdm.oclc.org/digital/iiif/p15878coll17/1150
A27305-046-a,https://hrc.contentdm.oclc.org/digital/iiif/p15878coll17/1151
A27305-046-b,https://hrc.contentdm.oclc.org/digital/iiif/p15878coll17/1152
A27305-047-a,https://hrc.contentdm.oclc.org/digital/iiif/p15878coll17/1153
A27305-047-b,https://hrc.contentdm.oclc.org/digital/iiif/p15878coll17/1154
A27305-048-a,https://hrc.contentdm.oclc.org/digital/iiif/p15878coll17/1155
A27305-048-b,https://hrc.contentdm.oclc.org/digital/iiif/p15878coll17/1156
A27305-049-a,https://hrc.contentdm.oclc.org/digital/iiif/p15878coll17/1157
A27305-049-b,https://hrc.contentdm.oclc.org/digital/iiif/p15878coll17/1158
A27305-050-a,https://hrc.contentdm.oclc.org/digital/iiif/p15878coll17/1159
A27305-050-b,https://hrc.contentdm.oclc.org/digital/iiif/p15878coll17/1160
A27305-051-a,https://hrc.contentdm.oclc.org/digital/iiif/p15878coll17/1161
A27305-051-b,https://hrc.contentdm.oclc.org/digital/iiif/p15878coll17/1162
A27305-052-a,https://hrc.contentdm.oclc.org/digital/iiif/p15878coll17/1163
A27305-052-b,https://hrc.contentdm.oclc.org/digital/iiif/p15878coll17/1164
A27305-053-a,https://hrc.contentdm.oclc.org/digital/iiif/p15878coll17/1165
A27305-053-b,https://hrc.contentdm.oclc.org/digital/iiif/p15878coll17/1166
A27305-054-a,https://hrc.contentdm.oclc.org/digital/iiif/p15878coll17/1167
A27305-054-b,https://hrc.contentdm.oclc.org/digital/iiif/p15878coll17/1168
A27305-055-a,https://hrc.contentdm.oclc.org/digital/iiif/p15878coll17/1169
A27305-055-b,https://hrc.contentdm.oclc.org/digital/iiif/p15878coll17/1170
A27305-056-a,https://hrc.contentdm.oclc.org/digital/iiif/p15878coll17/1171
A27305-056-b,https://hrc.contentdm.oclc.org/digital/iiif/p15878coll17/1172
A27305-057-a,https://hrc.contentdm.oclc.org/digital/iiif/p15878coll17/1173
A27305-057-b,https://hrc.contentdm.oclc.org/digital/iiif/p15878coll17/1174
A27305-058-a,https://hrc.contentdm.oclc.org/digital/iiif/p15878coll17/1175
A27305-058-b,https://hrc.contentdm.oclc.org/digital/iiif/p15878coll17/1176
A27305-059-a,https://hrc.contentdm.oclc.org/digital/iiif/p15878coll17/1177
A27305-059-b,https://hrc.contentdm.oclc.org/digital/iiif/p15878coll17/1178
A27305-060-a,https://hrc.contentdm.oclc.org/digital/iiif/p15878coll17/1179
A27305-060-b,https://hrc.contentdm.oclc.org/digital/iiif/p15878coll17/1180
A27305-061-a,https://hrc.contentdm.oclc.org/digital/iiif/p15878coll17/1181
A27305-061-b,https://hrc.contentdm.oclc.org/digital/iiif/p15878coll17/1182
A27305-062-a,https://hrc.contentdm.oclc.org/digital/iiif/p15878coll17/1183
A27305-062-b,https://hrc.contentdm.oclc.org/digital/iiif/p15878coll17/1184
A27305-063-a,https://hrc.contentdm.oclc.org/digital/iiif/p15878coll17/1185
A27305-063-b,https://hrc.contentdm.oclc.org/digital/iiif/p15878coll17/1186
A27305-064-a,https://hrc.contentdm.oclc.org/digital/iiif/p15878coll17/1187
A27305-064-b,https://hrc.contentdm.oclc.org/digital/iiif/p15878coll17/1188
A27305-065-a,https://hrc.contentdm.oclc.org/digital/iiif/p15878coll17/1189
A27305-065-b,https://hrc.contentdm.oclc.org/digital/iiif/p15878coll17/1190
A27305-066-a,https://hrc.contentdm.oclc.org/digital/iiif/p15878coll17/1191
A27305-066-b,https://hrc.contentdm.oclc.org/digital/iiif/p15878coll17/1192
A27305-067-a,https://hrc.contentdm.oclc.org/digital/iiif/p15878coll17/1193
A27305-067-b,https://hrc.contentdm.oclc.org/digital/iiif/p15878coll17/1194
A27305-068-a,https://hrc.contentdm.oclc.org/digital/iiif/p15878coll17/1195
A27305-068-b,https://hrc.contentdm.oclc.org/digital/iiif/p15878coll17/1196
A27305-069-a,https://hrc.contentdm.oclc.org/digital/iiif/p15878coll17/1197
A27305-069-b,https://hrc.contentdm.oclc.org/digital/iiif/p15878coll17/1198
A27305-070-a,https://hrc.contentdm.oclc.org/digital/iiif/p15878coll17/1199
A27305-070-b,https://hrc.contentdm.oclc.org/digital/iiif/p15878coll17/1200
A27305-071-a,https://hrc.contentdm.oclc.org/digital/iiif/p15878coll17/1201
A27305-071-b,https://hrc.contentdm.oclc.org/digital/iiif/p15878coll17/1202
A27305-072-a,https://hrc.contentdm.oclc.org/digital/iiif/p15878coll17/1203
A27305-072-b,https://hrc.contentdm.oclc.org/digital/iiif/p15878coll17/1204
A27305-073-a,https://hrc.contentdm.oclc.org/digital/iiif/p15878coll17/1205
A27305-073-b,https://hrc.contentdm.oclc.org/digital/iiif/p15878coll17/1206
A27305-074-a,https://hrc.contentdm.oclc.org/digital/iiif/p15878coll17/1207
A27305-074-b,https://hrc.contentdm.oclc.org/digital/iiif/p15878coll17/1208
A27305-075-a,https://hrc.contentdm.oclc.org/digital/iiif/p15878coll17/1209
A27305-075-b,https://hrc.contentdm.oclc.org/digital/iiif/p15878coll17/1210
A27305-076-a,https://hrc.contentdm.oclc.org/digital/iiif/p15878coll17/1211
A27305-076-b,https://hrc.contentdm.oclc.org/digital/iiif/p15878coll17/1212
A27305-077-a,https://hrc.contentdm.oclc.org/digital/iiif/p15878coll17/1213
A27305-077-b,https://hrc.contentdm.oclc.org/digital/iiif/p15878coll17/1214
A27305-078-a,https://hrc.contentdm.oclc.org/digital/iiif/p15878coll17/1215
A27305-078-b,https://hrc.contentdm.oclc.org/digital/iiif/p15878coll17/1216
A27305-079-a,https://hrc.contentdm.oclc.org/digital/iiif/p15878coll17/1217
A27305-079-b,https://hrc.contentdm.oclc.org/digital/iiif/p15878coll17/1218
A27305-080-a,https://hrc.contentdm.oclc.org/digital/iiif/p15878coll17/1219
A27305-080-b,https://hrc.contentdm.oclc.org/digital/iiif/p15878coll17/1220
A27305-081-a,https://hrc.contentdm.oclc.org/digital/iiif/p15878coll17/1221
A27305-081-b,https://hrc.contentdm.oclc.org/digital/iiif/p15878coll17/1222
A27305-082-a,https://hrc.contentdm.oclc.org/digital/iiif/p15878coll17/1223
A27305-082-b,https://hrc.contentdm.oclc.org/digital/iiif/p15878coll17/1224
A27305-083-a,https://hrc.contentdm.oclc.org/digital/iiif/p15878coll17/1225
A27305-083-b,https://hrc.contentdm.oclc.org/digital/iiif/p15878coll17/1226
A27305-084-a,https://hrc.contentdm.oclc.org/digital/iiif/p15878coll17/1227
A27305-084-b,https://hrc.contentdm.oclc.org/digital/iiif/p15878coll17/1228
A27305-085-a,https://hrc.contentdm.oclc.org/digital/iiif/p15878coll17/1229
A27305-085-b,https://hrc.contentdm.oclc.org/digital/iiif/p15878coll17/1230
A27305-086-a,https://hrc.contentdm.oclc.org/digital/iiif/p15878coll17/1231
A27305-086-b,https://hrc.contentdm.oclc.org/digital/iiif/p15878coll17/1232
A27305-087-a,https://hrc.contentdm.oclc.org/digital/iiif/p15878coll17/1233
A27305-087-b,https://hrc.contentdm.oclc.org/digital/iiif/p15878coll17/1234
A27305-088-a,https://hrc.contentdm.oclc.org/digital/iiif/p15878coll17/1235
A27305-088-b,https://hrc.contentdm.oclc.org/digital/iiif/p15878coll17/1236
A27305-089-a,https://hrc.contentdm.oclc.org/digital/iiif/p15878coll17/1237
A27305-089-b,https://hrc.contentdm.oclc.org/digital/iiif/p15878coll17/1238
A27305-090-a,https://hrc.contentdm.oclc.org/digital/iiif/p15878coll17/1239
A27305-090-b,https://hrc.contentdm.oclc.org/digital/iiif/p15878coll17/1240
A27305-091-a,https://hrc.contentdm.oclc.org/digital/iiif/p15878coll17/1241
A27305-091-b,https://hrc.contentdm.oclc.org/digital/iiif/p15878coll17/1242
A27305-092-a,https://hrc.contentdm.oclc.org/digital/iiif/p15878coll17/1243
A27305-092-b,https://hrc.contentdm.oclc.org/digital/iiif/p15878coll17/1244
A27305-093-a,https://hrc.contentdm.oclc.org/digital/iiif/p15878coll17/1245
A27305-093-b,https://hrc.contentdm.oclc.org/digital/iiif/p15878coll17/1246
A27305-094-a,https://hrc.contentdm.oclc.org/digital/iiif/p15878coll17/1247
A27305-094-b,https://hrc.contentdm.oclc.org/digital/iiif/p15878coll17/1248
A27305-095-a,https://hrc.contentdm.oclc.org/digital/iiif/p15878coll17/1249
A27305-095-b,https://hrc.contentdm.oclc.org/digital/iiif/p15878coll17/1250
A27305-096-a,https://hrc.contentdm.oclc.org/digital/iiif/p15878coll17/1251
A27305-096-b,https://hrc.contentdm.oclc.org/digital/iiif/p15878coll17/1252
A27305-097-a,https://hrc.contentdm.oclc.org/digital/iiif/p15878coll17/1253
A27305-097-b,https://hrc.contentdm.oclc.org/digital/iiif/p15878coll17/1254
A27305-098-a,https://hrc.contentdm.oclc.org/digital/iiif/p15878coll17/1255
A27305-098-b,https://hrc.contentdm.oclc.org/digital/iiif/p15878coll17/1256
A27305-099-a,https://hrc.contentdm.oclc.org/digital/iiif/p15878coll17/1257
A27305-099-b,https://hrc.contentdm.oclc.org/digital/iiif/p15878coll17/1258
A27305-100-a,https://hrc.contentdm.oclc.org/digital/iiif/p15878coll17/1259
A27305-100-b,https://hrc.contentdm.oclc.org/digital/iiif/p15878coll17/1260
A27305-101-a,https://hrc.contentdm.oclc.org/digital/iiif/p15878coll17/1261
A27305-101-b,https://hrc.contentdm.oclc.org/digital/iiif/p15878coll17/1262
A27305-102-a,https://hrc.contentdm.oclc.org/digital/iiif/p15878coll17/1263
A27305-102-b,https://hrc.contentdm.oclc.org/digital/iiif/p15878coll17/1264
A27305-103-a,https://hrc.contentdm.oclc.org/digital/iiif/p15878coll17/1265
A27305-103-b,https://hrc.contentdm.oclc.org/digital/iiif/p15878coll17/1266
A27305-104-a,https://hrc.contentdm.oclc.org/digital/iiif/p15878coll17/1267
A27305-104-b,https://hrc.contentdm.oclc.org/digital/iiif/p15878coll17/1268
A27305-105-a,https://hrc.contentdm.oclc.org/digital/iiif/p15878coll17/1269
A27305-105-b,https://hrc.contentdm.oclc.org/digital/iiif/p15878coll17/1270
A27305-106-a,https://hrc.contentdm.oclc.org/digital/iiif/p15878coll17/1271
A27305-106-b,https://hrc.contentdm.oclc.org/digital/iiif/p15878coll17/1272
A27305-107-a,https://hrc.contentdm.oclc.org/digital/iiif/p15878coll17/1273
A27305-107-b,https://hrc.contentdm.oclc.org/digital/iiif/p15878coll17/1274
A27305-108-a,https://hrc.contentdm.oclc.org/digital/iiif/p15878coll17/1275
A27305-108-b,https://hrc.contentdm.oclc.org/digital/iiif/p15878coll17/1276
A27305-109-a,https://hrc.contentdm.oclc.org/digital/iiif/p15878coll17/1277
A27305-109-b,https://hrc.contentdm.oclc.org/digital/iiif/p15878coll17/1278
A27305-110-a,https://hrc.contentdm.oclc.org/digital/iiif/p15878coll17/1279
A27305-110-b,https://hrc.contentdm.oclc.org/digital/iiif/p15878coll17/1280
A27305-111-a,https://hrc.contentdm.oclc.org/digital/iiif/p15878coll17/1281
A27305-111-b,https://hrc.contentdm.oclc.org/digital/iiif/p15878coll17/1282
A27305-112-a,https://hrc.contentdm.oclc.org/digital/iiif/p15878coll17/1283
A27305-112-b,https://hrc.contentdm.oclc.org/digital/iiif/p15878coll17/1284
A27305-113-a,https://hrc.contentdm.oclc.org/digital/iiif/p15878coll17/1285
A27305-113-b,https://hrc.contentdm.oclc.org/digital/iiif/p15878coll17/1286
A27305-114-a,https://hrc.contentdm.oclc.org/digital/iiif/p15878coll17/1287
A27305-114-b,https://hrc.contentdm.oclc.org/digital/iiif/p15878coll17/1288
A27305-115-a,https://hrc.contentdm.oclc.org/digital/iiif/p15878coll17/1289
A27305-115-b,https://hrc.contentdm.oclc.org/digital/iiif/p15878coll17/1290
A27305-116-a,https://hrc.contentdm.oclc.org/digital/iiif/p15878coll17/1291
A27305-116-b,https://hrc.contentdm.oclc.org/digital/iiif/p15878coll17/1292
A27305-117-a,https://hrc.contentdm.oclc.org/digital/iiif/p15878coll17/1293
A27305-117-b,https://hrc.contentdm.oclc.org/digital/iiif/p15878coll17/1294
A27305-118-a,https://hrc.contentdm.oclc.org/digital/iiif/p15878coll17/1295
A27305-118-b,https://hrc.contentdm.oclc.org/digital/iiif/p15878coll17/1296
A27305-119-a,https://hrc.contentdm.oclc.org/digital/iiif/p15878coll17/1297
A27305-119-b,https://hrc.contentdm.oclc.org/digital/iiif/p15878coll17/1298
