A27387-001-a,https://colenda.library.upenn.edu/phalt/iiif/2/ark81431p31g0j848%2FSHA256E-s7234831--a0991b0b3bb864aa1ea12051973ee04307aac31aa2a42d76dc0bc3669afebeba.jpeg/full/full/0/default.jpg
A27387-001-b,https://colenda.library.upenn.edu/phalt/iiif/2/ark81431p31g0j848%2FSHA256E-s4313521--552038ac98d7fcc07187de050d929864ea89f34bd262a4380f7767a6a610c05a.jpeg/full/full/0/default.jpg
A27387-002-a,https://colenda.library.upenn.edu/phalt/iiif/2/ark81431p31g0j848%2FSHA256E-s3986796--d08bd288cf9a4aada10f0f489dd0666a1a620dab836606c3688955a315568bbd.jpeg/full/full/0/default.jpg
A27387-002-b,https://colenda.library.upenn.edu/phalt/iiif/2/ark81431p31g0j848%2FSHA256E-s4199341--096b7c41ed580f250c6d855a6a1df81ade288e0e8d70239d439b97a2a6cc87ef.jpeg/full/full/0/default.jpg
A27387-003-a,https://colenda.library.upenn.edu/phalt/iiif/2/ark81431p31g0j848%2FSHA256E-s4455942--d7ae3d0b99f1ead2cf14f3c6de3ab115914630ce9af9f5352e28035da1f849ad.jpeg/full/full/0/default.jpg
A27387-003-b,https://colenda.library.upenn.edu/phalt/iiif/2/ark81431p31g0j848%2FSHA256E-s3444562--c330005ce0492a237657f123e0e807fea168f94936a376f2829100a8c232937f.jpeg/full/full/0/default.jpg
A27387-004-a,https://colenda.library.upenn.edu/phalt/iiif/2/ark81431p31g0j848%2FSHA256E-s5606474--779ac92ed503483d6d396f9d39f2b057a36a5c9751de6b08acf0eaa4c8c885bf.jpeg/full/full/0/default.jpg
A27387-004-b,https://colenda.library.upenn.edu/phalt/iiif/2/ark81431p31g0j848%2FSHA256E-s4319622--05fbcc72d7d9c7fc959f14c920607159384bd0847f7ec425d0f9a8c5d50546f3.jpeg/full/full/0/default.jpg
A27387-005-a,https://colenda.library.upenn.edu/phalt/iiif/2/ark81431p31g0j848%2FSHA256E-s4672729--e951c08e978f2f840a4f7cb5e746f2b7020498ab30ff8fb585ada45251aeb1b8.jpeg/full/full/0/default.jpg
A27387-005-b,https://colenda.library.upenn.edu/phalt/iiif/2/ark81431p31g0j848%2FSHA256E-s4436198--053d5af60e5c93fb771e34da89c7638278675bbf90f7fc390a814d3bb2eabaef.jpeg/full/full/0/default.jpg
A27387-006-a,https://colenda.library.upenn.edu/phalt/iiif/2/ark81431p31g0j848%2FSHA256E-s4688740--b762258ca0b245349e4332b698a5a7f0b2d43926448893503647a4edabf2db0a.jpeg/full/full/0/default.jpg
A27387-006-b,https://colenda.library.upenn.edu/phalt/iiif/2/ark81431p31g0j848%2FSHA256E-s4555594--afbc9266bca98ac4bbea4fab7cdd1e80de697017418db2918524fe34ccf0617e.jpeg/full/full/0/default.jpg
A27387-007-a,https://colenda.library.upenn.edu/phalt/iiif/2/ark81431p31g0j848%2FSHA256E-s4669003--34e8af671c6bf076a5877a55c07e29eae247711371bc7cec302e9ae43729868b.jpeg/full/full/0/default.jpg
A27387-007-b,https://colenda.library.upenn.edu/phalt/iiif/2/ark81431p31g0j848%2FSHA256E-s4418706--5ed8f3c497689ffc5d509fa7540919f7da5ee91a9b0eeca952b6a4068c7434f4.jpeg/full/full/0/default.jpg
A27387-008-a,https://colenda.library.upenn.edu/phalt/iiif/2/ark81431p31g0j848%2FSHA256E-s4676397--02d69afda6d16232561d77b31933b4e31ea5a4de573937d520058a10df5cc185.jpeg/full/full/0/default.jpg
A27387-008-b,https://colenda.library.upenn.edu/phalt/iiif/2/ark81431p31g0j848%2FSHA256E-s4409777--14c0246e26d50f7c648b5aade4c966a46b6e77f4b6389c4dd3a5572a633caec9.jpeg/full/full/0/default.jpg
A27387-009-a,https://colenda.library.upenn.edu/phalt/iiif/2/ark81431p31g0j848%2FSHA256E-s4715741--7a8e44a9f383cd316249b065c3ef0c45850afea5c93960621cd9e70f6fa63172.jpeg/full/full/0/default.jpg
A27387-009-b,https://colenda.library.upenn.edu/phalt/iiif/2/ark81431p31g0j848%2FSHA256E-s4464581--4d2aa745087b68d816ff02560587f9e61f5caced316dbdb3986e700bfedee553.jpeg/full/full/0/default.jpg
A27387-010-a,https://colenda.library.upenn.edu/phalt/iiif/2/ark81431p31g0j848%2FSHA256E-s4924057--7562ae44ce0a0b399231281bcf59a0b34fed1fe63685a7c810d722cf01ffbe66.jpeg/full/full/0/default.jpg
A27387-010-b,https://colenda.library.upenn.edu/phalt/iiif/2/ark81431p31g0j848%2FSHA256E-s4532077--3c3a810ada75868e107ceb8a9fbbb4930efbbcefbe8aef42195579deca468e60.jpeg/full/full/0/default.jpg
A27387-011-a,https://colenda.library.upenn.edu/phalt/iiif/2/ark81431p31g0j848%2FSHA256E-s4293217--7a7f55bb742bc3c45d442d8c3ccd5801ca12dd4ee2bba45deb60a9200afc399f.jpeg/full/full/0/default.jpg
A27387-011-b,https://colenda.library.upenn.edu/phalt/iiif/2/ark81431p31g0j848%2FSHA256E-s4439859--5f8030cfa3a63668770f72752c0c5383bea1a68ec7ba9df938d79724a41cda8a.jpeg/full/full/0/default.jpg
A27387-012-a,https://colenda.library.upenn.edu/phalt/iiif/2/ark81431p31g0j848%2FSHA256E-s4485057--f301b225a38b2cbe44ac0718b3106554c0dcdb5b56d59a1e0a354f588e9b4978.jpeg/full/full/0/default.jpg
A27387-012-b,https://colenda.library.upenn.edu/phalt/iiif/2/ark81431p31g0j848%2FSHA256E-s4093493--f4826f3055eda24728e5a3dfd1dfeb083faa60188e8239c6753a9ed192e047c6.jpeg/full/full/0/default.jpg
A27387-013-a,https://colenda.library.upenn.edu/phalt/iiif/2/ark81431p31g0j848%2FSHA256E-s4551323--f1b1ef7215feb448091f35b751ce53b81126ed15a5e50ae6d51a79dd8a1891e5.jpeg/full/full/0/default.jpg
A27387-013-b,https://colenda.library.upenn.edu/phalt/iiif/2/ark81431p31g0j848%2FSHA256E-s4010654--d5cbaeb605677cc4e9c6d3d2e8006a615a6da5a9e23ffe50e7501e3537f941a6.jpeg/full/full/0/default.jpg
A27387-014-a,https://colenda.library.upenn.edu/phalt/iiif/2/ark81431p31g0j848%2FSHA256E-s4608524--d8058a5a8c167dc88ec472d9d9a7687a2a3f82af9ae31021ea2567cf5f797841.jpeg/full/full/0/default.jpg
A27387-014-b,https://colenda.library.upenn.edu/phalt/iiif/2/ark81431p31g0j848%2FSHA256E-s4422548--3b9b8504eb0a333985169ec2ec93eeeddd1fa32d9d47995ef98c4c59ee6ef67f.jpeg/full/full/0/default.jpg
A27387-015-a,https://colenda.library.upenn.edu/phalt/iiif/2/ark81431p31g0j848%2FSHA256E-s4264188--40086973d45c87193a5b0428eb4bcb08613d35f2bb90dd6ae155074b7c7dbc37.jpeg/full/full/0/default.jpg
A27387-015-b,https://colenda.library.upenn.edu/phalt/iiif/2/ark81431p31g0j848%2FSHA256E-s4061951--f59d7556bb5cb18aca7433bf9a6ce08200c659d8e22b7b44e946509aaa367eb2.jpeg/full/full/0/default.jpg
A27387-016-a,https://colenda.library.upenn.edu/phalt/iiif/2/ark81431p31g0j848%2FSHA256E-s4200265--aac7cd56f5b5604597750df4cef2dcf5d5a57201786fe4ea89da4250d0ce9098.jpeg/full/full/0/default.jpg
A27387-016-b,https://colenda.library.upenn.edu/phalt/iiif/2/ark81431p31g0j848%2FSHA256E-s3981154--d0479abf0f8ce928123207f2bcba2d1dc70b13d91864d19f91623d3fbc7ae428.jpeg/full/full/0/default.jpg
A27387-017-a,https://colenda.library.upenn.edu/phalt/iiif/2/ark81431p31g0j848%2FSHA256E-s4439162--9e69fa403da06d26e08420e0e6a9694be2af872ce7ad36becbe9d5fe942b60f9.jpeg/full/full/0/default.jpg
A27387-017-b,https://colenda.library.upenn.edu/phalt/iiif/2/ark81431p31g0j848%2FSHA256E-s4099544--c2e9af3ab42c5105af0bf1bbb6eeb5d8caf8e53531b440b776f444e97e9c0326.jpeg/full/full/0/default.jpg
A27387-018-a,https://colenda.library.upenn.edu/phalt/iiif/2/ark81431p31g0j848%2FSHA256E-s4375318--6a03ca8c7010c698ca744b5200f751253c9e82b7d892380c62b2def30407b604.jpeg/full/full/0/default.jpg
A27387-018-b,https://colenda.library.upenn.edu/phalt/iiif/2/ark81431p31g0j848%2FSHA256E-s4132776--818362560e7d6bbbdf252d7cbf90c6a6e23858f5b624dc7fafb41f80c7a6ba74.jpeg/full/full/0/default.jpg
A27387-019-a,https://colenda.library.upenn.edu/phalt/iiif/2/ark81431p31g0j848%2FSHA256E-s4349235--c7e4e066dc59a0b85c06e013ef87014e8319c7eaec4928e3f75f1af9e7218e32.jpeg/full/full/0/default.jpg
A27387-019-b,https://colenda.library.upenn.edu/phalt/iiif/2/ark81431p31g0j848%2FSHA256E-s4176654--58613c5083c2a35c0d39ca34be6b850f727a24d6231a86628c46226c368f69ac.jpeg/full/full/0/default.jpg
A27387-020-a,https://colenda.library.upenn.edu/phalt/iiif/2/ark81431p31g0j848%2FSHA256E-s5154417--4d56d057aec0ab13925fc4309ca0161ec8eb044ebc0445dd8ca44f8451c8ccb5.jpeg/full/full/0/default.jpg
A27387-020-b,https://colenda.library.upenn.edu/phalt/iiif/2/ark81431p31g0j848%2FSHA256E-s4789968--7d11563e667ca99756d827a8a4a542b4a9f277e98fcd5175e8f85b17edd86c4e.jpeg/full/full/0/default.jpg
A27387-021-a,https://colenda.library.upenn.edu/phalt/iiif/2/ark81431p31g0j848%2FSHA256E-s5405127--7564d9e4076124ae0615d1f6c0cda6b5dd28c14a6b96f571d25438a088ebbeb4.jpeg/full/full/0/default.jpg
A27387-021-b,https://colenda.library.upenn.edu/phalt/iiif/2/ark81431p31g0j848%2FSHA256E-s4875467--1ac576e6843f0dac0bef3448d175e7e85388ca0da0a991d7ef7528e3172799ad.jpeg/full/full/0/default.jpg
A27387-022-a,https://colenda.library.upenn.edu/phalt/iiif/2/ark81431p31g0j848%2FSHA256E-s5465324--94f61fc2d5999f5dfd170ee4ddb6ba7dfc2b74f98fbdd61722d44e72ee8cc3b6.jpeg/full/full/0/default.jpg
A27387-022-b,https://colenda.library.upenn.edu/phalt/iiif/2/ark81431p31g0j848%2FSHA256E-s4894818--3a58794dbef93b90aeb9af17acdbb67f1af336a14127e2111577b325851322ab.jpeg/full/full/0/default.jpg
A27387-023-a,https://colenda.library.upenn.edu/phalt/iiif/2/ark81431p31g0j848%2FSHA256E-s5225285--9da7f400cde3f45c59a5210a7f8671a2e04d1f5507fdf80b853da9108a64865c.jpeg/full/full/0/default.jpg
A27387-023-b,https://colenda.library.upenn.edu/phalt/iiif/2/ark81431p31g0j848%2FSHA256E-s4822927--6907d659daccef9f920a69493f5daa14e46a18391401be15a64e6eadc093fc10.jpeg/full/full/0/default.jpg
A27387-024-a,https://colenda.library.upenn.edu/phalt/iiif/2/ark81431p31g0j848%2FSHA256E-s5254877--cc422a4c9d12b91e9eaceff4217db348be5a54084813220acfb846e65fc84ef7.jpeg/full/full/0/default.jpg
A27387-024-b,https://colenda.library.upenn.edu/phalt/iiif/2/ark81431p31g0j848%2FSHA256E-s4825334--3cb6dd1e1d89f31e79908e3da5029abfe3caad7eb67123284be56171cd2742a8.jpeg/full/full/0/default.jpg
A27387-025-a,https://colenda.library.upenn.edu/phalt/iiif/2/ark81431p31g0j848%2FSHA256E-s5346961--231944c3857df800c8f639eab342cd1443d33708d3e7ac63756dbf7ef0824e4a.jpeg/full/full/0/default.jpg
A27387-025-b,https://colenda.library.upenn.edu/phalt/iiif/2/ark81431p31g0j848%2FSHA256E-s4954941--ee94a41698a7a57ab6092190703457546b89675ad35e6b648ea511ed9cd104dd.jpeg/full/full/0/default.jpg
A27387-026-a,https://colenda.library.upenn.edu/phalt/iiif/2/ark81431p31g0j848%2FSHA256E-s5313480--5bbe603abfbe31d42d0f8a32b993166eecce5ae27acc58922bd4bdd58432ae58.jpeg/full/full/0/default.jpg
A27387-026-b,https://colenda.library.upenn.edu/phalt/iiif/2/ark81431p31g0j848%2FSHA256E-s4510642--29b0ddb1110bf42b924c1d26e504f8ab4fef07eaf336cc94c5db5983665ed4ef.jpeg/full/full/0/default.jpg
A27387-027-a,https://colenda.library.upenn.edu/phalt/iiif/2/ark81431p31g0j848%2FSHA256E-s6738800--f72df93615e200ce0184db1d0d2ea0cbdc673e9489f58a97d2a5d171a05914bf.jpeg/full/full/0/default.jpg
A27387-027-b,https://colenda.library.upenn.edu/phalt/iiif/2/ark81431p31g0j848%2FSHA256E-s4685445--03b844d7589cc16fd0085d3455e9d0e550a64b904352ba3e911f9e81865fbae8.jpeg/full/full/0/default.jpg
A27387-028-a,https://colenda.library.upenn.edu/phalt/iiif/2/ark81431p31g0j848%2FSHA256E-s5203717--f26586d7470df073c70216d06119651b62d8a7bcb04d6086514bdd41a156d7f6.jpeg/full/full/0/default.jpg
A27387-028-b,https://colenda.library.upenn.edu/phalt/iiif/2/ark81431p31g0j848%2FSHA256E-s4757726--f8205d540a4bfc61e5042bfc7c2ec0432c3fa984fe8396e5b197dfe3402b43f6.jpeg/full/full/0/default.jpg
A27387-029-a,https://colenda.library.upenn.edu/phalt/iiif/2/ark81431p31g0j848%2FSHA256E-s5259832--8d3bc8fa33313f839a496254d3c769ff5e0ea3f917af025fbc81b8cd6f0f0b5f.jpeg/full/full/0/default.jpg
A27387-029-b,https://colenda.library.upenn.edu/phalt/iiif/2/ark81431p31g0j848%2FSHA256E-s4968622--11cc838919fad7238e96250c7f0736058bf864c8a0c07828276bcf6d72d92008.jpeg/full/full/0/default.jpg
A27387-030-a,https://colenda.library.upenn.edu/phalt/iiif/2/ark81431p31g0j848%2FSHA256E-s5500188--32d4c4e7c7726b9a390be6b2f3057dd862822fe4d9ee046dcd6c40a55059a587.jpeg/full/full/0/default.jpg
A27387-030-b,https://colenda.library.upenn.edu/phalt/iiif/2/ark81431p31g0j848%2FSHA256E-s4996494--47ed713815b75dffc5e060f05b2a7c25b85bfa27a8edf0c77e6e298149833b59.jpeg/full/full/0/default.jpg
A27387-031-a,https://colenda.library.upenn.edu/phalt/iiif/2/ark81431p31g0j848%2FSHA256E-s5225009--85dc5acb8089b4d6b11233b83c874c74f8208c46a21c1a0c9e7316725d72f683.jpeg/full/full/0/default.jpg
A27387-031-b,https://colenda.library.upenn.edu/phalt/iiif/2/ark81431p31g0j848%2FSHA256E-s4816592--08f90ac5f25a01fb32334b17743ed149c7ef20ff0a4df928a1b6488ff6b8d8f3.jpeg/full/full/0/default.jpg
A27387-032-a,https://colenda.library.upenn.edu/phalt/iiif/2/ark81431p31g0j848%2FSHA256E-s5090928--13801144e0570775433d77fd8c301b4a55d5243b1f98e663dadca4a6c751439b.jpeg/full/full/0/default.jpg
A27387-032-b,https://colenda.library.upenn.edu/phalt/iiif/2/ark81431p31g0j848%2FSHA256E-s4759457--62a2c0bd0729796e607e7e6be7a3a3431372b31aedaf450a3d8ac26315ab2447.jpeg/full/full/0/default.jpg
A27387-033-a,https://colenda.library.upenn.edu/phalt/iiif/2/ark81431p31g0j848%2FSHA256E-s5228914--871a5424d103d99e16719d8d2c677408e1337015683484c7aea15275cbbf9ab5.jpeg/full/full/0/default.jpg
A27387-033-b,https://colenda.library.upenn.edu/phalt/iiif/2/ark81431p31g0j848%2FSHA256E-s4914746--f65ad9263603dfaef20000808a9d427cbb2594f08a7d8a79a4d6053110e68234.jpeg/full/full/0/default.jpg
A27387-034-a,https://colenda.library.upenn.edu/phalt/iiif/2/ark81431p31g0j848%2FSHA256E-s5093241--b59489a023c4aa495cdd70a8698460a1464b322d5db1bfd1e0451e888594e3e5.jpeg/full/full/0/default.jpg
A27387-034-b,https://colenda.library.upenn.edu/phalt/iiif/2/ark81431p31g0j848%2FSHA256E-s4885080--d94e596368f34f1be3fd813ee5a79edc8824290015d48414a2a41353f91def26.jpeg/full/full/0/default.jpg
A27387-035-a,https://colenda.library.upenn.edu/phalt/iiif/2/ark81431p31g0j848%2FSHA256E-s5661566--29c6fcd80d508739e100616c3d15a80f35f7b11f666417162303f6a936898970.jpeg/full/full/0/default.jpg
A27387-035-b,https://colenda.library.upenn.edu/phalt/iiif/2/ark81431p31g0j848%2FSHA256E-s5198653--c2235d975fe57e084dcbe6a85a883cc0912a67143a86932b1db7b2f064e450c5.jpeg/full/full/0/default.jpg
A27387-036-a,https://colenda.library.upenn.edu/phalt/iiif/2/ark81431p31g0j848%2FSHA256E-s5493527--4ab3138ac5adfb2d6516af2708428ed4f2724c73f380e64010ba2a6190a41933.jpeg/full/full/0/default.jpg
A27387-036-b,https://colenda.library.upenn.edu/phalt/iiif/2/ark81431p31g0j848%2FSHA256E-s5146379--bedf3bad81103a0727631e33fad2e8d6b0201fcdbbc056b1c86e4de2480e6ad0.jpeg/full/full/0/default.jpg
A27387-037-a,https://colenda.library.upenn.edu/phalt/iiif/2/ark81431p31g0j848%2FSHA256E-s5538687--31b1331c2a0c3c0685d2fbf6b8aeedbe33350e9a073cc2dae78a800cf49760d8.jpeg/full/full/0/default.jpg
A27387-037-b,https://colenda.library.upenn.edu/phalt/iiif/2/ark81431p31g0j848%2FSHA256E-s5337954--a6963b2676b064d308962b293e569aa8436b55254bfcfa9e5e09a3ae7c33b792.jpeg/full/full/0/default.jpg
A27387-038-a,https://colenda.library.upenn.edu/phalt/iiif/2/ark81431p31g0j848%2FSHA256E-s5163183--a8eecd55510e1cee8c95b3b67d738301c03812fa2b709b27b900816f979c3a14.jpeg/full/full/0/default.jpg
A27387-038-b,https://colenda.library.upenn.edu/phalt/iiif/2/ark81431p31g0j848%2FSHA256E-s4736847--53c8b8d8d78f85b17a98a80b4c8c04c0399c93c97d8416df261a43241ac84d50.jpeg/full/full/0/default.jpg
A27387-039-a,https://colenda.library.upenn.edu/phalt/iiif/2/ark81431p31g0j848%2FSHA256E-s5035001--1495d5b2232c7d62e848c3debdb3a738c5f3c9d2ef74a3845675883274350877.jpeg/full/full/0/default.jpg
A27387-039-b,https://colenda.library.upenn.edu/phalt/iiif/2/ark81431p31g0j848%2FSHA256E-s4252446--445369e8a0153fc9c76ffe388190577cf80ac5ed4b00e2328e78a7324f123a22.jpeg/full/full/0/default.jpg
A27387-040-a,https://colenda.library.upenn.edu/phalt/iiif/2/ark81431p31g0j848%2FSHA256E-s7001215--80ccf94ec23be0c2cce6a3493e73a28bbb2f39cbd544b74dcea34a0bd2f8f75d.jpeg/full/full/0/default.jpg
A27387-040-b,https://colenda.library.upenn.edu/phalt/iiif/2/ark81431p31g0j848%2FSHA256E-s5028293--518178e128928716489afa3b7d47ea5b3626e62f2dfd06a7b159db1de7bb7959.jpeg/full/full/0/default.jpg
A27387-041-a,https://colenda.library.upenn.edu/phalt/iiif/2/ark81431p31g0j848%2FSHA256E-s5499303--452e05727c71f1e7b3cf178706d0594b8c125a77e63ce1875b35349d52c8ccd9.jpeg/full/full/0/default.jpg
A27387-041-b,https://colenda.library.upenn.edu/phalt/iiif/2/ark81431p31g0j848%2FSHA256E-s4801200--b4eed55556b926d7f605234b66ca2b53d66e77ad88fda0bd6acf9f1647b13338.jpeg/full/full/0/default.jpg
A27387-042-a,https://colenda.library.upenn.edu/phalt/iiif/2/ark81431p31g0j848%2FSHA256E-s5176389--6911172d83a29ac55457a60dc6bcd01513eb1af491f15654a1f108906048f0d6.jpeg/full/full/0/default.jpg
A27387-042-b,https://colenda.library.upenn.edu/phalt/iiif/2/ark81431p31g0j848%2FSHA256E-s4816725--23e34e16b9b9f5b7b332ff4d8178b758d85f1ebf64dcdf01f89bd4d36e03c67a.jpeg/full/full/0/default.jpg
A27387-043-a,https://colenda.library.upenn.edu/phalt/iiif/2/ark81431p31g0j848%2FSHA256E-s5310540--b6e3a3bbf6ed0d0c35e46146a099ff144742426e1f290c5d4bd0278cd84a32ad.jpeg/full/full/0/default.jpg
A27387-043-b,https://colenda.library.upenn.edu/phalt/iiif/2/ark81431p31g0j848%2FSHA256E-s4904723--dba75be93cdb3a9504c243e3162d211af1566e2bd9a9452c711ab76f3921382f.jpeg/full/full/0/default.jpg
A27387-044-a,https://colenda.library.upenn.edu/phalt/iiif/2/ark81431p31g0j848%2FSHA256E-s5289819--8873f6e5bbe4a2157335eb97d04d0a51211d3e86f2b6028fe992f93a9f89ac49.jpeg/full/full/0/default.jpg
A27387-044-b,https://colenda.library.upenn.edu/phalt/iiif/2/ark81431p31g0j848%2FSHA256E-s4771214--8e56133080c737cab371fece46545762fcbd6a4a9cd78e081195e6db300351a6.jpeg/full/full/0/default.jpg
A27387-045-a,https://colenda.library.upenn.edu/phalt/iiif/2/ark81431p31g0j848%2FSHA256E-s5198340--5fc2e99df848712cf75c4dd4df6a4e4d001bb41955ff07a8e102febb485c4b1c.jpeg/full/full/0/default.jpg
A27387-045-b,https://colenda.library.upenn.edu/phalt/iiif/2/ark81431p31g0j848%2FSHA256E-s5016781--572d8237725a2d210166ab8cc7d8521f03c3dc2e6aea6e017ee3208d3173a377.jpeg/full/full/0/default.jpg
A27387-046-a,https://colenda.library.upenn.edu/phalt/iiif/2/ark81431p31g0j848%2FSHA256E-s4959718--18d1460cbe0587d98ed261e87739bfeb378ed701149c6115afa931ec593f0a48.jpeg/full/full/0/default.jpg
A27387-046-b,https://colenda.library.upenn.edu/phalt/iiif/2/ark81431p31g0j848%2FSHA256E-s4852938--2503f6fd322183a2376575acbca692fd48adab6fe4c0c282c881e3b5367251fa.jpeg/full/full/0/default.jpg
A27387-047-a,https://colenda.library.upenn.edu/phalt/iiif/2/ark81431p31g0j848%2FSHA256E-s5184877--aaefe3d623563562bccf90cd057bc4a3f3674beb2a0825b79aaf4334ca901c81.jpeg/full/full/0/default.jpg
A27387-047-b,https://colenda.library.upenn.edu/phalt/iiif/2/ark81431p31g0j848%2FSHA256E-s4945852--b41250ed65cc7eb0fd9468fa5b3e7610ab094cbf8f622ad01701d3e5f0ee6596.jpeg/full/full/0/default.jpg
A27387-048-a,https://colenda.library.upenn.edu/phalt/iiif/2/ark81431p31g0j848%2FSHA256E-s5394618--c3f105cd0e0f182a7a0b0c2e0fc07068ce495474d89f817c60a6a94be5b75831.jpeg/full/full/0/default.jpg
A27387-048-b,https://colenda.library.upenn.edu/phalt/iiif/2/ark81431p31g0j848%2FSHA256E-s4888572--dbf4793bcdf5c1a6fdb26571a29c68c3f312fac981a211ced41eb7266b7d0c15.jpeg/full/full/0/default.jpg
A27387-049-a,https://colenda.library.upenn.edu/phalt/iiif/2/ark81431p31g0j848%2FSHA256E-s5260604--3c814ea365c6d68f912d7de2dec7a5934422311d940e28bee4b6eb0d148e9d8f.jpeg/full/full/0/default.jpg
A27387-049-b,https://colenda.library.upenn.edu/phalt/iiif/2/ark81431p31g0j848%2FSHA256E-s4897645--47ac139abe2438036c85d33b55a07c6b7d4176d3acefdca6f0b78023277f11d1.jpeg/full/full/0/default.jpg
A27387-050-a,https://colenda.library.upenn.edu/phalt/iiif/2/ark81431p31g0j848%2FSHA256E-s4994923--c1ae5f49e025a628744cc20108e7cb5e8be243d801ed01c2adafea4f5d836767.jpeg/full/full/0/default.jpg
A27387-050-b,https://colenda.library.upenn.edu/phalt/iiif/2/ark81431p31g0j848%2FSHA256E-s4955039--328cf32b8d554a3aa6be2881084ec9ca727f19afe2b20e25c9fa4c10a4e4a88e.jpeg/full/full/0/default.jpg
A27387-051-a,https://colenda.library.upenn.edu/phalt/iiif/2/ark81431p31g0j848%2FSHA256E-s5202639--534dc27b82715945483dfba7d081ddafd30c760978f1834d24a0833e2f3be75d.jpeg/full/full/0/default.jpg
A27387-051-b,https://colenda.library.upenn.edu/phalt/iiif/2/ark81431p31g0j848%2FSHA256E-s4853580--135f971bdba78bec2988f50f141e51ee82bace00d930c210deaa8cf2f7c70d2f.jpeg/full/full/0/default.jpg
A27387-052-a,https://colenda.library.upenn.edu/phalt/iiif/2/ark81431p31g0j848%2FSHA256E-s5042573--c51f7dbe86203b0bb97669bfdd39559c69cf8b3a6e7af2bd4498c5b5e1a8d7aa.jpeg/full/full/0/default.jpg
A27387-052-b,https://colenda.library.upenn.edu/phalt/iiif/2/ark81431p31g0j848%2FSHA256E-s4902388--4b6f748d53447ad74e7c2f0685c4fb09192e1329a9ca1dd34434f4eaf80dcb33.jpeg/full/full/0/default.jpg
A27387-053-a,https://colenda.library.upenn.edu/phalt/iiif/2/ark81431p31g0j848%2FSHA256E-s4984477--837016a6befbeb9e508b74960defb691ca884afc3f251649f7d3d6372f511577.jpeg/full/full/0/default.jpg
A27387-053-b,https://colenda.library.upenn.edu/phalt/iiif/2/ark81431p31g0j848%2FSHA256E-s4864772--990c603dcf31d752c48a8b8c465f29189a31dbb61c064dd88544583bf2627cee.jpeg/full/full/0/default.jpg
A27387-054-a,https://colenda.library.upenn.edu/phalt/iiif/2/ark81431p31g0j848%2FSHA256E-s6269610--cb50ee3493f3f2c97df74de54fe48d150810e10417bb0abff2018404472cfa56.jpeg/full/full/0/default.jpg
A27387-054-b,https://colenda.library.upenn.edu/phalt/iiif/2/ark81431p31g0j848%2FSHA256E-s4789457--3119ec21123554bd713c43e5e1f921b8479a9e78d057f4d472eb2a5da7454f7e.jpeg/full/full/0/default.jpg
A27387-055-a,https://colenda.library.upenn.edu/phalt/iiif/2/ark81431p31g0j848%2FSHA256E-s5081915--99bbe14612f303f60c01aa1e2ac11ac23285162b41c8ca5bf0af9216e8059a53.jpeg/full/full/0/default.jpg
A27387-055-b,https://colenda.library.upenn.edu/phalt/iiif/2/ark81431p31g0j848%2FSHA256E-s4872197--792498bc9e1c0701b9abe032ea72aa22aef35fcc68486cee41a62a24e3251337.jpeg/full/full/0/default.jpg
A27387-056-a,https://colenda.library.upenn.edu/phalt/iiif/2/ark81431p31g0j848%2FSHA256E-s5257451--3ab6244b176f9cacbf3c01ba01584ff375715433abd70cc6a93275b402d5ba5c.jpeg/full/full/0/default.jpg
A27387-056-b,https://colenda.library.upenn.edu/phalt/iiif/2/ark81431p31g0j848%2FSHA256E-s4928980--c64397e8fbd002edc8f467c677d975cee55a33a821466b32c14125bcde29ca1a.jpeg/full/full/0/default.jpg
A27387-057-a,https://colenda.library.upenn.edu/phalt/iiif/2/ark81431p31g0j848%2FSHA256E-s5276577--40512ca55b7b2e0a34216b67ac036555a45f242b6250afb5d39b55f36ca2db56.jpeg/full/full/0/default.jpg
A27387-057-b,https://colenda.library.upenn.edu/phalt/iiif/2/ark81431p31g0j848%2FSHA256E-s4875582--ecd1c4885f978645b5bf24c008fb3692ac1c4c78f4718ef539748c26c5f7c427.jpeg/full/full/0/default.jpg
A27387-058-a,https://colenda.library.upenn.edu/phalt/iiif/2/ark81431p31g0j848%2FSHA256E-s5007907--d9b5a07eb401cd28eda544994712dad6cefe961bd1862abfed14de0da4fe1df2.jpeg/full/full/0/default.jpg
A27387-058-b,https://colenda.library.upenn.edu/phalt/iiif/2/ark81431p31g0j848%2FSHA256E-s4760783--9784e6a2fd875440dbebb3939f32cd45ddb8d41fc4f3c7c6b1b1390cfb7d26f5.jpeg/full/full/0/default.jpg
A27387-059-a,https://colenda.library.upenn.edu/phalt/iiif/2/ark81431p31g0j848%2FSHA256E-s5114831--3735cf1b5cb2f311c0b463a7d084c28fcf932c15fcb0f5622cfb2842c39edbf7.jpeg/full/full/0/default.jpg
A27387-059-b,https://colenda.library.upenn.edu/phalt/iiif/2/ark81431p31g0j848%2FSHA256E-s4831505--2399048bfd91b533ba1b81b7d5b42394eec1f13f5e6a52feb206a3770c1e7cd7.jpeg/full/full/0/default.jpg
A27387-060-a,https://colenda.library.upenn.edu/phalt/iiif/2/ark81431p31g0j848%2FSHA256E-s5064177--85756857e22031820a3fe35ca86f07ef702e27bd562f222e0028db1696f89e0b.jpeg/full/full/0/default.jpg
A27387-060-b,https://colenda.library.upenn.edu/phalt/iiif/2/ark81431p31g0j848%2FSHA256E-s4867685--6795911bb095e12707f3c4be02b4879bef0681833e539e7ec96f0253c66804c7.jpeg/full/full/0/default.jpg
A27387-061-a,9999
A27387-061-b,9999
A27387-062-a,9999
A27387-062-b,9999
A27387-063-a,9999
A27387-063-b,9999
A27387-064-a,https://colenda.library.upenn.edu/phalt/iiif/2/ark81431p31g0j848%2FSHA256E-s4814013--feca790c96f564dd5311906cb99c7aecbeb11f6a11165c024243aded31a61984.jpeg/full/full/0/default.jpg
A27387-064-b,https://colenda.library.upenn.edu/phalt/iiif/2/ark81431p31g0j848%2FSHA256E-s4448007--4ca69d54c655dfdcb662b734870f77f66c377bae541779dca95ebb199c7df228.jpeg/full/full/0/default.jpg
A27387-065-a,https://colenda.library.upenn.edu/phalt/iiif/2/ark81431p31g0j848%2FSHA256E-s6163166--d812009f3062a4fb276b22d735e9cac4198fdcd5994a151a4fa3a1ba685430ed.jpeg/full/full/0/default.jpg
A27387-065-b,https://colenda.library.upenn.edu/phalt/iiif/2/ark81431p31g0j848%2FSHA256E-s4809373--4153ae17548b36c6ff4c8c8889bcebf115b6df81cd69bf92ead4fd0263f6294b.jpeg/full/full/0/default.jpg
A27387-066-a,https://colenda.library.upenn.edu/phalt/iiif/2/ark81431p31g0j848%2FSHA256E-s4994570--822ed0e97807060b78eb7002e3d97729e28f4a4a9e6a5586d931ff12ab9e8cfb.jpeg/full/full/0/default.jpg
A27387-066-b,https://colenda.library.upenn.edu/phalt/iiif/2/ark81431p31g0j848%2FSHA256E-s4732583--41ae72aee314892ed064c1b82aedb3bcafb5e3b0ff32173011024098741b3541.jpeg/full/full/0/default.jpg
A27387-067-a,https://colenda.library.upenn.edu/phalt/iiif/2/ark81431p31g0j848%2FSHA256E-s5003570--e4b39714849e773568e213d6cc9f5189554574eda40bad08f3bd21defcfaf114.jpeg/full/full/0/default.jpg
A27387-067-b,https://colenda.library.upenn.edu/phalt/iiif/2/ark81431p31g0j848%2FSHA256E-s4872332--057236846db3185ee9356d83d0b9829801f8d1ac24f484b44215c696db1d7d7f.jpeg/full/full/0/default.jpg
A27387-068-a,https://colenda.library.upenn.edu/phalt/iiif/2/ark81431p31g0j848%2FSHA256E-s4912192--b7c19817c5375a1917a26d7a54aa37da351607053611beab50b4d1a46e82a8e4.jpeg/full/full/0/default.jpg
A27387-068-b,https://colenda.library.upenn.edu/phalt/iiif/2/ark81431p31g0j848%2FSHA256E-s4766431--70663e21959c69ff171a55ab4cad1ce36da3c25c5190e85ef40813f91dafba7a.jpeg/full/full/0/default.jpg
A27387-069-a,https://colenda.library.upenn.edu/phalt/iiif/2/ark81431p31g0j848%2FSHA256E-s5037455--dce1f5d0d29cca07965946263260e19066c826a55926b84b722115edc4d1cd81.jpeg/full/full/0/default.jpg
A27387-069-b,https://colenda.library.upenn.edu/phalt/iiif/2/ark81431p31g0j848%2FSHA256E-s4653946--964169f799806716d38c5d84fcee8461a3aa730928876dc9dcdfc7e4b9dfe670.jpeg/full/full/0/default.jpg
A27387-070-a,https://colenda.library.upenn.edu/phalt/iiif/2/ark81431p31g0j848%2FSHA256E-s5211993--0be4cf38eba1fb957d2a922f05037381397c51e7483514910217b214d810bd38.jpeg/full/full/0/default.jpg
A27387-070-b,https://colenda.library.upenn.edu/phalt/iiif/2/ark81431p31g0j848%2FSHA256E-s4957568--5372c020d5ca437cd98a5c99622ed497044fae3426839cd18e1c2b35a07b159d.jpeg/full/full/0/default.jpg
A27387-071-a,https://colenda.library.upenn.edu/phalt/iiif/2/ark81431p31g0j848%2FSHA256E-s4990483--d5bc65f872e705957cbf73b6b79875ac751d783db57aabdfde28a7770b40ca54.jpeg/full/full/0/default.jpg
A27387-071-b,https://colenda.library.upenn.edu/phalt/iiif/2/ark81431p31g0j848%2FSHA256E-s4798656--542ddb9a146b19263a5847a555049f3f9a0b00cad28244bfae43645900c9b6a7.jpeg/full/full/0/default.jpg
A27387-072-a,https://colenda.library.upenn.edu/phalt/iiif/2/ark81431p31g0j848%2FSHA256E-s5088714--e780bc49ffe0eecdd6304bb1ac3292b64af2ff783846b8a16f85c8de2c3b701b.jpeg/full/full/0/default.jpg
A27387-072-b,https://colenda.library.upenn.edu/phalt/iiif/2/ark81431p31g0j848%2FSHA256E-s4771912--3fe29b59a9b85951eca99c2395b41c46d746f177c7b1abe2cd3f50209bca88ff.jpeg/full/full/0/default.jpg
A27387-073-a,https://colenda.library.upenn.edu/phalt/iiif/2/ark81431p31g0j848%2FSHA256E-s4929234--17cd5fb94a9206270b7425aba0a40bbdc81b78a091c28e0d56d9361a085e1d6c.jpeg/full/full/0/default.jpg
A27387-073-b,https://colenda.library.upenn.edu/phalt/iiif/2/ark81431p31g0j848%2FSHA256E-s4820052--1658f243ca5646afff261926c36d123eebc8a2278ca9bf21c62c659041df3d2f.jpeg/full/full/0/default.jpg
A27387-074-a,9999
A27387-074-b,9999
A27387-075-a,9999
A27387-075-b,9999
A27387-076-a,9999
A27387-076-b,9999
A27387-077-a,https://colenda.library.upenn.edu/phalt/iiif/2/ark81431p31g0j848%2FSHA256E-s5131826--d0f0bd41ffc47f1e476faabfb9290744680dad6e4364be8e928d51ac5de52072.jpeg/full/full/0/default.jpg
A27387-077-b,https://colenda.library.upenn.edu/phalt/iiif/2/ark81431p31g0j848%2FSHA256E-s4869655--f5d625e1acfc33d272d3c8ab55449b206e851e1ded955557a73ae8990cb0a343.jpeg/full/full/0/default.jpg
A27387-078-a,https://colenda.library.upenn.edu/phalt/iiif/2/ark81431p31g0j848%2FSHA256E-s5062300--c8edd14a76104c2f49fa2c904bd6d20d070712c0ac381f45202bc30fb5e360b5.jpeg/full/full/0/default.jpg
A27387-078-b,https://colenda.library.upenn.edu/phalt/iiif/2/ark81431p31g0j848%2FSHA256E-s4851188--9c8315ab0be058a7aa425f5c8303a41e0d8078c849886f3085f3a19d0386cbaa.jpeg/full/full/0/default.jpg
A27387-079-a,https://colenda.library.upenn.edu/phalt/iiif/2/ark81431p31g0j848%2FSHA256E-s5327644--67027465336d1fbd4506eeb153f4e254efb49db0d7331fd35de59bddea44a7ed.jpeg/full/full/0/default.jpg
A27387-079-b,https://colenda.library.upenn.edu/phalt/iiif/2/ark81431p31g0j848%2FSHA256E-s5007291--a1bdff72866b17df22481b95e586bc59f9a812d08c84ed1a1a605a35c9246066.jpeg/full/full/0/default.jpg
A27387-080-a,https://colenda.library.upenn.edu/phalt/iiif/2/ark81431p31g0j848%2FSHA256E-s5164007--8f574db3eb13995c4c3d635e436c5db959fc069443c2bfc98899c20be90e9cc9.jpeg/full/full/0/default.jpg
A27387-080-b,https://colenda.library.upenn.edu/phalt/iiif/2/ark81431p31g0j848%2FSHA256E-s4754819--eb135b22b3021680fcee3b8c2259a73e3ef9256ed7236b4333b0d7ebb4e051e6.jpeg/full/full/0/default.jpg
A27387-081-a,https://colenda.library.upenn.edu/phalt/iiif/2/ark81431p31g0j848%2FSHA256E-s5082510--5fa20ae053770a3e63b5dd06887e79588a0a1fab5de3fc49e938d7751ef23885.jpeg/full/full/0/default.jpg
A27387-081-b,https://colenda.library.upenn.edu/phalt/iiif/2/ark81431p31g0j848%2FSHA256E-s4820971--f22c587dcf9eb304de5bb6a0c55476f5cbc9cba9c3e00d57cba7ce2a2b2f7956.jpeg/full/full/0/default.jpg
A27387-082-a,https://colenda.library.upenn.edu/phalt/iiif/2/ark81431p31g0j848%2FSHA256E-s4890365--54c075983d63f5e86459c07bf4047b76b4f5f5d372a14794db8bb3767de0d8da.jpeg/full/full/0/default.jpg
A27387-082-b,https://colenda.library.upenn.edu/phalt/iiif/2/ark81431p31g0j848%2FSHA256E-s4610456--62cb048cf62d5f61ae7f076c25fbee197f39d0098476979df3b73b15ac4fab3a.jpeg/full/full/0/default.jpg
A27387-083-a,https://colenda.library.upenn.edu/phalt/iiif/2/ark81431p31g0j848%2FSHA256E-s5013423--3986eb480d765a485a225323f06b73c6d94c06818ba1d934c877ba865c513c9f.jpeg/full/full/0/default.jpg
A27387-083-b,https://colenda.library.upenn.edu/phalt/iiif/2/ark81431p31g0j848%2FSHA256E-s4868973--76b23e6e4f9f48f1723560ad9dff19f9e063ab5972d9b6e9b969455a0880df06.jpeg/full/full/0/default.jpg
A27387-084-a,https://colenda.library.upenn.edu/phalt/iiif/2/ark81431p31g0j848%2FSHA256E-s5019374--219b2c5fe2d6d262087290b8b8e75bb8a67ac88679c99640adc739f11bb20555.jpeg/full/full/0/default.jpg
A27387-084-b,https://colenda.library.upenn.edu/phalt/iiif/2/ark81431p31g0j848%2FSHA256E-s4911042--a9f871c2bf9d17c30b045e37d226285e3798a5dde9372010fd95b7cc9bf9ae9e.jpeg/full/full/0/default.jpg
A27387-085-a,https://colenda.library.upenn.edu/phalt/iiif/2/ark81431p31g0j848%2FSHA256E-s5184191--3e8b93d8d752138211ba8ed363264583cb03404a517f98b7cb1c09de35ebcd9a.jpeg/full/full/0/default.jpg
A27387-085-b,https://colenda.library.upenn.edu/phalt/iiif/2/ark81431p31g0j848%2FSHA256E-s4964870--decc598e1a942a63fb57f33556673007e08a8208c9d64332028d8202bbc46936.jpeg/full/full/0/default.jpg
A27387-086-a,https://colenda.library.upenn.edu/phalt/iiif/2/ark81431p31g0j848%2FSHA256E-s4900660--de9c89d968eabe94690d8bfdb31a5904ba300c00bad28fb6d6d5da974c8a607f.jpeg/full/full/0/default.jpg
A27387-086-b,https://colenda.library.upenn.edu/phalt/iiif/2/ark81431p31g0j848%2FSHA256E-s4766185--b6db9b106a4ad1e29116973a7b0d72fa4547d2736ac1827cc8b0bbb3df59eda8.jpeg/full/full/0/default.jpg
A27387-087-a,https://colenda.library.upenn.edu/phalt/iiif/2/ark81431p31g0j848%2FSHA256E-s5051691--7694db9db6327956c1624de6647e920a493ffec8dfc4cbd31c5bce8d153e8d13.jpeg/full/full/0/default.jpg
A27387-087-b,https://colenda.library.upenn.edu/phalt/iiif/2/ark81431p31g0j848%2FSHA256E-s5106183--62e5ba1727c729b3bbbcacb8b937b3219910dba93ac6d982849d2cd4a83ec838.jpeg/full/full/0/default.jpg
A27387-088-a,https://colenda.library.upenn.edu/phalt/iiif/2/ark81431p31g0j848%2FSHA256E-s5259149--744c571481c7f91cd230cdc0f431bc82c51559ec1973529d14b310bdf625f2f0.jpeg/full/full/0/default.jpg
A27387-088-b,https://colenda.library.upenn.edu/phalt/iiif/2/ark81431p31g0j848%2FSHA256E-s4911017--da747ef2f0eea6728dd4863bc2faa980cfbf57d8e8864e701e4c89e267787a36.jpeg/full/full/0/default.jpg
A27387-089-a,https://colenda.library.upenn.edu/phalt/iiif/2/ark81431p31g0j848%2FSHA256E-s5055233--84fd5055a1116ef0781114fc70e82c601b648f9a62bd6dec7f0ed0e8bb171042.jpeg/full/full/0/default.jpg
A27387-089-b,https://colenda.library.upenn.edu/phalt/iiif/2/ark81431p31g0j848%2FSHA256E-s5034108--a7ebd6f3b32612113ac3a04bb7754cb9a02171884356f46187c234b8665881f1.jpeg/full/full/0/default.jpg
A27387-090-a,https://colenda.library.upenn.edu/phalt/iiif/2/ark81431p31g0j848%2FSHA256E-s5123940--949617153fd59cce697770b15591cd1ba634519f122a58289a74edd4df546582.jpeg/full/full/0/default.jpg
A27387-090-b,https://colenda.library.upenn.edu/phalt/iiif/2/ark81431p31g0j848%2FSHA256E-s4801059--0a2b2f289a111b82c52a771d7f303069ea8aacadc49cd25bd340435e37d53248.jpeg/full/full/0/default.jpg
A27387-091-a,https://colenda.library.upenn.edu/phalt/iiif/2/ark81431p31g0j848%2FSHA256E-s4939203--314c35eca6c97bdf703f3679f3af18cad3d1c7b4b165d5e603e05f3e9f5cf29a.jpeg/full/full/0/default.jpg
A27387-091-b,https://colenda.library.upenn.edu/phalt/iiif/2/ark81431p31g0j848%2FSHA256E-s4808412--27da4df4b81e3c4a92965a6fddb815ea12786adbead3a16f43230c22bc30b73a.jpeg/full/full/0/default.jpg
A27387-092-a,https://colenda.library.upenn.edu/phalt/iiif/2/ark81431p31g0j848%2FSHA256E-s5000238--6eadd1b71e7da43523bf96c513031089452e49f63657255b21ab976501b3ebcc.jpeg/full/full/0/default.jpg
A27387-092-b,https://colenda.library.upenn.edu/phalt/iiif/2/ark81431p31g0j848%2FSHA256E-s4769022--36ab1477090c14bba2771057f72c6474f40da31d6274179b6f0d475141784179.jpeg/full/full/0/default.jpg
A27387-093-a,https://colenda.library.upenn.edu/phalt/iiif/2/ark81431p31g0j848%2FSHA256E-s4879467--b72d88feefbf81f0660efaf495e93dc079115cfa6bcea96d47a894ec2245d578.jpeg/full/full/0/default.jpg
A27387-093-b,https://colenda.library.upenn.edu/phalt/iiif/2/ark81431p31g0j848%2FSHA256E-s4976760--508547d28b937b9a49359624ebc4e906cc870a8766318972f1b2b89818bb0cbd.jpeg/full/full/0/default.jpg
A27387-094-a,https://colenda.library.upenn.edu/phalt/iiif/2/ark81431p31g0j848%2FSHA256E-s5165073--37a8bde840b7494f62234134ce77dbda679e13805b44753c4f4495c8cf7cf442.jpeg/full/full/0/default.jpg
A27387-094-b,https://colenda.library.upenn.edu/phalt/iiif/2/ark81431p31g0j848%2FSHA256E-s5097658--a7da5a6f965d6b079de32a89a8931e282732368a15553cd1e85d35b8c5a6512a.jpeg/full/full/0/default.jpg
A27387-095-a,https://colenda.library.upenn.edu/phalt/iiif/2/ark81431p31g0j848%2FSHA256E-s5094210--0efb9500cebcad22228452d7e41484dbf9e5a2e7ea8e4983a38cab420fca6c6e.jpeg/full/full/0/default.jpg
A27387-095-b,https://colenda.library.upenn.edu/phalt/iiif/2/ark81431p31g0j848%2FSHA256E-s4714400--00c8eb7bd1dc5b85b9fb7b538e156fa1f138510854ff53a4a3fdcde81a058312.jpeg/full/full/0/default.jpg
A27387-096-a,https://colenda.library.upenn.edu/phalt/iiif/2/ark81431p31g0j848%2FSHA256E-s5009456--0601e785fd3255cd1c24d53895dcbd0cee9a753823f5bc6a30c65cd2164f9f1e.jpeg/full/full/0/default.jpg
A27387-096-b,https://colenda.library.upenn.edu/phalt/iiif/2/ark81431p31g0j848%2FSHA256E-s3742841--91f0f110cc89be47fcfab9602d67773d836ee8ceb4f82f38c3649bef39845195.jpeg/full/full/0/default.jpg
A27387-097-a,https://colenda.library.upenn.edu/phalt/iiif/2/ark81431p31g0j848%2FSHA256E-s5349230--1f242702f7937cb9d341876be15598e62ffd52716fec391c8d8522065cef68f0.jpeg/full/full/0/default.jpg
A27387-097-b,https://colenda.library.upenn.edu/phalt/iiif/2/ark81431p31g0j848%2FSHA256E-s5466822--08949f4a380c3c386e2946cfd42ad5bcb24a34b5061caf245279d6c93fb5d007.jpeg/full/full/0/default.jpg
A27387-098-a,https://colenda.library.upenn.edu/phalt/iiif/2/ark81431p31g0j848%2FSHA256E-s5074367--5065c70cf1d61085db31b29d2d32a17d6082501c804596093af2cef52f0767e4.jpeg/full/full/0/default.jpg
A27387-098-b,https://colenda.library.upenn.edu/phalt/iiif/2/ark81431p31g0j848%2FSHA256E-s7326895--e6371741cd2f69ca2e717a498bdb8a209b040bab4a9a95c894b881e10e16a4dc.jpeg/full/full/0/default.jpg
A27387-099-a,https://colenda.library.upenn.edu/phalt/iiif/2/ark81431p31g0j848%2FSHA256E-s4976964--2cc3c9e1809bae60dd125e5ef3d0b8f84ca4346125b5dbfdfe0dbc4c2e4501a5.jpeg/full/full/0/default.jpg
A27387-099-b,https://colenda.library.upenn.edu/phalt/iiif/2/ark81431p31g0j848%2FSHA256E-s5058693--b7d75115458d123684ac025e0946d3e3b45f46c276d5596bd2d5c0f2ec184411.jpeg/full/full/0/default.jpg
A27387-100-a,https://colenda.library.upenn.edu/phalt/iiif/2/ark81431p31g0j848%2FSHA256E-s4945490--d73e6b870656923442b2444db116e6e399ef432be3636a09f62fea6f53c99663.jpeg/full/full/0/default.jpg
A27387-100-b,https://colenda.library.upenn.edu/phalt/iiif/2/ark81431p31g0j848%2FSHA256E-s4911939--b312783d752941b2e9b006aaa9da6663537f8356f1471c22a8ff9afc9be1deeb.jpeg/full/full/0/default.jpg
A27387-101-a,https://colenda.library.upenn.edu/phalt/iiif/2/ark81431p31g0j848%2FSHA256E-s5133892--a4e9d2063e3ef0126c8e6139896c5ac09f03f4899a44b2ed7118d0f7ab9c0757.jpeg/full/full/0/default.jpg
A27387-101-b,https://colenda.library.upenn.edu/phalt/iiif/2/ark81431p31g0j848%2FSHA256E-s4825231--8e85a8dc7ff9312c831ba19bca20e803d80e6f6d6d0f8fed2a40fcce8f95c4b0.jpeg/full/full/0/default.jpg
A27387-102-a,https://colenda.library.upenn.edu/phalt/iiif/2/ark81431p31g0j848%2FSHA256E-s4982162--01b9640eafeec1a7e18993ecbef230eaabb0043827c378e7c00461d8005f517c.jpeg/full/full/0/default.jpg
A27387-102-b,https://colenda.library.upenn.edu/phalt/iiif/2/ark81431p31g0j848%2FSHA256E-s4834235--c924f73021d48725d41c710d96bd38cc0c59b07ddcc9bc584eb686c4cd032375.jpeg/full/full/0/default.jpg
A27387-103-a,https://colenda.library.upenn.edu/phalt/iiif/2/ark81431p31g0j848%2FSHA256E-s4969978--7467f7f1cfdd4adef4a8b13022d45f61ff65aa38397d0c582cc6571310f6dfa9.jpeg/full/full/0/default.jpg
A27387-103-b,https://colenda.library.upenn.edu/phalt/iiif/2/ark81431p31g0j848%2FSHA256E-s4893331--ddb5806f1e3b7af19e7c8badf2f3e130bb5befd24a5151551d6bfbc61b947f0f.jpeg/full/full/0/default.jpg
A27387-104-a,https://colenda.library.upenn.edu/phalt/iiif/2/ark81431p31g0j848%2FSHA256E-s5029717--8e0d9aa980ae27d92a4ece72b5632f3c02012299116a0c5f7861b48f0be4c4d0.jpeg/full/full/0/default.jpg
A27387-104-b,https://colenda.library.upenn.edu/phalt/iiif/2/ark81431p31g0j848%2FSHA256E-s4948884--5fab21aeb34964cef3e2f496682303788f97f5ebdd3bca7f983af3df4929f55d.jpeg/full/full/0/default.jpg
A27387-105-a,https://colenda.library.upenn.edu/phalt/iiif/2/ark81431p31g0j848%2FSHA256E-s5148710--65f49f8e5b383861abc57e86bcddbc555e31c01cd14ad82ad49a2a309e23e620.jpeg/full/full/0/default.jpg
A27387-105-b,https://colenda.library.upenn.edu/phalt/iiif/2/ark81431p31g0j848%2FSHA256E-s5033743--3405e1185db11b1f873cf9f649cc4a7a0a76cff47e1cb9768a7203f11133b7fe.jpeg/full/full/0/default.jpg
A27387-106-a,https://colenda.library.upenn.edu/phalt/iiif/2/ark81431p31g0j848%2FSHA256E-s5123078--5f4a342efea3c7d28cf116f92502cd764ff756052251498cb808a22b79162d08.jpeg/full/full/0/default.jpg
A27387-106-b,https://colenda.library.upenn.edu/phalt/iiif/2/ark81431p31g0j848%2FSHA256E-s4853875--7b571c26dd37f3d54555b7c6c918613a3ef43635cbc2fd67ef9dcca7e6647621.jpeg/full/full/0/default.jpg
A27387-107-a,https://colenda.library.upenn.edu/phalt/iiif/2/ark81431p31g0j848%2FSHA256E-s4896038--ff014fcfded0a13ff1595778979b2208e97ae9d492887b2c048691e7a46fd5c4.jpeg/full/full/0/default.jpg
A27387-107-b,https://colenda.library.upenn.edu/phalt/iiif/2/ark81431p31g0j848%2FSHA256E-s4616584--10e00b07a8e2d7b0641c7913b365b41412fdb1b0a111a005fa7f19bbe94db29d.jpeg/full/full/0/default.jpg
A27387-108-a,https://colenda.library.upenn.edu/phalt/iiif/2/ark81431p31g0j848%2FSHA256E-s4919922--f4e58437aef7a0d17a4138a2dd8ab5405fe60770182de7bfb65cb4a59e457325.jpeg/full/full/0/default.jpg
A27387-108-b,https://colenda.library.upenn.edu/phalt/iiif/2/ark81431p31g0j848%2FSHA256E-s4683587--c81676dd6191ceedfac407f3045cd7c3437307b0594c6ffb6b143af1c6bcecda.jpeg/full/full/0/default.jpg
A27387-109-a,https://colenda.library.upenn.edu/phalt/iiif/2/ark81431p31g0j848%2FSHA256E-s4823381--ccf1dff398b2619429b25b6918a91f8c21c9f97b71c74d869c026a24a657582d.jpeg/full/full/0/default.jpg
A27387-109-b,https://colenda.library.upenn.edu/phalt/iiif/2/ark81431p31g0j848%2FSHA256E-s4902019--e98e23209d787560c40fba709aadd75a15836069f1309db3f18d006978df1fc8.jpeg/full/full/0/default.jpg
A27387-110-a,https://colenda.library.upenn.edu/phalt/iiif/2/ark81431p31g0j848%2FSHA256E-s5140419--2b90934274d719a9ee107d370f4c6e360d337d4ff85af696d4bafef7166753f6.jpeg/full/full/0/default.jpg
A27387-110-b,https://colenda.library.upenn.edu/phalt/iiif/2/ark81431p31g0j848%2FSHA256E-s4844802--40f6e39ae0b118209babf346e5c3e1a367bad4c880cf95f2e035436be76fca11.jpeg/full/full/0/default.jpg
A27387-111-a,https://colenda.library.upenn.edu/phalt/iiif/2/ark81431p31g0j848%2FSHA256E-s4949125--fee7bd47bb6482b43d234e9ef07260dfa2a111a2968cd312f36a610ccb1f62ff.jpeg/full/full/0/default.jpg
A27387-111-b,https://colenda.library.upenn.edu/phalt/iiif/2/ark81431p31g0j848%2FSHA256E-s4823074--6f80e23c0124a12535bfb24a09305e3036bea1438349a4d91273a04cbbfeb4de.jpeg/full/full/0/default.jpg
A27387-112-a,https://colenda.library.upenn.edu/phalt/iiif/2/ark81431p31g0j848%2FSHA256E-s4919611--a0627880497e7338971408743810ad6ee8003a6b846beba7e287b895bbec6985.jpeg/full/full/0/default.jpg
A27387-112-b,https://colenda.library.upenn.edu/phalt/iiif/2/ark81431p31g0j848%2FSHA256E-s4900025--3525f17c02b901a39ef59e67eaaa781d340a268add1b208db2ca2388da62f35d.jpeg/full/full/0/default.jpg
A27387-113-a,https://colenda.library.upenn.edu/phalt/iiif/2/ark81431p31g0j848%2FSHA256E-s4999442--b62b527b468195bd1f0b78ef255bef46f0b7bf8d29604a81efe4e491a1f0e7d4.jpeg/full/full/0/default.jpg
A27387-113-b,https://colenda.library.upenn.edu/phalt/iiif/2/ark81431p31g0j848%2FSHA256E-s4791141--0b3911337765f6241de4132bab2cd7ba9a948767d6263c674edf782117cb120a.jpeg/full/full/0/default.jpg
A27387-114-a,https://colenda.library.upenn.edu/phalt/iiif/2/ark81431p31g0j848%2FSHA256E-s4914714--a5ceec47982aba7acdf6cd7faa702da0b45508b139c76d1d05bbf70291033b40.jpeg/full/full/0/default.jpg
A27387-114-b,https://colenda.library.upenn.edu/phalt/iiif/2/ark81431p31g0j848%2FSHA256E-s4872365--5781ae745ae8cfcfd7088ca9585502badad4cee4567c588ed6176f15e0dc723b.jpeg/full/full/0/default.jpg
A27387-115-a,https://colenda.library.upenn.edu/phalt/iiif/2/ark81431p31g0j848%2FSHA256E-s5067190--e0b12193d4790371962c15a25b2502c5b94a60ea42af862e37dc3b33bc39aa65.jpeg/full/full/0/default.jpg
A27387-115-b,https://colenda.library.upenn.edu/phalt/iiif/2/ark81431p31g0j848%2FSHA256E-s4827515--2e564e78465a0422d4df622a322ef77198875d4f0a95856cd54c36a5e5af0f00.jpeg/full/full/0/default.jpg
A27387-116-a,https://colenda.library.upenn.edu/phalt/iiif/2/ark81431p31g0j848%2FSHA256E-s5076656--32e8d9f68bf7d368818ff1f6f113d73b0025e572b39b8aa002a8cdd355c9ca7a.jpeg/full/full/0/default.jpg
A27387-116-b,https://colenda.library.upenn.edu/phalt/iiif/2/ark81431p31g0j848%2FSHA256E-s4860665--b29110186f6a570772d1fc78f1021f45b201f2e1ad86b4c654d9e1656bf636e4.jpeg/full/full/0/default.jpg
A27387-117-a,https://colenda.library.upenn.edu/phalt/iiif/2/ark81431p31g0j848%2FSHA256E-s4978412--21ea1244bbe087ffc27a0c9044ad122d744ad321c86bafa6052004100ca17931.jpeg/full/full/0/default.jpg
A27387-117-b,https://colenda.library.upenn.edu/phalt/iiif/2/ark81431p31g0j848%2FSHA256E-s4978427--0193f61cea16a043ae2792ac9d084f739628e513b80e4277f1d39250bfc5b891.jpeg/full/full/0/default.jpg
A27387-118-a,https://colenda.library.upenn.edu/phalt/iiif/2/ark81431p31g0j848%2FSHA256E-s5127795--efa04441b2ef8184ba15d4babe8eeb0988d14b04c79d285421a08667925ece2e.jpeg/full/full/0/default.jpg
A27387-118-b,https://colenda.library.upenn.edu/phalt/iiif/2/ark81431p31g0j848%2FSHA256E-s5016129--ab0de1d949bb06ab5210285bff747d4b506df1d042c65e6a0f2046c48c8d7503.jpeg/full/full/0/default.jpg
A27387-119-a,https://colenda.library.upenn.edu/phalt/iiif/2/ark81431p31g0j848%2FSHA256E-s5100760--4823f332c188dd1a28f30d85173c9261dd0155440defba54ccd977687c957007.jpeg/full/full/0/default.jpg
A27387-119-b,https://colenda.library.upenn.edu/phalt/iiif/2/ark81431p31g0j848%2FSHA256E-s5104689--66509d8f56f77f442ec25da7178da91cde68934ccfce85cc534f025af827be02.jpeg/full/full/0/default.jpg
A27387-120-a,https://colenda.library.upenn.edu/phalt/iiif/2/ark81431p31g0j848%2FSHA256E-s5011216--b276e82e37a31026a5f2637b3a09ca0163ba9442be9f080a776d8850dead1713.jpeg/full/full/0/default.jpg
A27387-120-b,https://colenda.library.upenn.edu/phalt/iiif/2/ark81431p31g0j848%2FSHA256E-s4730745--dfa7845a539b42d59bca440689111bb84c6ed50f056064036b6ed5b85ebe2842.jpeg/full/full/0/default.jpg
A27387-121-a,https://colenda.library.upenn.edu/phalt/iiif/2/ark81431p31g0j848%2FSHA256E-s4882679--367403c58ae65aeb242274ca55964c1848aa4ca7e0f0bdbc6182d3eec4012de6.jpeg/full/full/0/default.jpg
A27387-121-b,https://colenda.library.upenn.edu/phalt/iiif/2/ark81431p31g0j848%2FSHA256E-s4796462--84ab314bc53a1d770ba00776c0dcd92253793fbbf263ec73e66a02327017b2da.jpeg/full/full/0/default.jpg
A27387-122-a,https://colenda.library.upenn.edu/phalt/iiif/2/ark81431p31g0j848%2FSHA256E-s4720141--4e2068d0822675b86660deb3a989677f35a6f46c510e308ffc5290b1fc8e5721.jpeg/full/full/0/default.jpg
A27387-122-b,https://colenda.library.upenn.edu/phalt/iiif/2/ark81431p31g0j848%2FSHA256E-s4744862--608b8287009b2c154db6bfd426ab89b7c0008b0669699705079e1fd6758d7749.jpeg/full/full/0/default.jpg
A27387-123-a,https://colenda.library.upenn.edu/phalt/iiif/2/ark81431p31g0j848%2FSHA256E-s4996383--3d2c723ddf823a1897c6de8478ba92fb5ddbf76f9e854a5e2500f59986d1a609.jpeg/full/full/0/default.jpg
A27387-123-b,https://colenda.library.upenn.edu/phalt/iiif/2/ark81431p31g0j848%2FSHA256E-s4936148--08f7f7483630db393de3dd2842ad5bf0ca708a8d06262ee7d71b950d2724693e.jpeg/full/full/0/default.jpg
A27387-124-a,https://colenda.library.upenn.edu/phalt/iiif/2/ark81431p31g0j848%2FSHA256E-s5177599--6b2dd9e7aa33c350806c3414cddbc6c784ee6d70e287485201d69687d562e590.jpeg/full/full/0/default.jpg
A27387-124-b,https://colenda.library.upenn.edu/phalt/iiif/2/ark81431p31g0j848%2FSHA256E-s5142542--0ff40c41418cb138b28cd16e8c975667982c32b61d45fb52b3b71682b457aed3.jpeg/full/full/0/default.jpg
A27387-125-a,https://colenda.library.upenn.edu/phalt/iiif/2/ark81431p31g0j848%2FSHA256E-s5147485--6929326bcbb37433b7c737f9ecfff199ef533585f7b4a421a14f014a87b8bc15.jpeg/full/full/0/default.jpg
A27387-125-b,https://colenda.library.upenn.edu/phalt/iiif/2/ark81431p31g0j848%2FSHA256E-s4695500--2e527baedb5bd2189427e080ec0767fbc51ae33f94a3c8e300e6f8a00a957f7c.jpeg/full/full/0/default.jpg
A27387-126-a,https://colenda.library.upenn.edu/phalt/iiif/2/ark81431p31g0j848%2FSHA256E-s4755958--2bf21d774c7d6d304bc4b3bb22574d5a5ee30be25a5740196f8dceeac3078bfc.jpeg/full/full/0/default.jpg
A27387-126-b,https://colenda.library.upenn.edu/phalt/iiif/2/ark81431p31g0j848%2FSHA256E-s4672105--4f0a173aa4141afa625a9eb25a16c0e3350921e1b18ddf5b02e52784b24df8a3.jpeg/full/full/0/default.jpg
A27387-127-a,https://colenda.library.upenn.edu/phalt/iiif/2/ark81431p31g0j848%2FSHA256E-s5049839--9055d214a64f576de40812fec6a615a5e170a13f71e785ac73ca04d1084596d8.jpeg/full/full/0/default.jpg
A27387-127-b,https://colenda.library.upenn.edu/phalt/iiif/2/ark81431p31g0j848%2FSHA256E-s4829599--d48a9923899282ec498a3eee8fd93735de42f8f0d1d044cebeab2fefc2083787.jpeg/full/full/0/default.jpg
A27387-128-a,https://colenda.library.upenn.edu/phalt/iiif/2/ark81431p31g0j848%2FSHA256E-s4961542--61473ce3ebb3fc14283ceb91218d9e31f5d6fc6e4cb86003e1f41e09446d54d2.jpeg/full/full/0/default.jpg
A27387-128-b,https://colenda.library.upenn.edu/phalt/iiif/2/ark81431p31g0j848%2FSHA256E-s4803484--3ad2e0173e8b9ae9600e848c2bd51978a846f198203f1525cc9548e6c56f34b8.jpeg/full/full/0/default.jpg
A27387-129-a,https://colenda.library.upenn.edu/phalt/iiif/2/ark81431p31g0j848%2FSHA256E-s4829311--7fc23e1f5cb949836094c8410b416be019f513e1236739e1c43cfc522aa5d01c.jpeg/full/full/0/default.jpg
A27387-129-b,https://colenda.library.upenn.edu/phalt/iiif/2/ark81431p31g0j848%2FSHA256E-s4867251--e988a75c3f5447440fcb22b8815220756a2ce58a117ef1f6606eedb2ee9e24bc.jpeg/full/full/0/default.jpg
A27387-130-a,https://colenda.library.upenn.edu/phalt/iiif/2/ark81431p31g0j848%2FSHA256E-s4815967--259b34fce79a9e36d29f6446e5fe8be61035557c53c3a88c5caf994a5a3c1723.jpeg/full/full/0/default.jpg
A27387-130-b,https://colenda.library.upenn.edu/phalt/iiif/2/ark81431p31g0j848%2FSHA256E-s5023409--b4ff52c6abbcbe85ebe1b3d9c61b4822fd707f53c10edb45558f57f1b375857b.jpeg/full/full/0/default.jpg
A27387-131-a,https://colenda.library.upenn.edu/phalt/iiif/2/ark81431p31g0j848%2FSHA256E-s4860762--b20a6020e0d809009f903804913c3a069a049abf7787f5983f60fa00722ac4c7.jpeg/full/full/0/default.jpg
A27387-131-b,https://colenda.library.upenn.edu/phalt/iiif/2/ark81431p31g0j848%2FSHA256E-s5056248--893be28b8c2c2e29fedcecb9a05a66724569a269ac56d51d33edfb1417e9a577.jpeg/full/full/0/default.jpg
A27387-132-a,https://colenda.library.upenn.edu/phalt/iiif/2/ark81431p31g0j848%2FSHA256E-s4750496--5cd809aec724090f4790c25a8cb5d2018475b3323b00b46a90d70a3e16a213c7.jpeg/full/full/0/default.jpg
A27387-132-b,https://colenda.library.upenn.edu/phalt/iiif/2/ark81431p31g0j848%2FSHA256E-s4491585--7728c1b5306ad177b1c89a5a2d0c9e6dbb74f16925a4f4d9ec1aea79b167df2e.jpeg/full/full/0/default.jpg
A27387-133-a,https://colenda.library.upenn.edu/phalt/iiif/2/ark81431p31g0j848%2FSHA256E-s4748696--ad96a4d73e8879e1aa72282d2e786e623d8a423dfd5c32caa500ea342447684f.jpeg/full/full/0/default.jpg
A27387-133-b,https://colenda.library.upenn.edu/phalt/iiif/2/ark81431p31g0j848%2FSHA256E-s4855812--b0d099a6ef7c147c0acc8f23a4e64301c1ed20b21741c002eb4eb8b7847475ad.jpeg/full/full/0/default.jpg
A27387-134-a,https://colenda.library.upenn.edu/phalt/iiif/2/ark81431p31g0j848%2FSHA256E-s4912988--bc9c2c8096c24c697500617f6280d9e00fda6bd45c4bdbce05d50fe5b8a3df63.jpeg/full/full/0/default.jpg
A27387-134-b,https://colenda.library.upenn.edu/phalt/iiif/2/ark81431p31g0j848%2FSHA256E-s4843744--b380d44ee0100fb869f3a6ed25babf022b17a2bb0e22260597abb94f664ddc91.jpeg/full/full/0/default.jpg
A27387-135-a,https://colenda.library.upenn.edu/phalt/iiif/2/ark81431p31g0j848%2FSHA256E-s4963270--19a16db67acf0a57346896cb75f4b372442411cf2bc803b980d9392a9ba9b0be.jpeg/full/full/0/default.jpg
A27387-135-b,https://colenda.library.upenn.edu/phalt/iiif/2/ark81431p31g0j848%2FSHA256E-s4841542--446fb612b09880a3bc6d7fbe6ac654a7d3b3c2aea638b57c12c011ada7ed167c.jpeg/full/full/0/default.jpg
A27387-136-a,https://colenda.library.upenn.edu/phalt/iiif/2/ark81431p31g0j848%2FSHA256E-s4667808--b91bc84ba596ad79d195ccf7fdcd09a5391333708b3aafa88494f7920fe9cefc.jpeg/full/full/0/default.jpg
A27387-136-b,https://colenda.library.upenn.edu/phalt/iiif/2/ark81431p31g0j848%2FSHA256E-s4758607--0e52b9cdd6c77f654b361a57a522d64c92deb0da2418fc5f2cb0372813d060f3.jpeg/full/full/0/default.jpg
A27387-137-a,https://colenda.library.upenn.edu/phalt/iiif/2/ark81431p31g0j848%2FSHA256E-s4847785--0d7582fe4c04c085b1f332c96191cec6c9713cf16237005d5ba4e0898856f9d9.jpeg/full/full/0/default.jpg
A27387-137-b,https://colenda.library.upenn.edu/phalt/iiif/2/ark81431p31g0j848%2FSHA256E-s4746314--43322ec2f6eb2c3b4e1a4659efedf0a1837915420c0207fb03311c899e4f3a6b.jpeg/full/full/0/default.jpg
A27387-138-a,https://colenda.library.upenn.edu/phalt/iiif/2/ark81431p31g0j848%2FSHA256E-s4644201--db46e13c07520e93de572a739be0205fb4ee9d451697acb26d5a3d60ae6a161e.jpeg/full/full/0/default.jpg
A27387-138-b,https://colenda.library.upenn.edu/phalt/iiif/2/ark81431p31g0j848%2FSHA256E-s4912220--1f75e40f00d112d7d028cf10d25e6725d8bc05422918586233dc806747efce9c.jpeg/full/full/0/default.jpg
A27387-139-a,https://colenda.library.upenn.edu/phalt/iiif/2/ark81431p31g0j848%2FSHA256E-s5797984--531abe92c23dc38e6f7684cebf78a33b7ab4e249b24fb47d85e6ba6230243d83.jpeg/full/full/0/default.jpg
A27387-139-b,https://colenda.library.upenn.edu/phalt/iiif/2/ark81431p31g0j848%2FSHA256E-s5002944--80dc35c92519d100de140de9dbab692b30e8a2e102855ee463da47d5fadb344f.jpeg/full/full/0/default.jpg
A27387-140-a,https://colenda.library.upenn.edu/phalt/iiif/2/ark81431p31g0j848%2FSHA256E-s5040287--82b76a05ce293e6dd985fd8edecb35b8566c96dc4e280231aa7a7a2af5755249.jpeg/full/full/0/default.jpg
A27387-140-b,https://colenda.library.upenn.edu/phalt/iiif/2/ark81431p31g0j848%2FSHA256E-s5217194--e32526c7d429677307e78ffca4b0080344d5866a59c4b7e696255f6668c7a1ba.jpeg/full/full/0/default.jpg
A27387-141-a,https://colenda.library.upenn.edu/phalt/iiif/2/ark81431p31g0j848%2FSHA256E-s4941082--0c386906a3b9a5b55301ce8202adbc1141e1ae14761238073cb7e9f11091f85c.jpeg/full/full/0/default.jpg
A27387-141-b,https://colenda.library.upenn.edu/phalt/iiif/2/ark81431p31g0j848%2FSHA256E-s5240411--96f830d1b78386cd24f3a1896ca72ae5a4f97c3e50740cf5fca5cc76186c2088.jpeg/full/full/0/default.jpg
A27387-142-a,https://colenda.library.upenn.edu/phalt/iiif/2/ark81431p31g0j848%2FSHA256E-s5324041--f48635d3d34b6b233d7e7c862f17afca5a3124f9373a18b579d1b63e4f55712d.jpeg/full/full/0/default.jpg
A27387-142-b,https://colenda.library.upenn.edu/phalt/iiif/2/ark81431p31g0j848%2FSHA256E-s4959706--5f0de3678db4729835760447346b89d7cef0022cdd78d5b58cccfa6ccb66c412.jpeg/full/full/0/default.jpg
A27387-143-a,https://colenda.library.upenn.edu/phalt/iiif/2/ark81431p31g0j848%2FSHA256E-s5029783--eb8b7124497d98e9aa5ba8486561ddf33b3df9e464ef537478ba2acaac2d468d.jpeg/full/full/0/default.jpg
A27387-143-b,https://colenda.library.upenn.edu/phalt/iiif/2/ark81431p31g0j848%2FSHA256E-s4931808--b412801de712428e7c867d32b54cc2806df2f587e3c3cb78feaf8be7e16c2751.jpeg/full/full/0/default.jpg
A27387-144-a,https://colenda.library.upenn.edu/phalt/iiif/2/ark81431p31g0j848%2FSHA256E-s4804296--b9d5f8c103d9c85e1564d65aaff4e37558a27a42f325103072a29692c4b2a231.jpeg/full/full/0/default.jpg
A27387-144-b,https://colenda.library.upenn.edu/phalt/iiif/2/ark81431p31g0j848%2FSHA256E-s4550695--fcc9db2a525e1ad935cd20dc0c2ce7e16ed5773d12923180717ae4fc704874da.jpeg/full/full/0/default.jpg
A27387-145-a,https://colenda.library.upenn.edu/phalt/iiif/2/ark81431p31g0j848%2FSHA256E-s4770727--07174c675e0afc27681a6ab5332515b46fe68949ed3aebee549f222f28b01a11.jpeg/full/full/0/default.jpg
A27387-145-b,https://colenda.library.upenn.edu/phalt/iiif/2/ark81431p31g0j848%2FSHA256E-s4856077--854c86046479afc27c3457b86be6fce4d56caf9875f78d85995119105af220d7.jpeg/full/full/0/default.jpg
A27387-146-a,https://colenda.library.upenn.edu/phalt/iiif/2/ark81431p31g0j848%2FSHA256E-s4814301--b4d6bd112bf978f79a6201e65c499ffe564d625d2f1cc9ff81338de51d2f1523.jpeg/full/full/0/default.jpg
A27387-146-b,https://colenda.library.upenn.edu/phalt/iiif/2/ark81431p31g0j848%2FSHA256E-s4743533--09d507ef955f67a78cfa6ec175900364793d0dcab18df083df1cf8d9ad937e7b.jpeg/full/full/0/default.jpg
A27387-147-a,https://colenda.library.upenn.edu/phalt/iiif/2/ark81431p31g0j848%2FSHA256E-s4833038--f0195342f30949c7dc440406ed5df5674c22843e67e47eb4343a4e31a547b37d.jpeg/full/full/0/default.jpg
A27387-147-b,https://colenda.library.upenn.edu/phalt/iiif/2/ark81431p31g0j848%2FSHA256E-s4770957--13f71e64d9b38bb9dd95e11e6500226cc9ddca3814b8345d1975d73351635f98.jpeg/full/full/0/default.jpg
A27387-148-a,https://colenda.library.upenn.edu/phalt/iiif/2/ark81431p31g0j848%2FSHA256E-s4767133--da6f31b1a88d0736a8e4aea87c04872bf1f88b32584e88b1f5de937ed25dda14.jpeg/full/full/0/default.jpg
A27387-148-b,https://colenda.library.upenn.edu/phalt/iiif/2/ark81431p31g0j848%2FSHA256E-s4786852--704df8cd23e5a1d8de5fbbd3aef6459adaf92db1b312ed7cf1a0eb705cb417b2.jpeg/full/full/0/default.jpg
A27387-149-a,https://colenda.library.upenn.edu/phalt/iiif/2/ark81431p31g0j848%2FSHA256E-s5016007--3f433e893398b4346b7b49d10c9415c99a55189890f6e8218535abea1044928d.jpeg/full/full/0/default.jpg
A27387-149-b,https://colenda.library.upenn.edu/phalt/iiif/2/ark81431p31g0j848%2FSHA256E-s4781476--d860490370ba6b6a07092f2ad5cded07eb08f523eba0d2d85d370e6b05aa44f6.jpeg/full/full/0/default.jpg
A27387-150-a,https://colenda.library.upenn.edu/phalt/iiif/2/ark81431p31g0j848%2FSHA256E-s4709095--a5d7500978d76edf3e5a013b6f141c7069130763842797924bc084d83f561246.jpeg/full/full/0/default.jpg
A27387-150-b,https://colenda.library.upenn.edu/phalt/iiif/2/ark81431p31g0j848%2FSHA256E-s4912451--2bf08ff345f8a2e9c8c68b3ac7b45c59b3caa9e54ae06cecfb8d8c1dc3d7e89e.jpeg/full/full/0/default.jpg
A27387-151-a,https://colenda.library.upenn.edu/phalt/iiif/2/ark81431p31g0j848%2FSHA256E-s4958566--7200cf5cb3d2d27df2c821c214bb0903590bd4fc9ea66e883d0634f0a470c5d8.jpeg/full/full/0/default.jpg
A27387-151-b,https://colenda.library.upenn.edu/phalt/iiif/2/ark81431p31g0j848%2FSHA256E-s4829145--b2bfd6cfdfad4d407afb4bc933971f19e5652f190e68c366eb704cad8a87dc20.jpeg/full/full/0/default.jpg
A27387-152-a,https://colenda.library.upenn.edu/phalt/iiif/2/ark81431p31g0j848%2FSHA256E-s4802261--725bd5e107222a860390b3a3f932685679071c66a9d9973e6660a9a30ffd6ab4.jpeg/full/full/0/default.jpg
A27387-152-b,https://colenda.library.upenn.edu/phalt/iiif/2/ark81431p31g0j848%2FSHA256E-s4473661--2868b490e762c2854591e7eaa799309b5c8d52de0580e8b3a5a0aa9c3fcbaa18.jpeg/full/full/0/default.jpg
A27387-153-a,https://colenda.library.upenn.edu/phalt/iiif/2/ark81431p31g0j848%2FSHA256E-s4645798--55539e6cfc44d5b5559b1f28176543f905125ffb30bb09ae0d42e4f4b57db2c4.jpeg/full/full/0/default.jpg
A27387-153-b,https://colenda.library.upenn.edu/phalt/iiif/2/ark81431p31g0j848%2FSHA256E-s4267571--6e6e886aa951bf33d307a723d1c23a33193843953f940edb0cd913fdcf6bdcd3.jpeg/full/full/0/default.jpg
A27387-154-a,https://colenda.library.upenn.edu/phalt/iiif/2/ark81431p31g0j848%2FSHA256E-s5552405--52467f2b3c89f9d9ca7f5dc071990bdb097dd4821cf88db19daf6bb63a302df0.jpeg/full/full/0/default.jpg
A27387-154-b,https://colenda.library.upenn.edu/phalt/iiif/2/ark81431p31g0j848%2FSHA256E-s4644493--a53d77a72766272f9821fe1a5bd684f8b7486fef869948abbd509d240227a4bc.jpeg/full/full/0/default.jpg
A27387-155-a,https://colenda.library.upenn.edu/phalt/iiif/2/ark81431p31g0j848%2FSHA256E-s4607718--fdfe2a07511088cbee5ffedbc562876fd2ef1a2f5b298f558a12aabd8d96782f.jpeg/full/full/0/default.jpg
A27387-155-b,https://colenda.library.upenn.edu/phalt/iiif/2/ark81431p31g0j848%2FSHA256E-s4823604--044af7fa4101c17665cd855971f9d7912f6f8bfcfe7b2e3efa1d9330623d236f.jpeg/full/full/0/default.jpg
A27387-156-a,https://colenda.library.upenn.edu/phalt/iiif/2/ark81431p31g0j848%2FSHA256E-s4817094--65000cb988ddec375a1034437bfd7ad25f9a385cb5d64f037095c9fefd3c1157.jpeg/full/full/0/default.jpg
A27387-156-b,https://colenda.library.upenn.edu/phalt/iiif/2/ark81431p31g0j848%2FSHA256E-s4624736--53dd8a68b6001e99d1d1a4c61b871e352cfac4fb763a811fdeca5f3f1d501e3b.jpeg/full/full/0/default.jpg
A27387-157-a,https://colenda.library.upenn.edu/phalt/iiif/2/ark81431p31g0j848%2FSHA256E-s4550685--5d6b49a824e415ffd2b223b8c3c2a01acb36364450f50a6e826a4507dc7349d5.jpeg/full/full/0/default.jpg
A27387-157-b,https://colenda.library.upenn.edu/phalt/iiif/2/ark81431p31g0j848%2FSHA256E-s4640062--1a3a564a132676e4c98c7c8bd558846ab9cd9ee1847f25143611500c6d4662bb.jpeg/full/full/0/default.jpg
A27387-158-a,https://colenda.library.upenn.edu/phalt/iiif/2/ark81431p31g0j848%2FSHA256E-s4618660--9d08de7a4e1340880117e04d027f417bc9402a23cff3118bccf634a23897efb5.jpeg/full/full/0/default.jpg
A27387-158-b,https://colenda.library.upenn.edu/phalt/iiif/2/ark81431p31g0j848%2FSHA256E-s4955314--999297ada3b8d44412bdcdea284a3679f841b6ad13cf6c58abd95e3d32be3249.jpeg/full/full/0/default.jpg
A27387-159-a,https://colenda.library.upenn.edu/phalt/iiif/2/ark81431p31g0j848%2FSHA256E-s4717610--418639d8094d75930ecc56bba9879b99520128ace9c79944284b2f12c5684d07.jpeg/full/full/0/default.jpg
A27387-159-b,https://colenda.library.upenn.edu/phalt/iiif/2/ark81431p31g0j848%2FSHA256E-s5682212--8423ffc26f9664ff01b52aedfba5b83f20ea33e6b414ea13e995e643c6638cbb.jpeg/full/full/0/default.jpg
A27387-160-a,https://colenda.library.upenn.edu/phalt/iiif/2/ark81431p31g0j848%2FSHA256E-s4760302--1a3567ff64bf356f1de89980f91a6f8d96f4cc1730e64f5a9c44c15c0b2f651b.jpeg/full/full/0/default.jpg
A27387-160-b,https://colenda.library.upenn.edu/phalt/iiif/2/ark81431p31g0j848%2FSHA256E-s4780403--7620296e7ff4d4b05f19d876be37ad89731241624089d38ee435a431a449a260.jpeg/full/full/0/default.jpg
A27387-161-a,https://colenda.library.upenn.edu/phalt/iiif/2/ark81431p31g0j848%2FSHA256E-s4678080--b7afaba3b6a51927a66d9d9ed925d90b5fa152ddc5574174ac5001f927402620.jpeg/full/full/0/default.jpg
A27387-161-b,https://colenda.library.upenn.edu/phalt/iiif/2/ark81431p31g0j848%2FSHA256E-s4587394--2d53ba3eb276800b60793535e51ba2036fcffad04fbf2207627a06065252fe1e.jpeg/full/full/0/default.jpg
A27387-162-a,https://colenda.library.upenn.edu/phalt/iiif/2/ark81431p31g0j848%2FSHA256E-s4767500--63720a2c1f439be789f246ec3ee2923f03bf7f7b215d6e8b9ba953278ff69052.jpeg/full/full/0/default.jpg
A27387-162-b,https://colenda.library.upenn.edu/phalt/iiif/2/ark81431p31g0j848%2FSHA256E-s4734928--cde61fd0b72f1088bddd79f9bce766e22298e79ea98d01c33ef172d5b61a011f.jpeg/full/full/0/default.jpg
A27387-163-a,https://colenda.library.upenn.edu/phalt/iiif/2/ark81431p31g0j848%2FSHA256E-s4543972--ab90f319193ce27ab73a80c5acc23a3feb8eabe33cba3edeeeba559fc1c2be8a.jpeg/full/full/0/default.jpg
A27387-163-b,https://colenda.library.upenn.edu/phalt/iiif/2/ark81431p31g0j848%2FSHA256E-s4693579--fa67a7d2e8e494d0776bcd9b315cf0c28bbd032eb14470c8db54faa624145ffd.jpeg/full/full/0/default.jpg
A27387-164-a,https://colenda.library.upenn.edu/phalt/iiif/2/ark81431p31g0j848%2FSHA256E-s4575770--4d30fa308c403e66f708d5e792f08cb69846253ead4730900f5d8565767cbc39.jpeg/full/full/0/default.jpg
A27387-164-b,https://colenda.library.upenn.edu/phalt/iiif/2/ark81431p31g0j848%2FSHA256E-s4731738--1ba1270c3ed6e3ffc4da51390d9feb89012eba79b17b219a6b3624e56851b3df.jpeg/full/full/0/default.jpg
A27387-165-a,https://colenda.library.upenn.edu/phalt/iiif/2/ark81431p31g0j848%2FSHA256E-s4384764--101e871f32221c70d49f173295e3a7f58163c7bd89ffab512092aa9c8f138143.jpeg/full/full/0/default.jpg
A27387-165-b,https://colenda.library.upenn.edu/phalt/iiif/2/ark81431p31g0j848%2FSHA256E-s4595913--edb87932057785edccb1f8819b99eb450b94b987f96a8497332d01a3551343c6.jpeg/full/full/0/default.jpg
A27387-166-a,https://colenda.library.upenn.edu/phalt/iiif/2/ark81431p31g0j848%2FSHA256E-s4615281--1d0ec6fc5ebc5840ae29b991fd6b04f611be9765080b24c3996fa832a38f00d7.jpeg/full/full/0/default.jpg
A27387-166-b,https://colenda.library.upenn.edu/phalt/iiif/2/ark81431p31g0j848%2FSHA256E-s4780234--3a68af34f71f2a33c45343e7775609245e7658fbb942eff6c0521513c933b159.jpeg/full/full/0/default.jpg
A27387-167-a,https://colenda.library.upenn.edu/phalt/iiif/2/ark81431p31g0j848%2FSHA256E-s4512471--5aa4c491e949ba5e3c6b5f338e38146fe207ce79517c3909c0a2c57b27f61181.jpeg/full/full/0/default.jpg
A27387-167-b,https://colenda.library.upenn.edu/phalt/iiif/2/ark81431p31g0j848%2FSHA256E-s4494065--26330c8a08641f819284de2734b25015cfa75e060d633890f4e1c3326e12942c.jpeg/full/full/0/default.jpg
A27387-168-a,https://colenda.library.upenn.edu/phalt/iiif/2/ark81431p31g0j848%2FSHA256E-s4725340--6add4b0bdee663475248848d1d42062a10ba9274eb87e9f4336a2a941704c6f6.jpeg/full/full/0/default.jpg
A27387-168-b,https://colenda.library.upenn.edu/phalt/iiif/2/ark81431p31g0j848%2FSHA256E-s4842267--c595d1c03c9a3873f370826dee6f24b411b6d10085c5dea697113ada38aee755.jpeg/full/full/0/default.jpg
A27387-169-a,https://colenda.library.upenn.edu/phalt/iiif/2/ark81431p31g0j848%2FSHA256E-s4460493--cb7f61cebdd3381ce2d87f4d55e0a5d1f822c0690fc1e808d05b2d1e834b11b8.jpeg/full/full/0/default.jpg
A27387-169-b,https://colenda.library.upenn.edu/phalt/iiif/2/ark81431p31g0j848%2FSHA256E-s4726456--ac1948295e727329fd510e365ae3a8a7fd537c1eb10ca56e393a61b947fde6da.jpeg/full/full/0/default.jpg
A27387-170-a,https://colenda.library.upenn.edu/phalt/iiif/2/ark81431p31g0j848%2FSHA256E-s4567686--d9c2fa17241b147044252e5b9f3e559830101e3c3838de1d3e22066dfe9981f3.jpeg/full/full/0/default.jpg
A27387-170-b,https://colenda.library.upenn.edu/phalt/iiif/2/ark81431p31g0j848%2FSHA256E-s4770644--8ae4737cc5b676f4c663bbb8014c296d84aa29a4025a44d85ee1d1d13fc960d6.jpeg/full/full/0/default.jpg
A27387-171-a,https://colenda.library.upenn.edu/phalt/iiif/2/ark81431p31g0j848%2FSHA256E-s4643095--4cef14167ddf4604d1e095b6934c306289956c54641cbe3aba9a249c222b7a14.jpeg/full/full/0/default.jpg
A27387-171-b,https://colenda.library.upenn.edu/phalt/iiif/2/ark81431p31g0j848%2FSHA256E-s4050997--044a6fed3789d567efe43c8f522ffa0a79ae83698da1cf2b631bb2aad57f1461.jpeg/full/full/0/default.jpg
A27387-172-a,https://colenda.library.upenn.edu/phalt/iiif/2/ark81431p31g0j848%2FSHA256E-s5439503--122d3dd658b8944cf313bed198f9e80ac4d5cb9837f6e119dde661d7ecb2efcd.jpeg/full/full/0/default.jpg
A27387-172-b,https://colenda.library.upenn.edu/phalt/iiif/2/ark81431p31g0j848%2FSHA256E-s5018593--d6db93959c97aabe571231a738959afed4883dbf1b71779b1301f2e1cb9ffa7b.jpeg/full/full/0/default.jpg
