A29031-001-b,https://iiif.archive.org/iiif/nd11649549$12
A29031-002-b,https://iiif.archive.org/iiif/nd11649549$8
A29031-003-b,https://iiif.archive.org/iiif/nd11649549$14
A29031-004-a,https://iiif.archive.org/iiif/nd11649549$15
A29031-004-b,https://iiif.archive.org/iiif/nd11649549$16
A29031-005-a,https://iiif.archive.org/iiif/nd11649549$17
A29031-005-b,https://iiif.archive.org/iiif/nd11649549$18
A29031-006-a,https://iiif.archive.org/iiif/nd11649549$19
A29031-006-b,https://iiif.archive.org/iiif/nd11649549$20
A29031-007-a,https://iiif.archive.org/iiif/nd11649549$21
A29031-007-b,https://iiif.archive.org/iiif/nd11649549$22
A29031-008-a,https://iiif.archive.org/iiif/nd11649549$23
A29031-008-b,https://iiif.archive.org/iiif/nd11649549$24
A29031-009-a,https://iiif.archive.org/iiif/nd11649549$25
A29031-009-b,https://iiif.archive.org/iiif/nd11649549$30
A29031-010-a,https://iiif.archive.org/iiif/nd11649549$31
A29031-010-b,https://iiif.archive.org/iiif/nd11649549$32
A29031-011-a,https://iiif.archive.org/iiif/nd11649549$33
A29031-011-b,https://iiif.archive.org/iiif/nd11649549$34
A29031-012-a,https://iiif.archive.org/iiif/nd11649549$35
A29031-012-b,https://iiif.archive.org/iiif/nd11649549$36
A29031-013-a,https://iiif.archive.org/iiif/nd11649549$37
A29031-013-b,https://iiif.archive.org/iiif/nd11649549$38
A29031-014-a,https://iiif.archive.org/iiif/nd11649549$39
A29031-014-b,https://iiif.archive.org/iiif/nd11649549$40
A29031-015-a,https://iiif.archive.org/iiif/nd11649549$41
A29031-015-b,https://iiif.archive.org/iiif/nd11649549$42
A29031-016-a,https://iiif.archive.org/iiif/nd11649549$43
A29031-016-b,https://iiif.archive.org/iiif/nd11649549$44
A29031-017-a,https://iiif.archive.org/iiif/nd11649549$45
A29031-017-b,https://iiif.archive.org/iiif/nd11649549$46
A29031-018-a,https://iiif.archive.org/iiif/nd11649549$47
A29031-018-b,https://iiif.archive.org/iiif/nd11649549$48
A29031-019-a,https://iiif.archive.org/iiif/nd11649549$49
A29031-019-b,https://iiif.archive.org/iiif/nd11649549$50
A29031-020-a,https://iiif.archive.org/iiif/nd11649549$51
A29031-020-b,https://iiif.archive.org/iiif/nd11649549$52
A29031-021-a,https://iiif.archive.org/iiif/nd11649549$53
A29031-021-b,https://iiif.archive.org/iiif/nd11649549$54
A29031-022-a,https://iiif.archive.org/iiif/nd11649549$55
A29031-022-b,https://iiif.archive.org/iiif/nd11649549$56
A29031-023-a,https://iiif.archive.org/iiif/nd11649549$57
A29031-023-b,https://iiif.archive.org/iiif/nd11649549$58
A29031-024-a,https://iiif.archive.org/iiif/nd11649549$59
A29031-024-b,https://iiif.archive.org/iiif/nd11649549$60
A29031-025-a,https://iiif.archive.org/iiif/nd11649549$61
A29031-025-b,https://iiif.archive.org/iiif/nd11649549$62
A29031-026-a,https://iiif.archive.org/iiif/nd11649549$63
A29031-026-b,https://iiif.archive.org/iiif/nd11649549$64
A29031-027-a,https://iiif.archive.org/iiif/nd11649549$65
A29031-027-b,https://iiif.archive.org/iiif/nd11649549$66
A29031-028-a,https://iiif.archive.org/iiif/nd11649549$67
A29031-028-b,https://iiif.archive.org/iiif/nd11649549$68
A29031-029-a,https://iiif.archive.org/iiif/nd11649549$69
A29031-029-b,https://iiif.archive.org/iiif/nd11649549$70
A29031-030-a,https://iiif.archive.org/iiif/nd11649549$71
A29031-030-b,https://iiif.archive.org/iiif/nd11649549$72
A29031-031-a,https://iiif.archive.org/iiif/nd11649549$73
A29031-031-b,https://iiif.archive.org/iiif/nd11649549$74
A29031-032-a,https://iiif.archive.org/iiif/nd11649549$75
A29031-032-b,https://iiif.archive.org/iiif/nd11649549$76
A29031-033-a,https://iiif.archive.org/iiif/nd11649549$77
A29031-033-b,https://iiif.archive.org/iiif/nd11649549$78
A29031-034-a,https://iiif.archive.org/iiif/nd11649549$79
A29031-034-b,https://iiif.archive.org/iiif/nd11649549$80
A29031-035-b,https://iiif.archive.org/iiif/nd11649549$82
A29031-036-a,https://iiif.archive.org/iiif/nd11649549$83
A29031-036-b,https://iiif.archive.org/iiif/nd11649549$84
A29031-037-a,https://iiif.archive.org/iiif/nd11649549$85
A29031-037-b,https://iiif.archive.org/iiif/nd11649549$86
A29031-038-a,https://iiif.archive.org/iiif/nd11649549$87
A29031-038-b,https://iiif.archive.org/iiif/nd11649549$88
A29031-039-a,https://iiif.archive.org/iiif/nd11649549$89
A29031-039-b,https://iiif.archive.org/iiif/nd11649549$90
A29031-040-a,https://iiif.archive.org/iiif/nd11649549$91
A29031-040-b,https://iiif.archive.org/iiif/nd11649549$92
A29031-041-a,https://iiif.archive.org/iiif/nd11649549$93
A29031-041-b,https://iiif.archive.org/iiif/nd11649549$94
A29031-042-a,https://iiif.archive.org/iiif/nd11649549$95
A29031-042-b,https://iiif.archive.org/iiif/nd11649549$96
A29031-043-a,https://iiif.archive.org/iiif/nd11649549$97
A29031-043-b,https://iiif.archive.org/iiif/nd11649549$98
A29031-044-a,https://iiif.archive.org/iiif/nd11649549$99
A29031-044-b,https://iiif.archive.org/iiif/nd11649549$100
A29031-045-a,https://iiif.archive.org/iiif/nd11649549$101
A29031-045-b,https://iiif.archive.org/iiif/nd11649549$102
A29031-046-a,https://iiif.archive.org/iiif/nd11649549$103
A29031-046-b,https://iiif.archive.org/iiif/nd11649549$104
A29031-047-a,https://iiif.archive.org/iiif/nd11649549$105
A29031-047-b,https://iiif.archive.org/iiif/nd11649549$106
A29031-048-a,https://iiif.archive.org/iiif/nd11649549$107
A29031-048-b,https://iiif.archive.org/iiif/nd11649549$108
A29031-049-a,https://iiif.archive.org/iiif/nd11649549$109
A29031-049-b,https://iiif.archive.org/iiif/nd11649549$110
A29031-050-a,https://iiif.archive.org/iiif/nd11649549$111
A29031-050-b,https://iiif.archive.org/iiif/nd11649549$112
A29031-051-a,https://iiif.archive.org/iiif/nd11649549$113
A29031-051-b,https://iiif.archive.org/iiif/nd11649549$114
A29031-052-a,https://iiif.archive.org/iiif/nd11649549$115
A29031-052-b,https://iiif.archive.org/iiif/nd11649549$116
A29031-053-a,https://iiif.archive.org/iiif/nd11649549$117
A29031-053-b,https://iiif.archive.org/iiif/nd11649549$118
A29031-054-a,https://iiif.archive.org/iiif/nd11649549$119
A29031-054-b,https://iiif.archive.org/iiif/nd11649549$120
A29031-055-a,https://iiif.archive.org/iiif/nd11649549$121
A29031-055-b,https://iiif.archive.org/iiif/nd11649549$122
A29031-056-a,https://iiif.archive.org/iiif/nd11649549$123
A29031-056-b,https://iiif.archive.org/iiif/nd11649549$124
A29031-057-a,https://iiif.archive.org/iiif/nd11649549$125
A29031-057-b,https://iiif.archive.org/iiif/nd11649549$126
A29031-058-a,https://iiif.archive.org/iiif/nd11649549$127
A29031-058-b,https://iiif.archive.org/iiif/nd11649549$128
A29031-059-a,https://iiif.archive.org/iiif/nd11649549$129
A29031-059-b,https://iiif.archive.org/iiif/nd11649549$130
A29031-060-a,https://iiif.archive.org/iiif/nd11649549$131
A29031-060-b,https://iiif.archive.org/iiif/nd11649549$132
A29031-061-a,https://iiif.archive.org/iiif/nd11649549$133
A29031-061-b,https://iiif.archive.org/iiif/nd11649549$134
A29031-062-a,https://iiif.archive.org/iiif/nd11649549$135
A29031-062-b,https://iiif.archive.org/iiif/nd11649549$136
A29031-063-a,https://iiif.archive.org/iiif/nd11649549$137
A29031-063-b,https://iiif.archive.org/iiif/nd11649549$138
A29031-064-a,https://iiif.archive.org/iiif/nd11649549$139
A29031-064-b,https://iiif.archive.org/iiif/nd11649549$140
A29031-065-a,https://iiif.archive.org/iiif/nd11649549$141
A29031-065-b,https://iiif.archive.org/iiif/nd11649549$142
A29031-066-a,https://iiif.archive.org/iiif/nd11649549$143
A29031-066-b,https://iiif.archive.org/iiif/nd11649549$144
A29031-067-a,https://iiif.archive.org/iiif/nd11649549$145
A29031-067-b,https://iiif.archive.org/iiif/nd11649549$146
A29031-068-a,https://iiif.archive.org/iiif/nd11649549$147
A29031-068-b,https://iiif.archive.org/iiif/nd11649549$148
A29031-069-a,https://iiif.archive.org/iiif/nd11649549$149
A29031-069-b,https://iiif.archive.org/iiif/nd11649549$150
A29031-070-a,https://iiif.archive.org/iiif/nd11649549$151
A29031-070-b,https://iiif.archive.org/iiif/nd11649549$152
A29031-071-a,https://iiif.archive.org/iiif/nd11649549$153
A29031-071-b,https://iiif.archive.org/iiif/nd11649549$154
A29031-072-a,https://iiif.archive.org/iiif/nd11649549$155
A29031-072-b,https://iiif.archive.org/iiif/nd11649549$156
A29031-073-b,https://iiif.archive.org/iiif/nd11649549$158
A29031-074-a,https://iiif.archive.org/iiif/nd11649549$159
A29031-074-b,https://iiif.archive.org/iiif/nd11649549$160
A29031-075-a,https://iiif.archive.org/iiif/nd11649549$161
A29031-075-b,https://iiif.archive.org/iiif/nd11649549$162
A29031-076-a,https://iiif.archive.org/iiif/nd11649549$163
A29031-076-b,https://iiif.archive.org/iiif/nd11649549$164
A29031-077-b,https://iiif.archive.org/iiif/nd11649549$166
A29031-078-b,https://iiif.archive.org/iiif/nd11649549$168
A29031-079-a,https://iiif.archive.org/iiif/nd11649549$169
A29031-079-b,https://iiif.archive.org/iiif/nd11649549$170
A29031-080-a,https://iiif.archive.org/iiif/nd11649549$171
A29031-080-b,https://iiif.archive.org/iiif/nd11649549$172
A29031-081-a,https://iiif.archive.org/iiif/nd11649549$173
A29031-081-b,https://iiif.archive.org/iiif/nd11649549$174
A29031-082-a,https://iiif.archive.org/iiif/nd11649549$175
A29031-082-b,https://iiif.archive.org/iiif/nd11649549$176
A29031-083-a,https://iiif.archive.org/iiif/nd11649549$177
A29031-083-b,https://iiif.archive.org/iiif/nd11649549$178
A29031-084-a,https://iiif.archive.org/iiif/nd11649549$179
A29031-084-b,https://iiif.archive.org/iiif/nd11649549$180
A29031-085-a,https://iiif.archive.org/iiif/nd11649549$181
A29031-085-b,https://iiif.archive.org/iiif/nd11649549$182
A29031-086-a,https://iiif.archive.org/iiif/nd11649549$183
A29031-086-b,https://iiif.archive.org/iiif/nd11649549$184
A29031-087-a,https://iiif.archive.org/iiif/nd11649549$185
A29031-087-b,https://iiif.archive.org/iiif/nd11649549$186
A29031-088-a,https://iiif.archive.org/iiif/nd11649549$187
A29031-088-b,https://iiif.archive.org/iiif/nd11649549$188
A29031-089-a,https://iiif.archive.org/iiif/nd11649549$189
A29031-089-b,https://iiif.archive.org/iiif/nd11649549$190
A29031-090-a,https://iiif.archive.org/iiif/nd11649549$191
A29031-090-b,https://iiif.archive.org/iiif/nd11649549$192
A29031-091-a,https://iiif.archive.org/iiif/nd11649549$193
A29031-091-b,https://iiif.archive.org/iiif/nd11649549$194
A29031-092-a,https://iiif.archive.org/iiif/nd11649549$195
A29031-092-b,https://iiif.archive.org/iiif/nd11649549$196
A29031-093-a,https://iiif.archive.org/iiif/nd11649549$197
A29031-093-b,https://iiif.archive.org/iiif/nd11649549$198
A29031-094-a,https://iiif.archive.org/iiif/nd11649549$199
A29031-094-b,https://iiif.archive.org/iiif/nd11649549$200
A29031-095-a,https://iiif.archive.org/iiif/nd11649549$201
A29031-095-b,https://iiif.archive.org/iiif/nd11649549$202
A29031-096-a,https://iiif.archive.org/iiif/nd11649549$203
A29031-096-b,https://iiif.archive.org/iiif/nd11649549$204
A29031-097-a,https://iiif.archive.org/iiif/nd11649549$205
A29031-097-b,https://iiif.archive.org/iiif/nd11649549$206
A29031-098-a,https://iiif.archive.org/iiif/nd11649549$207
A29031-098-b,https://iiif.archive.org/iiif/nd11649549$208
A29031-099-a,https://iiif.archive.org/iiif/nd11649549$209
A29031-099-b,https://iiif.archive.org/iiif/nd11649549$210
A29031-100-a,https://iiif.archive.org/iiif/nd11649549$211
A29031-100-b,https://iiif.archive.org/iiif/nd11649549$212
A29031-101-a,https://iiif.archive.org/iiif/nd11649549$213
A29031-102-a,https://iiif.archive.org/iiif/nd11649549$214
A29031-103-a,https://iiif.archive.org/iiif/nd11649549$215
A29031-103-b,https://iiif.archive.org/iiif/nd11649549$216
A29031-104-a,https://iiif.archive.org/iiif/nd11649549$217
A29031-104-b,https://iiif.archive.org/iiif/nd11649549$218
A29031-105-a,https://iiif.archive.org/iiif/nd11649549$219
A29031-105-b,https://iiif.archive.org/iiif/nd11649549$220
A29031-106-a,https://iiif.archive.org/iiif/nd11649549$221
A29031-106-b,https://iiif.archive.org/iiif/nd11649549$222
A29031-107-a,https://iiif.archive.org/iiif/nd11649549$223
A29031-107-b,https://iiif.archive.org/iiif/nd11649549$224
A29031-108-a,https://iiif.archive.org/iiif/nd11649549$225
A29031-108-b,https://iiif.archive.org/iiif/nd11649549$226
A29031-109-a,https://iiif.archive.org/iiif/nd11649549$227
A29031-109-b,https://iiif.archive.org/iiif/nd11649549$228
A29031-110-a,https://iiif.archive.org/iiif/nd11649549$229
A29031-110-b,https://iiif.archive.org/iiif/nd11649549$230
A29031-111-a,https://iiif.archive.org/iiif/nd11649549$231
A29031-111-b,https://iiif.archive.org/iiif/nd11649549$232
A29031-112-a,https://iiif.archive.org/iiif/nd11649549$233
A29031-112-b,https://iiif.archive.org/iiif/nd11649549$234
A29031-113-a,https://iiif.archive.org/iiif/nd11649549$235
A29031-113-b,https://iiif.archive.org/iiif/nd11649549$236
A29031-114-a,https://iiif.archive.org/iiif/nd11649549$237
A29031-114-b,https://iiif.archive.org/iiif/nd11649549$238
A29031-115-a,https://iiif.archive.org/iiif/nd11649549$239
A29031-115-b,https://iiif.archive.org/iiif/nd11649549$240
A29031-116-a,https://iiif.archive.org/iiif/nd11649549$241
A29031-116-b,https://iiif.archive.org/iiif/nd11649549$242
A29031-117-a,https://iiif.archive.org/iiif/nd11649549$243
A29031-117-b,https://iiif.archive.org/iiif/nd11649549$244
A29031-118-a,https://iiif.archive.org/iiif/nd11649549$245
A29031-118-b,https://iiif.archive.org/iiif/nd11649549$246
A29031-119-a,https://iiif.archive.org/iiif/nd11649549$247
A29031-119-b,https://iiif.archive.org/iiif/nd11649549$248
A29031-120-a,https://iiif.archive.org/iiif/nd11649549$249
A29031-120-b,https://iiif.archive.org/iiif/nd11649549$250
A29031-121-a,https://iiif.archive.org/iiif/nd11649549$251
A29031-121-b,https://iiif.archive.org/iiif/nd11649549$252
A29031-122-a,https://iiif.archive.org/iiif/nd11649549$253
A29031-122-b,https://iiif.archive.org/iiif/nd11649549$254
A29031-123-a,https://iiif.archive.org/iiif/nd11649549$255
A29031-123-b,https://iiif.archive.org/iiif/nd11649549$256
A29031-124-a,https://iiif.archive.org/iiif/nd11649549$257
A29031-124-b,https://iiif.archive.org/iiif/nd11649549$258
A29031-125-a,https://iiif.archive.org/iiif/nd11649549$259
A29031-125-b,https://iiif.archive.org/iiif/nd11649549$260
A29031-126-a,https://iiif.archive.org/iiif/nd11649549$261
A29031-126-b,https://iiif.archive.org/iiif/nd11649549$262
A29031-127-a,https://iiif.archive.org/iiif/nd11649549$263
A29031-127-b,https://iiif.archive.org/iiif/nd11649549$264
A29031-128-a,https://iiif.archive.org/iiif/nd11649549$265
A29031-128-b,https://iiif.archive.org/iiif/nd11649549$266
A29031-129-a,https://iiif.archive.org/iiif/nd11649549$267
A29031-129-b,https://iiif.archive.org/iiif/nd11649549$268
A29031-130-a,https://iiif.archive.org/iiif/nd11649549$269
A29031-130-b,https://iiif.archive.org/iiif/nd11649549$270
A29031-131-a,https://iiif.archive.org/iiif/nd11649549$271
A29031-131-b,https://iiif.archive.org/iiif/nd11649549$272
A29031-132-a,https://iiif.archive.org/iiif/nd11649549$273
A29031-132-b,https://iiif.archive.org/iiif/nd11649549$274
A29031-133-a,https://iiif.archive.org/iiif/nd11649549$275
A29031-133-b,https://iiif.archive.org/iiif/nd11649549$276
A29031-134-a,https://iiif.archive.org/iiif/nd11649549$277
A29031-134-b,https://iiif.archive.org/iiif/nd11649549$278
A29031-135-a,https://iiif.archive.org/iiif/nd11649549$279
A29031-135-b,https://iiif.archive.org/iiif/nd11649549$280
A29031-136-a,https://iiif.archive.org/iiif/nd11649549$281
A29031-136-b,https://iiif.archive.org/iiif/nd11649549$282
A29031-137-a,https://iiif.archive.org/iiif/nd11649549$283
A29031-137-b,https://iiif.archive.org/iiif/nd11649549$284
A29031-138-a,https://iiif.archive.org/iiif/nd11649549$285
A29031-138-b,https://iiif.archive.org/iiif/nd11649549$286
A29031-139-a,https://iiif.archive.org/iiif/nd11649549$287
A29031-139-b,https://iiif.archive.org/iiif/nd11649549$288
A29031-140-a,https://iiif.archive.org/iiif/nd11649549$289
A29031-140-b,https://iiif.archive.org/iiif/nd11649549$290
A29031-141-a,https://iiif.archive.org/iiif/nd11649549$291
A29031-141-b,https://iiif.archive.org/iiif/nd11649549$292
A29031-142-a,https://iiif.archive.org/iiif/nd11649549$293
A29031-142-b,https://iiif.archive.org/iiif/nd11649549$294
A29031-143-a,https://iiif.archive.org/iiif/nd11649549$295
A29031-143-b,https://iiif.archive.org/iiif/nd11649549$296
A29031-144-a,https://iiif.archive.org/iiif/nd11649549$297
A29031-144-b,https://iiif.archive.org/iiif/nd11649549$298
A29031-145-a,https://iiif.archive.org/iiif/nd11649549$299
A29031-145-b,https://iiif.archive.org/iiif/nd11649549$300
A29031-146-a,https://iiif.archive.org/iiif/nd11649549$301
A29031-146-b,https://iiif.archive.org/iiif/nd11649549$302
A29031-147-a,https://iiif.archive.org/iiif/nd11649549$303
A29031-147-b,https://iiif.archive.org/iiif/nd11649549$304
A29031-148-a,https://iiif.archive.org/iiif/nd11649549$305
A29031-148-b,https://iiif.archive.org/iiif/nd11649549$306
A29031-149-a,https://iiif.archive.org/iiif/nd11649549$307
A29031-149-b,https://iiif.archive.org/iiif/nd11649549$308
A29031-150-a,https://iiif.archive.org/iiif/nd11649549$309
A29031-150-b,https://iiif.archive.org/iiif/nd11649549$310
A29031-151-a,https://iiif.archive.org/iiif/nd11649549$311
A29031-151-b,https://iiif.archive.org/iiif/nd11649549$312
A29031-152-a,https://iiif.archive.org/iiif/nd11649549$313
A29031-152-b,https://iiif.archive.org/iiif/nd11649549$314
A29031-153-a,https://iiif.archive.org/iiif/nd11649549$315
A29031-153-b,https://iiif.archive.org/iiif/nd11649549$316
A29031-154-a,https://iiif.archive.org/iiif/nd11649549$317
A29031-154-b,https://iiif.archive.org/iiif/nd11649549$318
A29031-155-a,https://iiif.archive.org/iiif/nd11649549$319
A29031-155-b,https://iiif.archive.org/iiif/nd11649549$320
A29031-156-a,https://iiif.archive.org/iiif/nd11649549$321
A29031-156-b,https://iiif.archive.org/iiif/nd11649549$322
A29031-157-a,https://iiif.archive.org/iiif/nd11649549$323
A29031-157-b,https://iiif.archive.org/iiif/nd11649549$324
A29031-158-a,https://iiif.archive.org/iiif/nd11649549$325
A29031-158-b,https://iiif.archive.org/iiif/nd11649549$326
A29031-159-a,https://iiif.archive.org/iiif/nd11649549$327
A29031-159-b,https://iiif.archive.org/iiif/nd11649549$328
A29031-160-a,https://iiif.archive.org/iiif/nd11649549$329
A29031-160-b,https://iiif.archive.org/iiif/nd11649549$330
A29031-161-a,https://iiif.archive.org/iiif/nd11649549$331
A29031-161-b,https://iiif.archive.org/iiif/nd11649549$332
A29031-162-a,https://iiif.archive.org/iiif/nd11649549$333
A29031-162-b,https://iiif.archive.org/iiif/nd11649549$334
A29031-163-a,https://iiif.archive.org/iiif/nd11649549$335
A29031-163-b,https://iiif.archive.org/iiif/nd11649549$336
A29031-164-a,https://iiif.archive.org/iiif/nd11649549$337
A29031-164-b,https://iiif.archive.org/iiif/nd11649549$338
A29031-165-a,https://iiif.archive.org/iiif/nd11649549$339
A29031-165-b,https://iiif.archive.org/iiif/nd11649549$340
A29031-166-a,https://iiif.archive.org/iiif/nd11649549$341
A29031-166-b,https://iiif.archive.org/iiif/nd11649549$342
A29031-167-a,https://iiif.archive.org/iiif/nd11649549$343
A29031-167-b,https://iiif.archive.org/iiif/nd11649549$344
A29031-168-a,https://iiif.archive.org/iiif/nd11649549$345
A29031-168-b,https://iiif.archive.org/iiif/nd11649549$346
A29031-169-a,https://iiif.archive.org/iiif/nd11649549$347
A29031-169-b,https://iiif.archive.org/iiif/nd11649549$348
A29031-170-a,https://iiif.archive.org/iiif/nd11649549$349
A29031-170-b,https://iiif.archive.org/iiif/nd11649549$350
A29031-171-a,https://iiif.archive.org/iiif/nd11649549$351
A29031-171-b,https://iiif.archive.org/iiif/nd11649549$352
A29031-172-a,https://iiif.archive.org/iiif/nd11649549$353
A29031-172-b,https://iiif.archive.org/iiif/nd11649549$354
A29031-173-a,https://iiif.archive.org/iiif/nd11649549$355
A29031-173-b,https://iiif.archive.org/iiif/nd11649549$356
A29031-174-a,https://iiif.archive.org/iiif/nd11649549$357
A29031-174-b,https://iiif.archive.org/iiif/nd11649549$358
A29031-175-a,https://iiif.archive.org/iiif/nd11649549$359
A29031-175-b,https://iiif.archive.org/iiif/nd11649549$360
A29031-176-a,https://iiif.archive.org/iiif/nd11649549$361
A29031-176-b,https://iiif.archive.org/iiif/nd11649549$362
A29031-177-a,https://iiif.archive.org/iiif/nd11649549$363
A29031-177-b,https://iiif.archive.org/iiif/nd11649549$364
A29031-178-a,https://iiif.archive.org/iiif/nd11649549$365
A29031-178-b,https://iiif.archive.org/iiif/nd11649549$366
A29031-179-a,https://iiif.archive.org/iiif/nd11649549$367
A29031-179-b,https://iiif.archive.org/iiif/nd11649549$368
A29031-180-a,https://iiif.archive.org/iiif/nd11649549$369
A29031-180-b,https://iiif.archive.org/iiif/nd11649549$370
A29031-181-a,https://iiif.archive.org/iiif/nd11649549$371
A29031-181-b,https://iiif.archive.org/iiif/nd11649549$372
A29031-182-a,https://iiif.archive.org/iiif/nd11649549$373
A29031-182-b,https://iiif.archive.org/iiif/nd11649549$374
A29031-183-a,https://iiif.archive.org/iiif/nd11649549$375
A29031-183-b,https://iiif.archive.org/iiif/nd11649549$376
A29031-184-a,https://iiif.archive.org/iiif/nd11649549$377
A29031-184-b,https://iiif.archive.org/iiif/nd11649549$378
A29031-185-a,https://iiif.archive.org/iiif/nd11649549$379
A29031-185-b,https://iiif.archive.org/iiif/nd11649549$380
A29031-186-a,https://iiif.archive.org/iiif/nd11649549$381
A29031-186-b,https://iiif.archive.org/iiif/nd11649549$382
A29031-187-a,https://iiif.archive.org/iiif/nd11649549$383
A29031-187-b,https://iiif.archive.org/iiif/nd11649549$384
A29031-188-a,https://iiif.archive.org/iiif/nd11649549$385
A29031-188-b,https://iiif.archive.org/iiif/nd11649549$386
A29031-189-a,https://iiif.archive.org/iiif/nd11649549$387
A29031-189-b,https://iiif.archive.org/iiif/nd11649549$388
A29031-190-a,https://iiif.archive.org/iiif/nd11649549$389
A29031-190-b,https://iiif.archive.org/iiif/nd11649549$390
A29031-191-a,https://iiif.archive.org/iiif/nd11649549$391
A29031-191-b,https://iiif.archive.org/iiif/nd11649549$392
A29031-192-a,https://iiif.archive.org/iiif/nd11649549$393
A29031-192-b,https://iiif.archive.org/iiif/nd11649549$394
A29031-193-a,https://iiif.archive.org/iiif/nd11649549$395
A29031-193-b,https://iiif.archive.org/iiif/nd11649549$396
A29031-194-a,https://iiif.archive.org/iiif/nd11649549$397
A29031-194-b,https://iiif.archive.org/iiif/nd11649549$398
A29031-195-a,https://iiif.archive.org/iiif/nd11649549$399
A29031-195-b,https://iiif.archive.org/iiif/nd11649549$400
A29031-196-a,https://iiif.archive.org/iiif/nd11649549$401
A29031-196-b,https://iiif.archive.org/iiif/nd11649549$402
A29031-197-a,https://iiif.archive.org/iiif/nd11649549$403
A29031-197-b,https://iiif.archive.org/iiif/nd11649549$404
A29031-198-a,https://iiif.archive.org/iiif/nd11649549$405
A29031-198-b,https://iiif.archive.org/iiif/nd11649549$406
A29031-199-a,https://iiif.archive.org/iiif/nd11649549$407
A29031-199-b,https://iiif.archive.org/iiif/nd11649549$408
A29031-200-a,https://iiif.archive.org/iiif/nd11649549$409
A29031-200-b,https://iiif.archive.org/iiif/nd11649549$410
A29031-201-a,https://iiif.archive.org/iiif/nd11649549$411
A29031-201-b,https://iiif.archive.org/iiif/nd11649549$412
A29031-202-a,https://iiif.archive.org/iiif/nd11649549$413
A29031-202-b,https://iiif.archive.org/iiif/nd11649549$414
A29031-203-a,https://iiif.archive.org/iiif/nd11649549$415
A29031-203-b,https://iiif.archive.org/iiif/nd11649549$416
A29031-204-a,https://iiif.archive.org/iiif/nd11649549$417
A29031-204-b,https://iiif.archive.org/iiif/nd11649549$418
A29031-205-a,https://iiif.archive.org/iiif/nd11649549$419
A29031-205-b,https://iiif.archive.org/iiif/nd11649549$420
A29031-206-a,https://iiif.archive.org/iiif/nd11649549$421
A29031-206-b,https://iiif.archive.org/iiif/nd11649549$422
A29031-207-a,https://iiif.archive.org/iiif/nd11649549$423
A29031-207-b,https://iiif.archive.org/iiif/nd11649549$424
A29031-208-a,https://iiif.archive.org/iiif/nd11649549$425
A29031-208-b,https://iiif.archive.org/iiif/nd11649549$426
A29031-209-a,https://iiif.archive.org/iiif/nd11649549$427
A29031-209-b,https://iiif.archive.org/iiif/nd11649549$428
A29031-210-a,https://iiif.archive.org/iiif/nd11649549$429
A29031-210-b,https://iiif.archive.org/iiif/nd11649549$430
A29031-211-a,https://iiif.archive.org/iiif/nd11649549$431
A29031-211-b,https://iiif.archive.org/iiif/nd11649549$432
A29031-212-a,https://iiif.archive.org/iiif/nd11649549$433
A29031-212-b,https://iiif.archive.org/iiif/nd11649549$434
A29031-213-a,https://iiif.archive.org/iiif/nd11649549$435
A29031-213-b,https://iiif.archive.org/iiif/nd11649549$436
A29031-214-a,https://iiif.archive.org/iiif/nd11649549$437
A29031-214-b,https://iiif.archive.org/iiif/nd11649549$438
A29031-215-a,https://iiif.archive.org/iiif/nd11649549$439
A29031-215-b,https://iiif.archive.org/iiif/nd11649549$440
A29031-216-a,https://iiif.archive.org/iiif/nd11649549$441
A29031-216-b,https://iiif.archive.org/iiif/nd11649549$442
A29031-217-a,https://iiif.archive.org/iiif/nd11649549$443
A29031-217-b,https://iiif.archive.org/iiif/nd11649549$444
A29031-218-a,https://iiif.archive.org/iiif/nd11649549$445
A29031-218-b,https://iiif.archive.org/iiif/nd11649549$446
A29031-219-a,https://iiif.archive.org/iiif/nd11649549$447
A29031-219-b,https://iiif.archive.org/iiif/nd11649549$448
A29031-220-a,https://iiif.archive.org/iiif/nd11649549$449
A29031-220-b,https://iiif.archive.org/iiif/nd11649549$450
A29031-221-a,https://iiif.archive.org/iiif/nd11649549$451
A29031-221-b,https://iiif.archive.org/iiif/nd11649549$452
A29031-222-a,https://iiif.archive.org/iiif/nd11649549$453
A29031-222-b,https://iiif.archive.org/iiif/nd11649549$454
A29031-223-a,https://iiif.archive.org/iiif/nd11649549$455
A29031-223-b,https://iiif.archive.org/iiif/nd11649549$456
A29031-224-a,https://iiif.archive.org/iiif/nd11649549$457
A29031-224-b,https://iiif.archive.org/iiif/nd11649549$458
A29031-225-a,https://iiif.archive.org/iiif/nd11649549$459
A29031-225-b,https://iiif.archive.org/iiif/nd11649549$460
A29031-226-a,https://iiif.archive.org/iiif/nd11649549$461
A29031-226-b,https://iiif.archive.org/iiif/nd11649549$462
A29031-227-b,https://iiif.archive.org/iiif/nd11649549$464
A29031-228-a,https://iiif.archive.org/iiif/nd11649549$465
A29031-228-b,https://iiif.archive.org/iiif/nd11649549$466
A29031-229-a,https://iiif.archive.org/iiif/nd11649549$467
A29031-229-b,https://iiif.archive.org/iiif/nd11649549$468
A29031-230-a,https://iiif.archive.org/iiif/nd11649549$469
A29031-230-b,https://iiif.archive.org/iiif/nd11649549$470
A29031-231-a,https://iiif.archive.org/iiif/nd11649549$471
A29031-231-b,https://iiif.archive.org/iiif/nd11649549$472
A29031-232-a,https://iiif.archive.org/iiif/nd11649549$473
A29031-232-b,https://iiif.archive.org/iiif/nd11649549$474
A29031-233-a,https://iiif.archive.org/iiif/nd11649549$475
A29031-233-b,https://iiif.archive.org/iiif/nd11649549$476
A29031-234-a,https://iiif.archive.org/iiif/nd11649549$477
A29031-234-b,https://iiif.archive.org/iiif/nd11649549$478
A29031-235-a,https://iiif.archive.org/iiif/nd11649549$479
A29031-235-b,https://iiif.archive.org/iiif/nd11649549$480
A29031-236-a,https://iiif.archive.org/iiif/nd11649549$481
A29031-236-b,https://iiif.archive.org/iiif/nd11649549$482
A29031-237-a,https://iiif.archive.org/iiif/nd11649549$483
A29031-237-b,https://iiif.archive.org/iiif/nd11649549$484
A29031-238-a,https://iiif.archive.org/iiif/nd11649549$485
A29031-238-b,https://iiif.archive.org/iiif/nd11649549$486
A29031-239-a,https://iiif.archive.org/iiif/nd11649549$487
A29031-239-b,https://iiif.archive.org/iiif/nd11649549$488
A29031-240-a,https://iiif.archive.org/iiif/nd11649549$489
A29031-240-b,https://iiif.archive.org/iiif/nd11649549$490
A29031-241-a,https://iiif.archive.org/iiif/nd11649549$491
A29031-241-b,https://iiif.archive.org/iiif/nd11649549$492
A29031-242-a,https://iiif.archive.org/iiif/nd11649549$493
A29031-242-b,https://iiif.archive.org/iiif/nd11649549$494
A29031-243-a,https://iiif.archive.org/iiif/nd11649549$495
A29031-243-b,https://iiif.archive.org/iiif/nd11649549$496
A29031-244-a,https://iiif.archive.org/iiif/nd11649549$497
A29031-244-b,https://iiif.archive.org/iiif/nd11649549$498
A29031-245-a,https://iiif.archive.org/iiif/nd11649549$499
A29031-245-b,https://iiif.archive.org/iiif/nd11649549$500
A29031-246-a,https://iiif.archive.org/iiif/nd11649549$501
A29031-246-b,https://iiif.archive.org/iiif/nd11649549$502
A29031-247-a,https://iiif.archive.org/iiif/nd11649549$503
A29031-247-b,https://iiif.archive.org/iiif/nd11649549$504
A29031-248-a,https://iiif.archive.org/iiif/nd11649549$505
A29031-248-b,https://iiif.archive.org/iiif/nd11649549$506
A29031-249-a,https://iiif.archive.org/iiif/nd11649549$507
A29031-249-b,https://iiif.archive.org/iiif/nd11649549$508
A29031-250-a,https://iiif.archive.org/iiif/nd11649549$509
A29031-250-b,https://iiif.archive.org/iiif/nd11649549$510
A29031-251-a,https://iiif.archive.org/iiif/nd11649549$511
A29031-251-b,https://iiif.archive.org/iiif/nd11649549$512
A29031-252-a,https://iiif.archive.org/iiif/nd11649549$513
A29031-252-b,https://iiif.archive.org/iiif/nd11649549$514
A29031-253-a,https://iiif.archive.org/iiif/nd11649549$515
A29031-253-b,https://iiif.archive.org/iiif/nd11649549$516
A29031-254-a,https://iiif.archive.org/iiif/nd11649549$517
A29031-254-b,https://iiif.archive.org/iiif/nd11649549$518
A29031-255-a,https://iiif.archive.org/iiif/nd11649549$519
A29031-255-b,https://iiif.archive.org/iiif/nd11649549$520
A29031-256-a,https://iiif.archive.org/iiif/nd11649549$521
A29031-256-b,https://iiif.archive.org/iiif/nd11649549$522
A29031-257-a,https://iiif.archive.org/iiif/nd11649549$523
A29031-257-b,https://iiif.archive.org/iiif/nd11649549$524
A29031-258-a,https://iiif.archive.org/iiif/nd11649549$525
A29031-258-b,https://iiif.archive.org/iiif/nd11649549$526
A29031-259-a,https://iiif.archive.org/iiif/nd11649549$527
A29031-259-b,https://iiif.archive.org/iiif/nd11649549$528
A29031-260-a,https://iiif.archive.org/iiif/nd11649549$529
A29031-260-b,https://iiif.archive.org/iiif/nd11649549$530
A29031-261-a,https://iiif.archive.org/iiif/nd11649549$531
A29031-261-b,https://iiif.archive.org/iiif/nd11649549$532
A29031-262-a,https://iiif.archive.org/iiif/nd11649549$533
A29031-262-b,https://iiif.archive.org/iiif/nd11649549$534
A29031-263-a,https://iiif.archive.org/iiif/nd11649549$535
A29031-263-b,https://iiif.archive.org/iiif/nd11649549$536
A29031-264-a,https://iiif.archive.org/iiif/nd11649549$537
A29031-264-b,https://iiif.archive.org/iiif/nd11649549$538
A29031-265-a,https://iiif.archive.org/iiif/nd11649549$539
A29031-265-b,https://iiif.archive.org/iiif/nd11649549$540
A29031-266-a,https://iiif.archive.org/iiif/nd11649549$541
A29031-266-b,https://iiif.archive.org/iiif/nd11649549$542
A29031-267-a,https://iiif.archive.org/iiif/nd11649549$543
A29031-267-b,https://iiif.archive.org/iiif/nd11649549$544
A29031-268-a,https://iiif.archive.org/iiif/nd11649549$545
A29031-268-b,https://iiif.archive.org/iiif/nd11649549$546
A29031-269-a,https://iiif.archive.org/iiif/nd11649549$547
A29031-269-b,https://iiif.archive.org/iiif/nd11649549$548
A29031-270-a,https://iiif.archive.org/iiif/nd11649549$549
A29031-270-b,https://iiif.archive.org/iiif/nd11649549$550
A29031-271-a,https://iiif.archive.org/iiif/nd11649549$551
A29031-271-b,https://iiif.archive.org/iiif/nd11649549$552
A29031-272-a,https://iiif.archive.org/iiif/nd11649549$553
A29031-272-b,https://iiif.archive.org/iiif/nd11649549$554
A29031-273-a,https://iiif.archive.org/iiif/nd11649549$555
A29031-273-b,https://iiif.archive.org/iiif/nd11649549$556
A29031-274-a,https://iiif.archive.org/iiif/nd11649549$557
A29031-274-b,https://iiif.archive.org/iiif/nd11649549$558
A29031-275-a,https://iiif.archive.org/iiif/nd11649549$559
A29031-275-b,https://iiif.archive.org/iiif/nd11649549$560
A29031-276-a,https://iiif.archive.org/iiif/nd11649549$561
A29031-276-b,https://iiif.archive.org/iiif/nd11649549$562
A29031-277-a,https://iiif.archive.org/iiif/nd11649549$563
A29031-277-b,https://iiif.archive.org/iiif/nd11649549$564
A29031-278-a,https://iiif.archive.org/iiif/nd11649549$565
A29031-278-b,https://iiif.archive.org/iiif/nd11649549$566
A29031-279-a,https://iiif.archive.org/iiif/nd11649549$567
A29031-279-b,https://iiif.archive.org/iiif/nd11649549$568
A29031-280-a,https://iiif.archive.org/iiif/nd11649549$569
A29031-280-b,https://iiif.archive.org/iiif/nd11649549$570
A29031-281-a,https://iiif.archive.org/iiif/nd11649549$571
A29031-281-b,https://iiif.archive.org/iiif/nd11649549$572
A29031-282-a,https://iiif.archive.org/iiif/nd11649549$573
A29031-282-b,https://iiif.archive.org/iiif/nd11649549$574
A29031-283-b,https://iiif.archive.org/iiif/nd11649549$576
A29031-284-a,https://iiif.archive.org/iiif/nd11649549$577
A29031-284-b,https://iiif.archive.org/iiif/nd11649549$578
A29031-285-a,https://iiif.archive.org/iiif/nd11649549$579
A29031-285-b,https://iiif.archive.org/iiif/nd11649549$580
A29031-286-a,https://iiif.archive.org/iiif/nd11649549$581
A29031-286-b,https://iiif.archive.org/iiif/nd11649549$582
A29031-287-a,https://iiif.archive.org/iiif/nd11649549$583
A29031-287-b,https://iiif.archive.org/iiif/nd11649549$584
A29031-288-a,https://iiif.archive.org/iiif/nd11649549$585
A29031-288-b,https://iiif.archive.org/iiif/nd11649549$586
A29031-289-a,https://iiif.archive.org/iiif/nd11649549$587
A29031-289-b,https://iiif.archive.org/iiif/nd11649549$588
A29031-290-a,https://iiif.archive.org/iiif/nd11649549$589
A29031-290-b,https://iiif.archive.org/iiif/nd11649549$590
A29031-291-a,https://iiif.archive.org/iiif/nd11649549$591
A29031-291-b,https://iiif.archive.org/iiif/nd11649549$592
