A29621-001-a,https://iiif.archive.org/image/iiif/3/gpl_706159%2Fgpl_706159_jp2.zip%2Fgpl_706159_jp2%2Fgpl_706159_0012.jp2
A29621-001-b,https://iiif.archive.org/image/iiif/3/gpl_706159%2Fgpl_706159_jp2.zip%2Fgpl_706159_jp2%2Fgpl_706159_0013.jp2
A29621-002-a,https://iiif.archive.org/image/iiif/3/gpl_706159%2Fgpl_706159_jp2.zip%2Fgpl_706159_jp2%2Fgpl_706159_0014.jp2
A29621-002-b,https://iiif.archive.org/image/iiif/3/gpl_706159%2Fgpl_706159_jp2.zip%2Fgpl_706159_jp2%2Fgpl_706159_0015.jp2
A29621-003-a,https://iiif.archive.org/image/iiif/3/gpl_706159%2Fgpl_706159_jp2.zip%2Fgpl_706159_jp2%2Fgpl_706159_0016.jp2
A29621-003-b,https://iiif.archive.org/image/iiif/3/gpl_706159%2Fgpl_706159_jp2.zip%2Fgpl_706159_jp2%2Fgpl_706159_0017.jp2
A29621-004-a,https://iiif.archive.org/image/iiif/3/gpl_706159%2Fgpl_706159_jp2.zip%2Fgpl_706159_jp2%2Fgpl_706159_0018.jp2
A29621-004-b,https://iiif.archive.org/image/iiif/3/gpl_706159%2Fgpl_706159_jp2.zip%2Fgpl_706159_jp2%2Fgpl_706159_0019.jp2
A29621-005-a,https://iiif.archive.org/image/iiif/3/gpl_706159%2Fgpl_706159_jp2.zip%2Fgpl_706159_jp2%2Fgpl_706159_0020.jp2
A29621-005-b,https://iiif.archive.org/image/iiif/3/gpl_706159%2Fgpl_706159_jp2.zip%2Fgpl_706159_jp2%2Fgpl_706159_0021.jp2
A29621-006-a,https://iiif.archive.org/image/iiif/3/gpl_706159%2Fgpl_706159_jp2.zip%2Fgpl_706159_jp2%2Fgpl_706159_0022.jp2
A29621-006-b,https://iiif.archive.org/image/iiif/3/gpl_706159%2Fgpl_706159_jp2.zip%2Fgpl_706159_jp2%2Fgpl_706159_0023.jp2
A29621-007-a,https://iiif.archive.org/image/iiif/3/gpl_706159%2Fgpl_706159_jp2.zip%2Fgpl_706159_jp2%2Fgpl_706159_0024.jp2
A29621-007-b,https://iiif.archive.org/image/iiif/3/gpl_706159%2Fgpl_706159_jp2.zip%2Fgpl_706159_jp2%2Fgpl_706159_0025.jp2
A29621-008-a,https://iiif.archive.org/image/iiif/3/gpl_706159%2Fgpl_706159_jp2.zip%2Fgpl_706159_jp2%2Fgpl_706159_0026.jp2
A29621-008-b,https://iiif.archive.org/image/iiif/3/gpl_706159%2Fgpl_706159_jp2.zip%2Fgpl_706159_jp2%2Fgpl_706159_0027.jp2
A29621-009-a,9999
A29621-009-b,9999
A29621-010-a,9999
A29621-010-b,9999
A29621-011-a,https://iiif.archive.org/image/iiif/3/gpl_706159%2Fgpl_706159_jp2.zip%2Fgpl_706159_jp2%2Fgpl_706159_0028.jp2
A29621-011-b,https://iiif.archive.org/image/iiif/3/gpl_706159%2Fgpl_706159_jp2.zip%2Fgpl_706159_jp2%2Fgpl_706159_0029.jp2
A29621-012-a,https://iiif.archive.org/image/iiif/3/gpl_706159%2Fgpl_706159_jp2.zip%2Fgpl_706159_jp2%2Fgpl_706159_0030.jp2
A29621-012-b,https://iiif.archive.org/image/iiif/3/gpl_706159%2Fgpl_706159_jp2.zip%2Fgpl_706159_jp2%2Fgpl_706159_0031.jp2
A29621-013-a,https://iiif.archive.org/image/iiif/3/gpl_706159%2Fgpl_706159_jp2.zip%2Fgpl_706159_jp2%2Fgpl_706159_0032.jp2
A29621-013-b,https://iiif.archive.org/image/iiif/3/gpl_706159%2Fgpl_706159_jp2.zip%2Fgpl_706159_jp2%2Fgpl_706159_0033.jp2
A29621-014-a,https://iiif.archive.org/image/iiif/3/gpl_706159%2Fgpl_706159_jp2.zip%2Fgpl_706159_jp2%2Fgpl_706159_0034.jp2
A29621-014-b,https://iiif.archive.org/image/iiif/3/gpl_706159%2Fgpl_706159_jp2.zip%2Fgpl_706159_jp2%2Fgpl_706159_0035.jp2
A29621-015-a,https://iiif.archive.org/image/iiif/3/gpl_706159%2Fgpl_706159_jp2.zip%2Fgpl_706159_jp2%2Fgpl_706159_0036.jp2
A29621-015-b,https://iiif.archive.org/image/iiif/3/gpl_706159%2Fgpl_706159_jp2.zip%2Fgpl_706159_jp2%2Fgpl_706159_0037.jp2
A29621-016-a,https://iiif.archive.org/image/iiif/3/gpl_706159%2Fgpl_706159_jp2.zip%2Fgpl_706159_jp2%2Fgpl_706159_0038.jp2
A29621-016-b,https://iiif.archive.org/image/iiif/3/gpl_706159%2Fgpl_706159_jp2.zip%2Fgpl_706159_jp2%2Fgpl_706159_0039.jp2
A29621-017-a,https://iiif.archive.org/image/iiif/3/gpl_706159%2Fgpl_706159_jp2.zip%2Fgpl_706159_jp2%2Fgpl_706159_0040.jp2
A29621-017-b,https://iiif.archive.org/image/iiif/3/gpl_706159%2Fgpl_706159_jp2.zip%2Fgpl_706159_jp2%2Fgpl_706159_0041.jp2
A29621-018-a,https://iiif.archive.org/image/iiif/3/gpl_706159%2Fgpl_706159_jp2.zip%2Fgpl_706159_jp2%2Fgpl_706159_0042.jp2
A29621-018-b,https://iiif.archive.org/image/iiif/3/gpl_706159%2Fgpl_706159_jp2.zip%2Fgpl_706159_jp2%2Fgpl_706159_0043.jp2
A29621-019-a,https://iiif.archive.org/image/iiif/3/gpl_706159%2Fgpl_706159_jp2.zip%2Fgpl_706159_jp2%2Fgpl_706159_0044.jp2
A29621-019-b,https://iiif.archive.org/image/iiif/3/gpl_706159%2Fgpl_706159_jp2.zip%2Fgpl_706159_jp2%2Fgpl_706159_0045.jp2
A29621-020-a,https://iiif.archive.org/image/iiif/3/gpl_706159%2Fgpl_706159_jp2.zip%2Fgpl_706159_jp2%2Fgpl_706159_0046.jp2
A29621-020-b,https://iiif.archive.org/image/iiif/3/gpl_706159%2Fgpl_706159_jp2.zip%2Fgpl_706159_jp2%2Fgpl_706159_0047.jp2
A29621-021-a,https://iiif.archive.org/image/iiif/3/gpl_706159%2Fgpl_706159_jp2.zip%2Fgpl_706159_jp2%2Fgpl_706159_0048.jp2
A29621-021-b,https://iiif.archive.org/image/iiif/3/gpl_706159%2Fgpl_706159_jp2.zip%2Fgpl_706159_jp2%2Fgpl_706159_0049.jp2
A29621-022-a,https://iiif.archive.org/image/iiif/3/gpl_706159%2Fgpl_706159_jp2.zip%2Fgpl_706159_jp2%2Fgpl_706159_0050.jp2
A29621-022-b,https://iiif.archive.org/image/iiif/3/gpl_706159%2Fgpl_706159_jp2.zip%2Fgpl_706159_jp2%2Fgpl_706159_0051.jp2
A29621-023-a,https://iiif.archive.org/image/iiif/3/gpl_706159%2Fgpl_706159_jp2.zip%2Fgpl_706159_jp2%2Fgpl_706159_0052.jp2
A29621-023-b,https://iiif.archive.org/image/iiif/3/gpl_706159%2Fgpl_706159_jp2.zip%2Fgpl_706159_jp2%2Fgpl_706159_0053.jp2
A29621-024-a,https://iiif.archive.org/image/iiif/3/gpl_706159%2Fgpl_706159_jp2.zip%2Fgpl_706159_jp2%2Fgpl_706159_0054.jp2
A29621-024-b,https://iiif.archive.org/image/iiif/3/gpl_706159%2Fgpl_706159_jp2.zip%2Fgpl_706159_jp2%2Fgpl_706159_0055.jp2
A29621-025-a,https://iiif.archive.org/image/iiif/3/gpl_706159%2Fgpl_706159_jp2.zip%2Fgpl_706159_jp2%2Fgpl_706159_0056.jp2
A29621-025-b,https://iiif.archive.org/image/iiif/3/gpl_706159%2Fgpl_706159_jp2.zip%2Fgpl_706159_jp2%2Fgpl_706159_0057.jp2
A29621-026-a,https://iiif.archive.org/image/iiif/3/gpl_706159%2Fgpl_706159_jp2.zip%2Fgpl_706159_jp2%2Fgpl_706159_0058.jp2
A29621-026-b,https://iiif.archive.org/image/iiif/3/gpl_706159%2Fgpl_706159_jp2.zip%2Fgpl_706159_jp2%2Fgpl_706159_0059.jp2
A29621-027-a,https://iiif.archive.org/image/iiif/3/gpl_706159%2Fgpl_706159_jp2.zip%2Fgpl_706159_jp2%2Fgpl_706159_0060.jp2
A29621-027-b,https://iiif.archive.org/image/iiif/3/gpl_706159%2Fgpl_706159_jp2.zip%2Fgpl_706159_jp2%2Fgpl_706159_0061.jp2
A29621-028-a,https://iiif.archive.org/image/iiif/3/gpl_706159%2Fgpl_706159_jp2.zip%2Fgpl_706159_jp2%2Fgpl_706159_0062.jp2
A29621-028-b,https://iiif.archive.org/image/iiif/3/gpl_706159%2Fgpl_706159_jp2.zip%2Fgpl_706159_jp2%2Fgpl_706159_0063.jp2
A29621-029-a,https://iiif.archive.org/image/iiif/3/gpl_706159%2Fgpl_706159_jp2.zip%2Fgpl_706159_jp2%2Fgpl_706159_0064.jp2
A29621-029-b,https://iiif.archive.org/image/iiif/3/gpl_706159%2Fgpl_706159_jp2.zip%2Fgpl_706159_jp2%2Fgpl_706159_0065.jp2
A29621-030-a,https://iiif.archive.org/image/iiif/3/gpl_706159%2Fgpl_706159_jp2.zip%2Fgpl_706159_jp2%2Fgpl_706159_0066.jp2
A29621-030-b,https://iiif.archive.org/image/iiif/3/gpl_706159%2Fgpl_706159_jp2.zip%2Fgpl_706159_jp2%2Fgpl_706159_0067.jp2
A29621-031-a,https://iiif.archive.org/image/iiif/3/gpl_706159%2Fgpl_706159_jp2.zip%2Fgpl_706159_jp2%2Fgpl_706159_0068.jp2
A29621-031-b,https://iiif.archive.org/image/iiif/3/gpl_706159%2Fgpl_706159_jp2.zip%2Fgpl_706159_jp2%2Fgpl_706159_0069.jp2
A29621-032-a,https://iiif.archive.org/image/iiif/3/gpl_706159%2Fgpl_706159_jp2.zip%2Fgpl_706159_jp2%2Fgpl_706159_0070.jp2
A29621-032-b,https://iiif.archive.org/image/iiif/3/gpl_706159%2Fgpl_706159_jp2.zip%2Fgpl_706159_jp2%2Fgpl_706159_0071.jp2
A29621-033-a,https://iiif.archive.org/image/iiif/3/gpl_706159%2Fgpl_706159_jp2.zip%2Fgpl_706159_jp2%2Fgpl_706159_0072.jp2
A29621-033-b,https://iiif.archive.org/image/iiif/3/gpl_706159%2Fgpl_706159_jp2.zip%2Fgpl_706159_jp2%2Fgpl_706159_0073.jp2
A29621-034-a,https://iiif.archive.org/image/iiif/3/gpl_706159%2Fgpl_706159_jp2.zip%2Fgpl_706159_jp2%2Fgpl_706159_0074.jp2
A29621-034-b,https://iiif.archive.org/image/iiif/3/gpl_706159%2Fgpl_706159_jp2.zip%2Fgpl_706159_jp2%2Fgpl_706159_0075.jp2
A29621-035-a,https://iiif.archive.org/image/iiif/3/gpl_706159%2Fgpl_706159_jp2.zip%2Fgpl_706159_jp2%2Fgpl_706159_0076.jp2
A29621-035-b,https://iiif.archive.org/image/iiif/3/gpl_706159%2Fgpl_706159_jp2.zip%2Fgpl_706159_jp2%2Fgpl_706159_0077.jp2
A29621-036-a,https://iiif.archive.org/image/iiif/3/gpl_706159%2Fgpl_706159_jp2.zip%2Fgpl_706159_jp2%2Fgpl_706159_0078.jp2
A29621-036-b,https://iiif.archive.org/image/iiif/3/gpl_706159%2Fgpl_706159_jp2.zip%2Fgpl_706159_jp2%2Fgpl_706159_0079.jp2
A29621-037-a,https://iiif.archive.org/image/iiif/3/gpl_706159%2Fgpl_706159_jp2.zip%2Fgpl_706159_jp2%2Fgpl_706159_0080.jp2
A29621-037-b,https://iiif.archive.org/image/iiif/3/gpl_706159%2Fgpl_706159_jp2.zip%2Fgpl_706159_jp2%2Fgpl_706159_0081.jp2
A29621-038-a,https://iiif.archive.org/image/iiif/3/gpl_706159%2Fgpl_706159_jp2.zip%2Fgpl_706159_jp2%2Fgpl_706159_0082.jp2
A29621-038-b,https://iiif.archive.org/image/iiif/3/gpl_706159%2Fgpl_706159_jp2.zip%2Fgpl_706159_jp2%2Fgpl_706159_0083.jp2
A29621-039-a,https://iiif.archive.org/image/iiif/3/gpl_706159%2Fgpl_706159_jp2.zip%2Fgpl_706159_jp2%2Fgpl_706159_0084.jp2
A29621-039-b,https://iiif.archive.org/image/iiif/3/gpl_706159%2Fgpl_706159_jp2.zip%2Fgpl_706159_jp2%2Fgpl_706159_0085.jp2
A29621-040-a,https://iiif.archive.org/image/iiif/3/gpl_706159%2Fgpl_706159_jp2.zip%2Fgpl_706159_jp2%2Fgpl_706159_0086.jp2
A29621-040-b,https://iiif.archive.org/image/iiif/3/gpl_706159%2Fgpl_706159_jp2.zip%2Fgpl_706159_jp2%2Fgpl_706159_0087.jp2
A29621-041-a,https://iiif.archive.org/image/iiif/3/gpl_706159%2Fgpl_706159_jp2.zip%2Fgpl_706159_jp2%2Fgpl_706159_0088.jp2
A29621-041-b,https://iiif.archive.org/image/iiif/3/gpl_706159%2Fgpl_706159_jp2.zip%2Fgpl_706159_jp2%2Fgpl_706159_0089.jp2
A29621-042-a,https://iiif.archive.org/image/iiif/3/gpl_706159%2Fgpl_706159_jp2.zip%2Fgpl_706159_jp2%2Fgpl_706159_0090.jp2
A29621-042-b,https://iiif.archive.org/image/iiif/3/gpl_706159%2Fgpl_706159_jp2.zip%2Fgpl_706159_jp2%2Fgpl_706159_0091.jp2
A29621-043-a,https://iiif.archive.org/image/iiif/3/gpl_706159%2Fgpl_706159_jp2.zip%2Fgpl_706159_jp2%2Fgpl_706159_0092.jp2
A29621-043-b,https://iiif.archive.org/image/iiif/3/gpl_706159%2Fgpl_706159_jp2.zip%2Fgpl_706159_jp2%2Fgpl_706159_0093.jp2
A29621-044-a,https://iiif.archive.org/image/iiif/3/gpl_706159%2Fgpl_706159_jp2.zip%2Fgpl_706159_jp2%2Fgpl_706159_0094.jp2
A29621-044-b,https://iiif.archive.org/image/iiif/3/gpl_706159%2Fgpl_706159_jp2.zip%2Fgpl_706159_jp2%2Fgpl_706159_0095.jp2
A29621-045-a,https://iiif.archive.org/image/iiif/3/gpl_706159%2Fgpl_706159_jp2.zip%2Fgpl_706159_jp2%2Fgpl_706159_0096.jp2
A29621-045-b,https://iiif.archive.org/image/iiif/3/gpl_706159%2Fgpl_706159_jp2.zip%2Fgpl_706159_jp2%2Fgpl_706159_0097.jp2
A29621-046-a,https://iiif.archive.org/image/iiif/3/gpl_706159%2Fgpl_706159_jp2.zip%2Fgpl_706159_jp2%2Fgpl_706159_0098.jp2
A29621-046-b,https://iiif.archive.org/image/iiif/3/gpl_706159%2Fgpl_706159_jp2.zip%2Fgpl_706159_jp2%2Fgpl_706159_0099.jp2
A29621-047-a,https://iiif.archive.org/image/iiif/3/gpl_706159%2Fgpl_706159_jp2.zip%2Fgpl_706159_jp2%2Fgpl_706159_0100.jp2
A29621-047-b,https://iiif.archive.org/image/iiif/3/gpl_706159%2Fgpl_706159_jp2.zip%2Fgpl_706159_jp2%2Fgpl_706159_0101.jp2
A29621-048-a,https://iiif.archive.org/image/iiif/3/gpl_706159%2Fgpl_706159_jp2.zip%2Fgpl_706159_jp2%2Fgpl_706159_0102.jp2
A29621-048-b,https://iiif.archive.org/image/iiif/3/gpl_706159%2Fgpl_706159_jp2.zip%2Fgpl_706159_jp2%2Fgpl_706159_0103.jp2
A29621-049-a,https://iiif.archive.org/image/iiif/3/gpl_706159%2Fgpl_706159_jp2.zip%2Fgpl_706159_jp2%2Fgpl_706159_0104.jp2
A29621-049-b,https://iiif.archive.org/image/iiif/3/gpl_706159%2Fgpl_706159_jp2.zip%2Fgpl_706159_jp2%2Fgpl_706159_0105.jp2
A29621-050-a,https://iiif.archive.org/image/iiif/3/gpl_706159%2Fgpl_706159_jp2.zip%2Fgpl_706159_jp2%2Fgpl_706159_0106.jp2
A29621-050-b,https://iiif.archive.org/image/iiif/3/gpl_706159%2Fgpl_706159_jp2.zip%2Fgpl_706159_jp2%2Fgpl_706159_0107.jp2
A29621-051-a,https://iiif.archive.org/image/iiif/3/gpl_706159%2Fgpl_706159_jp2.zip%2Fgpl_706159_jp2%2Fgpl_706159_0108.jp2
A29621-051-b,https://iiif.archive.org/image/iiif/3/gpl_706159%2Fgpl_706159_jp2.zip%2Fgpl_706159_jp2%2Fgpl_706159_0109.jp2
A29621-052-a,https://iiif.archive.org/image/iiif/3/gpl_706159%2Fgpl_706159_jp2.zip%2Fgpl_706159_jp2%2Fgpl_706159_0110.jp2
A29621-052-b,https://iiif.archive.org/image/iiif/3/gpl_706159%2Fgpl_706159_jp2.zip%2Fgpl_706159_jp2%2Fgpl_706159_0111.jp2
A29621-053-a,https://iiif.archive.org/image/iiif/3/gpl_706159%2Fgpl_706159_jp2.zip%2Fgpl_706159_jp2%2Fgpl_706159_0112.jp2
A29621-053-b,https://iiif.archive.org/image/iiif/3/gpl_706159%2Fgpl_706159_jp2.zip%2Fgpl_706159_jp2%2Fgpl_706159_0113.jp2
A29621-054-a,https://iiif.archive.org/image/iiif/3/gpl_706159%2Fgpl_706159_jp2.zip%2Fgpl_706159_jp2%2Fgpl_706159_0114.jp2
A29621-054-b,https://iiif.archive.org/image/iiif/3/gpl_706159%2Fgpl_706159_jp2.zip%2Fgpl_706159_jp2%2Fgpl_706159_0115.jp2
A29621-055-a,https://iiif.archive.org/image/iiif/3/gpl_706159%2Fgpl_706159_jp2.zip%2Fgpl_706159_jp2%2Fgpl_706159_0116.jp2
A29621-055-b,https://iiif.archive.org/image/iiif/3/gpl_706159%2Fgpl_706159_jp2.zip%2Fgpl_706159_jp2%2Fgpl_706159_0117.jp2
A29621-056-a,https://iiif.archive.org/image/iiif/3/gpl_706159%2Fgpl_706159_jp2.zip%2Fgpl_706159_jp2%2Fgpl_706159_0118.jp2
A29621-056-b,https://iiif.archive.org/image/iiif/3/gpl_706159%2Fgpl_706159_jp2.zip%2Fgpl_706159_jp2%2Fgpl_706159_0119.jp2
A29621-057-a,https://iiif.archive.org/image/iiif/3/gpl_706159%2Fgpl_706159_jp2.zip%2Fgpl_706159_jp2%2Fgpl_706159_0120.jp2
A29621-057-b,https://iiif.archive.org/image/iiif/3/gpl_706159%2Fgpl_706159_jp2.zip%2Fgpl_706159_jp2%2Fgpl_706159_0121.jp2
A29621-058-a,https://iiif.archive.org/image/iiif/3/gpl_706159%2Fgpl_706159_jp2.zip%2Fgpl_706159_jp2%2Fgpl_706159_0122.jp2
A29621-058-b,https://iiif.archive.org/image/iiif/3/gpl_706159%2Fgpl_706159_jp2.zip%2Fgpl_706159_jp2%2Fgpl_706159_0123.jp2
A29621-059-a,https://iiif.archive.org/image/iiif/3/gpl_706159%2Fgpl_706159_jp2.zip%2Fgpl_706159_jp2%2Fgpl_706159_0124.jp2
A29621-059-b,https://iiif.archive.org/image/iiif/3/gpl_706159%2Fgpl_706159_jp2.zip%2Fgpl_706159_jp2%2Fgpl_706159_0125.jp2
A29621-060-a,https://iiif.archive.org/image/iiif/3/gpl_706159%2Fgpl_706159_jp2.zip%2Fgpl_706159_jp2%2Fgpl_706159_0126.jp2
A29621-060-b,https://iiif.archive.org/image/iiif/3/gpl_706159%2Fgpl_706159_jp2.zip%2Fgpl_706159_jp2%2Fgpl_706159_0127.jp2
A29621-061-a,https://iiif.archive.org/image/iiif/3/gpl_706159%2Fgpl_706159_jp2.zip%2Fgpl_706159_jp2%2Fgpl_706159_0128.jp2
A29621-061-b,https://iiif.archive.org/image/iiif/3/gpl_706159%2Fgpl_706159_jp2.zip%2Fgpl_706159_jp2%2Fgpl_706159_0129.jp2
A29621-062-a,https://iiif.archive.org/image/iiif/3/gpl_706159%2Fgpl_706159_jp2.zip%2Fgpl_706159_jp2%2Fgpl_706159_0130.jp2
A29621-062-b,https://iiif.archive.org/image/iiif/3/gpl_706159%2Fgpl_706159_jp2.zip%2Fgpl_706159_jp2%2Fgpl_706159_0131.jp2
A29621-063-a,https://iiif.archive.org/image/iiif/3/gpl_706159%2Fgpl_706159_jp2.zip%2Fgpl_706159_jp2%2Fgpl_706159_0132.jp2
A29621-063-b,https://iiif.archive.org/image/iiif/3/gpl_706159%2Fgpl_706159_jp2.zip%2Fgpl_706159_jp2%2Fgpl_706159_0133.jp2
A29621-064-a,https://iiif.archive.org/image/iiif/3/gpl_706159%2Fgpl_706159_jp2.zip%2Fgpl_706159_jp2%2Fgpl_706159_0134.jp2
A29621-064-b,https://iiif.archive.org/image/iiif/3/gpl_706159%2Fgpl_706159_jp2.zip%2Fgpl_706159_jp2%2Fgpl_706159_0135.jp2
A29621-065-a,https://iiif.archive.org/image/iiif/3/gpl_706159%2Fgpl_706159_jp2.zip%2Fgpl_706159_jp2%2Fgpl_706159_0136.jp2
A29621-065-b,https://iiif.archive.org/image/iiif/3/gpl_706159%2Fgpl_706159_jp2.zip%2Fgpl_706159_jp2%2Fgpl_706159_0137.jp2
A29621-066-a,https://iiif.archive.org/image/iiif/3/gpl_706159%2Fgpl_706159_jp2.zip%2Fgpl_706159_jp2%2Fgpl_706159_0138.jp2
A29621-066-b,https://iiif.archive.org/image/iiif/3/gpl_706159%2Fgpl_706159_jp2.zip%2Fgpl_706159_jp2%2Fgpl_706159_0139.jp2
A29621-067-a,https://iiif.archive.org/image/iiif/3/gpl_706159%2Fgpl_706159_jp2.zip%2Fgpl_706159_jp2%2Fgpl_706159_0140.jp2
A29621-067-b,https://iiif.archive.org/image/iiif/3/gpl_706159%2Fgpl_706159_jp2.zip%2Fgpl_706159_jp2%2Fgpl_706159_0141.jp2
A29621-068-a,https://iiif.archive.org/image/iiif/3/gpl_706159%2Fgpl_706159_jp2.zip%2Fgpl_706159_jp2%2Fgpl_706159_0142.jp2
A29621-068-b,https://iiif.archive.org/image/iiif/3/gpl_706159%2Fgpl_706159_jp2.zip%2Fgpl_706159_jp2%2Fgpl_706159_0143.jp2
A29621-069-a,https://iiif.archive.org/image/iiif/3/gpl_706159%2Fgpl_706159_jp2.zip%2Fgpl_706159_jp2%2Fgpl_706159_0144.jp2
A29621-069-b,https://iiif.archive.org/image/iiif/3/gpl_706159%2Fgpl_706159_jp2.zip%2Fgpl_706159_jp2%2Fgpl_706159_0145.jp2
A29621-070-a,https://iiif.archive.org/image/iiif/3/gpl_706159%2Fgpl_706159_jp2.zip%2Fgpl_706159_jp2%2Fgpl_706159_0146.jp2
A29621-070-b,https://iiif.archive.org/image/iiif/3/gpl_706159%2Fgpl_706159_jp2.zip%2Fgpl_706159_jp2%2Fgpl_706159_0147.jp2
A29621-071-a,https://iiif.archive.org/image/iiif/3/gpl_706159%2Fgpl_706159_jp2.zip%2Fgpl_706159_jp2%2Fgpl_706159_0148.jp2
A29621-071-b,https://iiif.archive.org/image/iiif/3/gpl_706159%2Fgpl_706159_jp2.zip%2Fgpl_706159_jp2%2Fgpl_706159_0149.jp2
A29621-072-a,https://iiif.archive.org/image/iiif/3/gpl_706159%2Fgpl_706159_jp2.zip%2Fgpl_706159_jp2%2Fgpl_706159_0150.jp2
A29621-072-b,https://iiif.archive.org/image/iiif/3/gpl_706159%2Fgpl_706159_jp2.zip%2Fgpl_706159_jp2%2Fgpl_706159_0151.jp2
A29621-073-a,https://iiif.archive.org/image/iiif/3/gpl_706159%2Fgpl_706159_jp2.zip%2Fgpl_706159_jp2%2Fgpl_706159_0152.jp2
A29621-073-b,https://iiif.archive.org/image/iiif/3/gpl_706159%2Fgpl_706159_jp2.zip%2Fgpl_706159_jp2%2Fgpl_706159_0153.jp2
A29621-074-a,https://iiif.archive.org/image/iiif/3/gpl_706159%2Fgpl_706159_jp2.zip%2Fgpl_706159_jp2%2Fgpl_706159_0154.jp2
A29621-074-b,https://iiif.archive.org/image/iiif/3/gpl_706159%2Fgpl_706159_jp2.zip%2Fgpl_706159_jp2%2Fgpl_706159_0155.jp2
A29621-075-a,https://iiif.archive.org/image/iiif/3/gpl_706159%2Fgpl_706159_jp2.zip%2Fgpl_706159_jp2%2Fgpl_706159_0156.jp2
A29621-075-b,https://iiif.archive.org/image/iiif/3/gpl_706159%2Fgpl_706159_jp2.zip%2Fgpl_706159_jp2%2Fgpl_706159_0157.jp2
A29621-076-a,https://iiif.archive.org/image/iiif/3/gpl_706159%2Fgpl_706159_jp2.zip%2Fgpl_706159_jp2%2Fgpl_706159_0158.jp2
A29621-076-b,https://iiif.archive.org/image/iiif/3/gpl_706159%2Fgpl_706159_jp2.zip%2Fgpl_706159_jp2%2Fgpl_706159_0159.jp2
A29621-077-a,https://iiif.archive.org/image/iiif/3/gpl_706159%2Fgpl_706159_jp2.zip%2Fgpl_706159_jp2%2Fgpl_706159_0160.jp2
A29621-077-b,https://iiif.archive.org/image/iiif/3/gpl_706159%2Fgpl_706159_jp2.zip%2Fgpl_706159_jp2%2Fgpl_706159_0161.jp2
A29621-078-a,https://iiif.archive.org/image/iiif/3/gpl_706159%2Fgpl_706159_jp2.zip%2Fgpl_706159_jp2%2Fgpl_706159_0162.jp2
A29621-078-b,https://iiif.archive.org/image/iiif/3/gpl_706159%2Fgpl_706159_jp2.zip%2Fgpl_706159_jp2%2Fgpl_706159_0163.jp2
A29621-079-a,9999
A29621-079-b,9999
A29621-080-a,https://iiif.archive.org/image/iiif/3/gpl_706159%2Fgpl_706159_jp2.zip%2Fgpl_706159_jp2%2Fgpl_706159_0164.jp2
A29621-080-b,https://iiif.archive.org/image/iiif/3/gpl_706159%2Fgpl_706159_jp2.zip%2Fgpl_706159_jp2%2Fgpl_706159_0165.jp2
A29621-081-a,https://iiif.archive.org/image/iiif/3/gpl_706159%2Fgpl_706159_jp2.zip%2Fgpl_706159_jp2%2Fgpl_706159_0166.jp2
A29621-081-b,https://iiif.archive.org/image/iiif/3/gpl_706159%2Fgpl_706159_jp2.zip%2Fgpl_706159_jp2%2Fgpl_706159_0167.jp2
A29621-082-a,https://iiif.archive.org/image/iiif/3/gpl_706159%2Fgpl_706159_jp2.zip%2Fgpl_706159_jp2%2Fgpl_706159_0168.jp2
A29621-082-b,https://iiif.archive.org/image/iiif/3/gpl_706159%2Fgpl_706159_jp2.zip%2Fgpl_706159_jp2%2Fgpl_706159_0169.jp2
A29621-083-a,https://iiif.archive.org/image/iiif/3/gpl_706159%2Fgpl_706159_jp2.zip%2Fgpl_706159_jp2%2Fgpl_706159_0170.jp2
A29621-083-b,https://iiif.archive.org/image/iiif/3/gpl_706159%2Fgpl_706159_jp2.zip%2Fgpl_706159_jp2%2Fgpl_706159_0171.jp2
A29621-084-a,https://iiif.archive.org/image/iiif/3/gpl_706159%2Fgpl_706159_jp2.zip%2Fgpl_706159_jp2%2Fgpl_706159_0172.jp2
A29621-084-b,https://iiif.archive.org/image/iiif/3/gpl_706159%2Fgpl_706159_jp2.zip%2Fgpl_706159_jp2%2Fgpl_706159_0173.jp2
A29621-085-a,https://iiif.archive.org/image/iiif/3/gpl_706159%2Fgpl_706159_jp2.zip%2Fgpl_706159_jp2%2Fgpl_706159_0174.jp2
A29621-085-b,https://iiif.archive.org/image/iiif/3/gpl_706159%2Fgpl_706159_jp2.zip%2Fgpl_706159_jp2%2Fgpl_706159_0175.jp2
A29621-086-a,https://iiif.archive.org/image/iiif/3/gpl_706159%2Fgpl_706159_jp2.zip%2Fgpl_706159_jp2%2Fgpl_706159_0176.jp2
A29621-086-b,https://iiif.archive.org/image/iiif/3/gpl_706159%2Fgpl_706159_jp2.zip%2Fgpl_706159_jp2%2Fgpl_706159_0177.jp2
A29621-087-a,https://iiif.archive.org/image/iiif/3/gpl_706159%2Fgpl_706159_jp2.zip%2Fgpl_706159_jp2%2Fgpl_706159_0178.jp2
A29621-087-b,https://iiif.archive.org/image/iiif/3/gpl_706159%2Fgpl_706159_jp2.zip%2Fgpl_706159_jp2%2Fgpl_706159_0179.jp2
A29621-088-a,https://iiif.archive.org/image/iiif/3/gpl_706159%2Fgpl_706159_jp2.zip%2Fgpl_706159_jp2%2Fgpl_706159_0180.jp2
A29621-088-b,https://iiif.archive.org/image/iiif/3/gpl_706159%2Fgpl_706159_jp2.zip%2Fgpl_706159_jp2%2Fgpl_706159_0181.jp2
A29621-089-a,https://iiif.archive.org/image/iiif/3/gpl_706159%2Fgpl_706159_jp2.zip%2Fgpl_706159_jp2%2Fgpl_706159_0182.jp2
A29621-089-b,https://iiif.archive.org/image/iiif/3/gpl_706159%2Fgpl_706159_jp2.zip%2Fgpl_706159_jp2%2Fgpl_706159_0183.jp2
A29621-090-a,https://iiif.archive.org/image/iiif/3/gpl_706159%2Fgpl_706159_jp2.zip%2Fgpl_706159_jp2%2Fgpl_706159_0184.jp2
A29621-090-b,https://iiif.archive.org/image/iiif/3/gpl_706159%2Fgpl_706159_jp2.zip%2Fgpl_706159_jp2%2Fgpl_706159_0185.jp2
A29621-091-a,https://iiif.archive.org/image/iiif/3/gpl_706159%2Fgpl_706159_jp2.zip%2Fgpl_706159_jp2%2Fgpl_706159_0186.jp2
A29621-091-b,https://iiif.archive.org/image/iiif/3/gpl_706159%2Fgpl_706159_jp2.zip%2Fgpl_706159_jp2%2Fgpl_706159_0187.jp2
A29621-092-a,https://iiif.archive.org/image/iiif/3/gpl_706159%2Fgpl_706159_jp2.zip%2Fgpl_706159_jp2%2Fgpl_706159_0188.jp2
A29621-092-b,https://iiif.archive.org/image/iiif/3/gpl_706159%2Fgpl_706159_jp2.zip%2Fgpl_706159_jp2%2Fgpl_706159_0189.jp2
A29621-093-a,https://iiif.archive.org/image/iiif/3/gpl_706159%2Fgpl_706159_jp2.zip%2Fgpl_706159_jp2%2Fgpl_706159_0190.jp2
A29621-093-b,https://iiif.archive.org/image/iiif/3/gpl_706159%2Fgpl_706159_jp2.zip%2Fgpl_706159_jp2%2Fgpl_706159_0191.jp2
A29621-094-a,https://iiif.archive.org/image/iiif/3/gpl_706159%2Fgpl_706159_jp2.zip%2Fgpl_706159_jp2%2Fgpl_706159_0192.jp2
A29621-094-b,https://iiif.archive.org/image/iiif/3/gpl_706159%2Fgpl_706159_jp2.zip%2Fgpl_706159_jp2%2Fgpl_706159_0193.jp2
A29621-095-a,https://iiif.archive.org/image/iiif/3/gpl_706159%2Fgpl_706159_jp2.zip%2Fgpl_706159_jp2%2Fgpl_706159_0194.jp2
A29621-095-b,https://iiif.archive.org/image/iiif/3/gpl_706159%2Fgpl_706159_jp2.zip%2Fgpl_706159_jp2%2Fgpl_706159_0195.jp2
A29621-096-a,https://iiif.archive.org/image/iiif/3/gpl_706159%2Fgpl_706159_jp2.zip%2Fgpl_706159_jp2%2Fgpl_706159_0196.jp2
A29621-096-b,https://iiif.archive.org/image/iiif/3/gpl_706159%2Fgpl_706159_jp2.zip%2Fgpl_706159_jp2%2Fgpl_706159_0197.jp2
A29621-097-a,https://iiif.archive.org/image/iiif/3/gpl_706159%2Fgpl_706159_jp2.zip%2Fgpl_706159_jp2%2Fgpl_706159_0198.jp2
A29621-097-b,https://iiif.archive.org/image/iiif/3/gpl_706159%2Fgpl_706159_jp2.zip%2Fgpl_706159_jp2%2Fgpl_706159_0199.jp2
A29621-098-a,https://iiif.archive.org/image/iiif/3/gpl_706159%2Fgpl_706159_jp2.zip%2Fgpl_706159_jp2%2Fgpl_706159_0200.jp2
A29621-098-b,https://iiif.archive.org/image/iiif/3/gpl_706159%2Fgpl_706159_jp2.zip%2Fgpl_706159_jp2%2Fgpl_706159_0201.jp2
A29621-099-a,https://iiif.archive.org/image/iiif/3/gpl_706159%2Fgpl_706159_jp2.zip%2Fgpl_706159_jp2%2Fgpl_706159_0202.jp2
A29621-099-b,https://iiif.archive.org/image/iiif/3/gpl_706159%2Fgpl_706159_jp2.zip%2Fgpl_706159_jp2%2Fgpl_706159_0203.jp2
A29621-100-a,9999
A29621-100-b,9999
A29621-101-a,https://iiif.archive.org/image/iiif/3/gpl_706159%2Fgpl_706159_jp2.zip%2Fgpl_706159_jp2%2Fgpl_706159_0204.jp2
A29621-101-b,https://iiif.archive.org/image/iiif/3/gpl_706159%2Fgpl_706159_jp2.zip%2Fgpl_706159_jp2%2Fgpl_706159_0205.jp2
A29621-102-a,https://iiif.archive.org/image/iiif/3/gpl_706159%2Fgpl_706159_jp2.zip%2Fgpl_706159_jp2%2Fgpl_706159_0206.jp2
A29621-102-b,https://iiif.archive.org/image/iiif/3/gpl_706159%2Fgpl_706159_jp2.zip%2Fgpl_706159_jp2%2Fgpl_706159_0207.jp2
A29621-103-a,https://iiif.archive.org/image/iiif/3/gpl_706159%2Fgpl_706159_jp2.zip%2Fgpl_706159_jp2%2Fgpl_706159_0208.jp2
A29621-103-b,https://iiif.archive.org/image/iiif/3/gpl_706159%2Fgpl_706159_jp2.zip%2Fgpl_706159_jp2%2Fgpl_706159_0209.jp2
A29621-104-a,https://iiif.archive.org/image/iiif/3/gpl_706159%2Fgpl_706159_jp2.zip%2Fgpl_706159_jp2%2Fgpl_706159_0210.jp2
A29621-104-b,https://iiif.archive.org/image/iiif/3/gpl_706159%2Fgpl_706159_jp2.zip%2Fgpl_706159_jp2%2Fgpl_706159_0211.jp2
A29621-105-a,https://iiif.archive.org/image/iiif/3/gpl_706159%2Fgpl_706159_jp2.zip%2Fgpl_706159_jp2%2Fgpl_706159_0212.jp2
A29621-105-b,https://iiif.archive.org/image/iiif/3/gpl_706159%2Fgpl_706159_jp2.zip%2Fgpl_706159_jp2%2Fgpl_706159_0213.jp2
A29621-106-a,https://iiif.archive.org/image/iiif/3/gpl_706159%2Fgpl_706159_jp2.zip%2Fgpl_706159_jp2%2Fgpl_706159_0214.jp2
A29621-106-b,https://iiif.archive.org/image/iiif/3/gpl_706159%2Fgpl_706159_jp2.zip%2Fgpl_706159_jp2%2Fgpl_706159_0215.jp2
A29621-107-a,https://iiif.archive.org/image/iiif/3/gpl_706159%2Fgpl_706159_jp2.zip%2Fgpl_706159_jp2%2Fgpl_706159_0216.jp2
A29621-107-b,https://iiif.archive.org/image/iiif/3/gpl_706159%2Fgpl_706159_jp2.zip%2Fgpl_706159_jp2%2Fgpl_706159_0217.jp2
A29621-108-a,https://iiif.archive.org/image/iiif/3/gpl_706159%2Fgpl_706159_jp2.zip%2Fgpl_706159_jp2%2Fgpl_706159_0218.jp2
A29621-108-b,https://iiif.archive.org/image/iiif/3/gpl_706159%2Fgpl_706159_jp2.zip%2Fgpl_706159_jp2%2Fgpl_706159_0219.jp2
A29621-109-a,https://iiif.archive.org/image/iiif/3/gpl_706159%2Fgpl_706159_jp2.zip%2Fgpl_706159_jp2%2Fgpl_706159_0220.jp2
A29621-109-b,https://iiif.archive.org/image/iiif/3/gpl_706159%2Fgpl_706159_jp2.zip%2Fgpl_706159_jp2%2Fgpl_706159_0221.jp2
A29621-110-a,https://iiif.archive.org/image/iiif/3/gpl_706159%2Fgpl_706159_jp2.zip%2Fgpl_706159_jp2%2Fgpl_706159_0222.jp2
A29621-110-b,https://iiif.archive.org/image/iiif/3/gpl_706159%2Fgpl_706159_jp2.zip%2Fgpl_706159_jp2%2Fgpl_706159_0223.jp2
A29621-111-a,https://iiif.archive.org/image/iiif/3/gpl_706159%2Fgpl_706159_jp2.zip%2Fgpl_706159_jp2%2Fgpl_706159_0224.jp2
A29621-111-b,https://iiif.archive.org/image/iiif/3/gpl_706159%2Fgpl_706159_jp2.zip%2Fgpl_706159_jp2%2Fgpl_706159_0225.jp2
A29621-112-a,https://iiif.archive.org/image/iiif/3/gpl_706159%2Fgpl_706159_jp2.zip%2Fgpl_706159_jp2%2Fgpl_706159_0226.jp2
A29621-112-b,https://iiif.archive.org/image/iiif/3/gpl_706159%2Fgpl_706159_jp2.zip%2Fgpl_706159_jp2%2Fgpl_706159_0227.jp2
A29621-113-a,https://iiif.archive.org/image/iiif/3/gpl_706159%2Fgpl_706159_jp2.zip%2Fgpl_706159_jp2%2Fgpl_706159_0228.jp2
A29621-113-b,https://iiif.archive.org/image/iiif/3/gpl_706159%2Fgpl_706159_jp2.zip%2Fgpl_706159_jp2%2Fgpl_706159_0229.jp2
A29621-114-a,https://iiif.archive.org/image/iiif/3/gpl_706159%2Fgpl_706159_jp2.zip%2Fgpl_706159_jp2%2Fgpl_706159_0230.jp2
A29621-114-b,https://iiif.archive.org/image/iiif/3/gpl_706159%2Fgpl_706159_jp2.zip%2Fgpl_706159_jp2%2Fgpl_706159_0231.jp2
A29621-115-a,https://iiif.archive.org/image/iiif/3/gpl_706159%2Fgpl_706159_jp2.zip%2Fgpl_706159_jp2%2Fgpl_706159_0232.jp2
A29621-115-b,https://iiif.archive.org/image/iiif/3/gpl_706159%2Fgpl_706159_jp2.zip%2Fgpl_706159_jp2%2Fgpl_706159_0233.jp2
A29621-116-a,https://iiif.archive.org/image/iiif/3/gpl_706159%2Fgpl_706159_jp2.zip%2Fgpl_706159_jp2%2Fgpl_706159_0234.jp2
A29621-116-b,https://iiif.archive.org/image/iiif/3/gpl_706159%2Fgpl_706159_jp2.zip%2Fgpl_706159_jp2%2Fgpl_706159_0235.jp2
A29621-117-a,https://iiif.archive.org/image/iiif/3/gpl_706159%2Fgpl_706159_jp2.zip%2Fgpl_706159_jp2%2Fgpl_706159_0236.jp2
A29621-117-b,https://iiif.archive.org/image/iiif/3/gpl_706159%2Fgpl_706159_jp2.zip%2Fgpl_706159_jp2%2Fgpl_706159_0237.jp2
A29621-118-a,https://iiif.archive.org/image/iiif/3/gpl_706159%2Fgpl_706159_jp2.zip%2Fgpl_706159_jp2%2Fgpl_706159_0238.jp2
A29621-118-b,https://iiif.archive.org/image/iiif/3/gpl_706159%2Fgpl_706159_jp2.zip%2Fgpl_706159_jp2%2Fgpl_706159_0239.jp2
A29621-119-a,https://iiif.archive.org/image/iiif/3/gpl_706159%2Fgpl_706159_jp2.zip%2Fgpl_706159_jp2%2Fgpl_706159_0240.jp2
A29621-119-b,https://iiif.archive.org/image/iiif/3/gpl_706159%2Fgpl_706159_jp2.zip%2Fgpl_706159_jp2%2Fgpl_706159_0241.jp2
A29621-120-a,https://iiif.archive.org/image/iiif/3/gpl_706159%2Fgpl_706159_jp2.zip%2Fgpl_706159_jp2%2Fgpl_706159_0242.jp2
A29621-120-b,https://iiif.archive.org/image/iiif/3/gpl_706159%2Fgpl_706159_jp2.zip%2Fgpl_706159_jp2%2Fgpl_706159_0243.jp2
A29621-121-a,https://iiif.archive.org/image/iiif/3/gpl_706159%2Fgpl_706159_jp2.zip%2Fgpl_706159_jp2%2Fgpl_706159_0244.jp2
A29621-121-b,https://iiif.archive.org/image/iiif/3/gpl_706159%2Fgpl_706159_jp2.zip%2Fgpl_706159_jp2%2Fgpl_706159_0245.jp2
A29621-122-a,https://iiif.archive.org/image/iiif/3/gpl_706159%2Fgpl_706159_jp2.zip%2Fgpl_706159_jp2%2Fgpl_706159_0246.jp2
A29621-122-b,https://iiif.archive.org/image/iiif/3/gpl_706159%2Fgpl_706159_jp2.zip%2Fgpl_706159_jp2%2Fgpl_706159_0247.jp2
A29621-123-a,https://iiif.archive.org/image/iiif/3/gpl_706159%2Fgpl_706159_jp2.zip%2Fgpl_706159_jp2%2Fgpl_706159_0248.jp2
A29621-123-b,https://iiif.archive.org/image/iiif/3/gpl_706159%2Fgpl_706159_jp2.zip%2Fgpl_706159_jp2%2Fgpl_706159_0249.jp2
A29621-124-a,https://iiif.archive.org/image/iiif/3/gpl_706159%2Fgpl_706159_jp2.zip%2Fgpl_706159_jp2%2Fgpl_706159_0250.jp2
A29621-124-b,https://iiif.archive.org/image/iiif/3/gpl_706159%2Fgpl_706159_jp2.zip%2Fgpl_706159_jp2%2Fgpl_706159_0251.jp2
A29621-125-a,https://iiif.archive.org/image/iiif/3/gpl_706159%2Fgpl_706159_jp2.zip%2Fgpl_706159_jp2%2Fgpl_706159_0252.jp2
A29621-125-b,https://iiif.archive.org/image/iiif/3/gpl_706159%2Fgpl_706159_jp2.zip%2Fgpl_706159_jp2%2Fgpl_706159_0253.jp2
A29621-126-a,https://iiif.archive.org/image/iiif/3/gpl_706159%2Fgpl_706159_jp2.zip%2Fgpl_706159_jp2%2Fgpl_706159_0254.jp2
A29621-126-b,https://iiif.archive.org/image/iiif/3/gpl_706159%2Fgpl_706159_jp2.zip%2Fgpl_706159_jp2%2Fgpl_706159_0255.jp2
A29621-127-a,https://iiif.archive.org/image/iiif/3/gpl_706159%2Fgpl_706159_jp2.zip%2Fgpl_706159_jp2%2Fgpl_706159_0256.jp2
A29621-127-b,https://iiif.archive.org/image/iiif/3/gpl_706159%2Fgpl_706159_jp2.zip%2Fgpl_706159_jp2%2Fgpl_706159_0257.jp2
A29621-128-a,https://iiif.archive.org/image/iiif/3/gpl_706159%2Fgpl_706159_jp2.zip%2Fgpl_706159_jp2%2Fgpl_706159_0258.jp2
A29621-128-b,https://iiif.archive.org/image/iiif/3/gpl_706159%2Fgpl_706159_jp2.zip%2Fgpl_706159_jp2%2Fgpl_706159_0259.jp2
A29621-129-a,https://iiif.archive.org/image/iiif/3/gpl_706159%2Fgpl_706159_jp2.zip%2Fgpl_706159_jp2%2Fgpl_706159_0260.jp2
A29621-129-b,https://iiif.archive.org/image/iiif/3/gpl_706159%2Fgpl_706159_jp2.zip%2Fgpl_706159_jp2%2Fgpl_706159_0261.jp2
A29621-130-a,https://iiif.archive.org/image/iiif/3/gpl_706159%2Fgpl_706159_jp2.zip%2Fgpl_706159_jp2%2Fgpl_706159_0262.jp2
A29621-130-b,https://iiif.archive.org/image/iiif/3/gpl_706159%2Fgpl_706159_jp2.zip%2Fgpl_706159_jp2%2Fgpl_706159_0263.jp2
A29621-131-a,https://iiif.archive.org/image/iiif/3/gpl_706159%2Fgpl_706159_jp2.zip%2Fgpl_706159_jp2%2Fgpl_706159_0264.jp2
A29621-131-b,https://iiif.archive.org/image/iiif/3/gpl_706159%2Fgpl_706159_jp2.zip%2Fgpl_706159_jp2%2Fgpl_706159_0265.jp2
A29621-132-a,https://iiif.archive.org/image/iiif/3/gpl_706159%2Fgpl_706159_jp2.zip%2Fgpl_706159_jp2%2Fgpl_706159_0266.jp2
A29621-132-b,https://iiif.archive.org/image/iiif/3/gpl_706159%2Fgpl_706159_jp2.zip%2Fgpl_706159_jp2%2Fgpl_706159_0267.jp2
A29621-133-a,https://iiif.archive.org/image/iiif/3/gpl_706159%2Fgpl_706159_jp2.zip%2Fgpl_706159_jp2%2Fgpl_706159_0268.jp2
A29621-133-b,https://iiif.archive.org/image/iiif/3/gpl_706159%2Fgpl_706159_jp2.zip%2Fgpl_706159_jp2%2Fgpl_706159_0269.jp2
A29621-134-a,https://iiif.archive.org/image/iiif/3/gpl_706159%2Fgpl_706159_jp2.zip%2Fgpl_706159_jp2%2Fgpl_706159_0270.jp2
A29621-134-b,https://iiif.archive.org/image/iiif/3/gpl_706159%2Fgpl_706159_jp2.zip%2Fgpl_706159_jp2%2Fgpl_706159_0271.jp2
A29621-135-a,https://iiif.archive.org/image/iiif/3/gpl_706159%2Fgpl_706159_jp2.zip%2Fgpl_706159_jp2%2Fgpl_706159_0272.jp2
A29621-135-b,https://iiif.archive.org/image/iiif/3/gpl_706159%2Fgpl_706159_jp2.zip%2Fgpl_706159_jp2%2Fgpl_706159_0273.jp2
A29621-136-a,https://iiif.archive.org/image/iiif/3/gpl_706159%2Fgpl_706159_jp2.zip%2Fgpl_706159_jp2%2Fgpl_706159_0274.jp2
A29621-136-b,https://iiif.archive.org/image/iiif/3/gpl_706159%2Fgpl_706159_jp2.zip%2Fgpl_706159_jp2%2Fgpl_706159_0275.jp2
A29621-137-a,https://iiif.archive.org/image/iiif/3/gpl_706159%2Fgpl_706159_jp2.zip%2Fgpl_706159_jp2%2Fgpl_706159_0276.jp2
A29621-137-b,https://iiif.archive.org/image/iiif/3/gpl_706159%2Fgpl_706159_jp2.zip%2Fgpl_706159_jp2%2Fgpl_706159_0277.jp2
A29621-138-a,https://iiif.archive.org/image/iiif/3/gpl_706159%2Fgpl_706159_jp2.zip%2Fgpl_706159_jp2%2Fgpl_706159_0278.jp2
A29621-138-b,https://iiif.archive.org/image/iiif/3/gpl_706159%2Fgpl_706159_jp2.zip%2Fgpl_706159_jp2%2Fgpl_706159_0279.jp2
A29621-139-a,https://iiif.archive.org/image/iiif/3/gpl_706159%2Fgpl_706159_jp2.zip%2Fgpl_706159_jp2%2Fgpl_706159_0280.jp2
A29621-139-b,https://iiif.archive.org/image/iiif/3/gpl_706159%2Fgpl_706159_jp2.zip%2Fgpl_706159_jp2%2Fgpl_706159_0281.jp2
A29621-140-a,https://iiif.archive.org/image/iiif/3/gpl_706159%2Fgpl_706159_jp2.zip%2Fgpl_706159_jp2%2Fgpl_706159_0282.jp2
A29621-140-b,https://iiif.archive.org/image/iiif/3/gpl_706159%2Fgpl_706159_jp2.zip%2Fgpl_706159_jp2%2Fgpl_706159_0283.jp2
A29621-141-a,https://iiif.archive.org/image/iiif/3/gpl_706159%2Fgpl_706159_jp2.zip%2Fgpl_706159_jp2%2Fgpl_706159_0284.jp2
A29621-141-b,https://iiif.archive.org/image/iiif/3/gpl_706159%2Fgpl_706159_jp2.zip%2Fgpl_706159_jp2%2Fgpl_706159_0285.jp2
A29621-142-a,https://iiif.archive.org/image/iiif/3/gpl_706159%2Fgpl_706159_jp2.zip%2Fgpl_706159_jp2%2Fgpl_706159_0286.jp2
A29621-142-b,https://iiif.archive.org/image/iiif/3/gpl_706159%2Fgpl_706159_jp2.zip%2Fgpl_706159_jp2%2Fgpl_706159_0287.jp2
A29621-143-a,https://iiif.archive.org/image/iiif/3/gpl_706159%2Fgpl_706159_jp2.zip%2Fgpl_706159_jp2%2Fgpl_706159_0288.jp2
A29621-143-b,https://iiif.archive.org/image/iiif/3/gpl_706159%2Fgpl_706159_jp2.zip%2Fgpl_706159_jp2%2Fgpl_706159_0289.jp2
A29621-144-a,https://iiif.archive.org/image/iiif/3/gpl_706159%2Fgpl_706159_jp2.zip%2Fgpl_706159_jp2%2Fgpl_706159_0290.jp2
A29621-144-b,https://iiif.archive.org/image/iiif/3/gpl_706159%2Fgpl_706159_jp2.zip%2Fgpl_706159_jp2%2Fgpl_706159_0291.jp2
A29621-145-a,https://iiif.archive.org/image/iiif/3/gpl_706159%2Fgpl_706159_jp2.zip%2Fgpl_706159_jp2%2Fgpl_706159_0292.jp2
A29621-145-b,https://iiif.archive.org/image/iiif/3/gpl_706159%2Fgpl_706159_jp2.zip%2Fgpl_706159_jp2%2Fgpl_706159_0293.jp2
A29621-146-a,https://iiif.archive.org/image/iiif/3/gpl_706159%2Fgpl_706159_jp2.zip%2Fgpl_706159_jp2%2Fgpl_706159_0294.jp2
A29621-146-b,https://iiif.archive.org/image/iiif/3/gpl_706159%2Fgpl_706159_jp2.zip%2Fgpl_706159_jp2%2Fgpl_706159_0295.jp2
A29621-147-a,https://iiif.archive.org/image/iiif/3/gpl_706159%2Fgpl_706159_jp2.zip%2Fgpl_706159_jp2%2Fgpl_706159_0296.jp2
A29621-147-b,https://iiif.archive.org/image/iiif/3/gpl_706159%2Fgpl_706159_jp2.zip%2Fgpl_706159_jp2%2Fgpl_706159_0297.jp2
A29621-148-a,https://iiif.archive.org/image/iiif/3/gpl_706159%2Fgpl_706159_jp2.zip%2Fgpl_706159_jp2%2Fgpl_706159_0298.jp2
A29621-148-b,https://iiif.archive.org/image/iiif/3/gpl_706159%2Fgpl_706159_jp2.zip%2Fgpl_706159_jp2%2Fgpl_706159_0299.jp2
A29621-149-a,https://iiif.archive.org/image/iiif/3/gpl_706159%2Fgpl_706159_jp2.zip%2Fgpl_706159_jp2%2Fgpl_706159_0300.jp2
A29621-149-b,https://iiif.archive.org/image/iiif/3/gpl_706159%2Fgpl_706159_jp2.zip%2Fgpl_706159_jp2%2Fgpl_706159_0301.jp2
A29621-150-a,https://iiif.archive.org/image/iiif/3/gpl_706159%2Fgpl_706159_jp2.zip%2Fgpl_706159_jp2%2Fgpl_706159_0302.jp2
A29621-150-b,https://iiif.archive.org/image/iiif/3/gpl_706159%2Fgpl_706159_jp2.zip%2Fgpl_706159_jp2%2Fgpl_706159_0303.jp2
A29621-151-a,https://iiif.archive.org/image/iiif/3/gpl_706159%2Fgpl_706159_jp2.zip%2Fgpl_706159_jp2%2Fgpl_706159_0304.jp2
A29621-151-b,https://iiif.archive.org/image/iiif/3/gpl_706159%2Fgpl_706159_jp2.zip%2Fgpl_706159_jp2%2Fgpl_706159_0305.jp2
A29621-152-a,https://iiif.archive.org/image/iiif/3/gpl_706159%2Fgpl_706159_jp2.zip%2Fgpl_706159_jp2%2Fgpl_706159_0306.jp2
A29621-152-b,https://iiif.archive.org/image/iiif/3/gpl_706159%2Fgpl_706159_jp2.zip%2Fgpl_706159_jp2%2Fgpl_706159_0307.jp2
A29621-153-a,https://iiif.archive.org/image/iiif/3/gpl_706159%2Fgpl_706159_jp2.zip%2Fgpl_706159_jp2%2Fgpl_706159_0308.jp2
A29621-153-b,https://iiif.archive.org/image/iiif/3/gpl_706159%2Fgpl_706159_jp2.zip%2Fgpl_706159_jp2%2Fgpl_706159_0309.jp2
A29621-154-a,https://iiif.archive.org/image/iiif/3/gpl_706159%2Fgpl_706159_jp2.zip%2Fgpl_706159_jp2%2Fgpl_706159_0310.jp2
A29621-154-b,https://iiif.archive.org/image/iiif/3/gpl_706159%2Fgpl_706159_jp2.zip%2Fgpl_706159_jp2%2Fgpl_706159_0311.jp2
A29621-155-a,https://iiif.archive.org/image/iiif/3/gpl_706159%2Fgpl_706159_jp2.zip%2Fgpl_706159_jp2%2Fgpl_706159_0312.jp2
A29621-155-b,https://iiif.archive.org/image/iiif/3/gpl_706159%2Fgpl_706159_jp2.zip%2Fgpl_706159_jp2%2Fgpl_706159_0313.jp2
A29621-156-a,https://iiif.archive.org/image/iiif/3/gpl_706159%2Fgpl_706159_jp2.zip%2Fgpl_706159_jp2%2Fgpl_706159_0314.jp2
A29621-156-b,https://iiif.archive.org/image/iiif/3/gpl_706159%2Fgpl_706159_jp2.zip%2Fgpl_706159_jp2%2Fgpl_706159_0315.jp2
A29621-157-a,https://iiif.archive.org/image/iiif/3/gpl_706159%2Fgpl_706159_jp2.zip%2Fgpl_706159_jp2%2Fgpl_706159_0316.jp2
A29621-157-b,https://iiif.archive.org/image/iiif/3/gpl_706159%2Fgpl_706159_jp2.zip%2Fgpl_706159_jp2%2Fgpl_706159_0317.jp2
A29621-158-a,https://iiif.archive.org/image/iiif/3/gpl_706159%2Fgpl_706159_jp2.zip%2Fgpl_706159_jp2%2Fgpl_706159_0318.jp2
A29621-158-b,https://iiif.archive.org/image/iiif/3/gpl_706159%2Fgpl_706159_jp2.zip%2Fgpl_706159_jp2%2Fgpl_706159_0319.jp2
A29621-159-a,https://iiif.archive.org/image/iiif/3/gpl_706159%2Fgpl_706159_jp2.zip%2Fgpl_706159_jp2%2Fgpl_706159_0320.jp2
A29621-159-b,https://iiif.archive.org/image/iiif/3/gpl_706159%2Fgpl_706159_jp2.zip%2Fgpl_706159_jp2%2Fgpl_706159_0321.jp2
A29621-160-a,https://iiif.archive.org/image/iiif/3/gpl_706159%2Fgpl_706159_jp2.zip%2Fgpl_706159_jp2%2Fgpl_706159_0322.jp2
A29621-160-b,https://iiif.archive.org/image/iiif/3/gpl_706159%2Fgpl_706159_jp2.zip%2Fgpl_706159_jp2%2Fgpl_706159_0323.jp2
A29621-161-a,https://iiif.archive.org/image/iiif/3/gpl_706159%2Fgpl_706159_jp2.zip%2Fgpl_706159_jp2%2Fgpl_706159_0324.jp2
A29621-161-b,https://iiif.archive.org/image/iiif/3/gpl_706159%2Fgpl_706159_jp2.zip%2Fgpl_706159_jp2%2Fgpl_706159_0325.jp2
A29621-162-a,https://iiif.archive.org/image/iiif/3/gpl_706159%2Fgpl_706159_jp2.zip%2Fgpl_706159_jp2%2Fgpl_706159_0326.jp2
A29621-162-b,https://iiif.archive.org/image/iiif/3/gpl_706159%2Fgpl_706159_jp2.zip%2Fgpl_706159_jp2%2Fgpl_706159_0327.jp2
A29621-163-a,https://iiif.archive.org/image/iiif/3/gpl_706159%2Fgpl_706159_jp2.zip%2Fgpl_706159_jp2%2Fgpl_706159_0328.jp2
A29621-163-b,https://iiif.archive.org/image/iiif/3/gpl_706159%2Fgpl_706159_jp2.zip%2Fgpl_706159_jp2%2Fgpl_706159_0329.jp2
A29621-164-a,https://iiif.archive.org/image/iiif/3/gpl_706159%2Fgpl_706159_jp2.zip%2Fgpl_706159_jp2%2Fgpl_706159_0330.jp2
A29621-164-b,https://iiif.archive.org/image/iiif/3/gpl_706159%2Fgpl_706159_jp2.zip%2Fgpl_706159_jp2%2Fgpl_706159_0331.jp2
A29621-165-a,https://iiif.archive.org/image/iiif/3/gpl_706159%2Fgpl_706159_jp2.zip%2Fgpl_706159_jp2%2Fgpl_706159_0332.jp2
A29621-165-b,https://iiif.archive.org/image/iiif/3/gpl_706159%2Fgpl_706159_jp2.zip%2Fgpl_706159_jp2%2Fgpl_706159_0333.jp2
A29621-166-a,https://iiif.archive.org/image/iiif/3/gpl_706159%2Fgpl_706159_jp2.zip%2Fgpl_706159_jp2%2Fgpl_706159_0334.jp2
A29621-166-b,https://iiif.archive.org/image/iiif/3/gpl_706159%2Fgpl_706159_jp2.zip%2Fgpl_706159_jp2%2Fgpl_706159_0335.jp2
A29621-167-a,https://iiif.archive.org/image/iiif/3/gpl_706159%2Fgpl_706159_jp2.zip%2Fgpl_706159_jp2%2Fgpl_706159_0336.jp2
A29621-167-b,https://iiif.archive.org/image/iiif/3/gpl_706159%2Fgpl_706159_jp2.zip%2Fgpl_706159_jp2%2Fgpl_706159_0337.jp2
A29621-168-a,https://iiif.archive.org/image/iiif/3/gpl_706159%2Fgpl_706159_jp2.zip%2Fgpl_706159_jp2%2Fgpl_706159_0338.jp2
A29621-168-b,https://iiif.archive.org/image/iiif/3/gpl_706159%2Fgpl_706159_jp2.zip%2Fgpl_706159_jp2%2Fgpl_706159_0339.jp2
A29621-169-a,https://iiif.archive.org/image/iiif/3/gpl_706159%2Fgpl_706159_jp2.zip%2Fgpl_706159_jp2%2Fgpl_706159_0340.jp2
A29621-169-b,https://iiif.archive.org/image/iiif/3/gpl_706159%2Fgpl_706159_jp2.zip%2Fgpl_706159_jp2%2Fgpl_706159_0341.jp2
A29621-170-a,https://iiif.archive.org/image/iiif/3/gpl_706159%2Fgpl_706159_jp2.zip%2Fgpl_706159_jp2%2Fgpl_706159_0342.jp2
A29621-170-b,https://iiif.archive.org/image/iiif/3/gpl_706159%2Fgpl_706159_jp2.zip%2Fgpl_706159_jp2%2Fgpl_706159_0343.jp2
A29621-171-a,https://iiif.archive.org/image/iiif/3/gpl_706159%2Fgpl_706159_jp2.zip%2Fgpl_706159_jp2%2Fgpl_706159_0344.jp2
A29621-171-b,https://iiif.archive.org/image/iiif/3/gpl_706159%2Fgpl_706159_jp2.zip%2Fgpl_706159_jp2%2Fgpl_706159_0345.jp2
A29621-172-a,https://iiif.archive.org/image/iiif/3/gpl_706159%2Fgpl_706159_jp2.zip%2Fgpl_706159_jp2%2Fgpl_706159_0346.jp2
A29621-172-b,https://iiif.archive.org/image/iiif/3/gpl_706159%2Fgpl_706159_jp2.zip%2Fgpl_706159_jp2%2Fgpl_706159_0347.jp2
A29621-173-a,https://iiif.archive.org/image/iiif/3/gpl_706159%2Fgpl_706159_jp2.zip%2Fgpl_706159_jp2%2Fgpl_706159_0348.jp2
A29621-173-b,https://iiif.archive.org/image/iiif/3/gpl_706159%2Fgpl_706159_jp2.zip%2Fgpl_706159_jp2%2Fgpl_706159_0349.jp2
A29621-174-a,https://iiif.archive.org/image/iiif/3/gpl_706159%2Fgpl_706159_jp2.zip%2Fgpl_706159_jp2%2Fgpl_706159_0350.jp2
A29621-174-b,https://iiif.archive.org/image/iiif/3/gpl_706159%2Fgpl_706159_jp2.zip%2Fgpl_706159_jp2%2Fgpl_706159_0351.jp2
A29621-175-a,https://iiif.archive.org/image/iiif/3/gpl_706159%2Fgpl_706159_jp2.zip%2Fgpl_706159_jp2%2Fgpl_706159_0352.jp2
A29621-175-b,https://iiif.archive.org/image/iiif/3/gpl_706159%2Fgpl_706159_jp2.zip%2Fgpl_706159_jp2%2Fgpl_706159_0353.jp2
A29621-176-a,https://iiif.archive.org/image/iiif/3/gpl_706159%2Fgpl_706159_jp2.zip%2Fgpl_706159_jp2%2Fgpl_706159_0354.jp2
A29621-176-b,https://iiif.archive.org/image/iiif/3/gpl_706159%2Fgpl_706159_jp2.zip%2Fgpl_706159_jp2%2Fgpl_706159_0355.jp2
A29621-177-a,https://iiif.archive.org/image/iiif/3/gpl_706159%2Fgpl_706159_jp2.zip%2Fgpl_706159_jp2%2Fgpl_706159_0356.jp2
A29621-177-b,https://iiif.archive.org/image/iiif/3/gpl_706159%2Fgpl_706159_jp2.zip%2Fgpl_706159_jp2%2Fgpl_706159_0357.jp2
A29621-178-a,https://iiif.archive.org/image/iiif/3/gpl_706159%2Fgpl_706159_jp2.zip%2Fgpl_706159_jp2%2Fgpl_706159_0358.jp2
A29621-178-b,https://iiif.archive.org/image/iiif/3/gpl_706159%2Fgpl_706159_jp2.zip%2Fgpl_706159_jp2%2Fgpl_706159_0359.jp2
A29621-179-a,https://iiif.archive.org/image/iiif/3/gpl_706159%2Fgpl_706159_jp2.zip%2Fgpl_706159_jp2%2Fgpl_706159_0360.jp2
A29621-179-b,https://iiif.archive.org/image/iiif/3/gpl_706159%2Fgpl_706159_jp2.zip%2Fgpl_706159_jp2%2Fgpl_706159_0361.jp2
A29621-180-a,https://iiif.archive.org/image/iiif/3/gpl_706159%2Fgpl_706159_jp2.zip%2Fgpl_706159_jp2%2Fgpl_706159_0362.jp2
A29621-180-b,https://iiif.archive.org/image/iiif/3/gpl_706159%2Fgpl_706159_jp2.zip%2Fgpl_706159_jp2%2Fgpl_706159_0363.jp2
A29621-181-a,https://iiif.archive.org/image/iiif/3/gpl_706159%2Fgpl_706159_jp2.zip%2Fgpl_706159_jp2%2Fgpl_706159_0364.jp2
A29621-181-b,https://iiif.archive.org/image/iiif/3/gpl_706159%2Fgpl_706159_jp2.zip%2Fgpl_706159_jp2%2Fgpl_706159_0365.jp2
A29621-182-a,https://iiif.archive.org/image/iiif/3/gpl_706159%2Fgpl_706159_jp2.zip%2Fgpl_706159_jp2%2Fgpl_706159_0366.jp2
A29621-182-b,https://iiif.archive.org/image/iiif/3/gpl_706159%2Fgpl_706159_jp2.zip%2Fgpl_706159_jp2%2Fgpl_706159_0367.jp2
A29621-183-a,https://iiif.archive.org/image/iiif/3/gpl_706159%2Fgpl_706159_jp2.zip%2Fgpl_706159_jp2%2Fgpl_706159_0368.jp2
A29621-183-b,https://iiif.archive.org/image/iiif/3/gpl_706159%2Fgpl_706159_jp2.zip%2Fgpl_706159_jp2%2Fgpl_706159_0369.jp2
A29621-184-a,https://iiif.archive.org/image/iiif/3/gpl_706159%2Fgpl_706159_jp2.zip%2Fgpl_706159_jp2%2Fgpl_706159_0370.jp2
A29621-184-b,https://iiif.archive.org/image/iiif/3/gpl_706159%2Fgpl_706159_jp2.zip%2Fgpl_706159_jp2%2Fgpl_706159_0371.jp2
A29621-185-a,https://iiif.archive.org/image/iiif/3/gpl_706159%2Fgpl_706159_jp2.zip%2Fgpl_706159_jp2%2Fgpl_706159_0372.jp2
A29621-185-b,https://iiif.archive.org/image/iiif/3/gpl_706159%2Fgpl_706159_jp2.zip%2Fgpl_706159_jp2%2Fgpl_706159_0373.jp2
A29621-186-a,https://iiif.archive.org/image/iiif/3/gpl_706159%2Fgpl_706159_jp2.zip%2Fgpl_706159_jp2%2Fgpl_706159_0374.jp2
A29621-186-b,https://iiif.archive.org/image/iiif/3/gpl_706159%2Fgpl_706159_jp2.zip%2Fgpl_706159_jp2%2Fgpl_706159_0375.jp2
A29621-187-a,https://iiif.archive.org/image/iiif/3/gpl_706159%2Fgpl_706159_jp2.zip%2Fgpl_706159_jp2%2Fgpl_706159_0376.jp2
A29621-187-b,https://iiif.archive.org/image/iiif/3/gpl_706159%2Fgpl_706159_jp2.zip%2Fgpl_706159_jp2%2Fgpl_706159_0377.jp2
A29621-188-a,https://iiif.archive.org/image/iiif/3/gpl_706159%2Fgpl_706159_jp2.zip%2Fgpl_706159_jp2%2Fgpl_706159_0378.jp2
A29621-188-b,https://iiif.archive.org/image/iiif/3/gpl_706159%2Fgpl_706159_jp2.zip%2Fgpl_706159_jp2%2Fgpl_706159_0379.jp2
A29621-189-a,https://iiif.archive.org/image/iiif/3/gpl_706159%2Fgpl_706159_jp2.zip%2Fgpl_706159_jp2%2Fgpl_706159_0380.jp2
A29621-189-b,https://iiif.archive.org/image/iiif/3/gpl_706159%2Fgpl_706159_jp2.zip%2Fgpl_706159_jp2%2Fgpl_706159_0381.jp2
A29621-190-a,https://iiif.archive.org/image/iiif/3/gpl_706159%2Fgpl_706159_jp2.zip%2Fgpl_706159_jp2%2Fgpl_706159_0382.jp2
A29621-190-b,https://iiif.archive.org/image/iiif/3/gpl_706159%2Fgpl_706159_jp2.zip%2Fgpl_706159_jp2%2Fgpl_706159_0383.jp2
A29621-191-a,https://iiif.archive.org/image/iiif/3/gpl_706159%2Fgpl_706159_jp2.zip%2Fgpl_706159_jp2%2Fgpl_706159_0384.jp2
A29621-191-b,https://iiif.archive.org/image/iiif/3/gpl_706159%2Fgpl_706159_jp2.zip%2Fgpl_706159_jp2%2Fgpl_706159_0385.jp2
A29621-192-a,https://iiif.archive.org/image/iiif/3/gpl_706159%2Fgpl_706159_jp2.zip%2Fgpl_706159_jp2%2Fgpl_706159_0386.jp2
A29621-192-b,https://iiif.archive.org/image/iiif/3/gpl_706159%2Fgpl_706159_jp2.zip%2Fgpl_706159_jp2%2Fgpl_706159_0387.jp2
A29621-193-a,https://iiif.archive.org/image/iiif/3/gpl_706159%2Fgpl_706159_jp2.zip%2Fgpl_706159_jp2%2Fgpl_706159_0388.jp2
A29621-193-b,https://iiif.archive.org/image/iiif/3/gpl_706159%2Fgpl_706159_jp2.zip%2Fgpl_706159_jp2%2Fgpl_706159_0389.jp2
A29621-194-a,https://iiif.archive.org/image/iiif/3/gpl_706159%2Fgpl_706159_jp2.zip%2Fgpl_706159_jp2%2Fgpl_706159_0390.jp2
A29621-194-b,https://iiif.archive.org/image/iiif/3/gpl_706159%2Fgpl_706159_jp2.zip%2Fgpl_706159_jp2%2Fgpl_706159_0391.jp2
A29621-195-a,https://iiif.archive.org/image/iiif/3/gpl_706159%2Fgpl_706159_jp2.zip%2Fgpl_706159_jp2%2Fgpl_706159_0392.jp2
A29621-195-b,https://iiif.archive.org/image/iiif/3/gpl_706159%2Fgpl_706159_jp2.zip%2Fgpl_706159_jp2%2Fgpl_706159_0393.jp2
A29621-196-a,https://iiif.archive.org/image/iiif/3/gpl_706159%2Fgpl_706159_jp2.zip%2Fgpl_706159_jp2%2Fgpl_706159_0394.jp2
A29621-196-b,https://iiif.archive.org/image/iiif/3/gpl_706159%2Fgpl_706159_jp2.zip%2Fgpl_706159_jp2%2Fgpl_706159_0395.jp2
A29621-197-a,https://iiif.archive.org/image/iiif/3/gpl_706159%2Fgpl_706159_jp2.zip%2Fgpl_706159_jp2%2Fgpl_706159_0396.jp2
A29621-197-b,https://iiif.archive.org/image/iiif/3/gpl_706159%2Fgpl_706159_jp2.zip%2Fgpl_706159_jp2%2Fgpl_706159_0397.jp2
A29621-198-a,https://iiif.archive.org/image/iiif/3/gpl_706159%2Fgpl_706159_jp2.zip%2Fgpl_706159_jp2%2Fgpl_706159_0398.jp2
A29621-198-b,https://iiif.archive.org/image/iiif/3/gpl_706159%2Fgpl_706159_jp2.zip%2Fgpl_706159_jp2%2Fgpl_706159_0399.jp2
A29621-199-a,https://iiif.archive.org/image/iiif/3/gpl_706159%2Fgpl_706159_jp2.zip%2Fgpl_706159_jp2%2Fgpl_706159_0400.jp2
A29621-199-b,https://iiif.archive.org/image/iiif/3/gpl_706159%2Fgpl_706159_jp2.zip%2Fgpl_706159_jp2%2Fgpl_706159_0401.jp2
A29621-200-a,https://iiif.archive.org/image/iiif/3/gpl_706159%2Fgpl_706159_jp2.zip%2Fgpl_706159_jp2%2Fgpl_706159_0402.jp2
A29621-200-b,https://iiif.archive.org/image/iiif/3/gpl_706159%2Fgpl_706159_jp2.zip%2Fgpl_706159_jp2%2Fgpl_706159_0403.jp2
A29621-201-a,https://iiif.archive.org/image/iiif/3/gpl_706159%2Fgpl_706159_jp2.zip%2Fgpl_706159_jp2%2Fgpl_706159_0404.jp2
A29621-201-b,https://iiif.archive.org/image/iiif/3/gpl_706159%2Fgpl_706159_jp2.zip%2Fgpl_706159_jp2%2Fgpl_706159_0405.jp2
A29621-202-a,https://iiif.archive.org/image/iiif/3/gpl_706159%2Fgpl_706159_jp2.zip%2Fgpl_706159_jp2%2Fgpl_706159_0406.jp2
A29621-202-b,https://iiif.archive.org/image/iiif/3/gpl_706159%2Fgpl_706159_jp2.zip%2Fgpl_706159_jp2%2Fgpl_706159_0407.jp2
A29621-203-a,https://iiif.archive.org/image/iiif/3/gpl_706159%2Fgpl_706159_jp2.zip%2Fgpl_706159_jp2%2Fgpl_706159_0408.jp2
A29621-203-b,https://iiif.archive.org/image/iiif/3/gpl_706159%2Fgpl_706159_jp2.zip%2Fgpl_706159_jp2%2Fgpl_706159_0409.jp2
A29621-204-a,https://iiif.archive.org/image/iiif/3/gpl_706159%2Fgpl_706159_jp2.zip%2Fgpl_706159_jp2%2Fgpl_706159_0410.jp2
A29621-204-b,https://iiif.archive.org/image/iiif/3/gpl_706159%2Fgpl_706159_jp2.zip%2Fgpl_706159_jp2%2Fgpl_706159_0411.jp2
A29621-205-a,https://iiif.archive.org/image/iiif/3/gpl_706159%2Fgpl_706159_jp2.zip%2Fgpl_706159_jp2%2Fgpl_706159_0412.jp2
A29621-205-b,https://iiif.archive.org/image/iiif/3/gpl_706159%2Fgpl_706159_jp2.zip%2Fgpl_706159_jp2%2Fgpl_706159_0413.jp2
A29621-206-a,https://iiif.archive.org/image/iiif/3/gpl_706159%2Fgpl_706159_jp2.zip%2Fgpl_706159_jp2%2Fgpl_706159_0414.jp2
A29621-206-b,https://iiif.archive.org/image/iiif/3/gpl_706159%2Fgpl_706159_jp2.zip%2Fgpl_706159_jp2%2Fgpl_706159_0415.jp2
A29621-207-a,https://iiif.archive.org/image/iiif/3/gpl_706159%2Fgpl_706159_jp2.zip%2Fgpl_706159_jp2%2Fgpl_706159_0416.jp2
A29621-207-b,https://iiif.archive.org/image/iiif/3/gpl_706159%2Fgpl_706159_jp2.zip%2Fgpl_706159_jp2%2Fgpl_706159_0417.jp2
A29621-208-a,https://iiif.archive.org/image/iiif/3/gpl_706159%2Fgpl_706159_jp2.zip%2Fgpl_706159_jp2%2Fgpl_706159_0418.jp2
A29621-208-b,https://iiif.archive.org/image/iiif/3/gpl_706159%2Fgpl_706159_jp2.zip%2Fgpl_706159_jp2%2Fgpl_706159_0419.jp2
A29621-209-a,https://iiif.archive.org/image/iiif/3/gpl_706159%2Fgpl_706159_jp2.zip%2Fgpl_706159_jp2%2Fgpl_706159_0420.jp2
A29621-209-b,https://iiif.archive.org/image/iiif/3/gpl_706159%2Fgpl_706159_jp2.zip%2Fgpl_706159_jp2%2Fgpl_706159_0421.jp2
A29621-210-a,https://iiif.archive.org/image/iiif/3/gpl_706159%2Fgpl_706159_jp2.zip%2Fgpl_706159_jp2%2Fgpl_706159_0422.jp2
A29621-210-b,https://iiif.archive.org/image/iiif/3/gpl_706159%2Fgpl_706159_jp2.zip%2Fgpl_706159_jp2%2Fgpl_706159_0423.jp2
A29621-211-a,https://iiif.archive.org/image/iiif/3/gpl_706159%2Fgpl_706159_jp2.zip%2Fgpl_706159_jp2%2Fgpl_706159_0424.jp2
A29621-211-b,https://iiif.archive.org/image/iiif/3/gpl_706159%2Fgpl_706159_jp2.zip%2Fgpl_706159_jp2%2Fgpl_706159_0425.jp2
A29621-212-a,https://iiif.archive.org/image/iiif/3/gpl_706159%2Fgpl_706159_jp2.zip%2Fgpl_706159_jp2%2Fgpl_706159_0426.jp2
A29621-212-b,https://iiif.archive.org/image/iiif/3/gpl_706159%2Fgpl_706159_jp2.zip%2Fgpl_706159_jp2%2Fgpl_706159_0427.jp2
A29621-213-a,https://iiif.archive.org/image/iiif/3/gpl_706159%2Fgpl_706159_jp2.zip%2Fgpl_706159_jp2%2Fgpl_706159_0428.jp2
A29621-213-b,https://iiif.archive.org/image/iiif/3/gpl_706159%2Fgpl_706159_jp2.zip%2Fgpl_706159_jp2%2Fgpl_706159_0429.jp2
A29621-214-a,https://iiif.archive.org/image/iiif/3/gpl_706159%2Fgpl_706159_jp2.zip%2Fgpl_706159_jp2%2Fgpl_706159_0430.jp2
A29621-214-b,https://iiif.archive.org/image/iiif/3/gpl_706159%2Fgpl_706159_jp2.zip%2Fgpl_706159_jp2%2Fgpl_706159_0431.jp2
A29621-215-a,https://iiif.archive.org/image/iiif/3/gpl_706159%2Fgpl_706159_jp2.zip%2Fgpl_706159_jp2%2Fgpl_706159_0432.jp2
A29621-215-b,https://iiif.archive.org/image/iiif/3/gpl_706159%2Fgpl_706159_jp2.zip%2Fgpl_706159_jp2%2Fgpl_706159_0433.jp2
A29621-216-a,https://iiif.archive.org/image/iiif/3/gpl_706159%2Fgpl_706159_jp2.zip%2Fgpl_706159_jp2%2Fgpl_706159_0434.jp2
A29621-216-b,https://iiif.archive.org/image/iiif/3/gpl_706159%2Fgpl_706159_jp2.zip%2Fgpl_706159_jp2%2Fgpl_706159_0435.jp2
A29621-217-a,https://iiif.archive.org/image/iiif/3/gpl_706159%2Fgpl_706159_jp2.zip%2Fgpl_706159_jp2%2Fgpl_706159_0436.jp2
A29621-217-b,https://iiif.archive.org/image/iiif/3/gpl_706159%2Fgpl_706159_jp2.zip%2Fgpl_706159_jp2%2Fgpl_706159_0437.jp2
A29621-218-a,https://iiif.archive.org/image/iiif/3/gpl_706159%2Fgpl_706159_jp2.zip%2Fgpl_706159_jp2%2Fgpl_706159_0438.jp2
A29621-218-b,https://iiif.archive.org/image/iiif/3/gpl_706159%2Fgpl_706159_jp2.zip%2Fgpl_706159_jp2%2Fgpl_706159_0439.jp2
A29621-219-a,https://iiif.archive.org/image/iiif/3/gpl_706159%2Fgpl_706159_jp2.zip%2Fgpl_706159_jp2%2Fgpl_706159_0440.jp2
A29621-219-b,https://iiif.archive.org/image/iiif/3/gpl_706159%2Fgpl_706159_jp2.zip%2Fgpl_706159_jp2%2Fgpl_706159_0441.jp2
A29621-220-a,https://iiif.archive.org/image/iiif/3/gpl_706159%2Fgpl_706159_jp2.zip%2Fgpl_706159_jp2%2Fgpl_706159_0442.jp2
A29621-220-b,https://iiif.archive.org/image/iiif/3/gpl_706159%2Fgpl_706159_jp2.zip%2Fgpl_706159_jp2%2Fgpl_706159_0443.jp2
A29621-221-a,https://iiif.archive.org/image/iiif/3/gpl_706159%2Fgpl_706159_jp2.zip%2Fgpl_706159_jp2%2Fgpl_706159_0444.jp2
A29621-221-b,https://iiif.archive.org/image/iiif/3/gpl_706159%2Fgpl_706159_jp2.zip%2Fgpl_706159_jp2%2Fgpl_706159_0445.jp2
A29621-222-a,https://iiif.archive.org/image/iiif/3/gpl_706159%2Fgpl_706159_jp2.zip%2Fgpl_706159_jp2%2Fgpl_706159_0446.jp2
A29621-222-b,https://iiif.archive.org/image/iiif/3/gpl_706159%2Fgpl_706159_jp2.zip%2Fgpl_706159_jp2%2Fgpl_706159_0447.jp2
A29621-223-a,https://iiif.archive.org/image/iiif/3/gpl_706159%2Fgpl_706159_jp2.zip%2Fgpl_706159_jp2%2Fgpl_706159_0448.jp2
A29621-223-b,https://iiif.archive.org/image/iiif/3/gpl_706159%2Fgpl_706159_jp2.zip%2Fgpl_706159_jp2%2Fgpl_706159_0449.jp2
A29621-224-a,https://iiif.archive.org/image/iiif/3/gpl_706159%2Fgpl_706159_jp2.zip%2Fgpl_706159_jp2%2Fgpl_706159_0450.jp2
A29621-224-b,https://iiif.archive.org/image/iiif/3/gpl_706159%2Fgpl_706159_jp2.zip%2Fgpl_706159_jp2%2Fgpl_706159_0451.jp2
A29621-225-a,https://iiif.archive.org/image/iiif/3/gpl_706159%2Fgpl_706159_jp2.zip%2Fgpl_706159_jp2%2Fgpl_706159_0452.jp2
A29621-225-b,https://iiif.archive.org/image/iiif/3/gpl_706159%2Fgpl_706159_jp2.zip%2Fgpl_706159_jp2%2Fgpl_706159_0453.jp2
A29621-226-a,https://iiif.archive.org/image/iiif/3/gpl_706159%2Fgpl_706159_jp2.zip%2Fgpl_706159_jp2%2Fgpl_706159_0454.jp2
A29621-226-b,https://iiif.archive.org/image/iiif/3/gpl_706159%2Fgpl_706159_jp2.zip%2Fgpl_706159_jp2%2Fgpl_706159_0455.jp2
A29621-227-a,https://iiif.archive.org/image/iiif/3/gpl_706159%2Fgpl_706159_jp2.zip%2Fgpl_706159_jp2%2Fgpl_706159_0456.jp2
A29621-227-b,https://iiif.archive.org/image/iiif/3/gpl_706159%2Fgpl_706159_jp2.zip%2Fgpl_706159_jp2%2Fgpl_706159_0457.jp2
A29621-228-a,https://iiif.archive.org/image/iiif/3/gpl_706159%2Fgpl_706159_jp2.zip%2Fgpl_706159_jp2%2Fgpl_706159_0458.jp2
A29621-228-b,https://iiif.archive.org/image/iiif/3/gpl_706159%2Fgpl_706159_jp2.zip%2Fgpl_706159_jp2%2Fgpl_706159_0459.jp2
A29621-229-a,https://iiif.archive.org/image/iiif/3/gpl_706159%2Fgpl_706159_jp2.zip%2Fgpl_706159_jp2%2Fgpl_706159_0460.jp2
A29621-229-b,https://iiif.archive.org/image/iiif/3/gpl_706159%2Fgpl_706159_jp2.zip%2Fgpl_706159_jp2%2Fgpl_706159_0461.jp2
A29621-230-a,https://iiif.archive.org/image/iiif/3/gpl_706159%2Fgpl_706159_jp2.zip%2Fgpl_706159_jp2%2Fgpl_706159_0462.jp2
A29621-230-b,https://iiif.archive.org/image/iiif/3/gpl_706159%2Fgpl_706159_jp2.zip%2Fgpl_706159_jp2%2Fgpl_706159_0463.jp2
A29621-231-a,https://iiif.archive.org/image/iiif/3/gpl_706159%2Fgpl_706159_jp2.zip%2Fgpl_706159_jp2%2Fgpl_706159_0464.jp2
A29621-231-b,https://iiif.archive.org/image/iiif/3/gpl_706159%2Fgpl_706159_jp2.zip%2Fgpl_706159_jp2%2Fgpl_706159_0465.jp2
A29621-232-a,https://iiif.archive.org/image/iiif/3/gpl_706159%2Fgpl_706159_jp2.zip%2Fgpl_706159_jp2%2Fgpl_706159_0466.jp2
A29621-232-b,https://iiif.archive.org/image/iiif/3/gpl_706159%2Fgpl_706159_jp2.zip%2Fgpl_706159_jp2%2Fgpl_706159_0467.jp2
A29621-233-a,https://iiif.archive.org/image/iiif/3/gpl_706159%2Fgpl_706159_jp2.zip%2Fgpl_706159_jp2%2Fgpl_706159_0468.jp2
A29621-234-a,https://iiif.archive.org/image/iiif/3/gpl_706159%2Fgpl_706159_jp2.zip%2Fgpl_706159_jp2%2Fgpl_706159_0469.jp2
A29621-235-a,https://iiif.archive.org/image/iiif/3/gpl_706159%2Fgpl_706159_jp2.zip%2Fgpl_706159_jp2%2Fgpl_706159_0470.jp2
A29621-235-b,https://iiif.archive.org/image/iiif/3/gpl_706159%2Fgpl_706159_jp2.zip%2Fgpl_706159_jp2%2Fgpl_706159_0471.jp2
A29621-236-a,https://iiif.archive.org/image/iiif/3/gpl_706159%2Fgpl_706159_jp2.zip%2Fgpl_706159_jp2%2Fgpl_706159_0472.jp2
A29621-236-b,https://iiif.archive.org/image/iiif/3/gpl_706159%2Fgpl_706159_jp2.zip%2Fgpl_706159_jp2%2Fgpl_706159_0473.jp2
A29621-237-a,https://iiif.archive.org/image/iiif/3/gpl_706159%2Fgpl_706159_jp2.zip%2Fgpl_706159_jp2%2Fgpl_706159_0474.jp2
A29621-237-b,https://iiif.archive.org/image/iiif/3/gpl_706159%2Fgpl_706159_jp2.zip%2Fgpl_706159_jp2%2Fgpl_706159_0475.jp2
A29621-238-a,https://iiif.archive.org/image/iiif/3/gpl_706159%2Fgpl_706159_jp2.zip%2Fgpl_706159_jp2%2Fgpl_706159_0476.jp2
A29621-238-b,https://iiif.archive.org/image/iiif/3/gpl_706159%2Fgpl_706159_jp2.zip%2Fgpl_706159_jp2%2Fgpl_706159_0477.jp2
A29621-239-a,https://iiif.archive.org/image/iiif/3/gpl_706159%2Fgpl_706159_jp2.zip%2Fgpl_706159_jp2%2Fgpl_706159_0478.jp2
A29621-239-b,https://iiif.archive.org/image/iiif/3/gpl_706159%2Fgpl_706159_jp2.zip%2Fgpl_706159_jp2%2Fgpl_706159_0479.jp2
A29621-240-a,https://iiif.archive.org/image/iiif/3/gpl_706159%2Fgpl_706159_jp2.zip%2Fgpl_706159_jp2%2Fgpl_706159_0480.jp2
A29621-240-b,https://iiif.archive.org/image/iiif/3/gpl_706159%2Fgpl_706159_jp2.zip%2Fgpl_706159_jp2%2Fgpl_706159_0481.jp2
A29621-241-a,https://iiif.archive.org/image/iiif/3/gpl_706159%2Fgpl_706159_jp2.zip%2Fgpl_706159_jp2%2Fgpl_706159_0482.jp2
A29621-241-b,https://iiif.archive.org/image/iiif/3/gpl_706159%2Fgpl_706159_jp2.zip%2Fgpl_706159_jp2%2Fgpl_706159_0483.jp2
A29621-242-a,https://iiif.archive.org/image/iiif/3/gpl_706159%2Fgpl_706159_jp2.zip%2Fgpl_706159_jp2%2Fgpl_706159_0484.jp2
A29621-242-b,https://iiif.archive.org/image/iiif/3/gpl_706159%2Fgpl_706159_jp2.zip%2Fgpl_706159_jp2%2Fgpl_706159_0485.jp2
A29621-243-a,https://iiif.archive.org/image/iiif/3/gpl_706159%2Fgpl_706159_jp2.zip%2Fgpl_706159_jp2%2Fgpl_706159_0486.jp2
A29621-243-b,https://iiif.archive.org/image/iiif/3/gpl_706159%2Fgpl_706159_jp2.zip%2Fgpl_706159_jp2%2Fgpl_706159_0487.jp2
A29621-244-a,https://iiif.archive.org/image/iiif/3/gpl_706159%2Fgpl_706159_jp2.zip%2Fgpl_706159_jp2%2Fgpl_706159_0488.jp2
A29621-244-b,https://iiif.archive.org/image/iiif/3/gpl_706159%2Fgpl_706159_jp2.zip%2Fgpl_706159_jp2%2Fgpl_706159_0489.jp2
A29621-245-a,https://iiif.archive.org/image/iiif/3/gpl_706159%2Fgpl_706159_jp2.zip%2Fgpl_706159_jp2%2Fgpl_706159_0490.jp2
A29621-245-b,https://iiif.archive.org/image/iiif/3/gpl_706159%2Fgpl_706159_jp2.zip%2Fgpl_706159_jp2%2Fgpl_706159_0491.jp2
A29621-246-a,https://iiif.archive.org/image/iiif/3/gpl_706159%2Fgpl_706159_jp2.zip%2Fgpl_706159_jp2%2Fgpl_706159_0492.jp2
A29621-246-b,https://iiif.archive.org/image/iiif/3/gpl_706159%2Fgpl_706159_jp2.zip%2Fgpl_706159_jp2%2Fgpl_706159_0493.jp2
A29621-247-a,https://iiif.archive.org/image/iiif/3/gpl_706159%2Fgpl_706159_jp2.zip%2Fgpl_706159_jp2%2Fgpl_706159_0494.jp2
A29621-247-b,https://iiif.archive.org/image/iiif/3/gpl_706159%2Fgpl_706159_jp2.zip%2Fgpl_706159_jp2%2Fgpl_706159_0495.jp2
A29621-248-a,https://iiif.archive.org/image/iiif/3/gpl_706159%2Fgpl_706159_jp2.zip%2Fgpl_706159_jp2%2Fgpl_706159_0496.jp2
A29621-248-b,https://iiif.archive.org/image/iiif/3/gpl_706159%2Fgpl_706159_jp2.zip%2Fgpl_706159_jp2%2Fgpl_706159_0497.jp2
A29621-249-a,https://iiif.archive.org/image/iiif/3/gpl_706159%2Fgpl_706159_jp2.zip%2Fgpl_706159_jp2%2Fgpl_706159_0498.jp2
A29621-249-b,https://iiif.archive.org/image/iiif/3/gpl_706159%2Fgpl_706159_jp2.zip%2Fgpl_706159_jp2%2Fgpl_706159_0499.jp2
A29621-250-a,https://iiif.archive.org/image/iiif/3/gpl_706159%2Fgpl_706159_jp2.zip%2Fgpl_706159_jp2%2Fgpl_706159_0500.jp2
A29621-250-b,https://iiif.archive.org/image/iiif/3/gpl_706159%2Fgpl_706159_jp2.zip%2Fgpl_706159_jp2%2Fgpl_706159_0501.jp2
A29621-251-a,https://iiif.archive.org/image/iiif/3/gpl_706159%2Fgpl_706159_jp2.zip%2Fgpl_706159_jp2%2Fgpl_706159_0502.jp2
A29621-251-b,https://iiif.archive.org/image/iiif/3/gpl_706159%2Fgpl_706159_jp2.zip%2Fgpl_706159_jp2%2Fgpl_706159_0503.jp2
A29621-252-a,https://iiif.archive.org/image/iiif/3/gpl_706159%2Fgpl_706159_jp2.zip%2Fgpl_706159_jp2%2Fgpl_706159_0504.jp2
A29621-252-b,https://iiif.archive.org/image/iiif/3/gpl_706159%2Fgpl_706159_jp2.zip%2Fgpl_706159_jp2%2Fgpl_706159_0505.jp2
A29621-253-a,https://iiif.archive.org/image/iiif/3/gpl_706159%2Fgpl_706159_jp2.zip%2Fgpl_706159_jp2%2Fgpl_706159_0506.jp2
A29621-253-b,https://iiif.archive.org/image/iiif/3/gpl_706159%2Fgpl_706159_jp2.zip%2Fgpl_706159_jp2%2Fgpl_706159_0507.jp2
A29621-254-a,https://iiif.archive.org/image/iiif/3/gpl_706159%2Fgpl_706159_jp2.zip%2Fgpl_706159_jp2%2Fgpl_706159_0508.jp2
A29621-254-b,https://iiif.archive.org/image/iiif/3/gpl_706159%2Fgpl_706159_jp2.zip%2Fgpl_706159_jp2%2Fgpl_706159_0509.jp2
A29621-255-a,https://iiif.archive.org/image/iiif/3/gpl_706159%2Fgpl_706159_jp2.zip%2Fgpl_706159_jp2%2Fgpl_706159_0510.jp2
A29621-255-b,https://iiif.archive.org/image/iiif/3/gpl_706159%2Fgpl_706159_jp2.zip%2Fgpl_706159_jp2%2Fgpl_706159_0511.jp2
A29621-256-a,https://iiif.archive.org/image/iiif/3/gpl_706159%2Fgpl_706159_jp2.zip%2Fgpl_706159_jp2%2Fgpl_706159_0512.jp2
A29621-256-b,https://iiif.archive.org/image/iiif/3/gpl_706159%2Fgpl_706159_jp2.zip%2Fgpl_706159_jp2%2Fgpl_706159_0513.jp2
A29621-257-a,https://iiif.archive.org/image/iiif/3/gpl_706159%2Fgpl_706159_jp2.zip%2Fgpl_706159_jp2%2Fgpl_706159_0514.jp2
A29621-257-b,https://iiif.archive.org/image/iiif/3/gpl_706159%2Fgpl_706159_jp2.zip%2Fgpl_706159_jp2%2Fgpl_706159_0515.jp2
A29621-258-a,https://iiif.archive.org/image/iiif/3/gpl_706159%2Fgpl_706159_jp2.zip%2Fgpl_706159_jp2%2Fgpl_706159_0516.jp2
A29621-258-b,https://iiif.archive.org/image/iiif/3/gpl_706159%2Fgpl_706159_jp2.zip%2Fgpl_706159_jp2%2Fgpl_706159_0517.jp2
A29621-259-a,https://iiif.archive.org/image/iiif/3/gpl_706159%2Fgpl_706159_jp2.zip%2Fgpl_706159_jp2%2Fgpl_706159_0518.jp2
A29621-259-b,https://iiif.archive.org/image/iiif/3/gpl_706159%2Fgpl_706159_jp2.zip%2Fgpl_706159_jp2%2Fgpl_706159_0519.jp2
A29621-260-a,https://iiif.archive.org/image/iiif/3/gpl_706159%2Fgpl_706159_jp2.zip%2Fgpl_706159_jp2%2Fgpl_706159_0520.jp2
A29621-260-b,https://iiif.archive.org/image/iiif/3/gpl_706159%2Fgpl_706159_jp2.zip%2Fgpl_706159_jp2%2Fgpl_706159_0521.jp2
A29621-261-a,https://iiif.archive.org/image/iiif/3/gpl_706159%2Fgpl_706159_jp2.zip%2Fgpl_706159_jp2%2Fgpl_706159_0522.jp2
A29621-261-b,https://iiif.archive.org/image/iiif/3/gpl_706159%2Fgpl_706159_jp2.zip%2Fgpl_706159_jp2%2Fgpl_706159_0523.jp2
A29621-262-a,https://iiif.archive.org/image/iiif/3/gpl_706159%2Fgpl_706159_jp2.zip%2Fgpl_706159_jp2%2Fgpl_706159_0524.jp2
A29621-262-b,https://iiif.archive.org/image/iiif/3/gpl_706159%2Fgpl_706159_jp2.zip%2Fgpl_706159_jp2%2Fgpl_706159_0525.jp2
A29621-263-a,https://iiif.archive.org/image/iiif/3/gpl_706159%2Fgpl_706159_jp2.zip%2Fgpl_706159_jp2%2Fgpl_706159_0526.jp2
A29621-263-b,https://iiif.archive.org/image/iiif/3/gpl_706159%2Fgpl_706159_jp2.zip%2Fgpl_706159_jp2%2Fgpl_706159_0527.jp2
A29621-264-a,https://iiif.archive.org/image/iiif/3/gpl_706159%2Fgpl_706159_jp2.zip%2Fgpl_706159_jp2%2Fgpl_706159_0528.jp2
A29621-264-b,https://iiif.archive.org/image/iiif/3/gpl_706159%2Fgpl_706159_jp2.zip%2Fgpl_706159_jp2%2Fgpl_706159_0529.jp2
A29621-265-a,https://iiif.archive.org/image/iiif/3/gpl_706159%2Fgpl_706159_jp2.zip%2Fgpl_706159_jp2%2Fgpl_706159_0530.jp2
A29621-265-b,https://iiif.archive.org/image/iiif/3/gpl_706159%2Fgpl_706159_jp2.zip%2Fgpl_706159_jp2%2Fgpl_706159_0531.jp2
A29621-266-a,https://iiif.archive.org/image/iiif/3/gpl_706159%2Fgpl_706159_jp2.zip%2Fgpl_706159_jp2%2Fgpl_706159_0532.jp2
A29621-266-b,https://iiif.archive.org/image/iiif/3/gpl_706159%2Fgpl_706159_jp2.zip%2Fgpl_706159_jp2%2Fgpl_706159_0533.jp2
A29621-267-a,https://iiif.archive.org/image/iiif/3/gpl_706159%2Fgpl_706159_jp2.zip%2Fgpl_706159_jp2%2Fgpl_706159_0534.jp2
A29621-267-b,https://iiif.archive.org/image/iiif/3/gpl_706159%2Fgpl_706159_jp2.zip%2Fgpl_706159_jp2%2Fgpl_706159_0535.jp2
A29621-268-a,https://iiif.archive.org/image/iiif/3/gpl_706159%2Fgpl_706159_jp2.zip%2Fgpl_706159_jp2%2Fgpl_706159_0536.jp2
A29621-268-b,https://iiif.archive.org/image/iiif/3/gpl_706159%2Fgpl_706159_jp2.zip%2Fgpl_706159_jp2%2Fgpl_706159_0537.jp2
A29621-269-a,https://iiif.archive.org/image/iiif/3/gpl_706159%2Fgpl_706159_jp2.zip%2Fgpl_706159_jp2%2Fgpl_706159_0538.jp2
A29621-269-b,https://iiif.archive.org/image/iiif/3/gpl_706159%2Fgpl_706159_jp2.zip%2Fgpl_706159_jp2%2Fgpl_706159_0539.jp2
A29621-270-a,https://iiif.archive.org/image/iiif/3/gpl_706159%2Fgpl_706159_jp2.zip%2Fgpl_706159_jp2%2Fgpl_706159_0540.jp2
A29621-270-b,https://iiif.archive.org/image/iiif/3/gpl_706159%2Fgpl_706159_jp2.zip%2Fgpl_706159_jp2%2Fgpl_706159_0541.jp2
A29621-271-a,9999
A29621-271-b,9999
A29621-272-a,https://iiif.archive.org/image/iiif/3/gpl_706159%2Fgpl_706159_jp2.zip%2Fgpl_706159_jp2%2Fgpl_706159_0542.jp2
A29621-272-b,https://iiif.archive.org/image/iiif/3/gpl_706159%2Fgpl_706159_jp2.zip%2Fgpl_706159_jp2%2Fgpl_706159_0543.jp2
A29621-273-a,https://iiif.archive.org/image/iiif/3/gpl_706159%2Fgpl_706159_jp2.zip%2Fgpl_706159_jp2%2Fgpl_706159_0544.jp2
A29621-273-b,https://iiif.archive.org/image/iiif/3/gpl_706159%2Fgpl_706159_jp2.zip%2Fgpl_706159_jp2%2Fgpl_706159_0545.jp2
A29621-274-a,https://iiif.archive.org/image/iiif/3/gpl_706159%2Fgpl_706159_jp2.zip%2Fgpl_706159_jp2%2Fgpl_706159_0546.jp2
A29621-274-b,https://iiif.archive.org/image/iiif/3/gpl_706159%2Fgpl_706159_jp2.zip%2Fgpl_706159_jp2%2Fgpl_706159_0547.jp2
A29621-275-a,https://iiif.archive.org/image/iiif/3/gpl_706159%2Fgpl_706159_jp2.zip%2Fgpl_706159_jp2%2Fgpl_706159_0548.jp2
A29621-275-b,https://iiif.archive.org/image/iiif/3/gpl_706159%2Fgpl_706159_jp2.zip%2Fgpl_706159_jp2%2Fgpl_706159_0549.jp2
A29621-276-a,https://iiif.archive.org/image/iiif/3/gpl_706159%2Fgpl_706159_jp2.zip%2Fgpl_706159_jp2%2Fgpl_706159_0550.jp2
A29621-276-b,https://iiif.archive.org/image/iiif/3/gpl_706159%2Fgpl_706159_jp2.zip%2Fgpl_706159_jp2%2Fgpl_706159_0551.jp2
A29621-277-a,https://iiif.archive.org/image/iiif/3/gpl_706159%2Fgpl_706159_jp2.zip%2Fgpl_706159_jp2%2Fgpl_706159_0552.jp2
A29621-277-b,https://iiif.archive.org/image/iiif/3/gpl_706159%2Fgpl_706159_jp2.zip%2Fgpl_706159_jp2%2Fgpl_706159_0553.jp2
A29621-278-a,https://iiif.archive.org/image/iiif/3/gpl_706159%2Fgpl_706159_jp2.zip%2Fgpl_706159_jp2%2Fgpl_706159_0554.jp2
A29621-278-b,https://iiif.archive.org/image/iiif/3/gpl_706159%2Fgpl_706159_jp2.zip%2Fgpl_706159_jp2%2Fgpl_706159_0555.jp2
A29621-279-a,https://iiif.archive.org/image/iiif/3/gpl_706159%2Fgpl_706159_jp2.zip%2Fgpl_706159_jp2%2Fgpl_706159_0556.jp2
A29621-279-b,https://iiif.archive.org/image/iiif/3/gpl_706159%2Fgpl_706159_jp2.zip%2Fgpl_706159_jp2%2Fgpl_706159_0557.jp2
A29621-280-a,https://iiif.archive.org/image/iiif/3/gpl_706159%2Fgpl_706159_jp2.zip%2Fgpl_706159_jp2%2Fgpl_706159_0558.jp2
A29621-280-b,https://iiif.archive.org/image/iiif/3/gpl_706159%2Fgpl_706159_jp2.zip%2Fgpl_706159_jp2%2Fgpl_706159_0559.jp2
A29621-281-a,https://iiif.archive.org/image/iiif/3/gpl_706159%2Fgpl_706159_jp2.zip%2Fgpl_706159_jp2%2Fgpl_706159_0560.jp2
A29621-281-b,https://iiif.archive.org/image/iiif/3/gpl_706159%2Fgpl_706159_jp2.zip%2Fgpl_706159_jp2%2Fgpl_706159_0561.jp2
A29621-282-a,https://iiif.archive.org/image/iiif/3/gpl_706159%2Fgpl_706159_jp2.zip%2Fgpl_706159_jp2%2Fgpl_706159_0562.jp2
A29621-282-b,https://iiif.archive.org/image/iiif/3/gpl_706159%2Fgpl_706159_jp2.zip%2Fgpl_706159_jp2%2Fgpl_706159_0563.jp2
A29621-283-a,https://iiif.archive.org/image/iiif/3/gpl_706159%2Fgpl_706159_jp2.zip%2Fgpl_706159_jp2%2Fgpl_706159_0564.jp2
A29621-283-b,https://iiif.archive.org/image/iiif/3/gpl_706159%2Fgpl_706159_jp2.zip%2Fgpl_706159_jp2%2Fgpl_706159_0565.jp2
A29621-284-a,https://iiif.archive.org/image/iiif/3/gpl_706159%2Fgpl_706159_jp2.zip%2Fgpl_706159_jp2%2Fgpl_706159_0566.jp2
A29621-284-b,https://iiif.archive.org/image/iiif/3/gpl_706159%2Fgpl_706159_jp2.zip%2Fgpl_706159_jp2%2Fgpl_706159_0567.jp2
A29621-285-a,https://iiif.archive.org/image/iiif/3/gpl_706159%2Fgpl_706159_jp2.zip%2Fgpl_706159_jp2%2Fgpl_706159_0568.jp2
A29621-285-b,https://iiif.archive.org/image/iiif/3/gpl_706159%2Fgpl_706159_jp2.zip%2Fgpl_706159_jp2%2Fgpl_706159_0569.jp2
A29621-286-a,https://iiif.archive.org/image/iiif/3/gpl_706159%2Fgpl_706159_jp2.zip%2Fgpl_706159_jp2%2Fgpl_706159_0570.jp2
A29621-286-b,https://iiif.archive.org/image/iiif/3/gpl_706159%2Fgpl_706159_jp2.zip%2Fgpl_706159_jp2%2Fgpl_706159_0571.jp2
A29621-287-a,https://iiif.archive.org/image/iiif/3/gpl_706159%2Fgpl_706159_jp2.zip%2Fgpl_706159_jp2%2Fgpl_706159_0572.jp2
A29621-287-b,https://iiif.archive.org/image/iiif/3/gpl_706159%2Fgpl_706159_jp2.zip%2Fgpl_706159_jp2%2Fgpl_706159_0573.jp2
A29621-288-a,https://iiif.archive.org/image/iiif/3/gpl_706159%2Fgpl_706159_jp2.zip%2Fgpl_706159_jp2%2Fgpl_706159_0574.jp2
A29621-288-b,https://iiif.archive.org/image/iiif/3/gpl_706159%2Fgpl_706159_jp2.zip%2Fgpl_706159_jp2%2Fgpl_706159_0575.jp2
A29621-289-a,https://iiif.archive.org/image/iiif/3/gpl_706159%2Fgpl_706159_jp2.zip%2Fgpl_706159_jp2%2Fgpl_706159_0576.jp2
A29621-289-b,https://iiif.archive.org/image/iiif/3/gpl_706159%2Fgpl_706159_jp2.zip%2Fgpl_706159_jp2%2Fgpl_706159_0577.jp2
A29621-290-a,https://iiif.archive.org/image/iiif/3/gpl_706159%2Fgpl_706159_jp2.zip%2Fgpl_706159_jp2%2Fgpl_706159_0578.jp2
A29621-290-b,https://iiif.archive.org/image/iiif/3/gpl_706159%2Fgpl_706159_jp2.zip%2Fgpl_706159_jp2%2Fgpl_706159_0579.jp2
A29621-291-a,https://iiif.archive.org/image/iiif/3/gpl_706159%2Fgpl_706159_jp2.zip%2Fgpl_706159_jp2%2Fgpl_706159_0580.jp2
A29621-291-b,https://iiif.archive.org/image/iiif/3/gpl_706159%2Fgpl_706159_jp2.zip%2Fgpl_706159_jp2%2Fgpl_706159_0581.jp2
A29621-292-a,https://iiif.archive.org/image/iiif/3/gpl_706159%2Fgpl_706159_jp2.zip%2Fgpl_706159_jp2%2Fgpl_706159_0582.jp2
A29621-292-b,https://iiif.archive.org/image/iiif/3/gpl_706159%2Fgpl_706159_jp2.zip%2Fgpl_706159_jp2%2Fgpl_706159_0583.jp2
A29621-293-a,https://iiif.archive.org/image/iiif/3/gpl_706159%2Fgpl_706159_jp2.zip%2Fgpl_706159_jp2%2Fgpl_706159_0584.jp2
A29621-293-b,https://iiif.archive.org/image/iiif/3/gpl_706159%2Fgpl_706159_jp2.zip%2Fgpl_706159_jp2%2Fgpl_706159_0585.jp2
A29621-294-a,https://iiif.archive.org/image/iiif/3/gpl_706159%2Fgpl_706159_jp2.zip%2Fgpl_706159_jp2%2Fgpl_706159_0586.jp2
A29621-294-b,https://iiif.archive.org/image/iiif/3/gpl_706159%2Fgpl_706159_jp2.zip%2Fgpl_706159_jp2%2Fgpl_706159_0587.jp2
