A31652-001-b,https://iiif.archive.org/iiif/ideaofperfection00frea_0$11
A31652-002-b,https://iiif.archive.org/iiif/ideaofperfection00frea_0$13
A31652-003-a,https://iiif.archive.org/iiif/ideaofperfection00frea_0$14
A31652-003-b,https://iiif.archive.org/iiif/ideaofperfection00frea_0$15
A31652-004-a,https://iiif.archive.org/iiif/ideaofperfection00frea_0$16
A31652-004-b,https://iiif.archive.org/iiif/ideaofperfection00frea_0$17
A31652-005-a,https://iiif.archive.org/iiif/ideaofperfection00frea_0$18
A31652-005-b,https://iiif.archive.org/iiif/ideaofperfection00frea_0$19
A31652-006-a,https://iiif.archive.org/iiif/ideaofperfection00frea_0$20
A31652-006-b,https://iiif.archive.org/iiif/ideaofperfection00frea_0$21
A31652-007-a,https://iiif.archive.org/iiif/ideaofperfection00frea_0$22
A31652-007-b,https://iiif.archive.org/iiif/ideaofperfection00frea_0$23
A31652-008-a,https://iiif.archive.org/iiif/ideaofperfection00frea_0$24
A31652-008-b,https://iiif.archive.org/iiif/ideaofperfection00frea_0$25
A31652-009-a,https://iiif.archive.org/iiif/ideaofperfection00frea_0$26
A31652-009-b,https://iiif.archive.org/iiif/ideaofperfection00frea_0$27
A31652-010-a,https://iiif.archive.org/iiif/ideaofperfection00frea_0$28
A31652-010-b,https://iiif.archive.org/iiif/ideaofperfection00frea_0$29
A31652-011-a,https://iiif.archive.org/iiif/ideaofperfection00frea_0$30
A31652-011-b,https://iiif.archive.org/iiif/ideaofperfection00frea_0$31
A31652-012-a,https://iiif.archive.org/iiif/ideaofperfection00frea_0$32
A31652-012-b,https://iiif.archive.org/iiif/ideaofperfection00frea_0$33
A31652-013-a,https://iiif.archive.org/iiif/ideaofperfection00frea_0$34
A31652-013-b,https://iiif.archive.org/iiif/ideaofperfection00frea_0$35
A31652-014-a,https://iiif.archive.org/iiif/ideaofperfection00frea_0$36
A31652-014-b,https://iiif.archive.org/iiif/ideaofperfection00frea_0$37
A31652-015-a,https://iiif.archive.org/iiif/ideaofperfection00frea_0$38
A31652-015-b,https://iiif.archive.org/iiif/ideaofperfection00frea_0$39
A31652-016-a,https://iiif.archive.org/iiif/ideaofperfection00frea_0$40
A31652-016-b,https://iiif.archive.org/iiif/ideaofperfection00frea_0$41
A31652-017-a,https://iiif.archive.org/iiif/ideaofperfection00frea_0$42
A31652-017-b,https://iiif.archive.org/iiif/ideaofperfection00frea_0$43
A31652-018-a,https://iiif.archive.org/iiif/ideaofperfection00frea_0$44
A31652-018-b,https://iiif.archive.org/iiif/ideaofperfection00frea_0$45
A31652-019-a,https://iiif.archive.org/iiif/ideaofperfection00frea_0$46
A31652-019-b,https://iiif.archive.org/iiif/ideaofperfection00frea_0$47
A31652-020-a,https://iiif.archive.org/iiif/ideaofperfection00frea_0$48
A31652-020-b,https://iiif.archive.org/iiif/ideaofperfection00frea_0$49
A31652-021-a,https://iiif.archive.org/iiif/ideaofperfection00frea_0$50
A31652-021-b,https://iiif.archive.org/iiif/ideaofperfection00frea_0$51
A31652-022-a,https://iiif.archive.org/iiif/ideaofperfection00frea_0$52
A31652-022-b,https://iiif.archive.org/iiif/ideaofperfection00frea_0$53
A31652-023-a,https://iiif.archive.org/iiif/ideaofperfection00frea_0$54
A31652-023-b,https://iiif.archive.org/iiif/ideaofperfection00frea_0$55
A31652-024-a,https://iiif.archive.org/iiif/ideaofperfection00frea_0$56
A31652-024-b,https://iiif.archive.org/iiif/ideaofperfection00frea_0$57
A31652-025-a,https://iiif.archive.org/iiif/ideaofperfection00frea_0$58
A31652-025-b,https://iiif.archive.org/iiif/ideaofperfection00frea_0$59
A31652-026-a,https://iiif.archive.org/iiif/ideaofperfection00frea_0$60
A31652-026-b,https://iiif.archive.org/iiif/ideaofperfection00frea_0$61
A31652-027-a,https://iiif.archive.org/iiif/ideaofperfection00frea_0$62
A31652-027-b,https://iiif.archive.org/iiif/ideaofperfection00frea_0$63
A31652-028-a,https://iiif.archive.org/iiif/ideaofperfection00frea_0$64
A31652-028-b,https://iiif.archive.org/iiif/ideaofperfection00frea_0$65
A31652-029-a,https://iiif.archive.org/iiif/ideaofperfection00frea_0$66
A31652-029-b,https://iiif.archive.org/iiif/ideaofperfection00frea_0$67
A31652-030-a,https://iiif.archive.org/iiif/ideaofperfection00frea_0$68
A31652-030-b,https://iiif.archive.org/iiif/ideaofperfection00frea_0$69
A31652-031-a,https://iiif.archive.org/iiif/ideaofperfection00frea_0$70
A31652-031-b,https://iiif.archive.org/iiif/ideaofperfection00frea_0$71
A31652-032-a,https://iiif.archive.org/iiif/ideaofperfection00frea_0$72
A31652-032-b,https://iiif.archive.org/iiif/ideaofperfection00frea_0$73
A31652-033-a,https://iiif.archive.org/iiif/ideaofperfection00frea_0$74
A31652-033-b,https://iiif.archive.org/iiif/ideaofperfection00frea_0$75
A31652-034-a,https://iiif.archive.org/iiif/ideaofperfection00frea_0$76
A31652-034-b,https://iiif.archive.org/iiif/ideaofperfection00frea_0$77
A31652-035-a,https://iiif.archive.org/iiif/ideaofperfection00frea_0$78
A31652-035-b,https://iiif.archive.org/iiif/ideaofperfection00frea_0$79
A31652-036-a,https://iiif.archive.org/iiif/ideaofperfection00frea_0$80
A31652-036-b,https://iiif.archive.org/iiif/ideaofperfection00frea_0$81
A31652-037-a,https://iiif.archive.org/iiif/ideaofperfection00frea_0$82
A31652-037-b,https://iiif.archive.org/iiif/ideaofperfection00frea_0$83
A31652-038-a,https://iiif.archive.org/iiif/ideaofperfection00frea_0$84
A31652-038-b,https://iiif.archive.org/iiif/ideaofperfection00frea_0$85
A31652-039-a,https://iiif.archive.org/iiif/ideaofperfection00frea_0$86
A31652-039-b,https://iiif.archive.org/iiif/ideaofperfection00frea_0$87
A31652-040-a,https://iiif.archive.org/iiif/ideaofperfection00frea_0$88
A31652-040-b,https://iiif.archive.org/iiif/ideaofperfection00frea_0$89
A31652-041-a,https://iiif.archive.org/iiif/ideaofperfection00frea_0$90
A31652-041-b,https://iiif.archive.org/iiif/ideaofperfection00frea_0$91
A31652-042-a,https://iiif.archive.org/iiif/ideaofperfection00frea_0$92
A31652-042-b,https://iiif.archive.org/iiif/ideaofperfection00frea_0$93
A31652-043-a,https://iiif.archive.org/iiif/ideaofperfection00frea_0$94
A31652-043-b,https://iiif.archive.org/iiif/ideaofperfection00frea_0$95
A31652-044-a,https://iiif.archive.org/iiif/ideaofperfection00frea_0$96
A31652-044-b,https://iiif.archive.org/iiif/ideaofperfection00frea_0$97
A31652-045-a,https://iiif.archive.org/iiif/ideaofperfection00frea_0$98
A31652-045-b,https://iiif.archive.org/iiif/ideaofperfection00frea_0$99
A31652-046-a,https://iiif.archive.org/iiif/ideaofperfection00frea_0$100
A31652-046-b,https://iiif.archive.org/iiif/ideaofperfection00frea_0$101
A31652-047-a,https://iiif.archive.org/iiif/ideaofperfection00frea_0$102
A31652-047-b,https://iiif.archive.org/iiif/ideaofperfection00frea_0$103
A31652-048-a,https://iiif.archive.org/iiif/ideaofperfection00frea_0$104
A31652-048-b,https://iiif.archive.org/iiif/ideaofperfection00frea_0$105
A31652-049-a,https://iiif.archive.org/iiif/ideaofperfection00frea_0$106
A31652-049-b,https://iiif.archive.org/iiif/ideaofperfection00frea_0$107
A31652-050-a,https://iiif.archive.org/iiif/ideaofperfection00frea_0$108
A31652-050-b,https://iiif.archive.org/iiif/ideaofperfection00frea_0$109
A31652-052-a,https://iiif.archive.org/iiif/ideaofperfection00frea_0$110
A31652-052-b,https://iiif.archive.org/iiif/ideaofperfection00frea_0$111
A31652-053-a,https://iiif.archive.org/iiif/ideaofperfection00frea_0$112
A31652-053-b,https://iiif.archive.org/iiif/ideaofperfection00frea_0$113
A31652-054-a,https://iiif.archive.org/iiif/ideaofperfection00frea_0$114
A31652-054-b,https://iiif.archive.org/iiif/ideaofperfection00frea_0$115
A31652-055-a,https://iiif.archive.org/iiif/ideaofperfection00frea_0$116
A31652-055-b,https://iiif.archive.org/iiif/ideaofperfection00frea_0$117
A31652-056-a,https://iiif.archive.org/iiif/ideaofperfection00frea_0$118
A31652-056-b,https://iiif.archive.org/iiif/ideaofperfection00frea_0$119
A31652-057-a,https://iiif.archive.org/iiif/ideaofperfection00frea_0$120
A31652-057-b,https://iiif.archive.org/iiif/ideaofperfection00frea_0$121
A31652-058-a,https://iiif.archive.org/iiif/ideaofperfection00frea_0$122
A31652-058-b,https://iiif.archive.org/iiif/ideaofperfection00frea_0$123
A31652-059-a,https://iiif.archive.org/iiif/ideaofperfection00frea_0$124
A31652-059-b,https://iiif.archive.org/iiif/ideaofperfection00frea_0$125
A31652-060-a,https://iiif.archive.org/iiif/ideaofperfection00frea_0$126
A31652-060-b,https://iiif.archive.org/iiif/ideaofperfection00frea_0$127
A31652-061-a,https://iiif.archive.org/iiif/ideaofperfection00frea_0$128
A31652-061-b,https://iiif.archive.org/iiif/ideaofperfection00frea_0$129
A31652-062-a,https://iiif.archive.org/iiif/ideaofperfection00frea_0$130
A31652-062-b,https://iiif.archive.org/iiif/ideaofperfection00frea_0$131
A31652-063-a,https://iiif.archive.org/iiif/ideaofperfection00frea_0$132
A31652-063-b,https://iiif.archive.org/iiif/ideaofperfection00frea_0$133
A31652-064-a,https://iiif.archive.org/iiif/ideaofperfection00frea_0$134
A31652-064-b,https://iiif.archive.org/iiif/ideaofperfection00frea_0$135
A31652-065-a,https://iiif.archive.org/iiif/ideaofperfection00frea_0$136
A31652-065-b,https://iiif.archive.org/iiif/ideaofperfection00frea_0$137
A31652-066-a,https://iiif.archive.org/iiif/ideaofperfection00frea_0$138
A31652-066-b,https://iiif.archive.org/iiif/ideaofperfection00frea_0$139
A31652-067-a,https://iiif.archive.org/iiif/ideaofperfection00frea_0$140
A31652-067-b,https://iiif.archive.org/iiif/ideaofperfection00frea_0$141
A31652-068-a,https://iiif.archive.org/iiif/ideaofperfection00frea_0$142
A31652-068-b,https://iiif.archive.org/iiif/ideaofperfection00frea_0$143
A31652-069-a,https://iiif.archive.org/iiif/ideaofperfection00frea_0$144
A31652-069-b,https://iiif.archive.org/iiif/ideaofperfection00frea_0$145
A31652-070-a,https://iiif.archive.org/iiif/ideaofperfection00frea_0$146
A31652-070-b,https://iiif.archive.org/iiif/ideaofperfection00frea_0$147
A31652-071-a,https://iiif.archive.org/iiif/ideaofperfection00frea_0$148
A31652-071-b,https://iiif.archive.org/iiif/ideaofperfection00frea_0$149
A31652-072-a,https://iiif.archive.org/iiif/ideaofperfection00frea_0$150
A31652-072-b,https://iiif.archive.org/iiif/ideaofperfection00frea_0$151
A31652-073-a,https://iiif.archive.org/iiif/ideaofperfection00frea_0$152
A31652-073-b,https://iiif.archive.org/iiif/ideaofperfection00frea_0$153
A31652-074-a,https://iiif.archive.org/iiif/ideaofperfection00frea_0$154
A31652-074-b,https://iiif.archive.org/iiif/ideaofperfection00frea_0$155
A31652-075-a,https://iiif.archive.org/iiif/ideaofperfection00frea_0$156
A31652-075-b,https://iiif.archive.org/iiif/ideaofperfection00frea_0$157
A31652-076-a,https://iiif.archive.org/iiif/ideaofperfection00frea_0$158
A31652-076-b,https://iiif.archive.org/iiif/ideaofperfection00frea_0$159
A31652-077-a,https://iiif.archive.org/iiif/ideaofperfection00frea_0$160
A31652-077-b,https://iiif.archive.org/iiif/ideaofperfection00frea_0$161
A31652-078-a,https://iiif.archive.org/iiif/ideaofperfection00frea_0$162
A31652-078-b,https://iiif.archive.org/iiif/ideaofperfection00frea_0$163
A31652-079-a,https://iiif.archive.org/iiif/ideaofperfection00frea_0$164
A31652-079-b,https://iiif.archive.org/iiif/ideaofperfection00frea_0$165
A31652-080-a,https://iiif.archive.org/iiif/ideaofperfection00frea_0$166
A31652-080-b,https://iiif.archive.org/iiif/ideaofperfection00frea_0$167
A31652-081-a,https://iiif.archive.org/iiif/ideaofperfection00frea_0$168
A31652-081-b,https://iiif.archive.org/iiif/ideaofperfection00frea_0$169
A31652-082-a,https://iiif.archive.org/iiif/ideaofperfection00frea_0$170
A31652-082-b,https://iiif.archive.org/iiif/ideaofperfection00frea_0$171
A31652-083-a,https://iiif.archive.org/iiif/ideaofperfection00frea_0$172
A31652-083-b,https://iiif.archive.org/iiif/ideaofperfection00frea_0$173
A31652-084-a,https://iiif.archive.org/iiif/ideaofperfection00frea_0$174
A31652-084-b,https://iiif.archive.org/iiif/ideaofperfection00frea_0$175
A31652-085-a,https://iiif.archive.org/iiif/ideaofperfection00frea_0$176
A31652-085-b,https://iiif.archive.org/iiif/ideaofperfection00frea_0$177
A31652-086-a,https://iiif.archive.org/iiif/ideaofperfection00frea_0$178
A31652-086-b,https://iiif.archive.org/iiif/ideaofperfection00frea_0$179
A31652-087-a,https://iiif.archive.org/iiif/ideaofperfection00frea_0$180
A31652-087-b,https://iiif.archive.org/iiif/ideaofperfection00frea_0$181
A31652-088-a,https://iiif.archive.org/iiif/ideaofperfection00frea_0$182
A31652-088-b,https://iiif.archive.org/iiif/ideaofperfection00frea_0$183
A31652-089-a,https://iiif.archive.org/iiif/ideaofperfection00frea_0$184
A31652-089-b,https://iiif.archive.org/iiif/ideaofperfection00frea_0$185
A31652-090-a,https://iiif.archive.org/iiif/ideaofperfection00frea_0$186
