A33374-001-b,https://iiif.archive.org/iiif/accountofpersecu00clau$7
A33374-002-b,https://iiif.archive.org/iiif/accountofpersecu00clau$9
A33374-003-a,https://iiif.archive.org/iiif/accountofpersecu00clau$10
A33374-003-b,https://iiif.archive.org/iiif/accountofpersecu00clau$11
A33374-004-a,https://iiif.archive.org/iiif/accountofpersecu00clau$12
A33374-004-b,https://iiif.archive.org/iiif/accountofpersecu00clau$13
A33374-005-a,https://iiif.archive.org/iiif/accountofpersecu00clau$14
A33374-005-b,https://iiif.archive.org/iiif/accountofpersecu00clau$15
A33374-006-a,https://iiif.archive.org/iiif/accountofpersecu00clau$16
A33374-006-b,https://iiif.archive.org/iiif/accountofpersecu00clau$17
A33374-007-a,https://iiif.archive.org/iiif/accountofpersecu00clau$18
A33374-007-b,https://iiif.archive.org/iiif/accountofpersecu00clau$19
A33374-008-a,https://iiif.archive.org/iiif/accountofpersecu00clau$20
A33374-008-b,https://iiif.archive.org/iiif/accountofpersecu00clau$21
A33374-009-a,https://iiif.archive.org/iiif/accountofpersecu00clau$22
A33374-009-b,https://iiif.archive.org/iiif/accountofpersecu00clau$23
A33374-010-a,https://iiif.archive.org/iiif/accountofpersecu00clau$24
A33374-010-b,https://iiif.archive.org/iiif/accountofpersecu00clau$25
A33374-011-a,https://iiif.archive.org/iiif/accountofpersecu00clau$26
A33374-011-b,https://iiif.archive.org/iiif/accountofpersecu00clau$27
A33374-012-a,https://iiif.archive.org/iiif/accountofpersecu00clau$28
A33374-012-b,https://iiif.archive.org/iiif/accountofpersecu00clau$29
A33374-013-a,https://iiif.archive.org/iiif/accountofpersecu00clau$30
A33374-013-b,https://iiif.archive.org/iiif/accountofpersecu00clau$31
A33374-014-a,https://iiif.archive.org/iiif/accountofpersecu00clau$32
A33374-014-b,https://iiif.archive.org/iiif/accountofpersecu00clau$33
A33374-015-a,https://iiif.archive.org/iiif/accountofpersecu00clau$34
A33374-015-b,https://iiif.archive.org/iiif/accountofpersecu00clau$35
A33374-016-a,https://iiif.archive.org/iiif/accountofpersecu00clau$36
A33374-016-b,https://iiif.archive.org/iiif/accountofpersecu00clau$37
A33374-017-a,https://iiif.archive.org/iiif/accountofpersecu00clau$38
A33374-017-b,https://iiif.archive.org/iiif/accountofpersecu00clau$39
A33374-018-a,https://iiif.archive.org/iiif/accountofpersecu00clau$40
A33374-018-b,https://iiif.archive.org/iiif/accountofpersecu00clau$41
A33374-019-a,https://iiif.archive.org/iiif/accountofpersecu00clau$42
A33374-019-b,https://iiif.archive.org/iiif/accountofpersecu00clau$43
A33374-020-a,https://iiif.archive.org/iiif/accountofpersecu00clau$44
A33374-020-b,https://iiif.archive.org/iiif/accountofpersecu00clau$45
A33374-021-a,https://iiif.archive.org/iiif/accountofpersecu00clau$46
A33374-021-b,https://iiif.archive.org/iiif/accountofpersecu00clau$47
A33374-022-a,https://iiif.archive.org/iiif/accountofpersecu00clau$48
A33374-022-b,https://iiif.archive.org/iiif/accountofpersecu00clau$49
A33374-023-a,https://iiif.archive.org/iiif/accountofpersecu00clau$50
A33374-023-b,https://iiif.archive.org/iiif/accountofpersecu00clau$51
A33374-024-a,https://iiif.archive.org/iiif/accountofpersecu00clau$52
A33374-024-b,https://iiif.archive.org/iiif/accountofpersecu00clau$53
A33374-025-a,https://iiif.archive.org/iiif/accountofpersecu00clau$54
A33374-025-b,https://iiif.archive.org/iiif/accountofpersecu00clau$55
A33374-026-a,https://iiif.archive.org/iiif/accountofpersecu00clau$56
A33374-026-b,https://iiif.archive.org/iiif/accountofpersecu00clau$57
A33374-027-a,https://iiif.archive.org/iiif/accountofpersecu00clau$58
A33374-027-b,https://iiif.archive.org/iiif/accountofpersecu00clau$59
A33374-028-a,https://iiif.archive.org/iiif/accountofpersecu00clau$60
A33374-028-b,https://iiif.archive.org/iiif/accountofpersecu00clau$61
A33374-029-a,https://iiif.archive.org/iiif/accountofpersecu00clau$62
A33374-029-b,https://iiif.archive.org/iiif/accountofpersecu00clau$63
A33374-030-a,https://iiif.archive.org/iiif/accountofpersecu00clau$64
