A33745-001-b,https://iiif.archive.org/iiif/answertopaperimp00londuoft$07
A33745-002-b,https://iiif.archive.org/iiif/answertopaperimp00londuoft$09
A33745-003-a,https://iiif.archive.org/iiif/answertopaperimp00londuoft$10
A33745-003-b,https://iiif.archive.org/iiif/answertopaperimp00londuoft$11
A33745-004-a,https://iiif.archive.org/iiif/answertopaperimp00londuoft$12
A33745-004-b,https://iiif.archive.org/iiif/answertopaperimp00londuoft$13
A33745-005-a,https://iiif.archive.org/iiif/answertopaperimp00londuoft$14
A33745-005-b,https://iiif.archive.org/iiif/answertopaperimp00londuoft$15
A33745-006-a,https://iiif.archive.org/iiif/answertopaperimp00londuoft$16
A33745-006-b,https://iiif.archive.org/iiif/answertopaperimp00londuoft$17
A33745-007-a,https://iiif.archive.org/iiif/answertopaperimp00londuoft$18
A33745-007-b,https://iiif.archive.org/iiif/answertopaperimp00londuoft$19
A33745-008-a,https://iiif.archive.org/iiif/answertopaperimp00londuoft$20
A33745-008-b,https://iiif.archive.org/iiif/answertopaperimp00londuoft$21
A33745-009-a,https://iiif.archive.org/iiif/answertopaperimp00londuoft$22
A33745-009-b,https://iiif.archive.org/iiif/answertopaperimp00londuoft$23
A33745-010-a,https://iiif.archive.org/iiif/answertopaperimp00londuoft$24
A33745-010-b,https://iiif.archive.org/iiif/answertopaperimp00londuoft$25
A33745-011-a,https://iiif.archive.org/iiif/answertopaperimp00londuoft$26
A33745-011-b,https://iiif.archive.org/iiif/answertopaperimp00londuoft$27
A33745-012-a,https://iiif.archive.org/iiif/answertopaperimp00londuoft$28
A33745-012-b,https://iiif.archive.org/iiif/answertopaperimp00londuoft$29
A33745-013-a,https://iiif.archive.org/iiif/answertopaperimp00londuoft$32
A33745-013-b,https://iiif.archive.org/iiif/answertopaperimp00londuoft$33
A33745-014-a,https://iiif.archive.org/iiif/answertopaperimp00londuoft$34
A33745-014-b,https://iiif.archive.org/iiif/answertopaperimp00londuoft$35
A33745-015-a,https://iiif.archive.org/iiif/answertopaperimp00londuoft$36
A33745-015-b,https://iiif.archive.org/iiif/answertopaperimp00londuoft$37
A33745-016-a,https://iiif.archive.org/iiif/answertopaperimp00londuoft$40
A33745-016-b,https://iiif.archive.org/iiif/answertopaperimp00londuoft$41
A33745-017-a,https://iiif.archive.org/iiif/answertopaperimp00londuoft$42
A33745-017-b,https://iiif.archive.org/iiif/answertopaperimp00londuoft$43
