A34581-001-b,https://iiif.archive.org/iiif/nd15740341$4
A34581-002-b,https://iiif.archive.org/iiif/nd15740341$6
A34581-003-a,https://iiif.archive.org/iiif/nd15740341$7
A34581-003-b,https://iiif.archive.org/iiif/nd15740341$8
A34581-004-a,https://iiif.archive.org/iiif/nd15740341$9
A34581-004-b,https://iiif.archive.org/iiif/nd15740341$10
A34581-005-a,https://iiif.archive.org/iiif/nd15740341$11
A34581-005-b,https://iiif.archive.org/iiif/nd15740341$12
A34581-006-a,https://iiif.archive.org/iiif/nd15740341$13
A34581-006-b,https://iiif.archive.org/iiif/nd15740341$14
A34581-007-a,https://iiif.archive.org/iiif/nd15740341$15
A34581-007-b,https://iiif.archive.org/iiif/nd15740341$16
A34581-008-a,https://iiif.archive.org/iiif/nd15740341$17
A34581-008-b,https://iiif.archive.org/iiif/nd15740341$18
A34581-009-a,https://iiif.archive.org/iiif/nd15740341$19
A34581-009-b,https://iiif.archive.org/iiif/nd15740341$20
A34581-010-a,https://iiif.archive.org/iiif/nd15740341$21
A34581-010-b,https://iiif.archive.org/iiif/nd15740341$22
A34581-011-a,https://iiif.archive.org/iiif/nd15740341$23
A34581-011-b,https://iiif.archive.org/iiif/nd15740341$24
A34581-012-a,https://iiif.archive.org/iiif/nd15740341$25
A34581-012-b,https://iiif.archive.org/iiif/nd15740341$26
A34581-013-a,https://iiif.archive.org/iiif/nd15740341$27
A34581-013-b,https://iiif.archive.org/iiif/nd15740341$28
A34581-014-a,https://iiif.archive.org/iiif/nd15740341$29
A34581-014-b,https://iiif.archive.org/iiif/nd15740341$30
A34581-015-a,https://iiif.archive.org/iiif/nd15740341$31
A34581-015-b,https://iiif.archive.org/iiif/nd15740341$32
A34581-016-a,https://iiif.archive.org/iiif/nd15740341$33
A34581-016-b,https://iiif.archive.org/iiif/nd15740341$34
A34581-017-a,https://iiif.archive.org/iiif/nd15740341$35
A34581-017-b,https://iiif.archive.org/iiif/nd15740341$36
A34581-018-a,https://iiif.archive.org/iiif/nd15740341$37
A34581-018-b,https://iiif.archive.org/iiif/nd15740341$38
A34581-019-a,https://iiif.archive.org/iiif/nd15740341$39
A34581-019-b,https://iiif.archive.org/iiif/nd15740341$40
A34581-020-a,https://iiif.archive.org/iiif/nd15740341$41
A34581-020-b,https://iiif.archive.org/iiif/nd15740341$42
A34581-021-a,https://iiif.archive.org/iiif/nd15740341$43
A34581-021-b,https://iiif.archive.org/iiif/nd15740341$44
A34581-022-a,https://iiif.archive.org/iiif/nd15740341$45
A34581-022-b,https://iiif.archive.org/iiif/nd15740341$46
A34581-023-a,https://iiif.archive.org/iiif/nd15740341$47
A34581-023-b,https://iiif.archive.org/iiif/nd15740341$48
A34581-024-a,https://iiif.archive.org/iiif/nd15740341$49
A34581-024-b,https://iiif.archive.org/iiif/nd15740341$50
A34581-025-a,https://iiif.archive.org/iiif/nd15740341$51
A34581-025-b,https://iiif.archive.org/iiif/nd15740341$52
A34581-026-a,https://iiif.archive.org/iiif/nd15740341$53
A34581-026-b,https://iiif.archive.org/iiif/nd15740341$54
A34581-027-a,https://iiif.archive.org/iiif/nd15740341$55
A34581-027-b,https://iiif.archive.org/iiif/nd15740341$56
A34581-028-a,https://iiif.archive.org/iiif/nd15740341$57
A34581-028-b,https://iiif.archive.org/iiif/nd15740341$58
A34581-029-a,https://iiif.archive.org/iiif/nd15740341$59
A34581-029-b,https://iiif.archive.org/iiif/nd15740341$60
A34581-030-a,https://iiif.archive.org/iiif/nd15740341$61
A34581-030-b,https://iiif.archive.org/iiif/nd15740341$62
A34581-031-a,https://iiif.archive.org/iiif/nd15740341$63
A34581-031-b,https://iiif.archive.org/iiif/nd15740341$9999
A34581-032-a,https://iiif.archive.org/iiif/nd15740341$9999
A34581-032-b,https://iiif.archive.org/iiif/nd15740341$9999
A34581-033-a,https://iiif.archive.org/iiif/nd15740341$9999
A34581-033-b,https://iiif.archive.org/iiif/nd15740341$9999
A34581-034-a,https://iiif.archive.org/iiif/nd15740341$9999
A34581-034-b,https://iiif.archive.org/iiif/nd15740341$9999
A34581-035-a,https://iiif.archive.org/iiif/nd15740341$9999
A34581-035-b,https://iiif.archive.org/iiif/nd15740341$9999
A34581-036-a,https://iiif.archive.org/iiif/nd15740341$9999
A34581-036-b,https://iiif.archive.org/iiif/nd15740341$9999
A34581-037-a,https://iiif.archive.org/iiif/nd15740341$9999
A34581-037-b,https://iiif.archive.org/iiif/nd15740341$9999
A34581-038-a,https://iiif.archive.org/iiif/nd15740341$9999
A34581-038-b,https://iiif.archive.org/iiif/nd15740341$9999
A34581-039-a,https://iiif.archive.org/iiif/nd15740341$9999
