A34582-001-b,https://iiif.archive.org/iiif//polyeuctesormart00corn$7
A34582-002-b,https://iiif.archive.org/iiif//polyeuctesormart00corn$9
A34582-003-a,https://iiif.archive.org/iiif//polyeuctesormart00corn$10
A34582-003-b,https://iiif.archive.org/iiif//polyeuctesormart00corn$11
A34582-004-a,https://iiif.archive.org/iiif//polyeuctesormart00corn$12
A34582-005-a,https://iiif.archive.org/iiif//polyeuctesormart00corn$14
A34582-005-b,https://iiif.archive.org/iiif//polyeuctesormart00corn$15
A34582-006-a,https://iiif.archive.org/iiif//polyeuctesormart00corn$16
A34582-006-b,https://iiif.archive.org/iiif//polyeuctesormart00corn$17
A34582-007-a,https://iiif.archive.org/iiif//polyeuctesormart00corn$18
A34582-007-b,https://iiif.archive.org/iiif//polyeuctesormart00corn$19
A34582-008-a,https://iiif.archive.org/iiif//polyeuctesormart00corn$20
A34582-008-b,https://iiif.archive.org/iiif//polyeuctesormart00corn$21
A34582-009-a,https://iiif.archive.org/iiif//polyeuctesormart00corn$22
A34582-009-b,https://iiif.archive.org/iiif//polyeuctesormart00corn$23
A34582-010-a,https://iiif.archive.org/iiif//polyeuctesormart00corn$24
A34582-010-b,https://iiif.archive.org/iiif//polyeuctesormart00corn$25
A34582-011-a,https://iiif.archive.org/iiif//polyeuctesormart00corn$26
A34582-011-b,https://iiif.archive.org/iiif//polyeuctesormart00corn$27
A34582-012-a,https://iiif.archive.org/iiif//polyeuctesormart00corn$28
A34582-012-b,https://iiif.archive.org/iiif//polyeuctesormart00corn$29
A34582-013-a,https://iiif.archive.org/iiif//polyeuctesormart00corn$30
A34582-013-b,https://iiif.archive.org/iiif//polyeuctesormart00corn$31
A34582-014-a,https://iiif.archive.org/iiif//polyeuctesormart00corn$32
A34582-014-b,https://iiif.archive.org/iiif//polyeuctesormart00corn$33
A34582-015-a,https://iiif.archive.org/iiif//polyeuctesormart00corn$34
A34582-015-b,https://iiif.archive.org/iiif//polyeuctesormart00corn$35
A34582-016-a,https://iiif.archive.org/iiif//polyeuctesormart00corn$36
A34582-016-b,https://iiif.archive.org/iiif//polyeuctesormart00corn$37
A34582-017-a,https://iiif.archive.org/iiif//polyeuctesormart00corn$38
A34582-017-b,https://iiif.archive.org/iiif//polyeuctesormart00corn$39
A34582-018-a,https://iiif.archive.org/iiif//polyeuctesormart00corn$40
A34582-018-b,https://iiif.archive.org/iiif//polyeuctesormart00corn$41
A34582-019-a,https://iiif.archive.org/iiif//polyeuctesormart00corn$42
A34582-019-b,https://iiif.archive.org/iiif//polyeuctesormart00corn$43
A34582-020-a,https://iiif.archive.org/iiif//polyeuctesormart00corn$44
A34582-020-b,https://iiif.archive.org/iiif//polyeuctesormart00corn$45
A34582-021-a,https://iiif.archive.org/iiif//polyeuctesormart00corn$46
A34582-021-b,https://iiif.archive.org/iiif//polyeuctesormart00corn$47
A34582-022-a,https://iiif.archive.org/iiif//polyeuctesormart00corn$48
A34582-022-b,https://iiif.archive.org/iiif//polyeuctesormart00corn$49
A34582-024-a,https://iiif.archive.org/iiif//polyeuctesormart00corn$50
A34582-024-b,https://iiif.archive.org/iiif//polyeuctesormart00corn$51
A34582-025-a,https://iiif.archive.org/iiif//polyeuctesormart00corn$52
A34582-025-b,https://iiif.archive.org/iiif//polyeuctesormart00corn$53
A34582-026-a,https://iiif.archive.org/iiif//polyeuctesormart00corn$54
A34582-026-b,https://iiif.archive.org/iiif//polyeuctesormart00corn$55
A34582-027-a,https://iiif.archive.org/iiif//polyeuctesormart00corn$56
A34582-027-b,https://iiif.archive.org/iiif//polyeuctesormart00corn$57
A34582-028-a,https://iiif.archive.org/iiif//polyeuctesormart00corn$58
A34582-028-b,https://iiif.archive.org/iiif//polyeuctesormart00corn$59
A34582-029-a,https://iiif.archive.org/iiif//polyeuctesormart00corn$60
A34582-029-b,https://iiif.archive.org/iiif//polyeuctesormart00corn$61
A34582-030-a,https://iiif.archive.org/iiif//polyeuctesormart00corn$62
A34582-030-b,https://iiif.archive.org/iiif//polyeuctesormart00corn$63
A34582-031-a,https://iiif.archive.org/iiif//polyeuctesormart00corn$64
A34582-031-b,https://iiif.archive.org/iiif//polyeuctesormart00corn$65
A34582-032-a,https://iiif.archive.org/iiif//polyeuctesormart00corn$66
A34582-032-b,https://iiif.archive.org/iiif//polyeuctesormart00corn$67
A34582-033-a,https://iiif.archive.org/iiif//polyeuctesormart00corn$68
A34582-033-b,https://iiif.archive.org/iiif//polyeuctesormart00corn$69
A34582-034-a,https://iiif.archive.org/iiif//polyeuctesormart00corn$70
A34582-034-b,https://iiif.archive.org/iiif//polyeuctesormart00corn$71
A34582-035-a,https://iiif.archive.org/iiif//polyeuctesormart00corn$72
A34582-035-b,https://iiif.archive.org/iiif//polyeuctesormart00corn$73
