A35565-001-b,https://iiif.archive.org/iiif/treatiseconcerni00casa$7
A35565-002-b,https://iiif.archive.org/iiif/treatiseconcerni00casa$9
A35565-003-a,https://iiif.archive.org/iiif/treatiseconcerni00casa$10
A35565-003-b,https://iiif.archive.org/iiif/treatiseconcerni00casa$11
A35565-004-a,https://iiif.archive.org/iiif/treatiseconcerni00casa$12
A35565-004-b,https://iiif.archive.org/iiif/treatiseconcerni00casa$13
A35565-005-a,https://iiif.archive.org/iiif/treatiseconcerni00casa$14
A35565-005-b,https://iiif.archive.org/iiif/treatiseconcerni00casa$15
A35565-006-a,https://iiif.archive.org/iiif/treatiseconcerni00casa$16
A35565-006-b,https://iiif.archive.org/iiif/treatiseconcerni00casa$17
A35565-007-a,https://iiif.archive.org/iiif/treatiseconcerni00casa$18
A35565-007-b,https://iiif.archive.org/iiif/treatiseconcerni00casa$19
A35565-008-a,https://iiif.archive.org/iiif/treatiseconcerni00casa$20
A35565-008-b,https://iiif.archive.org/iiif/treatiseconcerni00casa$21
A35565-009-a,https://iiif.archive.org/iiif/treatiseconcerni00casa$22
A35565-009-b,https://iiif.archive.org/iiif/treatiseconcerni00casa$23
A35565-010-a,https://iiif.archive.org/iiif/treatiseconcerni00casa$24
A35565-010-b,https://iiif.archive.org/iiif/treatiseconcerni00casa$25
A35565-011-a,https://iiif.archive.org/iiif/treatiseconcerni00casa$26
A35565-011-b,https://iiif.archive.org/iiif/treatiseconcerni00casa$27
A35565-012-a,https://iiif.archive.org/iiif/treatiseconcerni00casa$28
A35565-012-b,https://iiif.archive.org/iiif/treatiseconcerni00casa$29
A35565-013-a,https://iiif.archive.org/iiif/treatiseconcerni00casa$30
A35565-013-b,https://iiif.archive.org/iiif/treatiseconcerni00casa$31
A35565-014-a,https://iiif.archive.org/iiif/treatiseconcerni00casa$32
A35565-014-b,https://iiif.archive.org/iiif/treatiseconcerni00casa$33
A35565-015-a,https://iiif.archive.org/iiif/treatiseconcerni00casa$34
A35565-015-b,https://iiif.archive.org/iiif/treatiseconcerni00casa$35
A35565-016-a,https://iiif.archive.org/iiif/treatiseconcerni00casa$36
A35565-016-b,https://iiif.archive.org/iiif/treatiseconcerni00casa$37
A35565-017-a,https://iiif.archive.org/iiif/treatiseconcerni00casa$38
A35565-017-b,https://iiif.archive.org/iiif/treatiseconcerni00casa$39
A35565-018-a,https://iiif.archive.org/iiif/treatiseconcerni00casa$40
A35565-018-b,https://iiif.archive.org/iiif/treatiseconcerni00casa$41
A35565-019-a,https://iiif.archive.org/iiif/treatiseconcerni00casa$42
A35565-019-b,https://iiif.archive.org/iiif/treatiseconcerni00casa$43
A35565-020-a,https://iiif.archive.org/iiif/treatiseconcerni00casa$44
A35565-020-b,https://iiif.archive.org/iiif/treatiseconcerni00casa$45
A35565-021-a,https://iiif.archive.org/iiif/treatiseconcerni00casa$46
A35565-021-b,https://iiif.archive.org/iiif/treatiseconcerni00casa$47
A35565-022-a,https://iiif.archive.org/iiif/treatiseconcerni00casa$48
A35565-022-b,https://iiif.archive.org/iiif/treatiseconcerni00casa$49
A35565-023-a,https://iiif.archive.org/iiif/treatiseconcerni00casa$50
A35565-023-b,https://iiif.archive.org/iiif/treatiseconcerni00casa$51
A35565-024-a,https://iiif.archive.org/iiif/treatiseconcerni00casa$52
A35565-024-b,https://iiif.archive.org/iiif/treatiseconcerni00casa$53
A35565-025-a,https://iiif.archive.org/iiif/treatiseconcerni00casa$54
A35565-025-b,https://iiif.archive.org/iiif/treatiseconcerni00casa$55
A35565-026-a,https://iiif.archive.org/iiif/treatiseconcerni00casa$56
A35565-026-b,https://iiif.archive.org/iiif/treatiseconcerni00casa$57
A35565-027-a,https://iiif.archive.org/iiif/treatiseconcerni00casa$58
A35565-027-b,https://iiif.archive.org/iiif/treatiseconcerni00casa$59
A35565-028-a,https://iiif.archive.org/iiif/treatiseconcerni00casa$60
A35565-028-b,https://iiif.archive.org/iiif/treatiseconcerni00casa$61
A35565-029-a,https://iiif.archive.org/iiif/treatiseconcerni00casa$62
A35565-029-b,https://iiif.archive.org/iiif/treatiseconcerni00casa$63
A35565-030-a,https://iiif.archive.org/iiif/treatiseconcerni00casa$64
A35565-030-b,https://iiif.archive.org/iiif/treatiseconcerni00casa$65
A35565-031-a,https://iiif.archive.org/iiif/treatiseconcerni00casa$66
A35565-031-b,https://iiif.archive.org/iiif/treatiseconcerni00casa$67
A35565-032-a,https://iiif.archive.org/iiif/treatiseconcerni00casa$68
A35565-032-b,https://iiif.archive.org/iiif/treatiseconcerni00casa$69
A35565-033-a,https://iiif.archive.org/iiif/treatiseconcerni00casa$70
A35565-033-b,https://iiif.archive.org/iiif/treatiseconcerni00casa$71
A35565-034-a,https://iiif.archive.org/iiif/treatiseconcerni00casa$72
A35565-034-b,https://iiif.archive.org/iiif/treatiseconcerni00casa$73
A35565-035-a,https://iiif.archive.org/iiif/treatiseconcerni00casa$74
A35565-035-b,https://iiif.archive.org/iiif/treatiseconcerni00casa$75
A35565-036-a,https://iiif.archive.org/iiif/treatiseconcerni00casa$76
A35565-036-b,https://iiif.archive.org/iiif/treatiseconcerni00casa$77
A35565-037-a,https://iiif.archive.org/iiif/treatiseconcerni00casa$78
A35565-037-b,https://iiif.archive.org/iiif/treatiseconcerni00casa$79
A35565-038-a,https://iiif.archive.org/iiif/treatiseconcerni00casa$80
A35565-038-b,https://iiif.archive.org/iiif/treatiseconcerni00casa$81
A35565-039-a,https://iiif.archive.org/iiif/treatiseconcerni00casa$82
A35565-039-b,https://iiif.archive.org/iiif/treatiseconcerni00casa$83
A35565-040-a,https://iiif.archive.org/iiif/treatiseconcerni00casa$84
A35565-040-b,https://iiif.archive.org/iiif/treatiseconcerni00casa$85
A35565-041-a,https://iiif.archive.org/iiif/treatiseconcerni00casa$86
A35565-041-b,https://iiif.archive.org/iiif/treatiseconcerni00casa$87
A35565-042-a,https://iiif.archive.org/iiif/treatiseconcerni00casa$88
A35565-042-b,https://iiif.archive.org/iiif/treatiseconcerni00casa$89
A35565-043-a,https://iiif.archive.org/iiif/treatiseconcerni00casa$90
A35565-043-b,https://iiif.archive.org/iiif/treatiseconcerni00casa$91
A35565-044-a,https://iiif.archive.org/iiif/treatiseconcerni00casa$92
A35565-044-b,https://iiif.archive.org/iiif/treatiseconcerni00casa$93
A35565-045-a,https://iiif.archive.org/iiif/treatiseconcerni00casa$94
A35565-045-b,https://iiif.archive.org/iiif/treatiseconcerni00casa$95
A35565-046-a,https://iiif.archive.org/iiif/treatiseconcerni00casa$96
A35565-046-b,https://iiif.archive.org/iiif/treatiseconcerni00casa$97
A35565-047-a,https://iiif.archive.org/iiif/treatiseconcerni00casa$98
A35565-047-b,https://iiif.archive.org/iiif/treatiseconcerni00casa$99
A35565-048-a,https://iiif.archive.org/iiif/treatiseconcerni00casa$100
A35565-048-b,https://iiif.archive.org/iiif/treatiseconcerni00casa$101
A35565-049-a,https://iiif.archive.org/iiif/treatiseconcerni00casa$102
A35565-049-b,https://iiif.archive.org/iiif/treatiseconcerni00casa$103
A35565-050-a,https://iiif.archive.org/iiif/treatiseconcerni00casa$104
A35565-050-b,https://iiif.archive.org/iiif/treatiseconcerni00casa$105
A35565-051-a,https://iiif.archive.org/iiif/treatiseconcerni00casa$106
A35565-051-b,https://iiif.archive.org/iiif/treatiseconcerni00casa$107
A35565-052-a,https://iiif.archive.org/iiif/treatiseconcerni00casa$108
A35565-052-b,https://iiif.archive.org/iiif/treatiseconcerni00casa$109
A35565-053-a,https://iiif.archive.org/iiif/treatiseconcerni00casa$110
A35565-053-b,https://iiif.archive.org/iiif/treatiseconcerni00casa$111
A35565-054-a,https://iiif.archive.org/iiif/treatiseconcerni00casa$112
A35565-054-b,https://iiif.archive.org/iiif/treatiseconcerni00casa$113
A35565-055-a,https://iiif.archive.org/iiif/treatiseconcerni00casa$114
A35565-055-b,https://iiif.archive.org/iiif/treatiseconcerni00casa$115
A35565-056-a,https://iiif.archive.org/iiif/treatiseconcerni00casa$116
A35565-056-b,https://iiif.archive.org/iiif/treatiseconcerni00casa$117
A35565-057-a,https://iiif.archive.org/iiif/treatiseconcerni00casa$118
A35565-057-b,https://iiif.archive.org/iiif/treatiseconcerni00casa$119
A35565-058-a,https://iiif.archive.org/iiif/treatiseconcerni00casa$120
A35565-058-b,https://iiif.archive.org/iiif/treatiseconcerni00casa$121
A35565-059-a,https://iiif.archive.org/iiif/treatiseconcerni00casa$122
A35565-059-b,https://iiif.archive.org/iiif/treatiseconcerni00casa$123
A35565-060-a,https://iiif.archive.org/iiif/treatiseconcerni00casa$124
A35565-060-b,https://iiif.archive.org/iiif/treatiseconcerni00casa$125
A35565-061-a,https://iiif.archive.org/iiif/treatiseconcerni00casa$126
A35565-061-b,https://iiif.archive.org/iiif/treatiseconcerni00casa$127
A35565-062-a,https://iiif.archive.org/iiif/treatiseconcerni00casa$128
A35565-062-b,https://iiif.archive.org/iiif/treatiseconcerni00casa$129
A35565-063-a,https://iiif.archive.org/iiif/treatiseconcerni00casa$130
A35565-063-b,https://iiif.archive.org/iiif/treatiseconcerni00casa$131
A35565-064-a,https://iiif.archive.org/iiif/treatiseconcerni00casa$132
A35565-064-b,https://iiif.archive.org/iiif/treatiseconcerni00casa$133
A35565-065-a,https://iiif.archive.org/iiif/treatiseconcerni00casa$134
A35565-065-b,https://iiif.archive.org/iiif/treatiseconcerni00casa$135
A35565-066-a,https://iiif.archive.org/iiif/treatiseconcerni00casa$136
A35565-066-b,https://iiif.archive.org/iiif/treatiseconcerni00casa$137
A35565-067-a,https://iiif.archive.org/iiif/treatiseconcerni00casa$138
A35565-067-b,https://iiif.archive.org/iiif/treatiseconcerni00casa$139
A35565-068-a,https://iiif.archive.org/iiif/treatiseconcerni00casa$140
A35565-068-b,https://iiif.archive.org/iiif/treatiseconcerni00casa$141
A35565-069-a,https://iiif.archive.org/iiif/treatiseconcerni00casa$142
A35565-069-b,https://iiif.archive.org/iiif/treatiseconcerni00casa$143
A35565-070-a,https://iiif.archive.org/iiif/treatiseconcerni00casa$144
A35565-070-b,https://iiif.archive.org/iiif/treatiseconcerni00casa$145
A35565-071-a,https://iiif.archive.org/iiif/treatiseconcerni00casa$146
A35565-071-b,https://iiif.archive.org/iiif/treatiseconcerni00casa$147
A35565-072-a,https://iiif.archive.org/iiif/treatiseconcerni00casa$148
A35565-072-b,https://iiif.archive.org/iiif/treatiseconcerni00casa$149
A35565-073-a,https://iiif.archive.org/iiif/treatiseconcerni00casa$150
A35565-073-b,https://iiif.archive.org/iiif/treatiseconcerni00casa$151
A35565-074-a,https://iiif.archive.org/iiif/treatiseconcerni00casa$152
A35565-074-b,https://iiif.archive.org/iiif/treatiseconcerni00casa$153
A35565-075-a,https://iiif.archive.org/iiif/treatiseconcerni00casa$154
A35565-075-b,https://iiif.archive.org/iiif/treatiseconcerni00casa$155
A35565-076-a,https://iiif.archive.org/iiif/treatiseconcerni00casa$156
A35565-076-b,https://iiif.archive.org/iiif/treatiseconcerni00casa$157
A35565-077-a,https://iiif.archive.org/iiif/treatiseconcerni00casa$158
A35565-077-b,https://iiif.archive.org/iiif/treatiseconcerni00casa$159
A35565-078-a,https://iiif.archive.org/iiif/treatiseconcerni00casa$160
A35565-078-b,https://iiif.archive.org/iiif/treatiseconcerni00casa$161
A35565-079-a,https://iiif.archive.org/iiif/treatiseconcerni00casa$162
A35565-079-b,https://iiif.archive.org/iiif/treatiseconcerni00casa$163
A35565-080-a,https://iiif.archive.org/iiif/treatiseconcerni00casa$164
A35565-080-b,https://iiif.archive.org/iiif/treatiseconcerni00casa$165
A35565-081-a,https://iiif.archive.org/iiif/treatiseconcerni00casa$166
A35565-081-b,https://iiif.archive.org/iiif/treatiseconcerni00casa$167
A35565-082-a,https://iiif.archive.org/iiif/treatiseconcerni00casa$168
A35565-082-b,https://iiif.archive.org/iiif/treatiseconcerni00casa$169
A35565-083-a,https://iiif.archive.org/iiif/treatiseconcerni00casa$170
A35565-083-b,https://iiif.archive.org/iiif/treatiseconcerni00casa$171
A35565-084-a,https://iiif.archive.org/iiif/treatiseconcerni00casa$172
A35565-084-b,https://iiif.archive.org/iiif/treatiseconcerni00casa$173
A35565-085-a,https://iiif.archive.org/iiif/treatiseconcerni00casa$174
A35565-085-b,https://iiif.archive.org/iiif/treatiseconcerni00casa$175
A35565-086-a,https://iiif.archive.org/iiif/treatiseconcerni00casa$176
A35565-086-b,https://iiif.archive.org/iiif/treatiseconcerni00casa$177
A35565-087-a,https://iiif.archive.org/iiif/treatiseconcerni00casa$178
A35565-087-b,https://iiif.archive.org/iiif/treatiseconcerni00casa$179
A35565-088-a,https://iiif.archive.org/iiif/treatiseconcerni00casa$180
A35565-088-b,https://iiif.archive.org/iiif/treatiseconcerni00casa$181
A35565-089-a,https://iiif.archive.org/iiif/treatiseconcerni00casa$182
A35565-089-b,https://iiif.archive.org/iiif/treatiseconcerni00casa$183
A35565-090-a,https://iiif.archive.org/iiif/treatiseconcerni00casa$184
A35565-090-b,https://iiif.archive.org/iiif/treatiseconcerni00casa$185
A35565-091-a,https://iiif.archive.org/iiif/treatiseconcerni00casa$186
A35565-091-b,https://iiif.archive.org/iiif/treatiseconcerni00casa$187
A35565-092-a,https://iiif.archive.org/iiif/treatiseconcerni00casa$188
A35565-092-b,https://iiif.archive.org/iiif/treatiseconcerni00casa$189
A35565-093-a,https://iiif.archive.org/iiif/treatiseconcerni00casa$190
A35565-093-b,https://iiif.archive.org/iiif/treatiseconcerni00casa$191
A35565-094-a,https://iiif.archive.org/iiif/treatiseconcerni00casa$192
A35565-094-b,https://iiif.archive.org/iiif/treatiseconcerni00casa$193
A35565-095-a,https://iiif.archive.org/iiif/treatiseconcerni00casa$194
A35565-095-b,https://iiif.archive.org/iiif/treatiseconcerni00casa$195
A35565-096-a,https://iiif.archive.org/iiif/treatiseconcerni00casa$196
A35565-096-b,https://iiif.archive.org/iiif/treatiseconcerni00casa$197
A35565-097-a,https://iiif.archive.org/iiif/treatiseconcerni00casa$198
A35565-097-b,https://iiif.archive.org/iiif/treatiseconcerni00casa$199
A35565-098-a,https://iiif.archive.org/iiif/treatiseconcerni00casa$200
A35565-098-b,https://iiif.archive.org/iiif/treatiseconcerni00casa$201
A35565-099-a,https://iiif.archive.org/iiif/treatiseconcerni00casa$202
A35565-099-b,https://iiif.archive.org/iiif/treatiseconcerni00casa$203
A35565-100-a,https://iiif.archive.org/iiif/treatiseconcerni00casa$204
A35565-100-b,https://iiif.archive.org/iiif/treatiseconcerni00casa$205
A35565-101-a,https://iiif.archive.org/iiif/treatiseconcerni00casa$206
A35565-101-b,https://iiif.archive.org/iiif/treatiseconcerni00casa$207
A35565-102-a,https://iiif.archive.org/iiif/treatiseconcerni00casa$208
A35565-102-b,https://iiif.archive.org/iiif/treatiseconcerni00casa$209
A35565-103-a,https://iiif.archive.org/iiif/treatiseconcerni00casa$210
A35565-103-b,https://iiif.archive.org/iiif/treatiseconcerni00casa$211
A35565-104-a,https://iiif.archive.org/iiif/treatiseconcerni00casa$212
A35565-104-b,https://iiif.archive.org/iiif/treatiseconcerni00casa$213
A35565-105-a,https://iiif.archive.org/iiif/treatiseconcerni00casa$214
A35565-105-b,https://iiif.archive.org/iiif/treatiseconcerni00casa$215
A35565-106-a,https://iiif.archive.org/iiif/treatiseconcerni00casa$216
A35565-106-b,https://iiif.archive.org/iiif/treatiseconcerni00casa$217
A35565-107-a,https://iiif.archive.org/iiif/treatiseconcerni00casa$218
A35565-107-b,https://iiif.archive.org/iiif/treatiseconcerni00casa$219
A35565-108-a,https://iiif.archive.org/iiif/treatiseconcerni00casa$220
A35565-108-b,https://iiif.archive.org/iiif/treatiseconcerni00casa$221
A35565-109-a,https://iiif.archive.org/iiif/treatiseconcerni00casa$222
A35565-109-b,https://iiif.archive.org/iiif/treatiseconcerni00casa$223
A35565-110-a,https://iiif.archive.org/iiif/treatiseconcerni00casa$224
A35565-110-b,https://iiif.archive.org/iiif/treatiseconcerni00casa$225
A35565-111-a,https://iiif.archive.org/iiif/treatiseconcerni00casa$226
A35565-111-b,https://iiif.archive.org/iiif/treatiseconcerni00casa$227
A35565-112-a,https://iiif.archive.org/iiif/treatiseconcerni00casa$228
A35565-112-b,https://iiif.archive.org/iiif/treatiseconcerni00casa$229
A35565-113-a,https://iiif.archive.org/iiif/treatiseconcerni00casa$230
A35565-113-b,https://iiif.archive.org/iiif/treatiseconcerni00casa$231
A35565-114-a,https://iiif.archive.org/iiif/treatiseconcerni00casa$232
A35565-114-b,https://iiif.archive.org/iiif/treatiseconcerni00casa$233
A35565-115-a,https://iiif.archive.org/iiif/treatiseconcerni00casa$234
A35565-115-b,https://iiif.archive.org/iiif/treatiseconcerni00casa$235
A35565-116-a,https://iiif.archive.org/iiif/treatiseconcerni00casa$236
A35565-116-b,https://iiif.archive.org/iiif/treatiseconcerni00casa$237
A35565-117-a,https://iiif.archive.org/iiif/treatiseconcerni00casa$238
A35565-117-b,https://iiif.archive.org/iiif/treatiseconcerni00casa$239
A35565-118-a,https://iiif.archive.org/iiif/treatiseconcerni00casa$240
A35565-118-b,https://iiif.archive.org/iiif/treatiseconcerni00casa$241
A35565-119-a,https://iiif.archive.org/iiif/treatiseconcerni00casa$242
A35565-119-b,https://iiif.archive.org/iiif/treatiseconcerni00casa$243
A35565-120-a,https://iiif.archive.org/iiif/treatiseconcerni00casa$244
A35565-120-b,https://iiif.archive.org/iiif/treatiseconcerni00casa$245
A35565-121-a,https://iiif.archive.org/iiif/treatiseconcerni00casa$246
A35565-121-b,https://iiif.archive.org/iiif/treatiseconcerni00casa$247
A35565-122-a,https://iiif.archive.org/iiif/treatiseconcerni00casa$248
A35565-122-b,https://iiif.archive.org/iiif/treatiseconcerni00casa$249
A35565-123-a,https://iiif.archive.org/iiif/treatiseconcerni00casa$250
A35565-123-b,https://iiif.archive.org/iiif/treatiseconcerni00casa$251
A35565-124-a,https://iiif.archive.org/iiif/treatiseconcerni00casa$252
A35565-124-b,https://iiif.archive.org/iiif/treatiseconcerni00casa$253
A35565-125-a,https://iiif.archive.org/iiif/treatiseconcerni00casa$254
A35565-125-b,https://iiif.archive.org/iiif/treatiseconcerni00casa$255
A35565-126-a,https://iiif.archive.org/iiif/treatiseconcerni00casa$256
A35565-126-b,https://iiif.archive.org/iiif/treatiseconcerni00casa$257
A35565-127-a,https://iiif.archive.org/iiif/treatiseconcerni00casa$258
A35565-127-b,https://iiif.archive.org/iiif/treatiseconcerni00casa$259
A35565-128-a,https://iiif.archive.org/iiif/treatiseconcerni00casa$260
A35565-128-b,https://iiif.archive.org/iiif/treatiseconcerni00casa$261
