A36513-001-b,https://iiif.archive.org/iiif/shamlawyerorluck00drak$7
A36513-002-b,https://iiif.archive.org/iiif/shamlawyerorluck00drak$9
A36513-003-a,https://iiif.archive.org/iiif/shamlawyerorluck00drak$10
A36513-003-b,https://iiif.archive.org/iiif/shamlawyerorluck00drak$11
A36513-004-a,https://iiif.archive.org/iiif/shamlawyerorluck00drak$12
A36513-004-b,https://iiif.archive.org/iiif/shamlawyerorluck00drak$13
A36513-005-a,https://iiif.archive.org/iiif/shamlawyerorluck00drak$14
A36513-005-b,https://iiif.archive.org/iiif/shamlawyerorluck00drak$15
A36513-006-a,https://iiif.archive.org/iiif/shamlawyerorluck00drak$16
A36513-006-b,https://iiif.archive.org/iiif/shamlawyerorluck00drak$17
A36513-007-a,https://iiif.archive.org/iiif/shamlawyerorluck00drak$18
A36513-007-b,https://iiif.archive.org/iiif/shamlawyerorluck00drak$19
A36513-008-a,https://iiif.archive.org/iiif/shamlawyerorluck00drak$20
A36513-008-b,https://iiif.archive.org/iiif/shamlawyerorluck00drak$21
A36513-009-a,https://iiif.archive.org/iiif/shamlawyerorluck00drak$22
A36513-009-b,https://iiif.archive.org/iiif/shamlawyerorluck00drak$23
A36513-010-a,https://iiif.archive.org/iiif/shamlawyerorluck00drak$24
A36513-010-b,https://iiif.archive.org/iiif/shamlawyerorluck00drak$25
A36513-011-a,https://iiif.archive.org/iiif/shamlawyerorluck00drak$26
A36513-011-b,https://iiif.archive.org/iiif/shamlawyerorluck00drak$27
A36513-012-a,https://iiif.archive.org/iiif/shamlawyerorluck00drak$28
A36513-012-b,https://iiif.archive.org/iiif/shamlawyerorluck00drak$29
A36513-013-a,https://iiif.archive.org/iiif/shamlawyerorluck00drak$30
A36513-013-b,https://iiif.archive.org/iiif/shamlawyerorluck00drak$31
A36513-014-a,https://iiif.archive.org/iiif/shamlawyerorluck00drak$32
A36513-014-b,https://iiif.archive.org/iiif/shamlawyerorluck00drak$33
A36513-015-a,https://iiif.archive.org/iiif/shamlawyerorluck00drak$34
A36513-015-b,https://iiif.archive.org/iiif/shamlawyerorluck00drak$35
A36513-016-a,https://iiif.archive.org/iiif/shamlawyerorluck00drak$36
A36513-016-b,https://iiif.archive.org/iiif/shamlawyerorluck00drak$37
A36513-017-a,https://iiif.archive.org/iiif/shamlawyerorluck00drak$38
A36513-017-b,https://iiif.archive.org/iiif/shamlawyerorluck00drak$39
A36513-018-a,https://iiif.archive.org/iiif/shamlawyerorluck00drak$40
A36513-018-b,https://iiif.archive.org/iiif/shamlawyerorluck00drak$41
A36513-019-a,https://iiif.archive.org/iiif/shamlawyerorluck00drak$42
A36513-019-b,https://iiif.archive.org/iiif/shamlawyerorluck00drak$43
A36513-020-a,https://iiif.archive.org/iiif/shamlawyerorluck00drak$44
A36513-020-b,https://iiif.archive.org/iiif/shamlawyerorluck00drak$45
A36513-021-a,https://iiif.archive.org/iiif/shamlawyerorluck00drak$46
A36513-021-b,https://iiif.archive.org/iiif/shamlawyerorluck00drak$47
A36513-022-a,https://iiif.archive.org/iiif/shamlawyerorluck00drak$48
A36513-022-b,https://iiif.archive.org/iiif/shamlawyerorluck00drak$49
A36513-023-a,https://iiif.archive.org/iiif/shamlawyerorluck00drak$50
A36513-023-b,https://iiif.archive.org/iiif/shamlawyerorluck00drak$51
A36513-024-a,https://iiif.archive.org/iiif/shamlawyerorluck00drak$52
A36513-024-b,https://iiif.archive.org/iiif/shamlawyerorluck00drak$53
A36513-025-a,https://iiif.archive.org/iiif/shamlawyerorluck00drak$54
A36513-025-b,https://iiif.archive.org/iiif/shamlawyerorluck00drak$55
A36513-026-a,https://iiif.archive.org/iiif/shamlawyerorluck00drak$56
A36513-026-b,https://iiif.archive.org/iiif/shamlawyerorluck00drak$57
A36513-027-a,https://iiif.archive.org/iiif/shamlawyerorluck00drak$58
A36513-027-b,https://iiif.archive.org/iiif/shamlawyerorluck00drak$59
A36513-028-a,https://iiif.archive.org/iiif/shamlawyerorluck00drak$60
A36513-028-b,https://iiif.archive.org/iiif/shamlawyerorluck00drak$61
A36513-029-a,https://iiif.archive.org/iiif/shamlawyerorluck00drak$62
