A37026-001-a,https://iiif.archive.org/iiif//virtuouswifeorgo00durf$9999
A37026-001-b,https://iiif.archive.org/iiif//virtuouswifeorgo00durf$7
A37026-002-b,https://iiif.archive.org/iiif//virtuouswifeorgo00durf$9
A37026-003-a,https://iiif.archive.org/iiif//virtuouswifeorgo00durf$10
A37026-003-b,https://iiif.archive.org/iiif//virtuouswifeorgo00durf$11
A37026-004-a,https://iiif.archive.org/iiif//virtuouswifeorgo00durf$12
A37026-004-b,https://iiif.archive.org/iiif//virtuouswifeorgo00durf$13
A37026-005-a,https://iiif.archive.org/iiif//virtuouswifeorgo00durf$14
A37026-005-b,https://iiif.archive.org/iiif//virtuouswifeorgo00durf$15
A37026-006-a,https://iiif.archive.org/iiif//virtuouswifeorgo00durf$16
A37026-006-b,https://iiif.archive.org/iiif//virtuouswifeorgo00durf$17
A37026-007-a,https://iiif.archive.org/iiif//virtuouswifeorgo00durf$18
A37026-007-b,https://iiif.archive.org/iiif//virtuouswifeorgo00durf$19
A37026-008-a,https://iiif.archive.org/iiif//virtuouswifeorgo00durf$20
A37026-008-b,https://iiif.archive.org/iiif//virtuouswifeorgo00durf$21
A37026-009-a,https://iiif.archive.org/iiif//virtuouswifeorgo00durf$22
A37026-009-b,https://iiif.archive.org/iiif//virtuouswifeorgo00durf$23
A37026-010-a,https://iiif.archive.org/iiif//virtuouswifeorgo00durf$24
A37026-010-b,https://iiif.archive.org/iiif//virtuouswifeorgo00durf$25
A37026-011-a,https://iiif.archive.org/iiif//virtuouswifeorgo00durf$26
A37026-011-b,https://iiif.archive.org/iiif//virtuouswifeorgo00durf$27
A37026-012-a,https://iiif.archive.org/iiif//virtuouswifeorgo00durf$28
A37026-012-b,https://iiif.archive.org/iiif//virtuouswifeorgo00durf$29
A37026-013-a,https://iiif.archive.org/iiif//virtuouswifeorgo00durf$30
A37026-013-b,https://iiif.archive.org/iiif//virtuouswifeorgo00durf$31
A37026-014-a,https://iiif.archive.org/iiif//virtuouswifeorgo00durf$32
A37026-014-b,https://iiif.archive.org/iiif//virtuouswifeorgo00durf$33
A37026-015-a,https://iiif.archive.org/iiif//virtuouswifeorgo00durf$34
A37026-015-b,https://iiif.archive.org/iiif//virtuouswifeorgo00durf$35
A37026-016-a,https://iiif.archive.org/iiif//virtuouswifeorgo00durf$36
A37026-016-b,https://iiif.archive.org/iiif//virtuouswifeorgo00durf$37
A37026-017-a,https://iiif.archive.org/iiif//virtuouswifeorgo00durf$38
A37026-017-b,https://iiif.archive.org/iiif//virtuouswifeorgo00durf$39
A37026-018-a,https://iiif.archive.org/iiif//virtuouswifeorgo00durf$40
A37026-018-b,https://iiif.archive.org/iiif//virtuouswifeorgo00durf$41
A37026-019-a,https://iiif.archive.org/iiif//virtuouswifeorgo00durf$42
A37026-019-b,https://iiif.archive.org/iiif//virtuouswifeorgo00durf$43
A37026-020-a,https://iiif.archive.org/iiif//virtuouswifeorgo00durf$44
A37026-020-b,https://iiif.archive.org/iiif//virtuouswifeorgo00durf$45
A37026-021-a,https://iiif.archive.org/iiif//virtuouswifeorgo00durf$46
A37026-021-b,https://iiif.archive.org/iiif//virtuouswifeorgo00durf$47
A37026-022-a,https://iiif.archive.org/iiif//virtuouswifeorgo00durf$48
A37026-022-b,https://iiif.archive.org/iiif//virtuouswifeorgo00durf$49
A37026-023-a,https://iiif.archive.org/iiif//virtuouswifeorgo00durf$50
A37026-023-b,https://iiif.archive.org/iiif//virtuouswifeorgo00durf$51
A37026-024-a,https://iiif.archive.org/iiif//virtuouswifeorgo00durf$52
A37026-024-b,https://iiif.archive.org/iiif//virtuouswifeorgo00durf$53
A37026-025-a,https://iiif.archive.org/iiif//virtuouswifeorgo00durf$54
A37026-025-b,https://iiif.archive.org/iiif//virtuouswifeorgo00durf$55
A37026-026-a,https://iiif.archive.org/iiif//virtuouswifeorgo00durf$56
A37026-026-b,https://iiif.archive.org/iiif//virtuouswifeorgo00durf$57
A37026-027-a,https://iiif.archive.org/iiif//virtuouswifeorgo00durf$58
A37026-027-b,https://iiif.archive.org/iiif//virtuouswifeorgo00durf$59
A37026-028-a,https://iiif.archive.org/iiif//virtuouswifeorgo00durf$60
A37026-028-b,https://iiif.archive.org/iiif//virtuouswifeorgo00durf$61
A37026-029-a,https://iiif.archive.org/iiif//virtuouswifeorgo00durf$62
A37026-029-b,https://iiif.archive.org/iiif//virtuouswifeorgo00durf$63
A37026-030-a,https://iiif.archive.org/iiif//virtuouswifeorgo00durf$64
A37026-030-b,https://iiif.archive.org/iiif//virtuouswifeorgo00durf$65
A37026-031-a,https://iiif.archive.org/iiif//virtuouswifeorgo00durf$66
A37026-031-b,https://iiif.archive.org/iiif//virtuouswifeorgo00durf$67
A37026-032-a,https://iiif.archive.org/iiif//virtuouswifeorgo00durf$68
A37026-032-b,https://iiif.archive.org/iiif//virtuouswifeorgo00durf$69
A37026-033-a,https://iiif.archive.org/iiif//virtuouswifeorgo00durf$70
A37026-033-b,https://iiif.archive.org/iiif//virtuouswifeorgo00durf$71
A37026-034-a,https://iiif.archive.org/iiif//virtuouswifeorgo00durf$72
A37026-034-b,https://iiif.archive.org/iiif//virtuouswifeorgo00durf$73
A37026-035-a,https://iiif.archive.org/iiif//virtuouswifeorgo00durf$74
A37026-035-b,https://iiif.archive.org/iiif//virtuouswifeorgo00durf$75
A37026-036-a,https://iiif.archive.org/iiif//virtuouswifeorgo00durf$76
A37026-036-b,https://iiif.archive.org/iiif//virtuouswifeorgo00durf$77
A37026-037-a,https://iiif.archive.org/iiif//virtuouswifeorgo00durf$78
A37026-037-b,https://iiif.archive.org/iiif//virtuouswifeorgo00durf$79
A37026-038-a,https://iiif.archive.org/iiif//virtuouswifeorgo00durf$80
