A41366-001-b,https://iiif.archive.org/iiif/carelessshepherd00goff$7
A41366-002-a,https://iiif.archive.org/iiif/carelessshepherd00goff$8
A41366-002-b,https://iiif.archive.org/iiif/carelessshepherd00goff$9
A41366-003-a,https://iiif.archive.org/iiif/carelessshepherd00goff$10
A41366-003-b,https://iiif.archive.org/iiif/carelessshepherd00goff$11
A41366-004-a,https://iiif.archive.org/iiif/carelessshepherd00goff$12
A41366-004-b,https://iiif.archive.org/iiif/carelessshepherd00goff$13
A41366-005-a,https://iiif.archive.org/iiif/carelessshepherd00goff$14
A41366-005-b,https://iiif.archive.org/iiif/carelessshepherd00goff$15
A41366-006-a,https://iiif.archive.org/iiif/carelessshepherd00goff$16
A41366-006-b,https://iiif.archive.org/iiif/carelessshepherd00goff$17
A41366-007-a,https://iiif.archive.org/iiif/carelessshepherd00goff$18
A41366-007-b,https://iiif.archive.org/iiif/carelessshepherd00goff$19
A41366-008-a,https://iiif.archive.org/iiif/carelessshepherd00goff$20
A41366-008-b,https://iiif.archive.org/iiif/carelessshepherd00goff$21
A41366-009-a,https://iiif.archive.org/iiif/carelessshepherd00goff$22
A41366-009-b,https://iiif.archive.org/iiif/carelessshepherd00goff$23
A41366-010-a,https://iiif.archive.org/iiif/carelessshepherd00goff$24
A41366-010-b,https://iiif.archive.org/iiif/carelessshepherd00goff$25
A41366-011-a,https://iiif.archive.org/iiif/carelessshepherd00goff$26
A41366-011-b,https://iiif.archive.org/iiif/carelessshepherd00goff$27
A41366-012-a,https://iiif.archive.org/iiif/carelessshepherd00goff$28
A41366-012-b,https://iiif.archive.org/iiif/carelessshepherd00goff$29
A41366-013-a,https://iiif.archive.org/iiif/carelessshepherd00goff$30
A41366-013-b,https://iiif.archive.org/iiif/carelessshepherd00goff$31
A41366-014-a,https://iiif.archive.org/iiif/carelessshepherd00goff$32
A41366-014-b,https://iiif.archive.org/iiif/carelessshepherd00goff$33
A41366-015-a,https://iiif.archive.org/iiif/carelessshepherd00goff$34
A41366-015-b,https://iiif.archive.org/iiif/carelessshepherd00goff$35
A41366-016-a,https://iiif.archive.org/iiif/carelessshepherd00goff$36
A41366-016-b,https://iiif.archive.org/iiif/carelessshepherd00goff$37
A41366-017-a,https://iiif.archive.org/iiif/carelessshepherd00goff$38
A41366-017-b,https://iiif.archive.org/iiif/carelessshepherd00goff$39
A41366-018-a,https://iiif.archive.org/iiif/carelessshepherd00goff$40
A41366-018-b,https://iiif.archive.org/iiif/carelessshepherd00goff$41
A41366-019-a,https://iiif.archive.org/iiif/carelessshepherd00goff$42
A41366-019-b,https://iiif.archive.org/iiif/carelessshepherd00goff$43
A41366-020-a,https://iiif.archive.org/iiif/carelessshepherd00goff$44
A41366-020-b,https://iiif.archive.org/iiif/carelessshepherd00goff$45
A41366-021-a,https://iiif.archive.org/iiif/carelessshepherd00goff$46
A41366-021-b,https://iiif.archive.org/iiif/carelessshepherd00goff$47
A41366-022-a,https://iiif.archive.org/iiif/carelessshepherd00goff$48
A41366-022-b,https://iiif.archive.org/iiif/carelessshepherd00goff$49
A41366-023-a,https://iiif.archive.org/iiif/carelessshepherd00goff$50
A41366-023-b,https://iiif.archive.org/iiif/carelessshepherd00goff$51
A41366-024-a,https://iiif.archive.org/iiif/carelessshepherd00goff$52
A41366-024-b,https://iiif.archive.org/iiif/carelessshepherd00goff$53
A41366-025-a,https://iiif.archive.org/iiif/carelessshepherd00goff$54
A41366-025-b,https://iiif.archive.org/iiif/carelessshepherd00goff$55
A41366-026-a,https://iiif.archive.org/iiif/carelessshepherd00goff$56
A41366-026-b,https://iiif.archive.org/iiif/carelessshepherd00goff$57
A41366-027-a,https://iiif.archive.org/iiif/carelessshepherd00goff$58
A41366-027-b,https://iiif.archive.org/iiif/carelessshepherd00goff$59
A41366-028-a,https://iiif.archive.org/iiif/carelessshepherd00goff$60
A41366-028-b,https://iiif.archive.org/iiif/carelessshepherd00goff$61
A41366-029-a,https://iiif.archive.org/iiif/carelessshepherd00goff$62
A41366-029-b,https://iiif.archive.org/iiif/carelessshepherd00goff$63
A41366-030-a,https://iiif.archive.org/iiif/carelessshepherd00goff$64
A41366-030-b,https://iiif.archive.org/iiif/carelessshepherd00goff$65
A41366-031-a,https://iiif.archive.org/iiif/carelessshepherd00goff$66
A41366-031-b,https://iiif.archive.org/iiif/carelessshepherd00goff$67
A41366-032-a,https://iiif.archive.org/iiif/carelessshepherd00goff$68
A41366-032-b,https://iiif.archive.org/iiif/carelessshepherd00goff$69
A41366-033-a,https://iiif.archive.org/iiif/carelessshepherd00goff$70
A41366-033-b,https://iiif.archive.org/iiif/carelessshepherd00goff$71
A41366-034-a,https://iiif.archive.org/iiif/carelessshepherd00goff$72
A41366-034-b,https://iiif.archive.org/iiif/carelessshepherd00goff$73
A41366-035-a,https://iiif.archive.org/iiif/carelessshepherd00goff$74
A41366-035-b,https://iiif.archive.org/iiif/carelessshepherd00goff$75
A41366-036-a,https://iiif.archive.org/iiif/carelessshepherd00goff$76
A41366-036-b,https://iiif.archive.org/iiif/carelessshepherd00goff$77
A41366-037-a,https://iiif.archive.org/iiif/carelessshepherd00goff$78
A41366-037-b,https://iiif.archive.org/iiif/carelessshepherd00goff$79
A41366-038-a,https://iiif.archive.org/iiif/carelessshepherd00goff$80
A41366-038-b,https://iiif.archive.org/iiif/carelessshepherd00goff$81
A41366-039-a,https://iiif.archive.org/iiif/carelessshepherd00goff$82
A41366-039-b,https://iiif.archive.org/iiif/carelessshepherd00goff$83
A41366-040-a,https://iiif.archive.org/iiif/carelessshepherd00goff$84
A41366-040-b,https://iiif.archive.org/iiif/carelessshepherd00goff$85
A41366-041-a,https://iiif.archive.org/iiif/carelessshepherd00goff$86
A41366-041-b,https://iiif.archive.org/iiif/carelessshepherd00goff$87
A41366-042-a,https://iiif.archive.org/iiif/carelessshepherd00goff$88
A41366-042-b,https://iiif.archive.org/iiif/carelessshepherd00goff$89
A41366-043-a,https://iiif.archive.org/iiif/carelessshepherd00goff$90
