A42235-001-b,https://iiif.archive.org/iiif/proceedingsofpre00love$9999
A42235-002-b,https://iiif.archive.org/iiif/proceedingsofpre00love$5
A42235-003-b,https://iiif.archive.org/iiif/proceedingsofpre00love$7
A42235-004-a,https://iiif.archive.org/iiif/proceedingsofpre00love$8
A42235-004-b,https://iiif.archive.org/iiif/proceedingsofpre00love$9
A42235-004-c,https://iiif.archive.org/iiif/proceedingsofpre00love$8
A42235-004-d,https://iiif.archive.org/iiif/proceedingsofpre00love$9
A42235-005-a,https://iiif.archive.org/iiif/proceedingsofpre00love$10
A42235-005-b,https://iiif.archive.org/iiif/proceedingsofpre00love$11
A42235-005-c,https://iiif.archive.org/iiif/proceedingsofpre00love$10
A42235-005-d,https://iiif.archive.org/iiif/proceedingsofpre00love$11
A42235-005-e,https://iiif.archive.org/iiif/proceedingsofpre00love$11
A42235-006-a,https://iiif.archive.org/iiif/proceedingsofpre00love$12
A42235-006-b,https://iiif.archive.org/iiif/proceedingsofpre00love$12
A42235-006-c,https://iiif.archive.org/iiif/proceedingsofpre00love$13
A42235-007-a,https://iiif.archive.org/iiif/proceedingsofpre00love$14
A42235-007-b,https://iiif.archive.org/iiif/proceedingsofpre00love$15
A42235-007-c,https://iiif.archive.org/iiif/proceedingsofpre00love$14
A42235-007-d,https://iiif.archive.org/iiif/proceedingsofpre00love$15
A42235-008-a,https://iiif.archive.org/iiif/proceedingsofpre00love$16
A42235-008-b,https://iiif.archive.org/iiif/proceedingsofpre00love$17
A42235-008-c,https://iiif.archive.org/iiif/proceedingsofpre00love$16
A42235-008-d,https://iiif.archive.org/iiif/proceedingsofpre00love$17
A42235-009-a,https://iiif.archive.org/iiif/proceedingsofpre00love$18
A42235-009-b,https://iiif.archive.org/iiif/proceedingsofpre00love$19
A42235-009-c,https://iiif.archive.org/iiif/proceedingsofpre00love$18
A42235-009-d,https://iiif.archive.org/iiif/proceedingsofpre00love$19
A42235-010-a,https://iiif.archive.org/iiif/proceedingsofpre00love$20
A42235-010-b,https://iiif.archive.org/iiif/proceedingsofpre00love$21
A42235-011-a,https://iiif.archive.org/iiif/proceedingsofpre00love$22
