A47990-001-a,https://iiif.archive.org/iiif/letterfromgentle00londuoft$5
A47990-002-b,https://iiif.archive.org/iiif/letterfromgentle00londuoft$7
A47990-003-a,https://iiif.archive.org/iiif/letterfromgentle00londuoft$8
A47990-003-b,https://iiif.archive.org/iiif/letterfromgentle00londuoft$9
A47990-004-a,https://iiif.archive.org/iiif/letterfromgentle00londuoft$10
A47990-004-b,https://iiif.archive.org/iiif/letterfromgentle00londuoft$11
A47990-005-a,https://iiif.archive.org/iiif/letterfromgentle00londuoft$12
A47990-005-b,https://iiif.archive.org/iiif/letterfromgentle00londuoft$13
A47990-006-a,https://iiif.archive.org/iiif/letterfromgentle00londuoft$14
A47990-006-b,https://iiif.archive.org/iiif/letterfromgentle00londuoft$15
A47990-007-a,https://iiif.archive.org/iiif/letterfromgentle00londuoft$16
