A50090-001-b,https://iiif.archive.org/iiif/citymadamcomedie00mass$7
A50090-002-a,https://iiif.archive.org/iiif/citymadamcomedie00mass$8
A50090-002-b,https://iiif.archive.org/iiif/citymadamcomedie00mass$9
A50090-003-a,https://iiif.archive.org/iiif/citymadamcomedie00mass$10
A50090-003-b,https://iiif.archive.org/iiif/citymadamcomedie00mass$11
A50090-004-a,https://iiif.archive.org/iiif/citymadamcomedie00mass$12
A50090-004-b,https://iiif.archive.org/iiif/citymadamcomedie00mass$13
A50090-005-a,https://iiif.archive.org/iiif/citymadamcomedie00mass$14
A50090-005-b,https://iiif.archive.org/iiif/citymadamcomedie00mass$15
A50090-006-a,https://iiif.archive.org/iiif/citymadamcomedie00mass$16
A50090-006-b,https://iiif.archive.org/iiif/citymadamcomedie00mass$17
A50090-007-a,https://iiif.archive.org/iiif/citymadamcomedie00mass$18
A50090-007-b,https://iiif.archive.org/iiif/citymadamcomedie00mass$19
A50090-008-a,https://iiif.archive.org/iiif/citymadamcomedie00mass$20
A50090-008-b,https://iiif.archive.org/iiif/citymadamcomedie00mass$21
A50090-009-a,https://iiif.archive.org/iiif/citymadamcomedie00mass$22
A50090-009-b,https://iiif.archive.org/iiif/citymadamcomedie00mass$23
A50090-010-a,https://iiif.archive.org/iiif/citymadamcomedie00mass$24
A50090-010-b,https://iiif.archive.org/iiif/citymadamcomedie00mass$25
A50090-011-a,https://iiif.archive.org/iiif/citymadamcomedie00mass$26
A50090-011-b,https://iiif.archive.org/iiif/citymadamcomedie00mass$27
A50090-012-a,https://iiif.archive.org/iiif/citymadamcomedie00mass$28
A50090-012-b,https://iiif.archive.org/iiif/citymadamcomedie00mass$29
A50090-013-a,https://iiif.archive.org/iiif/citymadamcomedie00mass$30
A50090-013-b,https://iiif.archive.org/iiif/citymadamcomedie00mass$31
A50090-014-a,https://iiif.archive.org/iiif/citymadamcomedie00mass$32
A50090-014-b,https://iiif.archive.org/iiif/citymadamcomedie00mass$33
A50090-015-a,https://iiif.archive.org/iiif/citymadamcomedie00mass$34
A50090-015-b,https://iiif.archive.org/iiif/citymadamcomedie00mass$35
A50090-016-a,https://iiif.archive.org/iiif/citymadamcomedie00mass$36
A50090-016-b,https://iiif.archive.org/iiif/citymadamcomedie00mass$37
A50090-017-a,https://iiif.archive.org/iiif/citymadamcomedie00mass$38
A50090-017-b,https://iiif.archive.org/iiif/citymadamcomedie00mass$39
A50090-018-a,https://iiif.archive.org/iiif/citymadamcomedie00mass$40
A50090-018-b,https://iiif.archive.org/iiif/citymadamcomedie00mass$41
A50090-019-a,https://iiif.archive.org/iiif/citymadamcomedie00mass$42
A50090-019-b,https://iiif.archive.org/iiif/citymadamcomedie00mass$43
A50090-020-a,https://iiif.archive.org/iiif/citymadamcomedie00mass$44
A50090-020-b,https://iiif.archive.org/iiif/citymadamcomedie00mass$45
A50090-021-a,https://iiif.archive.org/iiif/citymadamcomedie00mass$46
A50090-021-b,https://iiif.archive.org/iiif/citymadamcomedie00mass$47
A50090-022-a,https://iiif.archive.org/iiif/citymadamcomedie00mass$48
A50090-022-b,https://iiif.archive.org/iiif/citymadamcomedie00mass$49
A50090-023-a,https://iiif.archive.org/iiif/citymadamcomedie00mass$50
A50090-023-b,https://iiif.archive.org/iiif/citymadamcomedie00mass$51
A50090-024-a,https://iiif.archive.org/iiif/citymadamcomedie00mass$52
A50090-024-b,https://iiif.archive.org/iiif/citymadamcomedie00mass$53
A50090-025-a,https://iiif.archive.org/iiif/citymadamcomedie00mass$54
A50090-025-b,https://iiif.archive.org/iiif/citymadamcomedie00mass$55
A50090-026-a,https://iiif.archive.org/iiif/citymadamcomedie00mass$56
A50090-026-b,https://iiif.archive.org/iiif/citymadamcomedie00mass$57
A50090-027-a,https://iiif.archive.org/iiif/citymadamcomedie00mass$58
A50090-027-b,https://iiif.archive.org/iiif/citymadamcomedie00mass$59
A50090-028-a,https://iiif.archive.org/iiif/citymadamcomedie00mass$60
A50090-028-b,https://iiif.archive.org/iiif/citymadamcomedie00mass$61
A50090-029-a,https://iiif.archive.org/iiif/citymadamcomedie00mass$62
A50090-029-b,https://iiif.archive.org/iiif/citymadamcomedie00mass$63
A50090-030-a,https://iiif.archive.org/iiif/citymadamcomedie00mass$64
A50090-030-b,https://iiif.archive.org/iiif/citymadamcomedie00mass$65
A50090-031-a,https://iiif.archive.org/iiif/citymadamcomedie00mass$66
A50090-031-b,https://iiif.archive.org/iiif/citymadamcomedie00mass$67
A50090-032-a,https://iiif.archive.org/iiif/citymadamcomedie00mass$68
A50090-032-b,https://iiif.archive.org/iiif/citymadamcomedie00mass$69
A50090-033-a,https://iiif.archive.org/iiif/citymadamcomedie00mass$70
A50090-033-b,https://iiif.archive.org/iiif/citymadamcomedie00mass$71
A50090-034-a,https://iiif.archive.org/iiif/citymadamcomedie00mass$72
A50090-034-b,https://iiif.archive.org/iiif/citymadamcomedie00mass$73
A50090-035-a,https://iiif.archive.org/iiif/citymadamcomedie00mass$74
A50090-035-b,https://iiif.archive.org/iiif/citymadamcomedie00mass$75
A50090-036-a,https://iiif.archive.org/iiif/citymadamcomedie00mass$76
A50090-036-b,https://iiif.archive.org/iiif/citymadamcomedie00mass$77
A50090-037-a,https://iiif.archive.org/iiif/citymadamcomedie00mass$78
A50090-037-b,https://iiif.archive.org/iiif/citymadamcomedie00mass$79
A50090-038-a,https://iiif.archive.org/iiif/citymadamcomedie00mass$80
A50090-038-b,https://iiif.archive.org/iiif/citymadamcomedie00mass$81
A50090-039-a,https://iiif.archive.org/iiif/citymadamcomedie00mass$82
A50090-039-b,https://iiif.archive.org/iiif/citymadamcomedie00mass$83
A50090-040-a,https://iiif.archive.org/iiif/citymadamcomedie00mass$84
A50090-040-b,https://iiif.archive.org/iiif/citymadamcomedie00mass$85
A50090-041-a,https://iiif.archive.org/iiif/citymadamcomedie00mass$86
A50090-041-b,https://iiif.archive.org/iiif/citymadamcomedie00mass$87
A50090-042-a,https://iiif.archive.org/iiif/citymadamcomedie00mass$88
A50090-042-b,https://iiif.archive.org/iiif/citymadamcomedie00mass$89
A50090-043-a,https://iiif.archive.org/iiif/citymadamcomedie00mass$90
