A50937-001-a,https://iiif.archive.org/iiif/nd3904626$4
A50937-002-b,https://iiif.archive.org/iiif/nd3904626$6
A50937-003-a,https://iiif.archive.org/iiif/nd3904626$7
A50937-003-b,https://iiif.archive.org/iiif/nd3904626$8
A50937-004-a,https://iiif.archive.org/iiif/nd3904626$9
A50937-004-b,https://iiif.archive.org/iiif/nd3904626$10
A50937-005-a,https://iiif.archive.org/iiif/nd3904626$11
A50937-005-b,https://iiif.archive.org/iiif/nd3904626$12
A50937-006-a,https://iiif.archive.org/iiif/nd3904626$13
A50937-006-b,https://iiif.archive.org/iiif/nd3904626$14
A50937-007-a,https://iiif.archive.org/iiif/nd3904626$15
A50937-007-b,https://iiif.archive.org/iiif/nd3904626$16
A50937-008-a,https://iiif.archive.org/iiif/nd3904626$17
A50937-008-b,https://iiif.archive.org/iiif/nd3904626$18
A50937-009-a,https://iiif.archive.org/iiif/nd3904626$19
A50937-009-b,https://iiif.archive.org/iiif/nd3904626$20
A50937-010-a,https://iiif.archive.org/iiif/nd3904626$21
A50937-010-b,https://iiif.archive.org/iiif/nd3904626$22
A50937-011-a,https://iiif.archive.org/iiif/nd3904626$23
A50937-011-b,https://iiif.archive.org/iiif/nd3904626$24
A50937-012-a,https://iiif.archive.org/iiif/nd3904626$25
A50937-012-b,https://iiif.archive.org/iiif/nd3904626$26
A50937-013-a,https://iiif.archive.org/iiif/nd3904626$27
A50937-013-b,https://iiif.archive.org/iiif/nd3904626$28
A50937-014-a,https://iiif.archive.org/iiif/nd3904626$29
A50937-014-b,https://iiif.archive.org/iiif/nd3904626$30
A50937-015-a,https://iiif.archive.org/iiif/nd3904626$31
A50937-015-b,https://iiif.archive.org/iiif/nd3904626$32
A50937-016-a,https://iiif.archive.org/iiif/nd3904626$33
A50937-016-b,https://iiif.archive.org/iiif/nd3904626$34
A50937-017-a,https://iiif.archive.org/iiif/nd3904626$35
A50937-017-b,https://iiif.archive.org/iiif/nd3904626$36
A50937-018-a,https://iiif.archive.org/iiif/nd3904626$37
A50937-018-b,https://iiif.archive.org/iiif/nd3904626$38
A50937-019-a,https://iiif.archive.org/iiif/nd3904626$39
A50937-019-b,https://iiif.archive.org/iiif/nd3904626$40
A50937-020-a,https://iiif.archive.org/iiif/nd3904626$41
A50937-020-b,https://iiif.archive.org/iiif/nd3904626$42
A50937-021-a,https://iiif.archive.org/iiif/nd3904626$43
A50937-021-b,https://iiif.archive.org/iiif/nd3904626$44
A50937-022-a,https://iiif.archive.org/iiif/nd3904626$45
A50937-022-b,https://iiif.archive.org/iiif/nd3904626$46
A50937-023-a,https://iiif.archive.org/iiif/nd3904626$47
A50937-023-b,https://iiif.archive.org/iiif/nd3904626$48
A50937-024-a,https://iiif.archive.org/iiif/nd3904626$49
A50937-024-b,https://iiif.archive.org/iiif/nd3904626$50
A50937-025-a,https://iiif.archive.org/iiif/nd3904626$51
A50937-025-b,https://iiif.archive.org/iiif/nd3904626$52
A50937-026-a,https://iiif.archive.org/iiif/nd3904626$53
A50937-026-b,https://iiif.archive.org/iiif/nd3904626$54
A50937-027-a,https://iiif.archive.org/iiif/nd3904626$55
A50937-027-b,https://iiif.archive.org/iiif/nd3904626$56
A50937-028-a,https://iiif.archive.org/iiif/nd3904626$57
A50937-028-b,https://iiif.archive.org/iiif/nd3904626$58
A50937-029-a,https://iiif.archive.org/iiif/nd3904626$59
A50937-029-b,https://iiif.archive.org/iiif/nd3904626$60
A50937-030-a,https://iiif.archive.org/iiif/nd3904626$61
A50937-030-b,https://iiif.archive.org/iiif/nd3904626$62
A50937-031-a,https://iiif.archive.org/iiif/nd3904626$63
A50937-031-b,https://iiif.archive.org/iiif/nd3904626$64
A50937-032-a,https://iiif.archive.org/iiif/nd3904626$65
A50937-032-b,https://iiif.archive.org/iiif/nd3904626$66
A50937-033-a,https://iiif.archive.org/iiif/nd3904626$67
A50937-033-b,https://iiif.archive.org/iiif/nd3904626$68
A50937-034-a,https://iiif.archive.org/iiif/nd3904626$69
A50937-034-b,https://iiif.archive.org/iiif/nd3904626$70
A50937-035-a,https://iiif.archive.org/iiif/nd3904626$71
A50937-035-b,https://iiif.archive.org/iiif/nd3904626$72
A50937-036-a,https://iiif.archive.org/iiif/nd3904626$73
A50937-036-b,https://iiif.archive.org/iiif/nd3904626$74
A50937-037-a,https://iiif.archive.org/iiif/nd3904626$75
