A51517-001-b,https://iiif.archive.org/iiif/injurdloversoram00moun$5
A51517-002-b,https://iiif.archive.org/iiif/injurdloversoram00moun$7
A51517-003-a,https://iiif.archive.org/iiif/injurdloversoram00moun$8
A51517-003-b,https://iiif.archive.org/iiif/injurdloversoram00moun$9
A51517-004-a,https://iiif.archive.org/iiif/injurdloversoram00moun$10
A51517-004-b,https://iiif.archive.org/iiif/injurdloversoram00moun$11
A51517-005-a,https://iiif.archive.org/iiif/injurdloversoram00moun$12
A51517-005-b,https://iiif.archive.org/iiif/injurdloversoram00moun$15
A51517-006-a,https://iiif.archive.org/iiif/injurdloversoram00moun$16
A51517-006-b,https://iiif.archive.org/iiif/injurdloversoram00moun$17
A51517-007-a,https://iiif.archive.org/iiif/injurdloversoram00moun$18
A51517-007-b,https://iiif.archive.org/iiif/injurdloversoram00moun$19
A51517-008-a,https://iiif.archive.org/iiif/injurdloversoram00moun$20
A51517-008-b,https://iiif.archive.org/iiif/injurdloversoram00moun$21
A51517-009-a,https://iiif.archive.org/iiif/injurdloversoram00moun$22
A51517-009-b,https://iiif.archive.org/iiif/injurdloversoram00moun$23
A51517-010-a,https://iiif.archive.org/iiif/injurdloversoram00moun$24
A51517-010-b,https://iiif.archive.org/iiif/injurdloversoram00moun$25
A51517-011-a,https://iiif.archive.org/iiif/injurdloversoram00moun$26
A51517-011-b,https://iiif.archive.org/iiif/injurdloversoram00moun$27
A51517-012-a,https://iiif.archive.org/iiif/injurdloversoram00moun$28
A51517-012-b,https://iiif.archive.org/iiif/injurdloversoram00moun$29
A51517-013-a,https://iiif.archive.org/iiif/injurdloversoram00moun$30
A51517-013-b,https://iiif.archive.org/iiif/injurdloversoram00moun$31
A51517-014-a,https://iiif.archive.org/iiif/injurdloversoram00moun$32
A51517-014-b,https://iiif.archive.org/iiif/injurdloversoram00moun$33
A51517-015-a,https://iiif.archive.org/iiif/injurdloversoram00moun$34
A51517-015-b,https://iiif.archive.org/iiif/injurdloversoram00moun$35
A51517-016-a,https://iiif.archive.org/iiif/injurdloversoram00moun$36
A51517-016-b,https://iiif.archive.org/iiif/injurdloversoram00moun$37
A51517-017-a,https://iiif.archive.org/iiif/injurdloversoram00moun$38
A51517-017-b,https://iiif.archive.org/iiif/injurdloversoram00moun$39
A51517-018-a,https://iiif.archive.org/iiif/injurdloversoram00moun$40
A51517-018-b,https://iiif.archive.org/iiif/injurdloversoram00moun$41
A51517-019-a,https://iiif.archive.org/iiif/injurdloversoram00moun$42
A51517-019-b,https://iiif.archive.org/iiif/injurdloversoram00moun$43
A51517-020-a,https://iiif.archive.org/iiif/injurdloversoram00moun$44
A51517-020-b,https://iiif.archive.org/iiif/injurdloversoram00moun$45
A51517-021-a,https://iiif.archive.org/iiif/injurdloversoram00moun$46
A51517-021-b,https://iiif.archive.org/iiif/injurdloversoram00moun$47
A51517-022-a,https://iiif.archive.org/iiif/injurdloversoram00moun$48
A51517-022-b,https://iiif.archive.org/iiif/injurdloversoram00moun$49
A51517-023-a,https://iiif.archive.org/iiif/injurdloversoram00moun$50
A51517-023-b,https://iiif.archive.org/iiif/injurdloversoram00moun$51
A51517-024-a,https://iiif.archive.org/iiif/injurdloversoram00moun$52
A51517-024-b,https://iiif.archive.org/iiif/injurdloversoram00moun$53
A51517-025-a,https://iiif.archive.org/iiif/injurdloversoram00moun$54
A51517-025-b,https://iiif.archive.org/iiif/injurdloversoram00moun$55
A51517-026-a,https://iiif.archive.org/iiif/injurdloversoram00moun$56
A51517-026-b,https://iiif.archive.org/iiif/injurdloversoram00moun$57
A51517-027-a,https://iiif.archive.org/iiif/injurdloversoram00moun$58
A51517-027-b,https://iiif.archive.org/iiif/injurdloversoram00moun$59
A51517-028-a,https://iiif.archive.org/iiif/injurdloversoram00moun$60
A51517-028-b,https://iiif.archive.org/iiif/injurdloversoram00moun$61
A51517-029-a,https://iiif.archive.org/iiif/injurdloversoram00moun$62
A51517-029-b,https://iiif.archive.org/iiif/injurdloversoram00moun$63
A51517-030-a,https://iiif.archive.org/iiif/injurdloversoram00moun$64
A51517-030-b,https://iiif.archive.org/iiif/injurdloversoram00moun$65
A51517-031-a,https://iiif.archive.org/iiif/injurdloversoram00moun$66
A51517-031-b,https://iiif.archive.org/iiif/injurdloversoram00moun$67
A51517-032-a,https://iiif.archive.org/iiif/injurdloversoram00moun$68
A51517-032-b,https://iiif.archive.org/iiif/injurdloversoram00moun$69
A51517-033-a,https://iiif.archive.org/iiif/injurdloversoram00moun$70
A51517-033-b,https://iiif.archive.org/iiif/injurdloversoram00moun$71
A51517-034-a,https://iiif.archive.org/iiif/injurdloversoram00moun$72
A51517-034-b,https://iiif.archive.org/iiif/injurdloversoram00moun$73
A51517-035-a,https://iiif.archive.org/iiif/injurdloversoram00moun$74
A51517-035-b,https://iiif.archive.org/iiif/injurdloversoram00moun$75
A51517-036-a,https://iiif.archive.org/iiif/injurdloversoram00moun$76
A51517-036-b,https://iiif.archive.org/iiif/injurdloversoram00moun$77
A51517-037-a,https://iiif.archive.org/iiif/injurdloversoram00moun$78
A51517-037-b,https://iiif.archive.org/iiif/injurdloversoram00moun$79
A51517-038-a,https://iiif.archive.org/iiif/injurdloversoram00moun$80
A51517-038-b,https://iiif.archive.org/iiif/injurdloversoram00moun$81
A51517-039-a,https://iiif.archive.org/iiif/injurdloversoram00moun$82
A51517-039-b,https://iiif.archive.org/iiif/injurdloversoram00moun$83
A51517-040-a,https://iiif.archive.org/iiif/injurdloversoram00moun$84
A51517-040-b,https://iiif.archive.org/iiif/injurdloversoram00moun$85
A51517-041-a,https://iiif.archive.org/iiif/injurdloversoram00moun$86
