A53517-001-a,9999
A53517-001-b,https://colenda.library.upenn.edu/phalt/iiif/2/ark81431p3h41k38n%2FSHA256E-s1865832--e5fac379a2bbaf3f8dec1aab8e66235bf648cebacba5249e8d09d986b5429b1e.jpeg/full/full/0/default.jpg
A53517-002-a,https://colenda.library.upenn.edu/phalt/iiif/2/ark81431p3h41k38n%2FSHA256E-s1272445--e29c339eb32f922ee3f488d845a84c194667c85be18bb1e6d52efd4acb2897bd.jpeg/full/full/0/default.jpg
A53517-002-b,https://colenda.library.upenn.edu/phalt/iiif/2/ark81431p3h41k38n%2FSHA256E-s2094206--00e3986a32127f449990e74fc400caec8d48287fd3333250f21457c95c22c5c3.jpeg/full/full/0/default.jpg
A53517-003-a,https://colenda.library.upenn.edu/phalt/iiif/2/ark81431p3h41k38n%2FSHA256E-s1932567--b06b8663523095f3b9888b4e73c725c741d48f1fc5bf5ba7a8e7770bfe7534eb.jpeg/full/full/0/default.jpg
A53517-003-b,https://colenda.library.upenn.edu/phalt/iiif/2/ark81431p3h41k38n%2FSHA256E-s2254211--5bd93840da7b2ef6ad37d8e7e2072154315dfce7fe79fec75edc2a45f173e12c.jpeg/full/full/0/default.jpg
A53517-004-a,https://colenda.library.upenn.edu/phalt/iiif/2/ark81431p3h41k38n%2FSHA256E-s1797302--628a416a9ff3ec20a6ededeec8554b55b77c4bfbb9c363f83cbec991bfa07490.jpeg/full/full/0/default.jpg
A53517-004-b,https://colenda.library.upenn.edu/phalt/iiif/2/ark81431p3h41k38n%2FSHA256E-s1406360--9d8deb7374fdb15c6ff5fefc4af734763a99c90fc7b4f05e9742d67fdc80db76.jpeg/full/full/0/default.jpg
A53517-005-a,https://colenda.library.upenn.edu/phalt/iiif/2/ark81431p3h41k38n%2FSHA256E-s1482763--6b18db7ad98caa41a45481163aa1d5aca12cb13ae4c0238d89ac64ad47333a78.jpeg/full/full/0/default.jpg
A53517-005-b,https://colenda.library.upenn.edu/phalt/iiif/2/ark81431p3h41k38n%2FSHA256E-s1769296--82bb84ed5cda83e04a209866b6c9da36257031340546ac3a2a85564ad086dd65.jpeg/full/full/0/default.jpg
A53517-006-a,https://colenda.library.upenn.edu/phalt/iiif/2/ark81431p3h41k38n%2FSHA256E-s2018332--dc04d2122a696201811a6c61ac10b2bc5242e464af17fc0f2669674525703b4d.jpeg/full/full/0/default.jpg
A53517-006-b,https://colenda.library.upenn.edu/phalt/iiif/2/ark81431p3h41k38n%2FSHA256E-s2194123--9984c968465785f4fd82ed50173912fe26cc8c0885d6ed01e4c8602a916aff41.jpeg/full/full/0/default.jpg
A53517-007-a,https://colenda.library.upenn.edu/phalt/iiif/2/ark81431p3h41k38n%2FSHA256E-s2045610--d12ad795aed791a1585b13819f03a171690d27916506742419d316576cb2d92f.jpeg/full/full/0/default.jpg
A53517-007-b,https://colenda.library.upenn.edu/phalt/iiif/2/ark81431p3h41k38n%2FSHA256E-s2228513--5af068dd1dbe09fdfee9a5b2a5f513155c6831cf64c22d5b278d1951e2a1cdc9.jpeg/full/full/0/default.jpg
A53517-008-a,https://colenda.library.upenn.edu/phalt/iiif/2/ark81431p3h41k38n%2FSHA256E-s2126236--398894c1dbc0552f5a786f986d7ef89f19af7bcaa5205ca5d509867299160500.jpeg/full/full/0/default.jpg
A53517-008-b,https://colenda.library.upenn.edu/phalt/iiif/2/ark81431p3h41k38n%2FSHA256E-s2265432--c26453f97595850f28ea6c04946487ddf18f2168743e719b6c1d6bf951567b62.jpeg/full/full/0/default.jpg
A53517-009-a,https://colenda.library.upenn.edu/phalt/iiif/2/ark81431p3h41k38n%2FSHA256E-s2027580--c58e7944f6e0f6c817eafc6cd2f4ae736bb86a5569f13a7467721bb0481c482c.jpeg/full/full/0/default.jpg
A53517-009-b,https://colenda.library.upenn.edu/phalt/iiif/2/ark81431p3h41k38n%2FSHA256E-s2225152--a9cfacd9a89ef6d868998cdee7f6a7da1db62c22a527419472a09b8444384ffe.jpeg/full/full/0/default.jpg
A53517-010-a,https://colenda.library.upenn.edu/phalt/iiif/2/ark81431p3h41k38n%2FSHA256E-s2066504--6e522519b4b953097ae0f110224ce1a1538ec110897424690f20a8050669eab5.jpeg/full/full/0/default.jpg
A53517-010-b,https://colenda.library.upenn.edu/phalt/iiif/2/ark81431p3h41k38n%2FSHA256E-s2222027--4b122ca80e0be0cec5dcfc6607778f1f4f09f7832a5414e14f7e4efaac1de343.jpeg/full/full/0/default.jpg
A53517-011-a,https://colenda.library.upenn.edu/phalt/iiif/2/ark81431p3h41k38n%2FSHA256E-s1976412--d862eb8f31353a379eb824b64bc6433f89d10374a1a19fd457add51186afe22e.jpeg/full/full/0/default.jpg
A53517-011-b,https://colenda.library.upenn.edu/phalt/iiif/2/ark81431p3h41k38n%2FSHA256E-s2388048--df6cfb07b23b9469b3d1fce8fa99485d867046aa4ae7c1eb6bc2b24527466f1a.jpeg/full/full/0/default.jpg
A53517-012-a,https://colenda.library.upenn.edu/phalt/iiif/2/ark81431p3h41k38n%2FSHA256E-s2058549--4b444c4e3879aa76c277214f644627bd98f3d427bf7a585edb5d8d852921ab86.jpeg/full/full/0/default.jpg
A53517-012-b,https://colenda.library.upenn.edu/phalt/iiif/2/ark81431p3h41k38n%2FSHA256E-s2111860--22433fdf6388299d9e4a8c3f421338afa0c79c0997f450347270649cbc136be8.jpeg/full/full/0/default.jpg
A53517-013-a,https://colenda.library.upenn.edu/phalt/iiif/2/ark81431p3h41k38n%2FSHA256E-s2098756--8861edd200abd3c5efb42ec88106e97b0256030c88f04ec66029b6076d038c2f.jpeg/full/full/0/default.jpg
A53517-013-b,https://colenda.library.upenn.edu/phalt/iiif/2/ark81431p3h41k38n%2FSHA256E-s2267693--75dd0e3487db256cc7a733aaa1f7eb5ce1c199c58a372756b66f198aef7ce46c.jpeg/full/full/0/default.jpg
A53517-014-a,https://colenda.library.upenn.edu/phalt/iiif/2/ark81431p3h41k38n%2FSHA256E-s2045856--fe901a9d61f8e804858906ef4a7779ab8b709826139e7f116b91c91a78bd743b.jpeg/full/full/0/default.jpg
A53517-014-b,https://colenda.library.upenn.edu/phalt/iiif/2/ark81431p3h41k38n%2FSHA256E-s2131533--fa605d87632473df8fabb42dfd8a69fc093ffe7db6b4e198b0334f0e57f2c8bb.jpeg/full/full/0/default.jpg
A53517-015-a,https://colenda.library.upenn.edu/phalt/iiif/2/ark81431p3h41k38n%2FSHA256E-s2083851--b0d09071dd1356dae2b83bcdc5db8eb4a0bd566c44b2e7146019eb1ff19c8cd0.jpeg/full/full/0/default.jpg
A53517-015-b,https://colenda.library.upenn.edu/phalt/iiif/2/ark81431p3h41k38n%2FSHA256E-s2192332--53e2051fc7ef80788e154ec45c1fa98eacee0427268da8aeddb8bd958712fc85.jpeg/full/full/0/default.jpg
A53517-016-a,https://colenda.library.upenn.edu/phalt/iiif/2/ark81431p3h41k38n%2FSHA256E-s2085104--81cdaaf4f96d942068fb1bc2750b138053acb32716801d22bc54dda00b214bc6.jpeg/full/full/0/default.jpg
A53517-016-b,https://colenda.library.upenn.edu/phalt/iiif/2/ark81431p3h41k38n%2FSHA256E-s2318408--050362806b567ff0887be63ca49a29e8213b3d7b6b3de029eabff167a9ade0b2.jpeg/full/full/0/default.jpg
A53517-017-a,https://colenda.library.upenn.edu/phalt/iiif/2/ark81431p3h41k38n%2FSHA256E-s1996703--39e785ab8396d69bea9e8e38ce81f700434222cfa5e15e5c949f2218699a3489.jpeg/full/full/0/default.jpg
A53517-017-b,https://colenda.library.upenn.edu/phalt/iiif/2/ark81431p3h41k38n%2FSHA256E-s1995620--1f59518386f4d101109b4aa904849ce13661a9cfe8e3c5e04722732f3b13a292.jpeg/full/full/0/default.jpg
A53517-018-a,https://colenda.library.upenn.edu/phalt/iiif/2/ark81431p3h41k38n%2FSHA256E-s2023869--9c564c04067584d3931d2dac9f3fb13f3c76dae454ceb81bc065f9f053f6a007.jpeg/full/full/0/default.jpg
A53517-018-b,https://colenda.library.upenn.edu/phalt/iiif/2/ark81431p3h41k38n%2FSHA256E-s2140043--0e42c04c62878914f2fc290193b5dc2c35fa634a707927cf1dc0265f435f27a4.jpeg/full/full/0/default.jpg
A53517-019-a,https://colenda.library.upenn.edu/phalt/iiif/2/ark81431p3h41k38n%2FSHA256E-s2171276--0673226f09f8f05b52c473a4f2d6b57be7a0b76f380f8b0816865349daacdcc1.jpeg/full/full/0/default.jpg
A53517-019-b,https://colenda.library.upenn.edu/phalt/iiif/2/ark81431p3h41k38n%2FSHA256E-s2126123--d0d345255e9595107302c1239e6be6946899c3265fe075a99843d822761b1064.jpeg/full/full/0/default.jpg
A53517-020-a,https://colenda.library.upenn.edu/phalt/iiif/2/ark81431p3h41k38n%2FSHA256E-s2047518--34e3b175e8ad27c2b28bb3586a318d88ecd03b0e13a4f73fdd89711cb3364344.jpeg/full/full/0/default.jpg
A53517-020-b,https://colenda.library.upenn.edu/phalt/iiif/2/ark81431p3h41k38n%2FSHA256E-s1956279--9e05a89bdcf569e98bcfc1258fe9f2c4a9195200f626bf2ecd236ebbe6b2ed6b.jpeg/full/full/0/default.jpg
A53517-021-a,https://colenda.library.upenn.edu/phalt/iiif/2/ark81431p3h41k38n%2FSHA256E-s2069208--268ee271e9c52e622dca78050f61a1657c6d9f38a191ee2b2c689e2ed28d3bb7.jpeg/full/full/0/default.jpg
A53517-021-b,https://colenda.library.upenn.edu/phalt/iiif/2/ark81431p3h41k38n%2FSHA256E-s1959586--7cc703aaf6dbc06744f7e73a2dab4931a4dd6d678697b3761fb61759787cf37e.jpeg/full/full/0/default.jpg
A53517-022-a,https://colenda.library.upenn.edu/phalt/iiif/2/ark81431p3h41k38n%2FSHA256E-s2038392--1dfffd2f9644ff00944936df6d418d23c2d59f92a33516dd56218ab1bf1f2595.jpeg/full/full/0/default.jpg
A53517-022-b,https://colenda.library.upenn.edu/phalt/iiif/2/ark81431p3h41k38n%2FSHA256E-s1980065--af7e830d0afe51445389e8ab57ffd21e6d514b451e4698ce2f9dce55eca98967.jpeg/full/full/0/default.jpg
A53517-023-a,https://colenda.library.upenn.edu/phalt/iiif/2/ark81431p3h41k38n%2FSHA256E-s1994483--7cdfcba3353c79972ea41331cf9509ea9f50bd537e8711cd477153a80dbd3ea6.jpeg/full/full/0/default.jpg
A53517-023-b,https://colenda.library.upenn.edu/phalt/iiif/2/ark81431p3h41k38n%2FSHA256E-s1817896--cf45aebb0b7e42a0fa26ea239c0b78eea35260b7cf1f57f0adf93ab12f99cd41.jpeg/full/full/0/default.jpg
A53517-024-a,https://colenda.library.upenn.edu/phalt/iiif/2/ark81431p3h41k38n%2FSHA256E-s1909453--81c29e028a420e60fb188af143ffc8f2dc3b16c9283a89fe6d3e28a63052cb0d.jpeg/full/full/0/default.jpg
A53517-024-b,https://colenda.library.upenn.edu/phalt/iiif/2/ark81431p3h41k38n%2FSHA256E-s2050805--802ea1c318e6ccfb0abf1557dfc082921b1887a305214c4f9cbfcb1bd26dd8ba.jpeg/full/full/0/default.jpg
A53517-025-a,https://colenda.library.upenn.edu/phalt/iiif/2/ark81431p3h41k38n%2FSHA256E-s2005317--dadc6f5266afb811eb9ce7e7c6d01e7afc36e30ab192c4fb1943161078a24dae.jpeg/full/full/0/default.jpg
A53517-025-b,https://colenda.library.upenn.edu/phalt/iiif/2/ark81431p3h41k38n%2FSHA256E-s1889525--f4b28d1cbecb1b500b70a36a24ef3eff7ab12b0e6057e741a820749ea05b9ca3.jpeg/full/full/0/default.jpg
A53517-026-a,https://colenda.library.upenn.edu/phalt/iiif/2/ark81431p3h41k38n%2FSHA256E-s1964429--ec2c03c5628e20cbbbbc9d75820e007c5ee5fd271b7cbc3f8ba4f37ddbd1ac2d.jpeg/full/full/0/default.jpg
A53517-026-b,https://colenda.library.upenn.edu/phalt/iiif/2/ark81431p3h41k38n%2FSHA256E-s2098038--9370b648c70b1ff9897a08c0543bba62a1d41860f86aab285703da4c812783f4.jpeg/full/full/0/default.jpg
A53517-027-a,https://colenda.library.upenn.edu/phalt/iiif/2/ark81431p3h41k38n%2FSHA256E-s2044990--9c3da1c776f1053d74a2a187e6fab5409b97fe281bfbd4752639974be6833254.jpeg/full/full/0/default.jpg
A53517-027-b,https://colenda.library.upenn.edu/phalt/iiif/2/ark81431p3h41k38n%2FSHA256E-s2031172--02879585ad5eb09266488f685714a4d8578df4ce3d0702c38459a39b2c582fdc.jpeg/full/full/0/default.jpg
A53517-028-a,https://colenda.library.upenn.edu/phalt/iiif/2/ark81431p3h41k38n%2FSHA256E-s2010505--c884ccd64a7b9ee7e960834e8a101a817bd5f369c4f173ae24cb51de5f9f362c.jpeg/full/full/0/default.jpg
A53517-028-b,https://colenda.library.upenn.edu/phalt/iiif/2/ark81431p3h41k38n%2FSHA256E-s1913554--c59bc4cd5d7b2e60c3b10187ff4af31141fe51ad1df848fe87d28738eff7e37c.jpeg/full/full/0/default.jpg
A53517-029-a,https://colenda.library.upenn.edu/phalt/iiif/2/ark81431p3h41k38n%2FSHA256E-s1976239--bf3f9a990f6391f52086c6d0dd63dbff2a0bb24662635d2f8208e3423631d741.jpeg/full/full/0/default.jpg
A53517-029-b,https://colenda.library.upenn.edu/phalt/iiif/2/ark81431p3h41k38n%2FSHA256E-s1936735--f6a865bb1828bfb3a53bc55c32842451bc49becfe6c7226c14f024dd51ab804b.jpeg/full/full/0/default.jpg
A53517-030-a,https://colenda.library.upenn.edu/phalt/iiif/2/ark81431p3h41k38n%2FSHA256E-s1957681--efbc09a26e8ef1b0f8db523d6f4133a7dc23df457e4cfccbb6fb2956d93521dc.jpeg/full/full/0/default.jpg
A53517-030-b,https://colenda.library.upenn.edu/phalt/iiif/2/ark81431p3h41k38n%2FSHA256E-s2000016--a915c7f82f9b85a85240b734d209523051601ea79586fdbb94e15e963abf01e4.jpeg/full/full/0/default.jpg
A53517-031-a,https://colenda.library.upenn.edu/phalt/iiif/2/ark81431p3h41k38n%2FSHA256E-s1880016--79e0690be2b4aee69a6592e8ae2c7c863fe5701f840a3d4d4a20dc609eeed193.jpeg/full/full/0/default.jpg
A53517-031-b,https://colenda.library.upenn.edu/phalt/iiif/2/ark81431p3h41k38n%2FSHA256E-s1907766--a336b6ac8fd9a3327c570890707871d19b6c44df39a39f3eb5b4463a331b5667.jpeg/full/full/0/default.jpg
A53517-032-a,https://colenda.library.upenn.edu/phalt/iiif/2/ark81431p3h41k38n%2FSHA256E-s2016950--1fc2298b8dc223a9f48ccc089da2f2293b1247e97ed88c26f101986ebbabc9ac.jpeg/full/full/0/default.jpg
A53517-032-b,https://colenda.library.upenn.edu/phalt/iiif/2/ark81431p3h41k38n%2FSHA256E-s2040125--4a03f5fddcaf299e07486202eb364e2b402f70f0a2a1f3db1827c94579cc1939.jpeg/full/full/0/default.jpg
A53517-033-a,https://colenda.library.upenn.edu/phalt/iiif/2/ark81431p3h41k38n%2FSHA256E-s1879537--85d3bd3205aa92de49f070a70a63f3abfd230707c37bfcedb1a30e1a89ccda9b.jpeg/full/full/0/default.jpg
A53517-033-b,https://colenda.library.upenn.edu/phalt/iiif/2/ark81431p3h41k38n%2FSHA256E-s2005281--dedfc3d4583b3540b77fa9ab14d16b922dd3e16deba5bab34c86042d0acf09f9.jpeg/full/full/0/default.jpg
A53517-034-a,https://colenda.library.upenn.edu/phalt/iiif/2/ark81431p3h41k38n%2FSHA256E-s1990091--f58c92e7d5650631e4fcb243eefbd065f2ea8c2ee3609ca5b0aec00178ebe83e.jpeg/full/full/0/default.jpg
A53517-034-b,https://colenda.library.upenn.edu/phalt/iiif/2/ark81431p3h41k38n%2FSHA256E-s1956143--9cd67d4f2f8ff78ff583155dab447d4f16392fca16d45ff4a2ae124f5051dfdb.jpeg/full/full/0/default.jpg
A53517-035-a,https://colenda.library.upenn.edu/phalt/iiif/2/ark81431p3h41k38n%2FSHA256E-s1940414--1cfa59f3a660b78e5e1373a5c9303f13acc67de2c21c071f3091a43dedc767d3.jpeg/full/full/0/default.jpg
A53517-035-b,https://colenda.library.upenn.edu/phalt/iiif/2/ark81431p3h41k38n%2FSHA256E-s2037430--ba5671ff8abf677773bed5ae1eea2fbdc5c94a3835535682a8518db09b7854b0.jpeg/full/full/0/default.jpg
A53517-036-a,https://colenda.library.upenn.edu/phalt/iiif/2/ark81431p3h41k38n%2FSHA256E-s1966498--9dd85851cab82d4175727cd062256022c2283b0014a21c41906eaa0058f9a35e.jpeg/full/full/0/default.jpg
A53517-036-b,https://colenda.library.upenn.edu/phalt/iiif/2/ark81431p3h41k38n%2FSHA256E-s2094225--4ff9137327bb867c5579173f189e4436648d7852fc73e68e6349b0cc58bf3cf5.jpeg/full/full/0/default.jpg
A53517-037-a,https://colenda.library.upenn.edu/phalt/iiif/2/ark81431p3h41k38n%2FSHA256E-s2065416--f60948a2af6bcb2efbcb1ff312b8d6af2252d97aefe9480b55798d787f6f679d.jpeg/full/full/0/default.jpg
A53517-037-b,https://colenda.library.upenn.edu/phalt/iiif/2/ark81431p3h41k38n%2FSHA256E-s2047717--cd826b6ec94bd6a21abf429a00008735e1921b4e8e34284ae42fd37a695ddfbd.jpeg/full/full/0/default.jpg
A53517-038-a,https://colenda.library.upenn.edu/phalt/iiif/2/ark81431p3h41k38n%2FSHA256E-s1869413--5f701a906f006cc508ddf79181c9ad49492cdc35ed839c96f30f9cdc02d75581.jpeg/full/full/0/default.jpg
A53517-038-b,https://colenda.library.upenn.edu/phalt/iiif/2/ark81431p3h41k38n%2FSHA256E-s1900310--f568c90debad02d71eaa6cb99d8989c18f0a0c9a01512daec4421c8827e46d40.jpeg/full/full/0/default.jpg
