A57484-001-b,https://iiif.archive.org/iiif/historyofcaribb00roch$07
A57484-002-a,https://iiif.archive.org/iiif/historyofcaribb00roch$08
A57484-002-b,https://iiif.archive.org/iiif/historyofcaribb00roch$09
A57484-003-a,https://iiif.archive.org/iiif/historyofcaribb00roch$10
A57484-003-b,https://iiif.archive.org/iiif/historyofcaribb00roch$11
A57484-004-a,https://iiif.archive.org/iiif/historyofcaribb00roch$12
A57484-004-b,https://iiif.archive.org/iiif/historyofcaribb00roch$13
A57484-005-a,https://iiif.archive.org/iiif/historyofcaribb00roch$14
A57484-005-b,https://iiif.archive.org/iiif/historyofcaribb00roch$15
A57484-006-a,https://iiif.archive.org/iiif/historyofcaribb00roch$16
A57484-006-b,https://iiif.archive.org/iiif/historyofcaribb00roch$17
A57484-007-a,https://iiif.archive.org/iiif/historyofcaribb00roch$18
A57484-007-b,https://iiif.archive.org/iiif/historyofcaribb00roch$19
A57484-008-a,https://iiif.archive.org/iiif/historyofcaribb00roch$20
A57484-008-b,https://iiif.archive.org/iiif/historyofcaribb00roch$21
A57484-009-a,https://iiif.archive.org/iiif/historyofcaribb00roch$22
A57484-009-b,https://iiif.archive.org/iiif/historyofcaribb00roch$23
A57484-010-a,https://iiif.archive.org/iiif/historyofcaribb00roch$24
A57484-010-b,https://iiif.archive.org/iiif/historyofcaribb00roch$25
A57484-011-a,https://iiif.archive.org/iiif/historyofcaribb00roch$26
A57484-011-b,https://iiif.archive.org/iiif/historyofcaribb00roch$27
A57484-012-a,https://iiif.archive.org/iiif/historyofcaribb00roch$28
A57484-012-b,https://iiif.archive.org/iiif/historyofcaribb00roch$29
A57484-013-a,https://iiif.archive.org/iiif/historyofcaribb00roch$30
A57484-013-b,https://iiif.archive.org/iiif/historyofcaribb00roch$31
A57484-014-a,https://iiif.archive.org/iiif/historyofcaribb00roch$32
A57484-014-b,https://iiif.archive.org/iiif/historyofcaribb00roch$33
A57484-015-a,https://iiif.archive.org/iiif/historyofcaribb00roch$34
A57484-015-b,https://iiif.archive.org/iiif/historyofcaribb00roch$35
A57484-016-a,https://iiif.archive.org/iiif/historyofcaribb00roch$36
A57484-016-b,https://iiif.archive.org/iiif/historyofcaribb00roch$37
A57484-017-a,https://iiif.archive.org/iiif/historyofcaribb00roch$38
A57484-017-b,https://iiif.archive.org/iiif/historyofcaribb00roch$39
A57484-018-a,https://iiif.archive.org/iiif/historyofcaribb00roch$40
A57484-018-b,https://iiif.archive.org/iiif/historyofcaribb00roch$41
A57484-019-a,https://iiif.archive.org/iiif/historyofcaribb00roch$42
A57484-019-b,https://iiif.archive.org/iiif/historyofcaribb00roch$43
A57484-020-a,https://iiif.archive.org/iiif/historyofcaribb00roch$44
A57484-020-b,https://iiif.archive.org/iiif/historyofcaribb00roch$45
A57484-021-a,https://iiif.archive.org/iiif/historyofcaribb00roch$46
A57484-021-b,https://iiif.archive.org/iiif/historyofcaribb00roch$47
A57484-022-a,https://iiif.archive.org/iiif/historyofcaribb00roch$48
A57484-022-b,https://iiif.archive.org/iiif/historyofcaribb00roch$49
A57484-023-a,https://iiif.archive.org/iiif/historyofcaribb00roch$50
A57484-023-b,https://iiif.archive.org/iiif/historyofcaribb00roch$51
A57484-024-a,https://iiif.archive.org/iiif/historyofcaribb00roch$52
A57484-024-b,https://iiif.archive.org/iiif/historyofcaribb00roch$53
A57484-025-a,https://iiif.archive.org/iiif/historyofcaribb00roch$54
A57484-025-b,https://iiif.archive.org/iiif/historyofcaribb00roch$55
A57484-026-a,https://iiif.archive.org/iiif/historyofcaribb00roch$56
A57484-026-b,https://iiif.archive.org/iiif/historyofcaribb00roch$57
A57484-027-a,https://iiif.archive.org/iiif/historyofcaribb00roch$58
A57484-027-b,https://iiif.archive.org/iiif/historyofcaribb00roch$59
A57484-028-a,https://iiif.archive.org/iiif/historyofcaribb00roch$60
A57484-028-b,https://iiif.archive.org/iiif/historyofcaribb00roch$61
A57484-029-a,https://iiif.archive.org/iiif/historyofcaribb00roch$62
A57484-029-b,https://iiif.archive.org/iiif/historyofcaribb00roch$63
A57484-030-a,https://iiif.archive.org/iiif/historyofcaribb00roch$64
A57484-030-b,https://iiif.archive.org/iiif/historyofcaribb00roch$65
A57484-031-a,https://iiif.archive.org/iiif/historyofcaribb00roch$66
A57484-031-b,https://iiif.archive.org/iiif/historyofcaribb00roch$67
A57484-032-a,https://iiif.archive.org/iiif/historyofcaribb00roch$68
A57484-032-b,https://iiif.archive.org/iiif/historyofcaribb00roch$69
A57484-033-a,https://iiif.archive.org/iiif/historyofcaribb00roch$70
A57484-033-b,https://iiif.archive.org/iiif/historyofcaribb00roch$70
A57484-034-a,https://iiif.archive.org/iiif/historyofcaribb00roch$72
A57484-034-b,https://iiif.archive.org/iiif/historyofcaribb00roch$73
A57484-035-a,https://iiif.archive.org/iiif/historyofcaribb00roch$74
A57484-035-b,https://iiif.archive.org/iiif/historyofcaribb00roch$75
A57484-036-a,https://iiif.archive.org/iiif/historyofcaribb00roch$76
A57484-036-b,https://iiif.archive.org/iiif/historyofcaribb00roch$77
A57484-037-a,https://iiif.archive.org/iiif/historyofcaribb00roch$78
A57484-037-b,https://iiif.archive.org/iiif/historyofcaribb00roch$79
A57484-038-a,https://iiif.archive.org/iiif/historyofcaribb00roch$80
A57484-038-b,https://iiif.archive.org/iiif/historyofcaribb00roch$80
A57484-039-a,https://iiif.archive.org/iiif/historyofcaribb00roch$82
A57484-040-a,https://iiif.archive.org/iiif/historyofcaribb00roch$84
A57484-040-b,https://iiif.archive.org/iiif/historyofcaribb00roch$85
A57484-041-a,https://iiif.archive.org/iiif/historyofcaribb00roch$86
A57484-041-b,https://iiif.archive.org/iiif/historyofcaribb00roch$87
A57484-042-a,https://iiif.archive.org/iiif/historyofcaribb00roch$88
A57484-042-b,https://iiif.archive.org/iiif/historyofcaribb00roch$89
A57484-043-a,https://iiif.archive.org/iiif/historyofcaribb00roch$90
A57484-043-b,https://iiif.archive.org/iiif/historyofcaribb00roch$91
A57484-044-a,https://iiif.archive.org/iiif/historyofcaribb00roch$92
A57484-044-b,https://iiif.archive.org/iiif/historyofcaribb00roch$93
A57484-045-a,https://iiif.archive.org/iiif/historyofcaribb00roch$94
A57484-047-a,https://iiif.archive.org/iiif/historyofcaribb00roch$98
A57484-047-b,https://iiif.archive.org/iiif/historyofcaribb00roch$99
A57484-048-a,https://iiif.archive.org/iiif/historyofcaribb00roch$100
A57484-048-b,https://iiif.archive.org/iiif/historyofcaribb00roch$101
A57484-049-a,https://iiif.archive.org/iiif/historyofcaribb00roch$102
A57484-050-a,https://iiif.archive.org/iiif/historyofcaribb00roch$104
A57484-051-a,https://iiif.archive.org/iiif/historyofcaribb00roch$106
A57484-051-b,https://iiif.archive.org/iiif/historyofcaribb00roch$106
A57484-052-a,https://iiif.archive.org/iiif/historyofcaribb00roch$108
A57484-052-b,https://iiif.archive.org/iiif/historyofcaribb00roch$109
A57484-053-a,https://iiif.archive.org/iiif/historyofcaribb00roch$110
A57484-053-b,https://iiif.archive.org/iiif/historyofcaribb00roch$111
A57484-054-a,https://iiif.archive.org/iiif/historyofcaribb00roch$112
A57484-054-b,https://iiif.archive.org/iiif/historyofcaribb00roch$113
A57484-055-a,https://iiif.archive.org/iiif/historyofcaribb00roch$114
A57484-055-b,https://iiif.archive.org/iiif/historyofcaribb00roch$115
A57484-056-a,https://iiif.archive.org/iiif/historyofcaribb00roch$116
A57484-057-a,https://iiif.archive.org/iiif/historyofcaribb00roch$118
A57484-058-a,https://iiif.archive.org/iiif/historyofcaribb00roch$120
A57484-059-a,https://iiif.archive.org/iiif/historyofcaribb00roch$122
A57484-059-b,https://iiif.archive.org/iiif/historyofcaribb00roch$123
A57484-060-a,https://iiif.archive.org/iiif/historyofcaribb00roch$124
A57484-060-b,https://iiif.archive.org/iiif/historyofcaribb00roch$125
A57484-061-a,https://iiif.archive.org/iiif/historyofcaribb00roch$126
A57484-061-b,https://iiif.archive.org/iiif/historyofcaribb00roch$127
A57484-062-a,https://iiif.archive.org/iiif/historyofcaribb00roch$128
A57484-062-b,https://iiif.archive.org/iiif/historyofcaribb00roch$131
A57484-063-a,https://iiif.archive.org/iiif/historyofcaribb00roch$132
A57484-064-a,https://iiif.archive.org/iiif/historyofcaribb00roch$134
A57484-064-b,https://iiif.archive.org/iiif/historyofcaribb00roch$135
A57484-065-a,https://iiif.archive.org/iiif/historyofcaribb00roch$136
A57484-065-b,https://iiif.archive.org/iiif/historyofcaribb00roch$137
A57484-066-a,https://iiif.archive.org/iiif/historyofcaribb00roch$138
A57484-066-b,https://iiif.archive.org/iiif/historyofcaribb00roch$139
A57484-067-a,https://iiif.archive.org/iiif/historyofcaribb00roch$140
A57484-067-b,https://iiif.archive.org/iiif/historyofcaribb00roch$141
A57484-068-a,https://iiif.archive.org/iiif/historyofcaribb00roch$142
A57484-069-a,https://iiif.archive.org/iiif/historyofcaribb00roch$143
A57484-070-a,https://iiif.archive.org/iiif/historyofcaribb00roch$144
A57484-070-b,https://iiif.archive.org/iiif/historyofcaribb00roch$145
A57484-071-a,https://iiif.archive.org/iiif/historyofcaribb00roch$146
A57484-072-a,https://iiif.archive.org/iiif/historyofcaribb00roch$149
A57484-073-a,https://iiif.archive.org/iiif/historyofcaribb00roch$150
A57484-073-b,https://iiif.archive.org/iiif/historyofcaribb00roch$151
A57484-074-a,https://iiif.archive.org/iiif/historyofcaribb00roch$152
A57484-074-b,https://iiif.archive.org/iiif/historyofcaribb00roch$153
A57484-075-a,https://iiif.archive.org/iiif/historyofcaribb00roch$154
A57484-075-b,https://iiif.archive.org/iiif/historyofcaribb00roch$155
A57484-076-a,https://iiif.archive.org/iiif/historyofcaribb00roch$156
A57484-076-b,https://iiif.archive.org/iiif/historyofcaribb00roch$157
A57484-077-a,https://iiif.archive.org/iiif/historyofcaribb00roch$158
A57484-077-b,https://iiif.archive.org/iiif/historyofcaribb00roch$159
A57484-078-a,https://iiif.archive.org/iiif/historyofcaribb00roch$160
A57484-079-a,https://iiif.archive.org/iiif/historyofcaribb00roch$164
A57484-079-b,https://iiif.archive.org/iiif/historyofcaribb00roch$161
A57484-080-a,https://iiif.archive.org/iiif/historyofcaribb00roch$161
A57484-080-b,https://iiif.archive.org/iiif/historyofcaribb00roch$165
A57484-081-a,https://iiif.archive.org/iiif/historyofcaribb00roch$166
A57484-081-b,https://iiif.archive.org/iiif/historyofcaribb00roch$167
A57484-082-a,https://iiif.archive.org/iiif/historyofcaribb00roch$168
A57484-082-b,https://iiif.archive.org/iiif/historyofcaribb00roch$169
A57484-083-a,https://iiif.archive.org/iiif/historyofcaribb00roch$170
A57484-083-b,https://iiif.archive.org/iiif/historyofcaribb00roch$171
A57484-084-a,https://iiif.archive.org/iiif/historyofcaribb00roch$172
A57484-084-b,https://iiif.archive.org/iiif/historyofcaribb00roch$173
A57484-085-a,https://iiif.archive.org/iiif/historyofcaribb00roch$174
A57484-085-b,https://iiif.archive.org/iiif/historyofcaribb00roch$175
A57484-086-a,https://iiif.archive.org/iiif/historyofcaribb00roch$176
A57484-086-b,https://iiif.archive.org/iiif/historyofcaribb00roch$177
A57484-087-a,https://iiif.archive.org/iiif/historyofcaribb00roch$178
A57484-087-b,https://iiif.archive.org/iiif/historyofcaribb00roch$179
A57484-088-a,https://iiif.archive.org/iiif/historyofcaribb00roch$180
A57484-088-b,https://iiif.archive.org/iiif/historyofcaribb00roch$181
A57484-089-a,https://iiif.archive.org/iiif/historyofcaribb00roch$182
A57484-089-b,https://iiif.archive.org/iiif/historyofcaribb00roch$183
A57484-090-a,https://iiif.archive.org/iiif/historyofcaribb00roch$184
A57484-090-b,https://iiif.archive.org/iiif/historyofcaribb00roch$185
A57484-091-a,https://iiif.archive.org/iiif/historyofcaribb00roch$186
A57484-091-b,https://iiif.archive.org/iiif/historyofcaribb00roch$187
A57484-092-b,https://iiif.archive.org/iiif/historyofcaribb00roch$189
A57484-093-a,https://iiif.archive.org/iiif/historyofcaribb00roch$190
A57484-093-b,https://iiif.archive.org/iiif/historyofcaribb00roch$191
A57484-094-a,https://iiif.archive.org/iiif/historyofcaribb00roch$192
A57484-094-b,https://iiif.archive.org/iiif/historyofcaribb00roch$193
A57484-095-a,https://iiif.archive.org/iiif/historyofcaribb00roch$194
A57484-095-b,https://iiif.archive.org/iiif/historyofcaribb00roch$195
A57484-096-a,https://iiif.archive.org/iiif/historyofcaribb00roch$196
A57484-096-b,https://iiif.archive.org/iiif/historyofcaribb00roch$197
A57484-097-a,https://iiif.archive.org/iiif/historyofcaribb00roch$198
A57484-097-b,https://iiif.archive.org/iiif/historyofcaribb00roch$199
A57484-098-a,https://iiif.archive.org/iiif/historyofcaribb00roch$200
A57484-098-b,https://iiif.archive.org/iiif/historyofcaribb00roch$201
A57484-099-a,https://iiif.archive.org/iiif/historyofcaribb00roch$202
A57484-099-b,https://iiif.archive.org/iiif/historyofcaribb00roch$203
A57484-100-a,https://iiif.archive.org/iiif/historyofcaribb00roch$204
A57484-100-b,https://iiif.archive.org/iiif/historyofcaribb00roch$205
A57484-101-a,https://iiif.archive.org/iiif/historyofcaribb00roch$206
A57484-101-b,https://iiif.archive.org/iiif/historyofcaribb00roch$207
A57484-102-a,https://iiif.archive.org/iiif/historyofcaribb00roch$208
A57484-102-b,https://iiif.archive.org/iiif/historyofcaribb00roch$209
A57484-103-a,https://iiif.archive.org/iiif/historyofcaribb00roch$210
A57484-103-b,https://iiif.archive.org/iiif/historyofcaribb00roch$211
A57484-104-a,https://iiif.archive.org/iiif/historyofcaribb00roch$212
A57484-104-b,https://iiif.archive.org/iiif/historyofcaribb00roch$213
A57484-105-a,https://iiif.archive.org/iiif/historyofcaribb00roch$214
A57484-105-b,https://iiif.archive.org/iiif/historyofcaribb00roch$215
A57484-106-a,https://iiif.archive.org/iiif/historyofcaribb00roch$216
A57484-106-b,https://iiif.archive.org/iiif/historyofcaribb00roch$217
A57484-107-a,https://iiif.archive.org/iiif/historyofcaribb00roch$218
A57484-107-b,https://iiif.archive.org/iiif/historyofcaribb00roch$219
A57484-108-a,https://iiif.archive.org/iiif/historyofcaribb00roch$220
A57484-108-b,https://iiif.archive.org/iiif/historyofcaribb00roch$221
A57484-109-a,https://iiif.archive.org/iiif/historyofcaribb00roch$222
A57484-109-b,https://iiif.archive.org/iiif/historyofcaribb00roch$223
A57484-110-a,https://iiif.archive.org/iiif/historyofcaribb00roch$224
A57484-110-b,https://iiif.archive.org/iiif/historyofcaribb00roch$225
A57484-111-a,https://iiif.archive.org/iiif/historyofcaribb00roch$226
A57484-111-b,https://iiif.archive.org/iiif/historyofcaribb00roch$227
A57484-112-a,https://iiif.archive.org/iiif/historyofcaribb00roch$228
A57484-112-b,https://iiif.archive.org/iiif/historyofcaribb00roch$229
A57484-113-a,https://iiif.archive.org/iiif/historyofcaribb00roch$230
A57484-113-b,https://iiif.archive.org/iiif/historyofcaribb00roch$231
A57484-114-a,https://iiif.archive.org/iiif/historyofcaribb00roch$232
A57484-114-b,https://iiif.archive.org/iiif/historyofcaribb00roch$233
A57484-115-a,https://iiif.archive.org/iiif/historyofcaribb00roch$234
A57484-115-b,https://iiif.archive.org/iiif/historyofcaribb00roch$235
A57484-116-a,https://iiif.archive.org/iiif/historyofcaribb00roch$236
A57484-116-b,https://iiif.archive.org/iiif/historyofcaribb00roch$237
A57484-117-a,https://iiif.archive.org/iiif/historyofcaribb00roch$238
A57484-117-b,https://iiif.archive.org/iiif/historyofcaribb00roch$239
A57484-118-a,https://iiif.archive.org/iiif/historyofcaribb00roch$240
A57484-118-b,https://iiif.archive.org/iiif/historyofcaribb00roch$241
A57484-119-a,https://iiif.archive.org/iiif/historyofcaribb00roch$242
A57484-119-b,https://iiif.archive.org/iiif/historyofcaribb00roch$243
A57484-120-a,https://iiif.archive.org/iiif/historyofcaribb00roch$244
A57484-120-b,https://iiif.archive.org/iiif/historyofcaribb00roch$245
A57484-121-a,https://iiif.archive.org/iiif/historyofcaribb00roch$246
A57484-121-b,https://iiif.archive.org/iiif/historyofcaribb00roch$247
A57484-122-a,https://iiif.archive.org/iiif/historyofcaribb00roch$248
A57484-122-b,https://iiif.archive.org/iiif/historyofcaribb00roch$249
A57484-123-a,https://iiif.archive.org/iiif/historyofcaribb00roch$250
A57484-123-b,https://iiif.archive.org/iiif/historyofcaribb00roch$251
A57484-124-a,https://iiif.archive.org/iiif/historyofcaribb00roch$252
A57484-124-b,https://iiif.archive.org/iiif/historyofcaribb00roch$253
A57484-125-a,https://iiif.archive.org/iiif/historyofcaribb00roch$254
A57484-125-b,https://iiif.archive.org/iiif/historyofcaribb00roch$255
A57484-126-a,https://iiif.archive.org/iiif/historyofcaribb00roch$256
A57484-126-b,https://iiif.archive.org/iiif/historyofcaribb00roch$257
A57484-127-a,https://iiif.archive.org/iiif/historyofcaribb00roch$258
A57484-127-b,https://iiif.archive.org/iiif/historyofcaribb00roch$259
A57484-128-a,https://iiif.archive.org/iiif/historyofcaribb00roch$260
A57484-128-b,https://iiif.archive.org/iiif/historyofcaribb00roch$261
A57484-129-a,https://iiif.archive.org/iiif/historyofcaribb00roch$262
A57484-129-b,https://iiif.archive.org/iiif/historyofcaribb00roch$263
A57484-130-a,https://iiif.archive.org/iiif/historyofcaribb00roch$264
A57484-130-b,https://iiif.archive.org/iiif/historyofcaribb00roch$265
A57484-131-a,https://iiif.archive.org/iiif/historyofcaribb00roch$266
A57484-131-b,https://iiif.archive.org/iiif/historyofcaribb00roch$267
A57484-132-a,https://iiif.archive.org/iiif/historyofcaribb00roch$268
A57484-132-b,https://iiif.archive.org/iiif/historyofcaribb00roch$269
A57484-133-a,https://iiif.archive.org/iiif/historyofcaribb00roch$270
A57484-133-b,https://iiif.archive.org/iiif/historyofcaribb00roch$271
A57484-134-a,https://iiif.archive.org/iiif/historyofcaribb00roch$272
A57484-134-b,https://iiif.archive.org/iiif/historyofcaribb00roch$273
A57484-135-a,https://iiif.archive.org/iiif/historyofcaribb00roch$274
A57484-135-b,https://iiif.archive.org/iiif/historyofcaribb00roch$275
A57484-136-a,https://iiif.archive.org/iiif/historyofcaribb00roch$276
A57484-136-b,https://iiif.archive.org/iiif/historyofcaribb00roch$277
A57484-137-a,https://iiif.archive.org/iiif/historyofcaribb00roch$278
A57484-137-b,https://iiif.archive.org/iiif/historyofcaribb00roch$279
A57484-138-a,https://iiif.archive.org/iiif/historyofcaribb00roch$280
A57484-138-b,https://iiif.archive.org/iiif/historyofcaribb00roch$281
A57484-139-a,https://iiif.archive.org/iiif/historyofcaribb00roch$282
A57484-139-b,https://iiif.archive.org/iiif/historyofcaribb00roch$283
A57484-140-a,https://iiif.archive.org/iiif/historyofcaribb00roch$284
A57484-140-b,https://iiif.archive.org/iiif/historyofcaribb00roch$285
A57484-141-a,https://iiif.archive.org/iiif/historyofcaribb00roch$286
A57484-141-b,https://iiif.archive.org/iiif/historyofcaribb00roch$287
A57484-142-a,https://iiif.archive.org/iiif/historyofcaribb00roch$288
A57484-142-b,https://iiif.archive.org/iiif/historyofcaribb00roch$289
A57484-143-a,https://iiif.archive.org/iiif/historyofcaribb00roch$290
A57484-143-b,https://iiif.archive.org/iiif/historyofcaribb00roch$291
A57484-144-a,https://iiif.archive.org/iiif/historyofcaribb00roch$292
A57484-144-b,https://iiif.archive.org/iiif/historyofcaribb00roch$293
A57484-145-a,https://iiif.archive.org/iiif/historyofcaribb00roch$294
A57484-145-b,https://iiif.archive.org/iiif/historyofcaribb00roch$295
A57484-146-a,https://iiif.archive.org/iiif/historyofcaribb00roch$296
A57484-146-b,https://iiif.archive.org/iiif/historyofcaribb00roch$297
A57484-147-a,https://iiif.archive.org/iiif/historyofcaribb00roch$298
A57484-147-b,https://iiif.archive.org/iiif/historyofcaribb00roch$299
A57484-148-a,https://iiif.archive.org/iiif/historyofcaribb00roch$300
A57484-148-b,https://iiif.archive.org/iiif/historyofcaribb00roch$301
A57484-149-a,https://iiif.archive.org/iiif/historyofcaribb00roch$302
A57484-149-b,https://iiif.archive.org/iiif/historyofcaribb00roch$303
A57484-150-a,https://iiif.archive.org/iiif/historyofcaribb00roch$304
A57484-150-b,https://iiif.archive.org/iiif/historyofcaribb00roch$305
A57484-151-a,https://iiif.archive.org/iiif/historyofcaribb00roch$306
A57484-151-b,https://iiif.archive.org/iiif/historyofcaribb00roch$307
A57484-152-a,https://iiif.archive.org/iiif/historyofcaribb00roch$308
A57484-152-b,https://iiif.archive.org/iiif/historyofcaribb00roch$309
A57484-153-a,https://iiif.archive.org/iiif/historyofcaribb00roch$310
A57484-153-b,https://iiif.archive.org/iiif/historyofcaribb00roch$311
A57484-154-a,https://iiif.archive.org/iiif/historyofcaribb00roch$312
A57484-154-b,https://iiif.archive.org/iiif/historyofcaribb00roch$313
A57484-155-a,https://iiif.archive.org/iiif/historyofcaribb00roch$314
A57484-155-b,https://iiif.archive.org/iiif/historyofcaribb00roch$315
A57484-156-a,https://iiif.archive.org/iiif/historyofcaribb00roch$316
A57484-156-b,https://iiif.archive.org/iiif/historyofcaribb00roch$317
A57484-157-a,https://iiif.archive.org/iiif/historyofcaribb00roch$318
A57484-157-b,https://iiif.archive.org/iiif/historyofcaribb00roch$319
A57484-158-a,https://iiif.archive.org/iiif/historyofcaribb00roch$320
A57484-158-b,https://iiif.archive.org/iiif/historyofcaribb00roch$321
A57484-159-a,https://iiif.archive.org/iiif/historyofcaribb00roch$322
A57484-159-b,https://iiif.archive.org/iiif/historyofcaribb00roch$323
A57484-160-a,https://iiif.archive.org/iiif/historyofcaribb00roch$324
A57484-160-b,https://iiif.archive.org/iiif/historyofcaribb00roch$325
A57484-161-a,https://iiif.archive.org/iiif/historyofcaribb00roch$326
A57484-161-b,https://iiif.archive.org/iiif/historyofcaribb00roch$327
A57484-162-a,https://iiif.archive.org/iiif/historyofcaribb00roch$328
A57484-162-b,https://iiif.archive.org/iiif/historyofcaribb00roch$329
A57484-163-a,https://iiif.archive.org/iiif/historyofcaribb00roch$330
A57484-163-b,https://iiif.archive.org/iiif/historyofcaribb00roch$331
A57484-164-a,https://iiif.archive.org/iiif/historyofcaribb00roch$332
A57484-164-b,https://iiif.archive.org/iiif/historyofcaribb00roch$333
A57484-165-a,https://iiif.archive.org/iiif/historyofcaribb00roch$334
A57484-165-b,https://iiif.archive.org/iiif/historyofcaribb00roch$335
A57484-166-a,https://iiif.archive.org/iiif/historyofcaribb00roch$336
A57484-166-b,https://iiif.archive.org/iiif/historyofcaribb00roch$337
A57484-167-a,https://iiif.archive.org/iiif/historyofcaribb00roch$338
A57484-167-b,https://iiif.archive.org/iiif/historyofcaribb00roch$339
A57484-168-a,https://iiif.archive.org/iiif/historyofcaribb00roch$340
A57484-168-b,https://iiif.archive.org/iiif/historyofcaribb00roch$341
A57484-169-a,https://iiif.archive.org/iiif/historyofcaribb00roch$342
A57484-169-b,https://iiif.archive.org/iiif/historyofcaribb00roch$343
A57484-170-a,https://iiif.archive.org/iiif/historyofcaribb00roch$344
A57484-170-b,https://iiif.archive.org/iiif/historyofcaribb00roch$345
A57484-171-a,https://iiif.archive.org/iiif/historyofcaribb00roch$346
A57484-171-b,https://iiif.archive.org/iiif/historyofcaribb00roch$347
A57484-172-a,https://iiif.archive.org/iiif/historyofcaribb00roch$348
A57484-172-b,https://iiif.archive.org/iiif/historyofcaribb00roch$349
A57484-173-a,https://iiif.archive.org/iiif/historyofcaribb00roch$350
A57484-173-b,https://iiif.archive.org/iiif/historyofcaribb00roch$351
A57484-174-a,https://iiif.archive.org/iiif/historyofcaribb00roch$352
A57484-174-b,https://iiif.archive.org/iiif/historyofcaribb00roch$353
A57484-175-a,https://iiif.archive.org/iiif/historyofcaribb00roch$354
A57484-175-b,https://iiif.archive.org/iiif/historyofcaribb00roch$355
A57484-176-a,https://iiif.archive.org/iiif/historyofcaribb00roch$356
A57484-176-b,https://iiif.archive.org/iiif/historyofcaribb00roch$357
A57484-177-a,https://iiif.archive.org/iiif/historyofcaribb00roch$358
A57484-177-b,https://iiif.archive.org/iiif/historyofcaribb00roch$359
A57484-178-a,https://iiif.archive.org/iiif/historyofcaribb00roch$360
A57484-178-b,https://iiif.archive.org/iiif/historyofcaribb00roch$361
A57484-179-a,https://iiif.archive.org/iiif/historyofcaribb00roch$362
A57484-179-b,https://iiif.archive.org/iiif/historyofcaribb00roch$363
A57484-180-a,https://iiif.archive.org/iiif/historyofcaribb00roch$364
A57484-180-b,https://iiif.archive.org/iiif/historyofcaribb00roch$365
A57484-181-a,https://iiif.archive.org/iiif/historyofcaribb00roch$366
A57484-181-b,https://iiif.archive.org/iiif/historyofcaribb00roch$367
A57484-182-a,https://iiif.archive.org/iiif/historyofcaribb00roch$368
A57484-182-b,https://iiif.archive.org/iiif/historyofcaribb00roch$369
A57484-183-a,https://iiif.archive.org/iiif/historyofcaribb00roch$370
A57484-183-b,https://iiif.archive.org/iiif/historyofcaribb00roch$371
A57484-184-a,https://iiif.archive.org/iiif/historyofcaribb00roch$372
A57484-184-b,https://iiif.archive.org/iiif/historyofcaribb00roch$373
A57484-185-a,https://iiif.archive.org/iiif/historyofcaribb00roch$374
A57484-185-b,https://iiif.archive.org/iiif/historyofcaribb00roch$375
A57484-186-a,https://iiif.archive.org/iiif/historyofcaribb00roch$376
A57484-186-b,https://iiif.archive.org/iiif/historyofcaribb00roch$377
A57484-187-a,https://iiif.archive.org/iiif/historyofcaribb00roch$378
A57484-187-b,https://iiif.archive.org/iiif/historyofcaribb00roch$379
A57484-188-a,https://iiif.archive.org/iiif/historyofcaribb00roch$380
A57484-188-b,https://iiif.archive.org/iiif/historyofcaribb00roch$381
A57484-189-a,https://iiif.archive.org/iiif/historyofcaribb00roch$382
A57484-189-b,https://iiif.archive.org/iiif/historyofcaribb00roch$383
A57484-190-b,https://iiif.archive.org/iiif/historyofcaribb00roch$385
A57484-191-a,https://iiif.archive.org/iiif/historyofcaribb00roch$386
A57484-191-b,https://iiif.archive.org/iiif/historyofcaribb00roch$387
A57484-192-a,https://iiif.archive.org/iiif/historyofcaribb00roch$388
A57484-192-b,https://iiif.archive.org/iiif/historyofcaribb00roch$389
A57484-193-a,https://iiif.archive.org/iiif/historyofcaribb00roch$390
A57484-193-b,https://iiif.archive.org/iiif/historyofcaribb00roch$391
A57484-194-a,https://iiif.archive.org/iiif/historyofcaribb00roch$392
A57484-194-b,https://iiif.archive.org/iiif/historyofcaribb00roch$393
A57484-195-a,https://iiif.archive.org/iiif/historyofcaribb00roch$394
A57484-195-b,https://iiif.archive.org/iiif/historyofcaribb00roch$395
A57484-196-a,https://iiif.archive.org/iiif/historyofcaribb00roch$396
A57484-196-b,https://iiif.archive.org/iiif/historyofcaribb00roch$397
A57484-197-a,https://iiif.archive.org/iiif/historyofcaribb00roch$398
A57484-197-b,https://iiif.archive.org/iiif/historyofcaribb00roch$399
