A59014-001-a,https://iiif.archive.org/iiif/secondreturntole00londuoft$5
A59014-002-a,https://iiif.archive.org/iiif/secondreturntole00londuoft$6
A59014-003-a,https://iiif.archive.org/iiif/secondreturntole00londuoft$7
A59014-004-a,https://iiif.archive.org/iiif/secondreturntole00londuoft$8
