A59493-001-b,https://iiif.archive.org/iiif//historyofkinglea00tate_5$13
A59493-002-b,https://iiif.archive.org/iiif//historyofkinglea00tate_5$15
A59493-003-a,https://iiif.archive.org/iiif//historyofkinglea00tate_5$16
A59493-003-b,https://iiif.archive.org/iiif//historyofkinglea00tate_5$17
A59493-004-a,https://iiif.archive.org/iiif//historyofkinglea00tate_5$18
A59493-004-b,https://iiif.archive.org/iiif//historyofkinglea00tate_5$19
A59493-005-a,https://iiif.archive.org/iiif//historyofkinglea00tate_5$20
A59493-005-b,https://iiif.archive.org/iiif//historyofkinglea00tate_5$21
A59493-006-a,https://iiif.archive.org/iiif//historyofkinglea00tate_5$22
A59493-006-b,https://iiif.archive.org/iiif//historyofkinglea00tate_5$23
A59493-007-a,https://iiif.archive.org/iiif//historyofkinglea00tate_5$24
A59493-007-b,https://iiif.archive.org/iiif//historyofkinglea00tate_5$25
A59493-008-a,https://iiif.archive.org/iiif//historyofkinglea00tate_5$26
A59493-008-b,https://iiif.archive.org/iiif//historyofkinglea00tate_5$27
A59493-009-a,https://iiif.archive.org/iiif//historyofkinglea00tate_5$28
A59493-009-b,https://iiif.archive.org/iiif//historyofkinglea00tate_5$29
A59493-010-a,https://iiif.archive.org/iiif//historyofkinglea00tate_5$30
A59493-010-b,https://iiif.archive.org/iiif//historyofkinglea00tate_5$31
A59493-011-a,https://iiif.archive.org/iiif//historyofkinglea00tate_5$32
A59493-011-b,https://iiif.archive.org/iiif//historyofkinglea00tate_5$33
A59493-012-a,https://iiif.archive.org/iiif//historyofkinglea00tate_5$34
A59493-012-b,https://iiif.archive.org/iiif//historyofkinglea00tate_5$35
A59493-013-a,https://iiif.archive.org/iiif//historyofkinglea00tate_5$36
A59493-013-b,https://iiif.archive.org/iiif//historyofkinglea00tate_5$37
A59493-014-a,https://iiif.archive.org/iiif//historyofkinglea00tate_5$38
A59493-014-b,https://iiif.archive.org/iiif//historyofkinglea00tate_5$39
A59493-015-a,https://iiif.archive.org/iiif//historyofkinglea00tate_5$40
A59493-015-b,https://iiif.archive.org/iiif//historyofkinglea00tate_5$41
A59493-016-a,https://iiif.archive.org/iiif//historyofkinglea00tate_5$42
A59493-016-b,https://iiif.archive.org/iiif//historyofkinglea00tate_5$43
A59493-017-a,https://iiif.archive.org/iiif//historyofkinglea00tate_5$44
A59493-017-b,https://iiif.archive.org/iiif//historyofkinglea00tate_5$45
A59493-018-a,https://iiif.archive.org/iiif//historyofkinglea00tate_5$46
A59493-018-b,https://iiif.archive.org/iiif//historyofkinglea00tate_5$47
A59493-019-a,https://iiif.archive.org/iiif//historyofkinglea00tate_5$48
A59493-019-b,https://iiif.archive.org/iiif//historyofkinglea00tate_5$49
A59493-020-a,https://iiif.archive.org/iiif//historyofkinglea00tate_5$50
A59493-020-b,https://iiif.archive.org/iiif//historyofkinglea00tate_5$51
A59493-021-a,https://iiif.archive.org/iiif//historyofkinglea00tate_5$52
A59493-021-b,https://iiif.archive.org/iiif//historyofkinglea00tate_5$53
A59493-022-a,https://iiif.archive.org/iiif//historyofkinglea00tate_5$54
A59493-022-b,https://iiif.archive.org/iiif//historyofkinglea00tate_5$55
A59493-023-a,https://iiif.archive.org/iiif//historyofkinglea00tate_5$56
A59493-023-b,https://iiif.archive.org/iiif//historyofkinglea00tate_5$57
A59493-024-a,https://iiif.archive.org/iiif//historyofkinglea00tate_5$58
A59493-024-b,https://iiif.archive.org/iiif//historyofkinglea00tate_5$59
A59493-025-a,https://iiif.archive.org/iiif//historyofkinglea00tate_5$60
A59493-025-b,https://iiif.archive.org/iiif//historyofkinglea00tate_5$61
A59493-026-a,https://iiif.archive.org/iiif//historyofkinglea00tate_5$62
A59493-026-b,https://iiif.archive.org/iiif//historyofkinglea00tate_5$63
A59493-027-a,https://iiif.archive.org/iiif//historyofkinglea00tate_5$64
A59493-027-b,https://iiif.archive.org/iiif//historyofkinglea00tate_5$65
A59493-028-a,https://iiif.archive.org/iiif//historyofkinglea00tate_5$66
A59493-028-b,https://iiif.archive.org/iiif//historyofkinglea00tate_5$67
A59493-029-a,https://iiif.archive.org/iiif//historyofkinglea00tate_5$68
A59493-029-b,https://iiif.archive.org/iiif//historyofkinglea00tate_5$69
A59493-030-a,https://iiif.archive.org/iiif//historyofkinglea00tate_5$70
A59493-030-b,https://iiif.archive.org/iiif//historyofkinglea00tate_5$71
A59493-031-a,https://iiif.archive.org/iiif//historyofkinglea00tate_5$72
A59493-031-b,https://iiif.archive.org/iiif//historyofkinglea00tate_5$73
A59493-032-a,https://iiif.archive.org/iiif//historyofkinglea00tate_5$74
A59493-032-b,https://iiif.archive.org/iiif//historyofkinglea00tate_5$75
A59493-033-a,https://iiif.archive.org/iiif//historyofkinglea00tate_5$76
A59493-033-b,https://iiif.archive.org/iiif//historyofkinglea00tate_5$77
A59493-034-a,https://iiif.archive.org/iiif//historyofkinglea00tate_5$78
A59493-034-b,https://iiif.archive.org/iiif//historyofkinglea00tate_5$79
A59493-035-a,https://iiif.archive.org/iiif//historyofkinglea00tate_5$80
A59493-035-b,https://iiif.archive.org/iiif//historyofkinglea00tate_5$81
A59493-036-a,https://iiif.archive.org/iiif//historyofkinglea00tate_5$82
A59493-036-b,https://iiif.archive.org/iiif//historyofkinglea00tate_5$83
A59493-037-a,https://iiif.archive.org/iiif//historyofkinglea00tate_5$84
A59493-037-b,https://iiif.archive.org/iiif//historyofkinglea00tate_5$85
A59493-038-a,https://iiif.archive.org/iiif//historyofkinglea00tate_5$86
A59493-038-b,https://iiif.archive.org/iiif//historyofkinglea00tate_5$87
A59493-039-a,https://iiif.archive.org/iiif//historyofkinglea00tate_5$88
