A59497-001-b,https://iiif.archive.org/iiif//juliuscaesartrag00shak_7$11
A59497-002-a,https://iiif.archive.org/iiif//juliuscaesartrag00shak_7$12
A59497-002-b,https://iiif.archive.org/iiif//juliuscaesartrag00shak_7$13
A59497-003-a,https://iiif.archive.org/iiif//juliuscaesartrag00shak_7$14
A59497-003-b,https://iiif.archive.org/iiif//juliuscaesartrag00shak_7$15
A59497-004-a,https://iiif.archive.org/iiif//juliuscaesartrag00shak_7$16
A59497-004-b,https://iiif.archive.org/iiif//juliuscaesartrag00shak_7$17
A59497-005-a,https://iiif.archive.org/iiif//juliuscaesartrag00shak_7$18
A59497-005-b,https://iiif.archive.org/iiif//juliuscaesartrag00shak_7$19
A59497-006-a,https://iiif.archive.org/iiif//juliuscaesartrag00shak_7$20
A59497-006-b,https://iiif.archive.org/iiif//juliuscaesartrag00shak_7$21
A59497-007-a,https://iiif.archive.org/iiif//juliuscaesartrag00shak_7$22
A59497-007-b,https://iiif.archive.org/iiif//juliuscaesartrag00shak_7$23
A59497-008-a,https://iiif.archive.org/iiif//juliuscaesartrag00shak_7$24
A59497-008-b,https://iiif.archive.org/iiif//juliuscaesartrag00shak_7$25
A59497-009-a,https://iiif.archive.org/iiif//juliuscaesartrag00shak_7$26
A59497-009-b,https://iiif.archive.org/iiif//juliuscaesartrag00shak_7$27
A59497-010-a,https://iiif.archive.org/iiif//juliuscaesartrag00shak_7$28
A59497-010-b,https://iiif.archive.org/iiif//juliuscaesartrag00shak_7$29
A59497-011-a,https://iiif.archive.org/iiif//juliuscaesartrag00shak_7$30
A59497-011-b,https://iiif.archive.org/iiif//juliuscaesartrag00shak_7$31
A59497-012-a,https://iiif.archive.org/iiif//juliuscaesartrag00shak_7$32
A59497-012-b,https://iiif.archive.org/iiif//juliuscaesartrag00shak_7$33
A59497-013-a,https://iiif.archive.org/iiif//juliuscaesartrag00shak_7$34
A59497-013-b,https://iiif.archive.org/iiif//juliuscaesartrag00shak_7$35
A59497-014-a,https://iiif.archive.org/iiif//juliuscaesartrag00shak_7$36
A59497-014-b,https://iiif.archive.org/iiif//juliuscaesartrag00shak_7$37
A59497-015-a,https://iiif.archive.org/iiif//juliuscaesartrag00shak_7$38
A59497-015-b,https://iiif.archive.org/iiif//juliuscaesartrag00shak_7$39
A59497-016-a,https://iiif.archive.org/iiif//juliuscaesartrag00shak_7$40
A59497-016-b,https://iiif.archive.org/iiif//juliuscaesartrag00shak_7$41
A59497-017-a,https://iiif.archive.org/iiif//juliuscaesartrag00shak_7$42
A59497-017-b,https://iiif.archive.org/iiif//juliuscaesartrag00shak_7$43
A59497-018-a,https://iiif.archive.org/iiif//juliuscaesartrag00shak_7$44
A59497-018-b,https://iiif.archive.org/iiif//juliuscaesartrag00shak_7$45
A59497-019-a,https://iiif.archive.org/iiif//juliuscaesartrag00shak_7$46
A59497-019-b,https://iiif.archive.org/iiif//juliuscaesartrag00shak_7$47
A59497-021-a,https://iiif.archive.org/iiif//juliuscaesartrag00shak_7$48
A59497-021-b,https://iiif.archive.org/iiif//juliuscaesartrag00shak_7$49
A59497-022-a,https://iiif.archive.org/iiif//juliuscaesartrag00shak_7$50
A59497-022-b,https://iiif.archive.org/iiif//juliuscaesartrag00shak_7$51
A59497-023-a,https://iiif.archive.org/iiif//juliuscaesartrag00shak_7$52
A59497-023-b,https://iiif.archive.org/iiif//juliuscaesartrag00shak_7$53
A59497-024-a,https://iiif.archive.org/iiif//juliuscaesartrag00shak_7$54
A59497-024-b,https://iiif.archive.org/iiif//juliuscaesartrag00shak_7$55
A59497-025-a,https://iiif.archive.org/iiif//juliuscaesartrag00shak_7$56
A59497-025-b,https://iiif.archive.org/iiif//juliuscaesartrag00shak_7$57
A59497-026-a,https://iiif.archive.org/iiif//juliuscaesartrag00shak_7$58
A59497-026-b,https://iiif.archive.org/iiif//juliuscaesartrag00shak_7$59
A59497-027-a,https://iiif.archive.org/iiif//juliuscaesartrag00shak_7$60
A59497-027-b,https://iiif.archive.org/iiif//juliuscaesartrag00shak_7$61
A59497-028-a,https://iiif.archive.org/iiif//juliuscaesartrag00shak_7$62
A59497-028-b,https://iiif.archive.org/iiif//juliuscaesartrag00shak_7$63
A59497-030-a,https://iiif.archive.org/iiif//juliuscaesartrag00shak_7$64
A59497-030-b,https://iiif.archive.org/iiif//juliuscaesartrag00shak_7$65
A59497-031-a,https://iiif.archive.org/iiif//juliuscaesartrag00shak_7$66
A59497-031-b,https://iiif.archive.org/iiif//juliuscaesartrag00shak_7$67
A59497-032-a,https://iiif.archive.org/iiif//juliuscaesartrag00shak_7$68
A59497-032-b,https://iiif.archive.org/iiif//juliuscaesartrag00shak_7$69
A59497-033-a,https://iiif.archive.org/iiif//juliuscaesartrag00shak_7$70
A59497-033-b,https://iiif.archive.org/iiif//juliuscaesartrag00shak_7$71
A59497-034-a,https://iiif.archive.org/iiif//juliuscaesartrag00shak_7$72
