A60020-001-a,https://stacks.stanford.edu/image/iiif/cb101kt1165/36105115576972_00_0007
A60020-001-b,https://stacks.stanford.edu/image/iiif/cb101kt1165/36105115576972_00_0008
A60020-002-a,https://stacks.stanford.edu/image/iiif/cb101kt1165/36105115576972_00_0009
A60020-002-b,https://stacks.stanford.edu/image/iiif/cb101kt1165/36105115576972_00_0010
A60020-003-a,https://stacks.stanford.edu/image/iiif/cb101kt1165/36105115576972_00_0011
A60020-003-b,https://stacks.stanford.edu/image/iiif/cb101kt1165/36105115576972_00_0012
A60020-004-a,https://stacks.stanford.edu/image/iiif/cb101kt1165/36105115576972_00_0013
A60020-004-b,https://stacks.stanford.edu/image/iiif/cb101kt1165/36105115576972_00_0014
A60020-005-a,https://stacks.stanford.edu/image/iiif/cb101kt1165/36105115576972_00_0015
A60020-005-b,https://stacks.stanford.edu/image/iiif/cb101kt1165/36105115576972_00_0016
A60020-006-a,https://stacks.stanford.edu/image/iiif/cb101kt1165/36105115576972_00_0017
A60020-006-b,https://stacks.stanford.edu/image/iiif/cb101kt1165/36105115576972_00_0018
A60020-007-a,https://stacks.stanford.edu/image/iiif/cb101kt1165/36105115576972_00_0019
A60020-007-b,https://stacks.stanford.edu/image/iiif/cb101kt1165/36105115576972_00_0020
A60020-008-a,https://stacks.stanford.edu/image/iiif/cb101kt1165/36105115576972_00_0021
A60020-008-b,https://stacks.stanford.edu/image/iiif/cb101kt1165/36105115576972_00_0022
A60020-009-a,https://stacks.stanford.edu/image/iiif/cb101kt1165/36105115576972_00_0023
A60020-009-b,https://stacks.stanford.edu/image/iiif/cb101kt1165/36105115576972_00_0024
A60020-010-a,https://stacks.stanford.edu/image/iiif/cb101kt1165/36105115576972_00_0025
A60020-010-b,https://stacks.stanford.edu/image/iiif/cb101kt1165/36105115576972_00_0026
A60020-011-a,https://stacks.stanford.edu/image/iiif/cb101kt1165/36105115576972_00_0027
A60020-011-b,https://stacks.stanford.edu/image/iiif/cb101kt1165/36105115576972_00_0028
A60020-012-a,https://stacks.stanford.edu/image/iiif/cb101kt1165/36105115576972_00_0029
A60020-012-b,https://stacks.stanford.edu/image/iiif/cb101kt1165/36105115576972_00_0030
A60020-013-a,https://stacks.stanford.edu/image/iiif/cb101kt1165/36105115576972_00_0031
A60020-013-b,https://stacks.stanford.edu/image/iiif/cb101kt1165/36105115576972_00_0032
A60020-014-a,https://stacks.stanford.edu/image/iiif/cb101kt1165/36105115576972_00_0033
A60020-014-b,https://stacks.stanford.edu/image/iiif/cb101kt1165/36105115576972_00_0034
A60020-015-a,https://stacks.stanford.edu/image/iiif/cb101kt1165/36105115576972_00_0035
A60020-015-b,https://stacks.stanford.edu/image/iiif/cb101kt1165/36105115576972_00_0036
A60020-016-a,https://stacks.stanford.edu/image/iiif/cb101kt1165/36105115576972_00_0037
A60020-016-b,https://stacks.stanford.edu/image/iiif/cb101kt1165/36105115576972_00_0038
A60020-017-a,https://stacks.stanford.edu/image/iiif/cb101kt1165/36105115576972_00_0039
A60020-017-b,https://stacks.stanford.edu/image/iiif/cb101kt1165/36105115576972_00_0040
A60020-018-a,https://stacks.stanford.edu/image/iiif/cb101kt1165/36105115576972_00_0041
A60020-018-b,https://stacks.stanford.edu/image/iiif/cb101kt1165/36105115576972_00_0042
A60020-019-a,https://stacks.stanford.edu/image/iiif/cb101kt1165/36105115576972_00_0043
A60020-019-b,https://stacks.stanford.edu/image/iiif/cb101kt1165/36105115576972_00_0044
A60020-020-a,https://stacks.stanford.edu/image/iiif/cb101kt1165/36105115576972_00_0045
A60020-020-b,https://stacks.stanford.edu/image/iiif/cb101kt1165/36105115576972_00_0046
A60020-021-a,https://stacks.stanford.edu/image/iiif/cb101kt1165/36105115576972_00_0047
A60020-021-b,https://stacks.stanford.edu/image/iiif/cb101kt1165/36105115576972_00_0048
A60020-022-a,https://stacks.stanford.edu/image/iiif/cb101kt1165/36105115576972_00_0049
A60020-022-b,https://stacks.stanford.edu/image/iiif/cb101kt1165/36105115576972_00_0050
A60020-023-a,https://stacks.stanford.edu/image/iiif/cb101kt1165/36105115576972_00_0051
A60020-023-b,https://stacks.stanford.edu/image/iiif/cb101kt1165/36105115576972_00_0052
A60020-024-a,https://stacks.stanford.edu/image/iiif/cb101kt1165/36105115576972_00_0053
A60020-024-b,https://stacks.stanford.edu/image/iiif/cb101kt1165/36105115576972_00_0054
A60020-025-a,https://stacks.stanford.edu/image/iiif/cb101kt1165/36105115576972_00_0055
A60020-025-b,https://stacks.stanford.edu/image/iiif/cb101kt1165/36105115576972_00_0056
A60020-026-a,https://stacks.stanford.edu/image/iiif/cb101kt1165/36105115576972_00_0057
A60020-026-b,https://stacks.stanford.edu/image/iiif/cb101kt1165/36105115576972_00_0058
A60020-027-a,https://stacks.stanford.edu/image/iiif/cb101kt1165/36105115576972_00_0059
A60020-027-b,https://stacks.stanford.edu/image/iiif/cb101kt1165/36105115576972_00_0060
A60020-028-a,https://stacks.stanford.edu/image/iiif/cb101kt1165/36105115576972_00_0061
A60020-028-b,https://stacks.stanford.edu/image/iiif/cb101kt1165/36105115576972_00_0062
A60020-029-a,https://stacks.stanford.edu/image/iiif/cb101kt1165/36105115576972_00_0063
A60020-029-b,https://stacks.stanford.edu/image/iiif/cb101kt1165/36105115576972_00_0064
A60020-030-a,https://stacks.stanford.edu/image/iiif/cb101kt1165/36105115576972_00_0065
A60020-030-b,https://stacks.stanford.edu/image/iiif/cb101kt1165/36105115576972_00_0066
A60020-031-a,https://stacks.stanford.edu/image/iiif/cb101kt1165/36105115576972_00_0067
A60020-031-b,https://stacks.stanford.edu/image/iiif/cb101kt1165/36105115576972_00_0068
A60020-032-a,https://stacks.stanford.edu/image/iiif/cb101kt1165/36105115576972_00_0069
A60020-032-b,https://stacks.stanford.edu/image/iiif/cb101kt1165/36105115576972_00_0070
A60020-033-a,https://stacks.stanford.edu/image/iiif/cb101kt1165/36105115576972_00_0071
A60020-033-b,https://stacks.stanford.edu/image/iiif/cb101kt1165/36105115576972_00_0072
A60020-034-a,https://stacks.stanford.edu/image/iiif/cb101kt1165/36105115576972_00_0073
A60020-034-b,https://stacks.stanford.edu/image/iiif/cb101kt1165/36105115576972_00_0074
A60020-035-a,https://stacks.stanford.edu/image/iiif/cb101kt1165/36105115576972_00_0075
A60020-035-b,https://stacks.stanford.edu/image/iiif/cb101kt1165/36105115576972_00_0076
A60020-036-a,https://stacks.stanford.edu/image/iiif/cb101kt1165/36105115576972_00_0077
A60020-036-b,https://stacks.stanford.edu/image/iiif/cb101kt1165/36105115576972_00_0078
A60020-037-a,https://stacks.stanford.edu/image/iiif/cb101kt1165/36105115576972_00_0079
A60020-037-b,https://stacks.stanford.edu/image/iiif/cb101kt1165/36105115576972_00_0080
A60020-038-a,https://stacks.stanford.edu/image/iiif/cb101kt1165/36105115576972_00_0081
A60020-038-b,https://stacks.stanford.edu/image/iiif/cb101kt1165/36105115576972_00_0082
A60020-039-a,https://stacks.stanford.edu/image/iiif/cb101kt1165/36105115576972_00_0083
A60020-039-b,https://stacks.stanford.edu/image/iiif/cb101kt1165/36105115576972_00_0084
A60020-040-a,https://stacks.stanford.edu/image/iiif/cb101kt1165/36105115576972_00_0085
A60020-040-b,https://stacks.stanford.edu/image/iiif/cb101kt1165/36105115576972_00_0086
A60020-041-a,https://stacks.stanford.edu/image/iiif/cb101kt1165/36105115576972_00_0087
A60020-041-b,https://stacks.stanford.edu/image/iiif/cb101kt1165/36105115576972_00_0088
A60020-042-a,https://stacks.stanford.edu/image/iiif/cb101kt1165/36105115576972_00_0089
A60020-042-b,https://stacks.stanford.edu/image/iiif/cb101kt1165/36105115576972_00_0090
A60020-043-a,https://stacks.stanford.edu/image/iiif/cb101kt1165/36105115576972_00_0091
A60020-043-b,https://stacks.stanford.edu/image/iiif/cb101kt1165/36105115576972_00_0092
A60020-044-a,https://stacks.stanford.edu/image/iiif/cb101kt1165/36105115576972_00_0093
A60020-044-b,https://stacks.stanford.edu/image/iiif/cb101kt1165/36105115576972_00_0094
A60020-045-a,https://stacks.stanford.edu/image/iiif/cb101kt1165/36105115576972_00_0095
A60020-045-b,https://stacks.stanford.edu/image/iiif/cb101kt1165/36105115576972_00_0096
A60020-046-a,https://stacks.stanford.edu/image/iiif/cb101kt1165/36105115576972_00_0097
A60020-046-b,https://stacks.stanford.edu/image/iiif/cb101kt1165/36105115576972_00_0098
A60020-047-a,https://stacks.stanford.edu/image/iiif/cb101kt1165/36105115576972_00_0099
A60020-047-b,https://stacks.stanford.edu/image/iiif/cb101kt1165/36105115576972_00_0100
A60020-048-a,https://stacks.stanford.edu/image/iiif/cb101kt1165/36105115576972_00_0101
A60020-048-b,https://stacks.stanford.edu/image/iiif/cb101kt1165/36105115576972_00_0102
A60020-049-a,https://stacks.stanford.edu/image/iiif/cb101kt1165/36105115576972_00_0103
A60020-049-b,https://stacks.stanford.edu/image/iiif/cb101kt1165/36105115576972_00_0104
A60020-050-a,https://stacks.stanford.edu/image/iiif/cb101kt1165/36105115576972_00_0105
A60020-050-b,https://stacks.stanford.edu/image/iiif/cb101kt1165/36105115576972_00_0106
A60020-051-a,https://stacks.stanford.edu/image/iiif/cb101kt1165/36105115576972_00_0107
A60020-051-b,https://stacks.stanford.edu/image/iiif/cb101kt1165/36105115576972_00_0108
A60020-052-a,https://stacks.stanford.edu/image/iiif/cb101kt1165/36105115576972_00_0109
A60020-052-b,https://stacks.stanford.edu/image/iiif/cb101kt1165/36105115576972_00_0110
A60020-053-a,https://stacks.stanford.edu/image/iiif/cb101kt1165/36105115576972_00_0111
A60020-053-b,https://stacks.stanford.edu/image/iiif/cb101kt1165/36105115576972_00_0112
A60020-054-a,https://stacks.stanford.edu/image/iiif/cb101kt1165/36105115576972_00_0113
A60020-054-b,https://stacks.stanford.edu/image/iiif/cb101kt1165/36105115576972_00_0114
A60020-055-a,https://stacks.stanford.edu/image/iiif/cb101kt1165/36105115576972_00_0115
A60020-055-b,https://stacks.stanford.edu/image/iiif/cb101kt1165/36105115576972_00_0116
A60020-056-a,https://stacks.stanford.edu/image/iiif/cb101kt1165/36105115576972_00_0117
A60020-056-b,https://stacks.stanford.edu/image/iiif/cb101kt1165/36105115576972_00_0118
A60020-057-a,https://stacks.stanford.edu/image/iiif/cb101kt1165/36105115576972_00_0119
A60020-057-b,https://stacks.stanford.edu/image/iiif/cb101kt1165/36105115576972_00_0120
A60020-058-a,https://stacks.stanford.edu/image/iiif/cb101kt1165/36105115576972_00_0121
A60020-058-b,https://stacks.stanford.edu/image/iiif/cb101kt1165/36105115576972_00_0122
A60020-059-a,https://stacks.stanford.edu/image/iiif/cb101kt1165/36105115576972_00_0123
A60020-059-b,https://stacks.stanford.edu/image/iiif/cb101kt1165/36105115576972_00_0124
A60020-060-a,https://stacks.stanford.edu/image/iiif/cb101kt1165/36105115576972_00_0125
A60020-060-b,https://stacks.stanford.edu/image/iiif/cb101kt1165/36105115576972_00_0126
A60020-061-a,https://stacks.stanford.edu/image/iiif/cb101kt1165/36105115576972_00_0127
A60020-061-b,https://stacks.stanford.edu/image/iiif/cb101kt1165/36105115576972_00_0128
A60020-062-a,https://stacks.stanford.edu/image/iiif/cb101kt1165/36105115576972_00_0129
A60020-062-b,https://stacks.stanford.edu/image/iiif/cb101kt1165/36105115576972_00_0130
A60020-063-a,https://stacks.stanford.edu/image/iiif/cb101kt1165/36105115576972_00_0131
A60020-063-b,https://stacks.stanford.edu/image/iiif/cb101kt1165/36105115576972_00_0132
A60020-064-a,https://stacks.stanford.edu/image/iiif/cb101kt1165/36105115576972_00_0133
A60020-064-b,https://stacks.stanford.edu/image/iiif/cb101kt1165/36105115576972_00_0134
A60020-065-a,https://stacks.stanford.edu/image/iiif/cb101kt1165/36105115576972_00_0135
A60020-065-b,https://stacks.stanford.edu/image/iiif/cb101kt1165/36105115576972_00_0136
A60020-066-a,https://stacks.stanford.edu/image/iiif/cb101kt1165/36105115576972_00_0137
A60020-066-b,https://stacks.stanford.edu/image/iiif/cb101kt1165/36105115576972_00_0138
A60020-067-a,https://stacks.stanford.edu/image/iiif/cb101kt1165/36105115576972_00_0139
A60020-067-b,https://stacks.stanford.edu/image/iiif/cb101kt1165/36105115576972_00_0140
A60020-068-a,https://stacks.stanford.edu/image/iiif/cb101kt1165/36105115576972_00_0141
A60020-068-b,https://stacks.stanford.edu/image/iiif/cb101kt1165/36105115576972_00_0142
A60020-069-a,https://stacks.stanford.edu/image/iiif/cb101kt1165/36105115576972_00_0143
A60020-069-b,https://stacks.stanford.edu/image/iiif/cb101kt1165/36105115576972_00_0144
A60020-070-a,https://stacks.stanford.edu/image/iiif/cb101kt1165/36105115576972_00_0145
A60020-070-b,https://stacks.stanford.edu/image/iiif/cb101kt1165/36105115576972_00_0146
A60020-071-a,https://stacks.stanford.edu/image/iiif/cb101kt1165/36105115576972_00_0147
A60020-071-b,https://stacks.stanford.edu/image/iiif/cb101kt1165/36105115576972_00_0148
A60020-072-a,https://stacks.stanford.edu/image/iiif/cb101kt1165/36105115576972_00_0149
A60020-072-b,https://stacks.stanford.edu/image/iiif/cb101kt1165/36105115576972_00_0150
A60020-073-a,https://stacks.stanford.edu/image/iiif/cb101kt1165/36105115576972_00_0151
A60020-073-b,https://stacks.stanford.edu/image/iiif/cb101kt1165/36105115576972_00_0152
A60020-074-a,https://stacks.stanford.edu/image/iiif/cb101kt1165/36105115576972_00_0153
A60020-074-b,https://stacks.stanford.edu/image/iiif/cb101kt1165/36105115576972_00_0154
A60020-075-a,https://stacks.stanford.edu/image/iiif/cb101kt1165/36105115576972_00_0155
A60020-075-b,https://stacks.stanford.edu/image/iiif/cb101kt1165/36105115576972_00_0156
A60020-076-a,https://stacks.stanford.edu/image/iiif/cb101kt1165/36105115576972_00_0157
A60020-076-b,https://stacks.stanford.edu/image/iiif/cb101kt1165/36105115576972_00_0158
A60020-077-a,https://stacks.stanford.edu/image/iiif/cb101kt1165/36105115576972_00_0159
A60020-077-b,https://stacks.stanford.edu/image/iiif/cb101kt1165/36105115576972_00_0160
A60020-078-a,https://stacks.stanford.edu/image/iiif/cb101kt1165/36105115576972_00_0161
A60020-078-b,https://stacks.stanford.edu/image/iiif/cb101kt1165/36105115576972_00_0162
A60020-079-a,https://stacks.stanford.edu/image/iiif/cb101kt1165/36105115576972_00_0163
A60020-079-b,https://stacks.stanford.edu/image/iiif/cb101kt1165/36105115576972_00_0164
A60020-080-a,https://stacks.stanford.edu/image/iiif/cb101kt1165/36105115576972_00_0165
A60020-080-b,https://stacks.stanford.edu/image/iiif/cb101kt1165/36105115576972_00_0166
