A61940-001-a,https://iiif.archive.org/iiif/coppyofletterfou00suckuoft$5
A61940-002-a,https://iiif.archive.org/iiif/coppyofletterfou00suckuoft$6
A61940-002-b,https://iiif.archive.org/iiif/coppyofletterfou00suckuoft$7
A61940-003-a,https://iiif.archive.org/iiif/coppyofletterfou00suckuoft$8
A61940-003-b,https://iiif.archive.org/iiif/coppyofletterfou00suckuoft$9
A61940-004-a,https://iiif.archive.org/iiif/coppyofletterfou00suckuoft$10
A61940-004-b,https://iiif.archive.org/iiif/coppyofletterfou00suckuoft$11
A61940-005-a,https://iiif.archive.org/iiif/coppyofletterfou00suckuoft$12
A61940-005-b,https://iiif.archive.org/iiif/coppyofletterfou00suckuoft$13
A61940-006-a,https://iiif.archive.org/iiif/coppyofletterfou00suckuoft$14
A61940-006-b,https://iiif.archive.org/iiif/coppyofletterfou00suckuoft$15
A61940-007-a,https://iiif.archive.org/iiif/coppyofletterfou00suckuoft$18
A61940-007-b,https://iiif.archive.org/iiif/coppyofletterfou00suckuoft$19
