A66483-001-a,https://images.digital.library.illinois.edu/iiif/2/b10c31e0-6f55-0139-77ae-02d0d7bfd6e4-a
A66483-001-b,https://images.digital.library.illinois.edu/iiif/2/b10f6940-6f55-0139-77ae-02d0d7bfd6e4-a
A66483-002-a,https://images.digital.library.illinois.edu/iiif/2/b112cd20-6f55-0139-77ae-02d0d7bfd6e4-8
A66483-002-b,https://images.digital.library.illinois.edu/iiif/2/b1156a50-6f55-0139-77ae-02d0d7bfd6e4-b
A66483-003-a,https://images.digital.library.illinois.edu/iiif/2/b1184c90-6f55-0139-77ae-02d0d7bfd6e4-e
A66483-003-b,https://images.digital.library.illinois.edu/iiif/2/b11af140-6f55-0139-77ae-02d0d7bfd6e4-b
A66483-004-a,https://images.digital.library.illinois.edu/iiif/2/b11dc0e0-6f55-0139-77ae-02d0d7bfd6e4-0
A66483-004-b,https://images.digital.library.illinois.edu/iiif/2/b12097e0-6f55-0139-77ae-02d0d7bfd6e4-f
A66483-005-a,https://images.digital.library.illinois.edu/iiif/2/b1238c40-6f55-0139-77ae-02d0d7bfd6e4-9
A66483-005-b,https://images.digital.library.illinois.edu/iiif/2/b1266820-6f55-0139-77ae-02d0d7bfd6e4-f
A66483-006-a,https://images.digital.library.illinois.edu/iiif/2/b1290be0-6f55-0139-77ae-02d0d7bfd6e4-c
A66483-006-b,https://images.digital.library.illinois.edu/iiif/2/b12bf030-6f55-0139-77ae-02d0d7bfd6e4-b
A66483-007-a,https://images.digital.library.illinois.edu/iiif/2/b12e6cf0-6f55-0139-77ae-02d0d7bfd6e4-9
A66483-007-b,https://images.digital.library.illinois.edu/iiif/2/b130ee30-6f55-0139-77ae-02d0d7bfd6e4-5
A66483-008-a,https://images.digital.library.illinois.edu/iiif/2/b13398d0-6f55-0139-77ae-02d0d7bfd6e4-6
A66483-008-b,https://images.digital.library.illinois.edu/iiif/2/b1364ed0-6f55-0139-77ae-02d0d7bfd6e4-9
A66483-009-a,https://images.digital.library.illinois.edu/iiif/2/b138cc70-6f55-0139-77ae-02d0d7bfd6e4-6
A66483-009-b,https://images.digital.library.illinois.edu/iiif/2/b13b4d20-6f55-0139-77ae-02d0d7bfd6e4-b
A66483-010-a,https://images.digital.library.illinois.edu/iiif/2/b13dccc0-6f55-0139-77ae-02d0d7bfd6e4-7
A66483-010-b,https://images.digital.library.illinois.edu/iiif/2/b1406a50-6f55-0139-77ae-02d0d7bfd6e4-2
A66483-011-a,https://images.digital.library.illinois.edu/iiif/2/b14361f0-6f55-0139-77ae-02d0d7bfd6e4-5
A66483-011-b,https://images.digital.library.illinois.edu/iiif/2/b1469610-6f55-0139-77ae-02d0d7bfd6e4-0
A66483-012-a,https://images.digital.library.illinois.edu/iiif/2/b148f8a0-6f55-0139-77ae-02d0d7bfd6e4-7
A66483-012-b,https://images.digital.library.illinois.edu/iiif/2/b14baa40-6f55-0139-77ae-02d0d7bfd6e4-8
A66483-013-a,https://images.digital.library.illinois.edu/iiif/2/b14e4050-6f55-0139-77ae-02d0d7bfd6e4-c
A66483-013-b,https://images.digital.library.illinois.edu/iiif/2/b1513450-6f55-0139-77ae-02d0d7bfd6e4-f
A66483-014-a,https://images.digital.library.illinois.edu/iiif/2/b153cc60-6f55-0139-77ae-02d0d7bfd6e4-0
A66483-014-b,https://images.digital.library.illinois.edu/iiif/2/b1565860-6f55-0139-77ae-02d0d7bfd6e4-9
A66483-015-a,https://images.digital.library.illinois.edu/iiif/2/b1590bc0-6f55-0139-77ae-02d0d7bfd6e4-b
A66483-015-b,https://images.digital.library.illinois.edu/iiif/2/b15b8db0-6f55-0139-77ae-02d0d7bfd6e4-c
A66483-016-a,https://images.digital.library.illinois.edu/iiif/2/b15e4080-6f55-0139-77ae-02d0d7bfd6e4-8
A66483-016-b,https://images.digital.library.illinois.edu/iiif/2/b160fb90-6f55-0139-77ae-02d0d7bfd6e4-1
A66483-017-a,https://images.digital.library.illinois.edu/iiif/2/b163e680-6f55-0139-77ae-02d0d7bfd6e4-8
A66483-017-b,https://images.digital.library.illinois.edu/iiif/2/b1670840-6f55-0139-77ae-02d0d7bfd6e4-d
A66483-018-a,https://images.digital.library.illinois.edu/iiif/2/b16abfe0-6f55-0139-77ae-02d0d7bfd6e4-3
A66483-018-b,https://images.digital.library.illinois.edu/iiif/2/b16d7810-6f55-0139-77ae-02d0d7bfd6e4-c
A66483-019-a,https://images.digital.library.illinois.edu/iiif/2/b17069a0-6f55-0139-77ae-02d0d7bfd6e4-c
A66483-019-b,https://images.digital.library.illinois.edu/iiif/2/b1733700-6f55-0139-77ae-02d0d7bfd6e4-8
A66483-020-a,9999
A66483-020-b,9999
A66483-021-a,https://images.digital.library.illinois.edu/iiif/2/b1761660-6f55-0139-77ae-02d0d7bfd6e4-0
A66483-021-b,https://images.digital.library.illinois.edu/iiif/2/b178a4c0-6f55-0139-77ae-02d0d7bfd6e4-0
A66483-022-a,https://images.digital.library.illinois.edu/iiif/2/b17bd5f0-6f55-0139-77ae-02d0d7bfd6e4-2
A66483-022-b,https://images.digital.library.illinois.edu/iiif/2/b181e590-6f55-0139-77ae-02d0d7bfd6e4-b
A66483-023-a,https://images.digital.library.illinois.edu/iiif/2/b184a340-6f55-0139-77ae-02d0d7bfd6e4-2
A66483-023-b,https://images.digital.library.illinois.edu/iiif/2/b18746c0-6f55-0139-77ae-02d0d7bfd6e4-4
A66483-024-a,https://images.digital.library.illinois.edu/iiif/2/b1904560-6f55-0139-77ae-02d0d7bfd6e4-9
A66483-024-b,https://images.digital.library.illinois.edu/iiif/2/b1930320-6f55-0139-77ae-02d0d7bfd6e4-f
A66483-025-a,https://images.digital.library.illinois.edu/iiif/2/b195ede0-6f55-0139-77ae-02d0d7bfd6e4-c
A66483-025-b,https://images.digital.library.illinois.edu/iiif/2/b1986980-6f55-0139-77ae-02d0d7bfd6e4-b
A66483-026-a,https://images.digital.library.illinois.edu/iiif/2/b19b1cc0-6f55-0139-77ae-02d0d7bfd6e4-0
A66483-026-b,https://images.digital.library.illinois.edu/iiif/2/b19da3a0-6f55-0139-77ae-02d0d7bfd6e4-8
A66483-027-a,https://images.digital.library.illinois.edu/iiif/2/b1a075b0-6f55-0139-77ae-02d0d7bfd6e4-0
A66483-027-b,https://images.digital.library.illinois.edu/iiif/2/b1a38e60-6f55-0139-77ae-02d0d7bfd6e4-b
A66483-028-a,https://images.digital.library.illinois.edu/iiif/2/b1a67e50-6f55-0139-77ae-02d0d7bfd6e4-7
A66483-028-b,https://images.digital.library.illinois.edu/iiif/2/b1a994a0-6f55-0139-77ae-02d0d7bfd6e4-e
A66483-029-a,https://images.digital.library.illinois.edu/iiif/2/b1ad3240-6f55-0139-77ae-02d0d7bfd6e4-6
A66483-029-b,https://images.digital.library.illinois.edu/iiif/2/b1afc190-6f55-0139-77ae-02d0d7bfd6e4-6
A66483-030-a,https://images.digital.library.illinois.edu/iiif/2/b1b25440-6f55-0139-77ae-02d0d7bfd6e4-6
A66483-030-b,https://images.digital.library.illinois.edu/iiif/2/b1b52ad0-6f55-0139-77ae-02d0d7bfd6e4-d
A66483-031-a,https://images.digital.library.illinois.edu/iiif/2/b1b7d390-6f55-0139-77ae-02d0d7bfd6e4-1
A66483-031-b,https://images.digital.library.illinois.edu/iiif/2/b1ba8a60-6f55-0139-77ae-02d0d7bfd6e4-3
A66483-031-c,https://images.digital.library.illinois.edu/iiif/2/b1bd6730-6f55-0139-77ae-02d0d7bfd6e4-9
A66483-031-d,https://images.digital.library.illinois.edu/iiif/2/b1bfe850-6f55-0139-77ae-02d0d7bfd6e4-8
A66483-032-a,https://images.digital.library.illinois.edu/iiif/2/b1c2ecf0-6f55-0139-77ae-02d0d7bfd6e4-0
A66483-032-b,https://images.digital.library.illinois.edu/iiif/2/b1c649a0-6f55-0139-77ae-02d0d7bfd6e4-d
A66483-033-a,https://images.digital.library.illinois.edu/iiif/2/b1c8be80-6f55-0139-77ae-02d0d7bfd6e4-9
A66483-033-b,https://images.digital.library.illinois.edu/iiif/2/b1cb5f90-6f55-0139-77ae-02d0d7bfd6e4-6
A66483-034-a,https://images.digital.library.illinois.edu/iiif/2/b1ce3960-6f55-0139-77ae-02d0d7bfd6e4-1
A66483-034-b,https://images.digital.library.illinois.edu/iiif/2/b1d11fb0-6f55-0139-77ae-02d0d7bfd6e4-c
A66483-035-a,https://images.digital.library.illinois.edu/iiif/2/b1d42800-6f55-0139-77ae-02d0d7bfd6e4-e
A66483-035-b,https://images.digital.library.illinois.edu/iiif/2/b1d6fcb0-6f55-0139-77ae-02d0d7bfd6e4-a
A66483-036-a,https://images.digital.library.illinois.edu/iiif/2/b1d99a80-6f55-0139-77ae-02d0d7bfd6e4-0
A66483-036-b,https://images.digital.library.illinois.edu/iiif/2/b1dc4720-6f55-0139-77ae-02d0d7bfd6e4-c
A66483-037-a,https://images.digital.library.illinois.edu/iiif/2/b1dedf60-6f55-0139-77ae-02d0d7bfd6e4-a
A66483-037-b,https://images.digital.library.illinois.edu/iiif/2/b1e19990-6f55-0139-77ae-02d0d7bfd6e4-1
A66483-038-a,https://images.digital.library.illinois.edu/iiif/2/b1e41a70-6f55-0139-77ae-02d0d7bfd6e4-3
A66483-038-b,https://images.digital.library.illinois.edu/iiif/2/b1e6d900-6f55-0139-77ae-02d0d7bfd6e4-c
A66483-039-a,https://images.digital.library.illinois.edu/iiif/2/b1e9a3c0-6f55-0139-77ae-02d0d7bfd6e4-9
A66483-039-b,https://images.digital.library.illinois.edu/iiif/2/b1ec4470-6f55-0139-77ae-02d0d7bfd6e4-c
A66483-040-a,https://images.digital.library.illinois.edu/iiif/2/b1ef0fe0-6f55-0139-77ae-02d0d7bfd6e4-c
A66483-040-b,https://images.digital.library.illinois.edu/iiif/2/b1f1ff30-6f55-0139-77ae-02d0d7bfd6e4-4
A66483-041-a,https://images.digital.library.illinois.edu/iiif/2/b1f48f00-6f55-0139-77ae-02d0d7bfd6e4-8
A66483-041-b,https://images.digital.library.illinois.edu/iiif/2/b1f70700-6f55-0139-77ae-02d0d7bfd6e4-b
A66483-042-a,https://images.digital.library.illinois.edu/iiif/2/b1f9bf60-6f55-0139-77ae-02d0d7bfd6e4-4
A66483-042-b,https://images.digital.library.illinois.edu/iiif/2/b1fce3f0-6f55-0139-77ae-02d0d7bfd6e4-b
A66483-043-a,https://images.digital.library.illinois.edu/iiif/2/b1ffda70-6f55-0139-77ae-02d0d7bfd6e4-f
A66483-043-b,https://images.digital.library.illinois.edu/iiif/2/b202d400-6f55-0139-77ae-02d0d7bfd6e4-b
A66483-044-a,https://images.digital.library.illinois.edu/iiif/2/b2057b30-6f55-0139-77ae-02d0d7bfd6e4-9
A66483-044-b,https://images.digital.library.illinois.edu/iiif/2/b20df730-6f55-0139-77ae-02d0d7bfd6e4-9
A66483-045-a,https://images.digital.library.illinois.edu/iiif/2/b212e320-6f55-0139-77ae-02d0d7bfd6e4-9
A66483-045-b,https://images.digital.library.illinois.edu/iiif/2/b2158310-6f55-0139-77ae-02d0d7bfd6e4-a
A66483-046-a,https://images.digital.library.illinois.edu/iiif/2/b2187b40-6f55-0139-77ae-02d0d7bfd6e4-0
A66483-046-b,https://images.digital.library.illinois.edu/iiif/2/b21ada60-6f55-0139-77ae-02d0d7bfd6e4-6
A66483-047-a,https://images.digital.library.illinois.edu/iiif/2/b21e0170-6f55-0139-77ae-02d0d7bfd6e4-d
A66483-047-b,https://images.digital.library.illinois.edu/iiif/2/b220fcd0-6f55-0139-77ae-02d0d7bfd6e4-d
A66483-048-a,https://images.digital.library.illinois.edu/iiif/2/b2238490-6f55-0139-77ae-02d0d7bfd6e4-3
A66483-048-b,https://images.digital.library.illinois.edu/iiif/2/b2263d10-6f55-0139-77ae-02d0d7bfd6e4-7
A66483-049-a,https://images.digital.library.illinois.edu/iiif/2/b228a6e0-6f55-0139-77ae-02d0d7bfd6e4-d
A66483-049-b,https://images.digital.library.illinois.edu/iiif/2/b22b9d60-6f55-0139-77ae-02d0d7bfd6e4-1
A66483-050-a,https://images.digital.library.illinois.edu/iiif/2/b22e1160-6f55-0139-77ae-02d0d7bfd6e4-c
A66483-050-b,https://images.digital.library.illinois.edu/iiif/2/b2307160-6f55-0139-77ae-02d0d7bfd6e4-2
A66483-051-a,https://images.digital.library.illinois.edu/iiif/2/b2343f50-6f55-0139-77ae-02d0d7bfd6e4-2
A66483-051-b,https://images.digital.library.illinois.edu/iiif/2/b2376020-6f55-0139-77ae-02d0d7bfd6e4-b
A66483-052-a,https://images.digital.library.illinois.edu/iiif/2/b239f1f0-6f55-0139-77ae-02d0d7bfd6e4-e
A66483-052-b,https://images.digital.library.illinois.edu/iiif/2/b23cb4c0-6f55-0139-77ae-02d0d7bfd6e4-9
A66483-053-a,https://images.digital.library.illinois.edu/iiif/2/b23f37e0-6f55-0139-77ae-02d0d7bfd6e4-3
A66483-053-b,https://images.digital.library.illinois.edu/iiif/2/b24212a0-6f55-0139-77ae-02d0d7bfd6e4-d
A66483-054-a,https://images.digital.library.illinois.edu/iiif/2/b2449d80-6f55-0139-77ae-02d0d7bfd6e4-c
A66483-054-b,https://images.digital.library.illinois.edu/iiif/2/b2474ab0-6f55-0139-77ae-02d0d7bfd6e4-e
A66483-055-a,https://images.digital.library.illinois.edu/iiif/2/b249f8e0-6f55-0139-77ae-02d0d7bfd6e4-f
A66483-055-b,https://images.digital.library.illinois.edu/iiif/2/b24c8da0-6f55-0139-77ae-02d0d7bfd6e4-a
A66483-056-a,https://images.digital.library.illinois.edu/iiif/2/b24f4e10-6f55-0139-77ae-02d0d7bfd6e4-f
A66483-056-b,https://images.digital.library.illinois.edu/iiif/2/b251f220-6f55-0139-77ae-02d0d7bfd6e4-8
A66483-057-a,https://images.digital.library.illinois.edu/iiif/2/b25478d0-6f55-0139-77ae-02d0d7bfd6e4-2
A66483-057-b,https://images.digital.library.illinois.edu/iiif/2/b2573ec0-6f55-0139-77ae-02d0d7bfd6e4-5
A66483-058-a,https://images.digital.library.illinois.edu/iiif/2/b259f4b0-6f55-0139-77ae-02d0d7bfd6e4-a
A66483-058-b,https://images.digital.library.illinois.edu/iiif/2/b25c9580-6f55-0139-77ae-02d0d7bfd6e4-b
A66483-059-a,https://images.digital.library.illinois.edu/iiif/2/b25f6f20-6f55-0139-77ae-02d0d7bfd6e4-9
A66483-059-b,https://images.digital.library.illinois.edu/iiif/2/b261f530-6f55-0139-77ae-02d0d7bfd6e4-0
A66483-060-a,https://images.digital.library.illinois.edu/iiif/2/b2645ae0-6f55-0139-77ae-02d0d7bfd6e4-e
A66483-060-b,https://images.digital.library.illinois.edu/iiif/2/b266c390-6f55-0139-77ae-02d0d7bfd6e4-7
A66483-061-a,https://images.digital.library.illinois.edu/iiif/2/b2694640-6f55-0139-77ae-02d0d7bfd6e4-7
A66483-061-b,https://images.digital.library.illinois.edu/iiif/2/b26bbe20-6f55-0139-77ae-02d0d7bfd6e4-d
A66483-062-a,https://images.digital.library.illinois.edu/iiif/2/b26e2280-6f55-0139-77ae-02d0d7bfd6e4-3
A66483-062-b,https://images.digital.library.illinois.edu/iiif/2/b270db30-6f55-0139-77ae-02d0d7bfd6e4-6
A66483-063-a,https://images.digital.library.illinois.edu/iiif/2/b273fe20-6f55-0139-77ae-02d0d7bfd6e4-9
A66483-063-b,https://images.digital.library.illinois.edu/iiif/2/b2773130-6f55-0139-77ae-02d0d7bfd6e4-7
A66483-064-a,https://images.digital.library.illinois.edu/iiif/2/b27afe20-6f55-0139-77ae-02d0d7bfd6e4-a
A66483-064-b,https://images.digital.library.illinois.edu/iiif/2/b27eb2e0-6f55-0139-77ae-02d0d7bfd6e4-3
A66483-065-a,https://images.digital.library.illinois.edu/iiif/2/b2828750-6f55-0139-77ae-02d0d7bfd6e4-d
A66483-065-b,https://images.digital.library.illinois.edu/iiif/2/b2855870-6f55-0139-77ae-02d0d7bfd6e4-5
A66483-066-a,https://images.digital.library.illinois.edu/iiif/2/b2880580-6f55-0139-77ae-02d0d7bfd6e4-9
A66483-066-b,https://images.digital.library.illinois.edu/iiif/2/b28ac4c0-6f55-0139-77ae-02d0d7bfd6e4-7
A66483-067-a,https://images.digital.library.illinois.edu/iiif/2/b28f8f00-6f55-0139-77ae-02d0d7bfd6e4-6
A66483-067-b,https://images.digital.library.illinois.edu/iiif/2/b2948da0-6f55-0139-77ae-02d0d7bfd6e4-6
A66483-068-a,https://images.digital.library.illinois.edu/iiif/2/b2978320-6f55-0139-77ae-02d0d7bfd6e4-d
A66483-068-b,https://images.digital.library.illinois.edu/iiif/2/b299f090-6f55-0139-77ae-02d0d7bfd6e4-0
A66483-069-a,https://images.digital.library.illinois.edu/iiif/2/b29c6910-6f55-0139-77ae-02d0d7bfd6e4-8
A66483-069-b,https://images.digital.library.illinois.edu/iiif/2/b2a51720-6f55-0139-77ae-02d0d7bfd6e4-f
A66483-070-a,https://images.digital.library.illinois.edu/iiif/2/b2a7f120-6f55-0139-77ae-02d0d7bfd6e4-9
A66483-070-b,https://images.digital.library.illinois.edu/iiif/2/b2aa6c40-6f55-0139-77ae-02d0d7bfd6e4-2
A66483-071-a,https://images.digital.library.illinois.edu/iiif/2/b2ad43e0-6f55-0139-77ae-02d0d7bfd6e4-7
A66483-071-b,https://images.digital.library.illinois.edu/iiif/2/b2afbd10-6f55-0139-77ae-02d0d7bfd6e4-4
A66483-072-a,https://images.digital.library.illinois.edu/iiif/2/b2b22190-6f55-0139-77ae-02d0d7bfd6e4-8
A66483-072-b,https://images.digital.library.illinois.edu/iiif/2/b2b4ba40-6f55-0139-77ae-02d0d7bfd6e4-d
A66483-073-a,https://images.digital.library.illinois.edu/iiif/2/b2b721d0-6f55-0139-77ae-02d0d7bfd6e4-a
A66483-073-b,https://images.digital.library.illinois.edu/iiif/2/b2b992a0-6f55-0139-77ae-02d0d7bfd6e4-f
A66483-074-a,https://images.digital.library.illinois.edu/iiif/2/b2bc1860-6f55-0139-77ae-02d0d7bfd6e4-8
A66483-074-b,https://images.digital.library.illinois.edu/iiif/2/b2be89e0-6f55-0139-77ae-02d0d7bfd6e4-3
A66483-075-a,https://images.digital.library.illinois.edu/iiif/2/b2c12430-6f55-0139-77ae-02d0d7bfd6e4-9
A66483-075-b,https://images.digital.library.illinois.edu/iiif/2/b2c3dbd0-6f55-0139-77ae-02d0d7bfd6e4-1
A66483-076-a,https://images.digital.library.illinois.edu/iiif/2/b2c661d0-6f55-0139-77ae-02d0d7bfd6e4-7
A66483-076-b,https://images.digital.library.illinois.edu/iiif/2/b2c91900-6f55-0139-77ae-02d0d7bfd6e4-1
A66483-077-a,https://images.digital.library.illinois.edu/iiif/2/b2cbcc70-6f55-0139-77ae-02d0d7bfd6e4-5
A66483-077-b,https://images.digital.library.illinois.edu/iiif/2/b2cf9020-6f55-0139-77ae-02d0d7bfd6e4-e
A66483-078-a,https://images.digital.library.illinois.edu/iiif/2/b2d21ac0-6f55-0139-77ae-02d0d7bfd6e4-1
A66483-078-b,https://images.digital.library.illinois.edu/iiif/2/b2d4d9c0-6f55-0139-77ae-02d0d7bfd6e4-3
A66483-079-a,https://images.digital.library.illinois.edu/iiif/2/b2d77810-6f55-0139-77ae-02d0d7bfd6e4-0
A66483-079-b,https://images.digital.library.illinois.edu/iiif/2/b2daa300-6f55-0139-77ae-02d0d7bfd6e4-2
A66483-080-a,https://images.digital.library.illinois.edu/iiif/2/b2de2710-6f55-0139-77ae-02d0d7bfd6e4-9
A66483-080-b,https://images.digital.library.illinois.edu/iiif/2/b2e14440-6f55-0139-77ae-02d0d7bfd6e4-4
A66483-081-a,https://images.digital.library.illinois.edu/iiif/2/b2e3feb0-6f55-0139-77ae-02d0d7bfd6e4-9
A66483-081-b,https://images.digital.library.illinois.edu/iiif/2/b2e7d9f0-6f55-0139-77ae-02d0d7bfd6e4-9
A66483-082-a,https://images.digital.library.illinois.edu/iiif/2/b2eaa2a0-6f55-0139-77ae-02d0d7bfd6e4-9
A66483-082-b,https://images.digital.library.illinois.edu/iiif/2/b2ef2730-6f55-0139-77ae-02d0d7bfd6e4-4
A66483-083-a,https://images.digital.library.illinois.edu/iiif/2/b2f1b470-6f55-0139-77ae-02d0d7bfd6e4-9
A66483-083-b,https://images.digital.library.illinois.edu/iiif/2/b2f40c80-6f55-0139-77ae-02d0d7bfd6e4-c
A66483-084-a,https://images.digital.library.illinois.edu/iiif/2/b2f6f3f0-6f55-0139-77ae-02d0d7bfd6e4-5
A66483-084-b,https://images.digital.library.illinois.edu/iiif/2/b2f9e0d0-6f55-0139-77ae-02d0d7bfd6e4-7
A66483-085-a,https://images.digital.library.illinois.edu/iiif/2/b2fc8cf0-6f55-0139-77ae-02d0d7bfd6e4-c
A66483-085-b,https://images.digital.library.illinois.edu/iiif/2/b2ff53d0-6f55-0139-77ae-02d0d7bfd6e4-e
A66483-086-a,https://images.digital.library.illinois.edu/iiif/2/b301d1d0-6f55-0139-77ae-02d0d7bfd6e4-4
A66483-086-b,https://images.digital.library.illinois.edu/iiif/2/b3041460-6f55-0139-77ae-02d0d7bfd6e4-b
A66483-087-a,https://images.digital.library.illinois.edu/iiif/2/b3064cb0-6f55-0139-77ae-02d0d7bfd6e4-e
A66483-087-b,https://images.digital.library.illinois.edu/iiif/2/b30876c0-6f55-0139-77ae-02d0d7bfd6e4-2
A66483-088-a,https://images.digital.library.illinois.edu/iiif/2/b30ab830-6f55-0139-77ae-02d0d7bfd6e4-e
A66483-088-b,https://images.digital.library.illinois.edu/iiif/2/b30d3990-6f55-0139-77ae-02d0d7bfd6e4-8
A66483-089-a,https://images.digital.library.illinois.edu/iiif/2/b30f80e0-6f55-0139-77ae-02d0d7bfd6e4-d
A66483-089-b,https://images.digital.library.illinois.edu/iiif/2/b311ca00-6f55-0139-77ae-02d0d7bfd6e4-e
A66483-090-a,https://images.digital.library.illinois.edu/iiif/2/b31408b0-6f55-0139-77ae-02d0d7bfd6e4-d
A66483-090-b,https://images.digital.library.illinois.edu/iiif/2/b3165150-6f55-0139-77ae-02d0d7bfd6e4-9
A66483-091-a,https://images.digital.library.illinois.edu/iiif/2/b318e290-6f55-0139-77ae-02d0d7bfd6e4-5
A66483-091-b,https://images.digital.library.illinois.edu/iiif/2/b32011e0-6f55-0139-77ae-02d0d7bfd6e4-f
A66483-092-a,https://images.digital.library.illinois.edu/iiif/2/b322bf40-6f55-0139-77ae-02d0d7bfd6e4-e
A66483-092-b,https://images.digital.library.illinois.edu/iiif/2/b325c780-6f55-0139-77ae-02d0d7bfd6e4-4
A66483-093-a,https://images.digital.library.illinois.edu/iiif/2/b3287b40-6f55-0139-77ae-02d0d7bfd6e4-d
A66483-093-b,https://images.digital.library.illinois.edu/iiif/2/b32b5f80-6f55-0139-77ae-02d0d7bfd6e4-d
A66483-094-a,https://images.digital.library.illinois.edu/iiif/2/b32e0fa0-6f55-0139-77ae-02d0d7bfd6e4-a
A66483-094-b,https://images.digital.library.illinois.edu/iiif/2/b3309960-6f55-0139-77ae-02d0d7bfd6e4-d
A66483-095-a,https://images.digital.library.illinois.edu/iiif/2/b3336700-6f55-0139-77ae-02d0d7bfd6e4-5
A66483-095-b,https://images.digital.library.illinois.edu/iiif/2/b3360890-6f55-0139-77ae-02d0d7bfd6e4-9
A66483-096-a,https://images.digital.library.illinois.edu/iiif/2/b3389cc0-6f55-0139-77ae-02d0d7bfd6e4-0
A66483-096-b,https://images.digital.library.illinois.edu/iiif/2/b33b3ac0-6f55-0139-77ae-02d0d7bfd6e4-4
