A66450-001-a,https://iiif.archive.org/iiif/keyintolanguageo02will$2
A66450-001-b,https://iiif.archive.org/iiif/keyintolanguageo02will$3
A66450-002-a,https://iiif.archive.org/iiif/keyintolanguageo02will$4
A66450-002-b,https://iiif.archive.org/iiif/keyintolanguageo02will$5
A66450-003-a,https://iiif.archive.org/iiif/keyintolanguageo02will$6
A66450-003-b,https://iiif.archive.org/iiif/keyintolanguageo02will$7
A66450-004-a,https://iiif.archive.org/iiif/keyintolanguageo02will$8
A66450-004-b,https://iiif.archive.org/iiif/keyintolanguageo02will$9
A66450-005-a,https://iiif.archive.org/iiif/keyintolanguageo02will$10
A66450-005-b,https://iiif.archive.org/iiif/keyintolanguageo02will$11
A66450-006-a,https://iiif.archive.org/iiif/keyintolanguageo02will$12
A66450-006-b,https://iiif.archive.org/iiif/keyintolanguageo02will$13
A66450-007-a,https://iiif.archive.org/iiif/keyintolanguageo02will$14
A66450-007-b,https://iiif.archive.org/iiif/keyintolanguageo02will$15
A66450-008-a,https://iiif.archive.org/iiif/keyintolanguageo02will$16
A66450-008-b,https://iiif.archive.org/iiif/keyintolanguageo02will$17
A66450-009-a,https://iiif.archive.org/iiif/keyintolanguageo02will$18
A66450-009-b,https://iiif.archive.org/iiif/keyintolanguageo02will$19
A66450-010-a,https://iiif.archive.org/iiif/keyintolanguageo02will$20
A66450-010-b,https://iiif.archive.org/iiif/keyintolanguageo02will$21
A66450-011-a,https://iiif.archive.org/iiif/keyintolanguageo02will$22
A66450-011-b,https://iiif.archive.org/iiif/keyintolanguageo02will$23
A66450-012-a,https://iiif.archive.org/iiif/keyintolanguageo02will$24
A66450-012-b,https://iiif.archive.org/iiif/keyintolanguageo02will$25
A66450-013-a,https://iiif.archive.org/iiif/keyintolanguageo02will$26
A66450-013-b,https://iiif.archive.org/iiif/keyintolanguageo02will$27
A66450-014-a,https://iiif.archive.org/iiif/keyintolanguageo02will$28
A66450-014-b,https://iiif.archive.org/iiif/keyintolanguageo02will$29
A66450-015-a,https://iiif.archive.org/iiif/keyintolanguageo02will$30
A66450-015-b,https://iiif.archive.org/iiif/keyintolanguageo02will$31
A66450-016-a,https://iiif.archive.org/iiif/keyintolanguageo02will$32
A66450-016-b,https://iiif.archive.org/iiif/keyintolanguageo02will$33
A66450-017-a,https://iiif.archive.org/iiif/keyintolanguageo02will$34
A66450-017-b,https://iiif.archive.org/iiif/keyintolanguageo02will$35
A66450-018-a,https://iiif.archive.org/iiif/keyintolanguageo02will$36
A66450-018-b,https://iiif.archive.org/iiif/keyintolanguageo02will$37
A66450-019-a,https://iiif.archive.org/iiif/keyintolanguageo02will$38
A66450-019-b,https://iiif.archive.org/iiif/keyintolanguageo02will$39
A66450-020-a,https://iiif.archive.org/iiif/keyintolanguageo02will$40
A66450-020-b,https://iiif.archive.org/iiif/keyintolanguageo02will$41
A66450-021-a,https://iiif.archive.org/iiif/keyintolanguageo02will$42
A66450-021-b,https://iiif.archive.org/iiif/keyintolanguageo02will$43
A66450-022-a,https://iiif.archive.org/iiif/keyintolanguageo02will$44
A66450-022-b,https://iiif.archive.org/iiif/keyintolanguageo02will$45
A66450-023-a,https://iiif.archive.org/iiif/keyintolanguageo02will$46
A66450-023-b,https://iiif.archive.org/iiif/keyintolanguageo02will$47
A66450-024-a,https://iiif.archive.org/iiif/keyintolanguageo02will$48
A66450-024-b,https://iiif.archive.org/iiif/keyintolanguageo02will$49
A66450-025-a,https://iiif.archive.org/iiif/keyintolanguageo02will$50
A66450-025-b,https://iiif.archive.org/iiif/keyintolanguageo02will$51
A66450-026-a,https://iiif.archive.org/iiif/keyintolanguageo02will$52
A66450-026-b,https://iiif.archive.org/iiif/keyintolanguageo02will$53
A66450-027-a,https://iiif.archive.org/iiif/keyintolanguageo02will$54
A66450-027-b,https://iiif.archive.org/iiif/keyintolanguageo02will$55
A66450-028-a,https://iiif.archive.org/iiif/keyintolanguageo02will$56
A66450-028-b,https://iiif.archive.org/iiif/keyintolanguageo02will$57
A66450-029-a,https://iiif.archive.org/iiif/keyintolanguageo02will$58
A66450-029-b,https://iiif.archive.org/iiif/keyintolanguageo02will$59
A66450-030-a,https://iiif.archive.org/iiif/keyintolanguageo02will$60
A66450-030-b,https://iiif.archive.org/iiif/keyintolanguageo02will$61
A66450-031-a,https://iiif.archive.org/iiif/keyintolanguageo02will$62
A66450-031-b,https://iiif.archive.org/iiif/keyintolanguageo02will$63
A66450-032-a,https://iiif.archive.org/iiif/keyintolanguageo02will$64
A66450-032-b,https://iiif.archive.org/iiif/keyintolanguageo02will$65
A66450-033-a,https://iiif.archive.org/iiif/keyintolanguageo02will$66
A66450-033-b,https://iiif.archive.org/iiif/keyintolanguageo02will$67
A66450-034-a,https://iiif.archive.org/iiif/keyintolanguageo02will$68
A66450-034-b,https://iiif.archive.org/iiif/keyintolanguageo02will$69
A66450-035-a,https://iiif.archive.org/iiif/keyintolanguageo02will$70
A66450-035-b,https://iiif.archive.org/iiif/keyintolanguageo02will$71
A66450-036-a,https://iiif.archive.org/iiif/keyintolanguageo02will$72
A66450-036-b,https://iiif.archive.org/iiif/keyintolanguageo02will$73
A66450-037-a,https://iiif.archive.org/iiif/keyintolanguageo02will$74
A66450-037-b,https://iiif.archive.org/iiif/keyintolanguageo02will$75
A66450-038-a,https://iiif.archive.org/iiif/keyintolanguageo02will$76
A66450-038-b,https://iiif.archive.org/iiif/keyintolanguageo02will$77
A66450-039-a,https://iiif.archive.org/iiif/keyintolanguageo02will$78
A66450-039-b,https://iiif.archive.org/iiif/keyintolanguageo02will$79
A66450-040-a,https://iiif.archive.org/iiif/keyintolanguageo02will$80
A66450-040-b,https://iiif.archive.org/iiif/keyintolanguageo02will$81
A66450-041-a,https://iiif.archive.org/iiif/keyintolanguageo02will$82
A66450-041-b,https://iiif.archive.org/iiif/keyintolanguageo02will$83
A66450-042-a,https://iiif.archive.org/iiif/keyintolanguageo02will$84
A66450-042-b,https://iiif.archive.org/iiif/keyintolanguageo02will$85
A66450-043-a,https://iiif.archive.org/iiif/keyintolanguageo02will$86
A66450-043-b,https://iiif.archive.org/iiif/keyintolanguageo02will$87
A66450-044-a,https://iiif.archive.org/iiif/keyintolanguageo02will$88
A66450-044-b,https://iiif.archive.org/iiif/keyintolanguageo02will$89
A66450-045-a,https://iiif.archive.org/iiif/keyintolanguageo02will$90
A66450-045-b,https://iiif.archive.org/iiif/keyintolanguageo02will$91
A66450-046-a,https://iiif.archive.org/iiif/keyintolanguageo02will$92
A66450-046-b,https://iiif.archive.org/iiif/keyintolanguageo02will$93
A66450-047-a,https://iiif.archive.org/iiif/keyintolanguageo02will$94
A66450-047-b,https://iiif.archive.org/iiif/keyintolanguageo02will$95
A66450-048-a,https://iiif.archive.org/iiif/keyintolanguageo02will$96
A66450-048-b,https://iiif.archive.org/iiif/keyintolanguageo02will$97
A66450-049-a,https://iiif.archive.org/iiif/keyintolanguageo02will$98
A66450-049-b,https://iiif.archive.org/iiif/keyintolanguageo02will$99
A66450-050-a,https://iiif.archive.org/iiif/keyintolanguageo02will$100
A66450-050-b,https://iiif.archive.org/iiif/keyintolanguageo02will$101
A66450-051-a,https://iiif.archive.org/iiif/keyintolanguageo02will$102
A66450-051-b,https://iiif.archive.org/iiif/keyintolanguageo02will$103
A66450-052-a,https://iiif.archive.org/iiif/keyintolanguageo02will$104
A66450-052-b,https://iiif.archive.org/iiif/keyintolanguageo02will$105
A66450-053-a,https://iiif.archive.org/iiif/keyintolanguageo02will$106
A66450-053-b,https://iiif.archive.org/iiif/keyintolanguageo02will$107
A66450-054-a,https://iiif.archive.org/iiif/keyintolanguageo02will$108
A66450-054-b,https://iiif.archive.org/iiif/keyintolanguageo02will$109
A66450-055-a,https://iiif.archive.org/iiif/keyintolanguageo02will$110
A66450-055-b,https://iiif.archive.org/iiif/keyintolanguageo02will$111
A66450-056-a,https://iiif.archive.org/iiif/keyintolanguageo02will$112
A66450-056-b,https://iiif.archive.org/iiif/keyintolanguageo02will$113
A66450-057-a,https://iiif.archive.org/iiif/keyintolanguageo02will$114
A66450-057-b,https://iiif.archive.org/iiif/keyintolanguageo02will$115
A66450-058-a,https://iiif.archive.org/iiif/keyintolanguageo02will$116
A66450-058-b,https://iiif.archive.org/iiif/keyintolanguageo02will$117
A66450-059-a,https://iiif.archive.org/iiif/keyintolanguageo02will$118
A66450-059-b,https://iiif.archive.org/iiif/keyintolanguageo02will$119
A66450-060-a,https://iiif.archive.org/iiif/keyintolanguageo02will$120
A66450-060-b,https://iiif.archive.org/iiif/keyintolanguageo02will$121
A66450-061-a,https://iiif.archive.org/iiif/keyintolanguageo02will$122
A66450-061-b,https://iiif.archive.org/iiif/keyintolanguageo02will$123
A66450-062-a,https://iiif.archive.org/iiif/keyintolanguageo02will$124
A66450-062-b,https://iiif.archive.org/iiif/keyintolanguageo02will$125
A66450-063-a,https://iiif.archive.org/iiif/keyintolanguageo02will$126
A66450-063-b,https://iiif.archive.org/iiif/keyintolanguageo02will$127
A66450-065-a,https://iiif.archive.org/iiif/keyintolanguageo02will$128
A66450-065-b,https://iiif.archive.org/iiif/keyintolanguageo02will$129
A66450-066-a,https://iiif.archive.org/iiif/keyintolanguageo02will$130
A66450-066-b,https://iiif.archive.org/iiif/keyintolanguageo02will$131
A66450-067-a,https://iiif.archive.org/iiif/keyintolanguageo02will$132
A66450-067-b,https://iiif.archive.org/iiif/keyintolanguageo02will$133
A66450-068-a,https://iiif.archive.org/iiif/keyintolanguageo02will$134
A66450-068-b,https://iiif.archive.org/iiif/keyintolanguageo02will$135
A66450-069-a,https://iiif.archive.org/iiif/keyintolanguageo02will$136
A66450-069-b,https://iiif.archive.org/iiif/keyintolanguageo02will$137
A66450-070-a,https://iiif.archive.org/iiif/keyintolanguageo02will$138
A66450-070-b,https://iiif.archive.org/iiif/keyintolanguageo02will$139
A66450-071-a,https://iiif.archive.org/iiif/keyintolanguageo02will$140
A66450-071-b,https://iiif.archive.org/iiif/keyintolanguageo02will$141
A66450-072-a,https://iiif.archive.org/iiif/keyintolanguageo02will$142
A66450-072-b,https://iiif.archive.org/iiif/keyintolanguageo02will$143
A66450-073-a,https://iiif.archive.org/iiif/keyintolanguageo02will$144
A66450-073-b,https://iiif.archive.org/iiif/keyintolanguageo02will$145
A66450-074-a,https://iiif.archive.org/iiif/keyintolanguageo02will$146
A66450-074-b,https://iiif.archive.org/iiif/keyintolanguageo02will$147
A66450-075-a,https://iiif.archive.org/iiif/keyintolanguageo02will$148
A66450-075-b,https://iiif.archive.org/iiif/keyintolanguageo02will$149
A66450-076-a,https://iiif.archive.org/iiif/keyintolanguageo02will$150
A66450-076-b,https://iiif.archive.org/iiif/keyintolanguageo02will$151
A66450-077-a,https://iiif.archive.org/iiif/keyintolanguageo02will$152
A66450-077-b,https://iiif.archive.org/iiif/keyintolanguageo02will$153
A66450-078-a,https://iiif.archive.org/iiif/keyintolanguageo02will$154
A66450-078-b,https://iiif.archive.org/iiif/keyintolanguageo02will$155
A66450-079-a,https://iiif.archive.org/iiif/keyintolanguageo02will$156
A66450-079-b,https://iiif.archive.org/iiif/keyintolanguageo02will$157
A66450-080-a,https://iiif.archive.org/iiif/keyintolanguageo02will$158
A66450-080-b,https://iiif.archive.org/iiif/keyintolanguageo02will$159
A66450-081-a,https://iiif.archive.org/iiif/keyintolanguageo02will$160
A66450-081-b,https://iiif.archive.org/iiif/keyintolanguageo02will$161
A66450-082-a,https://iiif.archive.org/iiif/keyintolanguageo02will$162
A66450-082-b,https://iiif.archive.org/iiif/keyintolanguageo02will$163
A66450-083-a,https://iiif.archive.org/iiif/keyintolanguageo02will$164
A66450-083-b,https://iiif.archive.org/iiif/keyintolanguageo02will$165
A66450-084-a,https://iiif.archive.org/iiif/keyintolanguageo02will$166
A66450-084-b,https://iiif.archive.org/iiif/keyintolanguageo02will$167
A66450-085-a,https://iiif.archive.org/iiif/keyintolanguageo02will$168
A66450-085-b,https://iiif.archive.org/iiif/keyintolanguageo02will$169
A66450-086-a,https://iiif.archive.org/iiif/keyintolanguageo02will$170
A66450-086-b,https://iiif.archive.org/iiif/keyintolanguageo02will$171
A66450-087-a,https://iiif.archive.org/iiif/keyintolanguageo02will$172
A66450-087-b,https://iiif.archive.org/iiif/keyintolanguageo02will$173
A66450-088-a,https://iiif.archive.org/iiif/keyintolanguageo02will$174
A66450-088-b,https://iiif.archive.org/iiif/keyintolanguageo02will$175
A66450-089-a,https://iiif.archive.org/iiif/keyintolanguageo02will$176
A66450-089-b,https://iiif.archive.org/iiif/keyintolanguageo02will$177
A66450-090-a,https://iiif.archive.org/iiif/keyintolanguageo02will$178
A66450-090-b,https://iiif.archive.org/iiif/keyintolanguageo02will$179
A66450-091-a,https://iiif.archive.org/iiif/keyintolanguageo02will$180
A66450-091-b,https://iiif.archive.org/iiif/keyintolanguageo02will$181
A66450-092-a,https://iiif.archive.org/iiif/keyintolanguageo02will$182
A66450-092-b,https://iiif.archive.org/iiif/keyintolanguageo02will$183
A66450-093-a,https://iiif.archive.org/iiif/keyintolanguageo02will$184
A66450-093-b,https://iiif.archive.org/iiif/keyintolanguageo02will$185
A66450-094-a,https://iiif.archive.org/iiif/keyintolanguageo02will$186
A66450-094-b,https://iiif.archive.org/iiif/keyintolanguageo02will$187
A66450-095-a,https://iiif.archive.org/iiif/keyintolanguageo02will$188
A66450-095-b,https://iiif.archive.org/iiif/keyintolanguageo02will$189
A66450-096-a,https://iiif.archive.org/iiif/keyintolanguageo02will$190
A66450-096-b,https://iiif.archive.org/iiif/keyintolanguageo02will$191
A66450-097-a,https://iiif.archive.org/iiif/keyintolanguageo02will$192
A66450-097-b,https://iiif.archive.org/iiif/keyintolanguageo02will$193
A66450-098-a,https://iiif.archive.org/iiif/keyintolanguageo02will$194
A66450-098-b,https://iiif.archive.org/iiif/keyintolanguageo02will$195
A66450-099-a,https://iiif.archive.org/iiif/keyintolanguageo02will$196
A66450-099-b,https://iiif.archive.org/iiif/keyintolanguageo02will$197
A66450-0100-a,https://iiif.archive.org/iiif/keyintolanguageo02will$198
A66450-0100-b,https://iiif.archive.org/iiif/keyintolanguageo02will$199
A66450-0101-a,https://iiif.archive.org/iiif/keyintolanguageo02will$200
A66450-0101-b,https://iiif.archive.org/iiif/keyintolanguageo02will$201
A66450-0102-a,https://iiif.archive.org/iiif/keyintolanguageo02will$202
A66450-0102-b,https://iiif.archive.org/iiif/keyintolanguageo02will$203
A66450-0103-a,https://iiif.archive.org/iiif/keyintolanguageo02will$204
A66450-0103-b,https://iiif.archive.org/iiif/keyintolanguageo02will$205
A66450-0104-a,https://iiif.archive.org/iiif/keyintolanguageo02will$206
A66450-0104-b,https://iiif.archive.org/iiif/keyintolanguageo02will$207
A66450-0105-a,https://iiif.archive.org/iiif/keyintolanguageo02will$208
A66450-0105-b,https://iiif.archive.org/iiif/keyintolanguageo02will$209
A66450-0106-a,https://iiif.archive.org/iiif/keyintolanguageo02will$210
A66450-0106-b,https://iiif.archive.org/iiif/keyintolanguageo02will$211
A66450-0107-a,https://iiif.archive.org/iiif/keyintolanguageo02will$212
A66450-0107-b,https://iiif.archive.org/iiif/keyintolanguageo02will$213
A66450-0108-a,https://iiif.archive.org/iiif/keyintolanguageo02will$214
A66450-0108-b,https://iiif.archive.org/iiif/keyintolanguageo02will$215
A66450-0109-a,https://iiif.archive.org/iiif/keyintolanguageo02will$216
A66450-0109-b,https://iiif.archive.org/iiif/keyintolanguageo02will$217
A66450-0110-a,https://iiif.archive.org/iiif/keyintolanguageo02will$218
A66450-0110-b,https://iiif.archive.org/iiif/keyintolanguageo02will$219
A66450-0111-a,https://iiif.archive.org/iiif/keyintolanguageo02will$220
A66450-0111-b,https://iiif.archive.org/iiif/keyintolanguageo02will$221
A66450-0112-a,https://iiif.archive.org/iiif/keyintolanguageo02will$222
A66450-0112-b,https://iiif.archive.org/iiif/keyintolanguageo02will$223
A66450-0113-a,https://iiif.archive.org/iiif/keyintolanguageo02will$224
A66450-0113-b,https://iiif.archive.org/iiif/keyintolanguageo02will$225
A66450-0114-a,https://iiif.archive.org/iiif/keyintolanguageo02will$226
