A71329-001-a,9999
A71329-001-b,9999
A71329-002-a,9999
A71329-002-b,https://iiif.archive.org/image/iiif/3/hereafterfolowet00cath%2Fhereafterfolowet00cath_jp2.zip%2Fhereafterfolowet00cath_jp2%2Fhereafterfolowet00cath_0007.jp2
A71329-003-a,9999
A71329-003-b,9999
A71329-004-a,https://iiif.archive.org/image/iiif/3/hereafterfolowet00cath%2Fhereafterfolowet00cath_jp2.zip%2Fhereafterfolowet00cath_jp2%2Fhereafterfolowet00cath_0008.jp2
A71329-004-b,https://iiif.archive.org/image/iiif/3/hereafterfolowet00cath%2Fhereafterfolowet00cath_jp2.zip%2Fhereafterfolowet00cath_jp2%2Fhereafterfolowet00cath_0009.jp2
A71329-005-a,https://iiif.archive.org/image/iiif/3/hereafterfolowet00cath%2Fhereafterfolowet00cath_jp2.zip%2Fhereafterfolowet00cath_jp2%2Fhereafterfolowet00cath_0010.jp2
A71329-005-b,https://iiif.archive.org/image/iiif/3/hereafterfolowet00cath%2Fhereafterfolowet00cath_jp2.zip%2Fhereafterfolowet00cath_jp2%2Fhereafterfolowet00cath_0011.jp2
A71329-006-a,https://iiif.archive.org/image/iiif/3/hereafterfolowet00cath%2Fhereafterfolowet00cath_jp2.zip%2Fhereafterfolowet00cath_jp2%2Fhereafterfolowet00cath_0012.jp2
A71329-006-b,https://iiif.archive.org/image/iiif/3/hereafterfolowet00cath%2Fhereafterfolowet00cath_jp2.zip%2Fhereafterfolowet00cath_jp2%2Fhereafterfolowet00cath_0013.jp2
A71329-007-a,https://iiif.archive.org/image/iiif/3/hereafterfolowet00cath%2Fhereafterfolowet00cath_jp2.zip%2Fhereafterfolowet00cath_jp2%2Fhereafterfolowet00cath_0014.jp2
A71329-007-b,https://iiif.archive.org/image/iiif/3/hereafterfolowet00cath%2Fhereafterfolowet00cath_jp2.zip%2Fhereafterfolowet00cath_jp2%2Fhereafterfolowet00cath_0015.jp2
A71329-008-a,https://iiif.archive.org/image/iiif/3/hereafterfolowet00cath%2Fhereafterfolowet00cath_jp2.zip%2Fhereafterfolowet00cath_jp2%2Fhereafterfolowet00cath_0016.jp2
A71329-008-b,https://iiif.archive.org/image/iiif/3/hereafterfolowet00cath%2Fhereafterfolowet00cath_jp2.zip%2Fhereafterfolowet00cath_jp2%2Fhereafterfolowet00cath_0017.jp2
A71329-009-a,9999
A71329-009-b,9999
A71329-010-a,https://iiif.archive.org/image/iiif/3/hereafterfolowet00cath%2Fhereafterfolowet00cath_jp2.zip%2Fhereafterfolowet00cath_jp2%2Fhereafterfolowet00cath_0018.jp2
A71329-010-b,https://iiif.archive.org/image/iiif/3/hereafterfolowet00cath%2Fhereafterfolowet00cath_jp2.zip%2Fhereafterfolowet00cath_jp2%2Fhereafterfolowet00cath_0019.jp2
A71329-011-a,https://iiif.archive.org/image/iiif/3/hereafterfolowet00cath%2Fhereafterfolowet00cath_jp2.zip%2Fhereafterfolowet00cath_jp2%2Fhereafterfolowet00cath_0020.jp2
A71329-011-b,https://iiif.archive.org/image/iiif/3/hereafterfolowet00cath%2Fhereafterfolowet00cath_jp2.zip%2Fhereafterfolowet00cath_jp2%2Fhereafterfolowet00cath_0021.jp2
A71329-012-a,https://iiif.archive.org/image/iiif/3/hereafterfolowet00cath%2Fhereafterfolowet00cath_jp2.zip%2Fhereafterfolowet00cath_jp2%2Fhereafterfolowet00cath_0022.jp2
A71329-012-b,https://iiif.archive.org/image/iiif/3/hereafterfolowet00cath%2Fhereafterfolowet00cath_jp2.zip%2Fhereafterfolowet00cath_jp2%2Fhereafterfolowet00cath_0023.jp2
A71329-013-a,https://iiif.archive.org/image/iiif/3/hereafterfolowet00cath%2Fhereafterfolowet00cath_jp2.zip%2Fhereafterfolowet00cath_jp2%2Fhereafterfolowet00cath_0024.jp2
A71329-013-b,https://iiif.archive.org/image/iiif/3/hereafterfolowet00cath%2Fhereafterfolowet00cath_jp2.zip%2Fhereafterfolowet00cath_jp2%2Fhereafterfolowet00cath_0025.jp2
A71329-014-a,https://iiif.archive.org/image/iiif/3/hereafterfolowet00cath%2Fhereafterfolowet00cath_jp2.zip%2Fhereafterfolowet00cath_jp2%2Fhereafterfolowet00cath_0026.jp2
A71329-014-b,https://iiif.archive.org/image/iiif/3/hereafterfolowet00cath%2Fhereafterfolowet00cath_jp2.zip%2Fhereafterfolowet00cath_jp2%2Fhereafterfolowet00cath_0027.jp2
A71329-015-a,https://iiif.archive.org/image/iiif/3/hereafterfolowet00cath%2Fhereafterfolowet00cath_jp2.zip%2Fhereafterfolowet00cath_jp2%2Fhereafterfolowet00cath_0028.jp2
A71329-015-b,https://iiif.archive.org/image/iiif/3/hereafterfolowet00cath%2Fhereafterfolowet00cath_jp2.zip%2Fhereafterfolowet00cath_jp2%2Fhereafterfolowet00cath_0029.jp2
A71329-016-a,https://iiif.archive.org/image/iiif/3/hereafterfolowet00cath%2Fhereafterfolowet00cath_jp2.zip%2Fhereafterfolowet00cath_jp2%2Fhereafterfolowet00cath_0030.jp2
A71329-016-b,https://iiif.archive.org/image/iiif/3/hereafterfolowet00cath%2Fhereafterfolowet00cath_jp2.zip%2Fhereafterfolowet00cath_jp2%2Fhereafterfolowet00cath_0031.jp2
A71329-017-a,https://iiif.archive.org/image/iiif/3/hereafterfolowet00cath%2Fhereafterfolowet00cath_jp2.zip%2Fhereafterfolowet00cath_jp2%2Fhereafterfolowet00cath_0032.jp2
A71329-017-b,https://iiif.archive.org/image/iiif/3/hereafterfolowet00cath%2Fhereafterfolowet00cath_jp2.zip%2Fhereafterfolowet00cath_jp2%2Fhereafterfolowet00cath_0033.jp2
A71329-018-a,https://iiif.archive.org/image/iiif/3/hereafterfolowet00cath%2Fhereafterfolowet00cath_jp2.zip%2Fhereafterfolowet00cath_jp2%2Fhereafterfolowet00cath_0034.jp2
A71329-018-b,https://iiif.archive.org/image/iiif/3/hereafterfolowet00cath%2Fhereafterfolowet00cath_jp2.zip%2Fhereafterfolowet00cath_jp2%2Fhereafterfolowet00cath_0035.jp2
A71329-019-a,https://iiif.archive.org/image/iiif/3/hereafterfolowet00cath%2Fhereafterfolowet00cath_jp2.zip%2Fhereafterfolowet00cath_jp2%2Fhereafterfolowet00cath_0036.jp2
A71329-019-b,https://iiif.archive.org/image/iiif/3/hereafterfolowet00cath%2Fhereafterfolowet00cath_jp2.zip%2Fhereafterfolowet00cath_jp2%2Fhereafterfolowet00cath_0037.jp2
A71329-020-a,https://iiif.archive.org/image/iiif/3/hereafterfolowet00cath%2Fhereafterfolowet00cath_jp2.zip%2Fhereafterfolowet00cath_jp2%2Fhereafterfolowet00cath_0038.jp2
A71329-020-b,https://iiif.archive.org/image/iiif/3/hereafterfolowet00cath%2Fhereafterfolowet00cath_jp2.zip%2Fhereafterfolowet00cath_jp2%2Fhereafterfolowet00cath_0039.jp2
A71329-021-a,https://iiif.archive.org/image/iiif/3/hereafterfolowet00cath%2Fhereafterfolowet00cath_jp2.zip%2Fhereafterfolowet00cath_jp2%2Fhereafterfolowet00cath_0040.jp2
A71329-021-b,https://iiif.archive.org/image/iiif/3/hereafterfolowet00cath%2Fhereafterfolowet00cath_jp2.zip%2Fhereafterfolowet00cath_jp2%2Fhereafterfolowet00cath_0041.jp2
A71329-022-a,https://iiif.archive.org/image/iiif/3/hereafterfolowet00cath%2Fhereafterfolowet00cath_jp2.zip%2Fhereafterfolowet00cath_jp2%2Fhereafterfolowet00cath_0042.jp2
A71329-022-b,https://iiif.archive.org/image/iiif/3/hereafterfolowet00cath%2Fhereafterfolowet00cath_jp2.zip%2Fhereafterfolowet00cath_jp2%2Fhereafterfolowet00cath_0043.jp2
A71329-023-a,https://iiif.archive.org/image/iiif/3/hereafterfolowet00cath%2Fhereafterfolowet00cath_jp2.zip%2Fhereafterfolowet00cath_jp2%2Fhereafterfolowet00cath_0044.jp2
A71329-023-b,https://iiif.archive.org/image/iiif/3/hereafterfolowet00cath%2Fhereafterfolowet00cath_jp2.zip%2Fhereafterfolowet00cath_jp2%2Fhereafterfolowet00cath_0045.jp2
A71329-024-a,https://iiif.archive.org/image/iiif/3/hereafterfolowet00cath%2Fhereafterfolowet00cath_jp2.zip%2Fhereafterfolowet00cath_jp2%2Fhereafterfolowet00cath_0046.jp2
A71329-024-b,https://iiif.archive.org/image/iiif/3/hereafterfolowet00cath%2Fhereafterfolowet00cath_jp2.zip%2Fhereafterfolowet00cath_jp2%2Fhereafterfolowet00cath_0047.jp2
A71329-025-a,https://iiif.archive.org/image/iiif/3/hereafterfolowet00cath%2Fhereafterfolowet00cath_jp2.zip%2Fhereafterfolowet00cath_jp2%2Fhereafterfolowet00cath_0048.jp2
A71329-025-b,https://iiif.archive.org/image/iiif/3/hereafterfolowet00cath%2Fhereafterfolowet00cath_jp2.zip%2Fhereafterfolowet00cath_jp2%2Fhereafterfolowet00cath_0049.jp2
A71329-026-a,https://iiif.archive.org/image/iiif/3/hereafterfolowet00cath%2Fhereafterfolowet00cath_jp2.zip%2Fhereafterfolowet00cath_jp2%2Fhereafterfolowet00cath_0050.jp2
A71329-026-b,https://iiif.archive.org/image/iiif/3/hereafterfolowet00cath%2Fhereafterfolowet00cath_jp2.zip%2Fhereafterfolowet00cath_jp2%2Fhereafterfolowet00cath_0051.jp2
A71329-027-a,https://iiif.archive.org/image/iiif/3/hereafterfolowet00cath%2Fhereafterfolowet00cath_jp2.zip%2Fhereafterfolowet00cath_jp2%2Fhereafterfolowet00cath_0052.jp2
A71329-027-b,https://iiif.archive.org/image/iiif/3/hereafterfolowet00cath%2Fhereafterfolowet00cath_jp2.zip%2Fhereafterfolowet00cath_jp2%2Fhereafterfolowet00cath_0053.jp2
A71329-028-a,https://iiif.archive.org/image/iiif/3/hereafterfolowet00cath%2Fhereafterfolowet00cath_jp2.zip%2Fhereafterfolowet00cath_jp2%2Fhereafterfolowet00cath_0054.jp2
A71329-028-b,https://iiif.archive.org/image/iiif/3/hereafterfolowet00cath%2Fhereafterfolowet00cath_jp2.zip%2Fhereafterfolowet00cath_jp2%2Fhereafterfolowet00cath_0055.jp2
A71329-029-a,https://iiif.archive.org/image/iiif/3/hereafterfolowet00cath%2Fhereafterfolowet00cath_jp2.zip%2Fhereafterfolowet00cath_jp2%2Fhereafterfolowet00cath_0056.jp2
A71329-029-b,https://iiif.archive.org/image/iiif/3/hereafterfolowet00cath%2Fhereafterfolowet00cath_jp2.zip%2Fhereafterfolowet00cath_jp2%2Fhereafterfolowet00cath_0057.jp2
A71329-030-a,https://iiif.archive.org/image/iiif/3/hereafterfolowet00cath%2Fhereafterfolowet00cath_jp2.zip%2Fhereafterfolowet00cath_jp2%2Fhereafterfolowet00cath_0058.jp2
A71329-030-b,https://iiif.archive.org/image/iiif/3/hereafterfolowet00cath%2Fhereafterfolowet00cath_jp2.zip%2Fhereafterfolowet00cath_jp2%2Fhereafterfolowet00cath_0059.jp2
A71329-031-a,https://iiif.archive.org/image/iiif/3/hereafterfolowet00cath%2Fhereafterfolowet00cath_jp2.zip%2Fhereafterfolowet00cath_jp2%2Fhereafterfolowet00cath_0060.jp2
A71329-031-b,https://iiif.archive.org/image/iiif/3/hereafterfolowet00cath%2Fhereafterfolowet00cath_jp2.zip%2Fhereafterfolowet00cath_jp2%2Fhereafterfolowet00cath_0061.jp2
A71329-032-a,https://iiif.archive.org/image/iiif/3/hereafterfolowet00cath%2Fhereafterfolowet00cath_jp2.zip%2Fhereafterfolowet00cath_jp2%2Fhereafterfolowet00cath_0062.jp2
A71329-032-b,https://iiif.archive.org/image/iiif/3/hereafterfolowet00cath%2Fhereafterfolowet00cath_jp2.zip%2Fhereafterfolowet00cath_jp2%2Fhereafterfolowet00cath_0063.jp2
A71329-032-c,https://iiif.archive.org/image/iiif/3/hereafterfolowet00cath%2Fhereafterfolowet00cath_jp2.zip%2Fhereafterfolowet00cath_jp2%2Fhereafterfolowet00cath_0064.jp2
A71329-033-a,https://iiif.archive.org/image/iiif/3/hereafterfolowet00cath%2Fhereafterfolowet00cath_jp2.zip%2Fhereafterfolowet00cath_jp2%2Fhereafterfolowet00cath_0065.jp2
A71329-034-a,https://iiif.archive.org/image/iiif/3/hereafterfolowet00cath%2Fhereafterfolowet00cath_jp2.zip%2Fhereafterfolowet00cath_jp2%2Fhereafterfolowet00cath_0066.jp2
A71329-034-b,https://iiif.archive.org/image/iiif/3/hereafterfolowet00cath%2Fhereafterfolowet00cath_jp2.zip%2Fhereafterfolowet00cath_jp2%2Fhereafterfolowet00cath_0067.jp2
A71329-035-a,https://iiif.archive.org/image/iiif/3/hereafterfolowet00cath%2Fhereafterfolowet00cath_jp2.zip%2Fhereafterfolowet00cath_jp2%2Fhereafterfolowet00cath_0068.jp2
A71329-035-b,https://iiif.archive.org/image/iiif/3/hereafterfolowet00cath%2Fhereafterfolowet00cath_jp2.zip%2Fhereafterfolowet00cath_jp2%2Fhereafterfolowet00cath_0069.jp2
A71329-036-a,https://iiif.archive.org/image/iiif/3/hereafterfolowet00cath%2Fhereafterfolowet00cath_jp2.zip%2Fhereafterfolowet00cath_jp2%2Fhereafterfolowet00cath_0070.jp2
A71329-036-b,https://iiif.archive.org/image/iiif/3/hereafterfolowet00cath%2Fhereafterfolowet00cath_jp2.zip%2Fhereafterfolowet00cath_jp2%2Fhereafterfolowet00cath_0071.jp2
A71329-037-a,https://iiif.archive.org/image/iiif/3/hereafterfolowet00cath%2Fhereafterfolowet00cath_jp2.zip%2Fhereafterfolowet00cath_jp2%2Fhereafterfolowet00cath_0072.jp2
A71329-037-b,https://iiif.archive.org/image/iiif/3/hereafterfolowet00cath%2Fhereafterfolowet00cath_jp2.zip%2Fhereafterfolowet00cath_jp2%2Fhereafterfolowet00cath_0073.jp2
A71329-038-a,https://iiif.archive.org/image/iiif/3/hereafterfolowet00cath%2Fhereafterfolowet00cath_jp2.zip%2Fhereafterfolowet00cath_jp2%2Fhereafterfolowet00cath_0074.jp2
A71329-038-b,https://iiif.archive.org/image/iiif/3/hereafterfolowet00cath%2Fhereafterfolowet00cath_jp2.zip%2Fhereafterfolowet00cath_jp2%2Fhereafterfolowet00cath_0075.jp2
A71329-039-a,https://iiif.archive.org/image/iiif/3/hereafterfolowet00cath%2Fhereafterfolowet00cath_jp2.zip%2Fhereafterfolowet00cath_jp2%2Fhereafterfolowet00cath_0076.jp2
A71329-039-b,https://iiif.archive.org/image/iiif/3/hereafterfolowet00cath%2Fhereafterfolowet00cath_jp2.zip%2Fhereafterfolowet00cath_jp2%2Fhereafterfolowet00cath_0077.jp2
A71329-040-a,https://iiif.archive.org/image/iiif/3/hereafterfolowet00cath%2Fhereafterfolowet00cath_jp2.zip%2Fhereafterfolowet00cath_jp2%2Fhereafterfolowet00cath_0078.jp2
A71329-040-b,https://iiif.archive.org/image/iiif/3/hereafterfolowet00cath%2Fhereafterfolowet00cath_jp2.zip%2Fhereafterfolowet00cath_jp2%2Fhereafterfolowet00cath_0079.jp2
A71329-041-a,https://iiif.archive.org/image/iiif/3/hereafterfolowet00cath%2Fhereafterfolowet00cath_jp2.zip%2Fhereafterfolowet00cath_jp2%2Fhereafterfolowet00cath_0080.jp2
A71329-041-b,https://iiif.archive.org/image/iiif/3/hereafterfolowet00cath%2Fhereafterfolowet00cath_jp2.zip%2Fhereafterfolowet00cath_jp2%2Fhereafterfolowet00cath_0081.jp2
A71329-042-a,https://iiif.archive.org/image/iiif/3/hereafterfolowet00cath%2Fhereafterfolowet00cath_jp2.zip%2Fhereafterfolowet00cath_jp2%2Fhereafterfolowet00cath_0082.jp2
A71329-042-b,https://iiif.archive.org/image/iiif/3/hereafterfolowet00cath%2Fhereafterfolowet00cath_jp2.zip%2Fhereafterfolowet00cath_jp2%2Fhereafterfolowet00cath_0083.jp2
A71329-043-a,https://iiif.archive.org/image/iiif/3/hereafterfolowet00cath%2Fhereafterfolowet00cath_jp2.zip%2Fhereafterfolowet00cath_jp2%2Fhereafterfolowet00cath_0084.jp2
A71329-043-b,https://iiif.archive.org/image/iiif/3/hereafterfolowet00cath%2Fhereafterfolowet00cath_jp2.zip%2Fhereafterfolowet00cath_jp2%2Fhereafterfolowet00cath_0085.jp2
A71329-044-a,https://iiif.archive.org/image/iiif/3/hereafterfolowet00cath%2Fhereafterfolowet00cath_jp2.zip%2Fhereafterfolowet00cath_jp2%2Fhereafterfolowet00cath_0086.jp2
A71329-044-b,9999
A71329-045-a,9999
A71329-045-b,https://iiif.archive.org/image/iiif/3/hereafterfolowet00cath%2Fhereafterfolowet00cath_jp2.zip%2Fhereafterfolowet00cath_jp2%2Fhereafterfolowet00cath_0087.jp2
A71329-046-a,https://iiif.archive.org/image/iiif/3/hereafterfolowet00cath%2Fhereafterfolowet00cath_jp2.zip%2Fhereafterfolowet00cath_jp2%2Fhereafterfolowet00cath_0088.jp2
A71329-046-b,https://iiif.archive.org/image/iiif/3/hereafterfolowet00cath%2Fhereafterfolowet00cath_jp2.zip%2Fhereafterfolowet00cath_jp2%2Fhereafterfolowet00cath_0089.jp2
A71329-047-a,https://iiif.archive.org/image/iiif/3/hereafterfolowet00cath%2Fhereafterfolowet00cath_jp2.zip%2Fhereafterfolowet00cath_jp2%2Fhereafterfolowet00cath_0090.jp2
A71329-047-b,https://iiif.archive.org/image/iiif/3/hereafterfolowet00cath%2Fhereafterfolowet00cath_jp2.zip%2Fhereafterfolowet00cath_jp2%2Fhereafterfolowet00cath_0091.jp2
A71329-048-a,https://iiif.archive.org/image/iiif/3/hereafterfolowet00cath%2Fhereafterfolowet00cath_jp2.zip%2Fhereafterfolowet00cath_jp2%2Fhereafterfolowet00cath_0092.jp2
A71329-048-b,https://iiif.archive.org/image/iiif/3/hereafterfolowet00cath%2Fhereafterfolowet00cath_jp2.zip%2Fhereafterfolowet00cath_jp2%2Fhereafterfolowet00cath_0093.jp2
A71329-049-a,https://iiif.archive.org/image/iiif/3/hereafterfolowet00cath%2Fhereafterfolowet00cath_jp2.zip%2Fhereafterfolowet00cath_jp2%2Fhereafterfolowet00cath_0094.jp2
A71329-049-b,9999
A71329-050-a,9999
A71329-051-a,9999
A71329-052-a,https://iiif.archive.org/image/iiif/3/hereafterfolowet00cath%2Fhereafterfolowet00cath_jp2.zip%2Fhereafterfolowet00cath_jp2%2Fhereafterfolowet00cath_0095.jp2
A71329-052-b,9999
A71329-053-a,https://iiif.archive.org/image/iiif/3/hereafterfolowet00cath%2Fhereafterfolowet00cath_jp2.zip%2Fhereafterfolowet00cath_jp2%2Fhereafterfolowet00cath_0096.jp2
A71329-053-b,https://iiif.archive.org/image/iiif/3/hereafterfolowet00cath%2Fhereafterfolowet00cath_jp2.zip%2Fhereafterfolowet00cath_jp2%2Fhereafterfolowet00cath_0097.jp2
A71329-054-a,https://iiif.archive.org/image/iiif/3/hereafterfolowet00cath%2Fhereafterfolowet00cath_jp2.zip%2Fhereafterfolowet00cath_jp2%2Fhereafterfolowet00cath_0098.jp2
A71329-054-b,https://iiif.archive.org/image/iiif/3/hereafterfolowet00cath%2Fhereafterfolowet00cath_jp2.zip%2Fhereafterfolowet00cath_jp2%2Fhereafterfolowet00cath_0099.jp2
A71329-055-a,https://iiif.archive.org/image/iiif/3/hereafterfolowet00cath%2Fhereafterfolowet00cath_jp2.zip%2Fhereafterfolowet00cath_jp2%2Fhereafterfolowet00cath_0100.jp2
A71329-055-b,https://iiif.archive.org/image/iiif/3/hereafterfolowet00cath%2Fhereafterfolowet00cath_jp2.zip%2Fhereafterfolowet00cath_jp2%2Fhereafterfolowet00cath_0101.jp2
A71329-056-a,https://iiif.archive.org/image/iiif/3/hereafterfolowet00cath%2Fhereafterfolowet00cath_jp2.zip%2Fhereafterfolowet00cath_jp2%2Fhereafterfolowet00cath_0102.jp2
A71329-056-b,https://iiif.archive.org/image/iiif/3/hereafterfolowet00cath%2Fhereafterfolowet00cath_jp2.zip%2Fhereafterfolowet00cath_jp2%2Fhereafterfolowet00cath_0103.jp2
A71329-057-a,https://iiif.archive.org/image/iiif/3/hereafterfolowet00cath%2Fhereafterfolowet00cath_jp2.zip%2Fhereafterfolowet00cath_jp2%2Fhereafterfolowet00cath_0104.jp2
A71329-057-b,https://iiif.archive.org/image/iiif/3/hereafterfolowet00cath%2Fhereafterfolowet00cath_jp2.zip%2Fhereafterfolowet00cath_jp2%2Fhereafterfolowet00cath_0105.jp2
A71329-058-a,https://iiif.archive.org/image/iiif/3/hereafterfolowet00cath%2Fhereafterfolowet00cath_jp2.zip%2Fhereafterfolowet00cath_jp2%2Fhereafterfolowet00cath_0106.jp2
A71329-058-b,9999
A71329-059-a,9999
A71329-059-b,https://iiif.archive.org/image/iiif/3/hereafterfolowet00cath%2Fhereafterfolowet00cath_jp2.zip%2Fhereafterfolowet00cath_jp2%2Fhereafterfolowet00cath_0107.jp2
A71329-060-a,https://iiif.archive.org/image/iiif/3/hereafterfolowet00cath%2Fhereafterfolowet00cath_jp2.zip%2Fhereafterfolowet00cath_jp2%2Fhereafterfolowet00cath_0108.jp2
A71329-060-b,https://iiif.archive.org/image/iiif/3/hereafterfolowet00cath%2Fhereafterfolowet00cath_jp2.zip%2Fhereafterfolowet00cath_jp2%2Fhereafterfolowet00cath_0109.jp2
A71329-061-a,https://iiif.archive.org/image/iiif/3/hereafterfolowet00cath%2Fhereafterfolowet00cath_jp2.zip%2Fhereafterfolowet00cath_jp2%2Fhereafterfolowet00cath_0110.jp2
A71329-061-b,https://iiif.archive.org/image/iiif/3/hereafterfolowet00cath%2Fhereafterfolowet00cath_jp2.zip%2Fhereafterfolowet00cath_jp2%2Fhereafterfolowet00cath_0111.jp2
A71329-062-a,https://iiif.archive.org/image/iiif/3/hereafterfolowet00cath%2Fhereafterfolowet00cath_jp2.zip%2Fhereafterfolowet00cath_jp2%2Fhereafterfolowet00cath_0112.jp2
A71329-062-b,https://iiif.archive.org/image/iiif/3/hereafterfolowet00cath%2Fhereafterfolowet00cath_jp2.zip%2Fhereafterfolowet00cath_jp2%2Fhereafterfolowet00cath_0113.jp2
A71329-063-a,https://iiif.archive.org/image/iiif/3/hereafterfolowet00cath%2Fhereafterfolowet00cath_jp2.zip%2Fhereafterfolowet00cath_jp2%2Fhereafterfolowet00cath_0114.jp2
A71329-063-b,https://iiif.archive.org/image/iiif/3/hereafterfolowet00cath%2Fhereafterfolowet00cath_jp2.zip%2Fhereafterfolowet00cath_jp2%2Fhereafterfolowet00cath_0115.jp2
A71329-064-a,https://iiif.archive.org/image/iiif/3/hereafterfolowet00cath%2Fhereafterfolowet00cath_jp2.zip%2Fhereafterfolowet00cath_jp2%2Fhereafterfolowet00cath_0116.jp2
A71329-064-b,https://iiif.archive.org/image/iiif/3/hereafterfolowet00cath%2Fhereafterfolowet00cath_jp2.zip%2Fhereafterfolowet00cath_jp2%2Fhereafterfolowet00cath_0117.jp2
A71329-065-a,https://iiif.archive.org/image/iiif/3/hereafterfolowet00cath%2Fhereafterfolowet00cath_jp2.zip%2Fhereafterfolowet00cath_jp2%2Fhereafterfolowet00cath_0118.jp2
A71329-065-b,https://iiif.archive.org/image/iiif/3/hereafterfolowet00cath%2Fhereafterfolowet00cath_jp2.zip%2Fhereafterfolowet00cath_jp2%2Fhereafterfolowet00cath_0119.jp2
A71329-066-a,https://iiif.archive.org/image/iiif/3/hereafterfolowet00cath%2Fhereafterfolowet00cath_jp2.zip%2Fhereafterfolowet00cath_jp2%2Fhereafterfolowet00cath_0120.jp2
A71329-066-b,https://iiif.archive.org/image/iiif/3/hereafterfolowet00cath%2Fhereafterfolowet00cath_jp2.zip%2Fhereafterfolowet00cath_jp2%2Fhereafterfolowet00cath_0121.jp2
A71329-067-a,https://iiif.archive.org/image/iiif/3/hereafterfolowet00cath%2Fhereafterfolowet00cath_jp2.zip%2Fhereafterfolowet00cath_jp2%2Fhereafterfolowet00cath_0122.jp2
A71329-067-b,9999
A71329-068-a,9999
A71329-068-b,9999
A71329-069-a,9999
A71329-069-b,9999
A71329-070-a,9999
A71329-070-b,9999
A71329-071-a,9999
A71329-072-a,9999
A71329-072-b,9999
A71329-073-a,9999
A71329-073-b,9999
A71329-074-a,9999
A71329-074-b,9999
A71329-075-a,9999
A71329-075-b,9999
A71329-076-a,9999
A71329-076-b,9999
A71329-077-a,9999
A71329-077-b,9999
A71329-078-a,9999
A71329-078-b,9999
A71329-079-a,9999
A71329-079-b,9999
A71329-080-a,9999
A71329-080-b,9999
A71329-081-a,9999
A71329-081-b,9999
A71329-082-a,9999
A71329-082-b,9999
A71329-083-a,9999
A71329-084-a,9999
A71329-084-b,9999
A71329-085-a,9999
A71329-085-b,9999
A71329-086-a,9999
A71329-086-b,9999
A71329-087-a,9999
A71329-087-b,9999
A71329-088-a,9999
A71329-088-b,9999
A71329-089-a,9999
A71329-089-b,9999
A71329-090-a,9999
A71329-090-b,9999
A71329-091-a,9999
A71329-091-b,9999
A71329-092-a,9999
A71329-092-b,9999
A71329-093-a,9999
A71329-093-b,9999
A71329-094-a,9999
A71329-094-b,9999
A71329-095-a,9999
A71329-095-b,9999
A71329-096-a,9999
A71329-096-b,9999
A71329-097-a,9999
A71329-097-b,9999
A71329-098-a,9999
A71329-098-b,9999
A71329-099-a,9999
A71329-099-b,9999
A71329-100-a,9999
A71329-101-a,9999
A71329-101-b,9999
A71329-102-a,9999
A71329-102-b,9999
A71329-103-a,9999
A71329-103-b,9999
A71329-104-a,9999
A71329-104-b,9999
A71329-105-a,9999
A71329-105-b,9999
A71329-106-a,9999
A71329-106-b,9999
A71329-107-a,9999
A71329-107-b,9999
A71329-108-a,9999
A71329-108-b,9999
A71329-109-a,9999
A71329-109-b,9999
A71329-110-a,9999
A71329-110-b,9999
A71329-111-a,9999
A71329-111-b,9999
A71329-112-a,9999
A71329-112-b,9999
A71329-113-a,9999
A71329-113-b,9999
A71329-114-a,9999
A71329-114-b,9999
A71329-115-a,9999
A71329-115-b,https://iiif.archive.org/image/iiif/3/hereafterfolowet00cath%2Fhereafterfolowet00cath_jp2.zip%2Fhereafterfolowet00cath_jp2%2Fhereafterfolowet00cath_0123.jp2
A71329-116-a,https://iiif.archive.org/image/iiif/3/hereafterfolowet00cath%2Fhereafterfolowet00cath_jp2.zip%2Fhereafterfolowet00cath_jp2%2Fhereafterfolowet00cath_0124.jp2
A71329-116-b,https://iiif.archive.org/image/iiif/3/hereafterfolowet00cath%2Fhereafterfolowet00cath_jp2.zip%2Fhereafterfolowet00cath_jp2%2Fhereafterfolowet00cath_0125.jp2
A71329-117-a,https://iiif.archive.org/image/iiif/3/hereafterfolowet00cath%2Fhereafterfolowet00cath_jp2.zip%2Fhereafterfolowet00cath_jp2%2Fhereafterfolowet00cath_0126.jp2
A71329-117-b,https://iiif.archive.org/image/iiif/3/hereafterfolowet00cath%2Fhereafterfolowet00cath_jp2.zip%2Fhereafterfolowet00cath_jp2%2Fhereafterfolowet00cath_0127.jp2
A71329-118-a,https://iiif.archive.org/image/iiif/3/hereafterfolowet00cath%2Fhereafterfolowet00cath_jp2.zip%2Fhereafterfolowet00cath_jp2%2Fhereafterfolowet00cath_0128.jp2
A71329-118-b,https://iiif.archive.org/image/iiif/3/hereafterfolowet00cath%2Fhereafterfolowet00cath_jp2.zip%2Fhereafterfolowet00cath_jp2%2Fhereafterfolowet00cath_0129.jp2
A71329-119-a,https://iiif.archive.org/image/iiif/3/hereafterfolowet00cath%2Fhereafterfolowet00cath_jp2.zip%2Fhereafterfolowet00cath_jp2%2Fhereafterfolowet00cath_0130.jp2
A71329-119-b,https://iiif.archive.org/image/iiif/3/hereafterfolowet00cath%2Fhereafterfolowet00cath_jp2.zip%2Fhereafterfolowet00cath_jp2%2Fhereafterfolowet00cath_0131.jp2
A71329-120-a,https://iiif.archive.org/image/iiif/3/hereafterfolowet00cath%2Fhereafterfolowet00cath_jp2.zip%2Fhereafterfolowet00cath_jp2%2Fhereafterfolowet00cath_0132.jp2
A71329-120-b,https://iiif.archive.org/image/iiif/3/hereafterfolowet00cath%2Fhereafterfolowet00cath_jp2.zip%2Fhereafterfolowet00cath_jp2%2Fhereafterfolowet00cath_0133.jp2
A71329-121-a,https://iiif.archive.org/image/iiif/3/hereafterfolowet00cath%2Fhereafterfolowet00cath_jp2.zip%2Fhereafterfolowet00cath_jp2%2Fhereafterfolowet00cath_0134.jp2
A71329-121-b,https://iiif.archive.org/image/iiif/3/hereafterfolowet00cath%2Fhereafterfolowet00cath_jp2.zip%2Fhereafterfolowet00cath_jp2%2Fhereafterfolowet00cath_0135.jp2
A71329-122-a,https://iiif.archive.org/image/iiif/3/hereafterfolowet00cath%2Fhereafterfolowet00cath_jp2.zip%2Fhereafterfolowet00cath_jp2%2Fhereafterfolowet00cath_0136.jp2
A71329-122-b,https://iiif.archive.org/image/iiif/3/hereafterfolowet00cath%2Fhereafterfolowet00cath_jp2.zip%2Fhereafterfolowet00cath_jp2%2Fhereafterfolowet00cath_0137.jp2
A71329-123-a,https://iiif.archive.org/image/iiif/3/hereafterfolowet00cath%2Fhereafterfolowet00cath_jp2.zip%2Fhereafterfolowet00cath_jp2%2Fhereafterfolowet00cath_0138.jp2
A71329-123-b,https://iiif.archive.org/image/iiif/3/hereafterfolowet00cath%2Fhereafterfolowet00cath_jp2.zip%2Fhereafterfolowet00cath_jp2%2Fhereafterfolowet00cath_0139.jp2
A71329-124-a,https://iiif.archive.org/image/iiif/3/hereafterfolowet00cath%2Fhereafterfolowet00cath_jp2.zip%2Fhereafterfolowet00cath_jp2%2Fhereafterfolowet00cath_0140.jp2
A71329-124-b,https://iiif.archive.org/image/iiif/3/hereafterfolowet00cath%2Fhereafterfolowet00cath_jp2.zip%2Fhereafterfolowet00cath_jp2%2Fhereafterfolowet00cath_0141.jp2
A71329-125-a,https://iiif.archive.org/image/iiif/3/hereafterfolowet00cath%2Fhereafterfolowet00cath_jp2.zip%2Fhereafterfolowet00cath_jp2%2Fhereafterfolowet00cath_0142.jp2
A71329-125-b,https://iiif.archive.org/image/iiif/3/hereafterfolowet00cath%2Fhereafterfolowet00cath_jp2.zip%2Fhereafterfolowet00cath_jp2%2Fhereafterfolowet00cath_0143.jp2
A71329-126-a,https://iiif.archive.org/image/iiif/3/hereafterfolowet00cath%2Fhereafterfolowet00cath_jp2.zip%2Fhereafterfolowet00cath_jp2%2Fhereafterfolowet00cath_0144.jp2
A71329-126-b,https://iiif.archive.org/image/iiif/3/hereafterfolowet00cath%2Fhereafterfolowet00cath_jp2.zip%2Fhereafterfolowet00cath_jp2%2Fhereafterfolowet00cath_0145.jp2
A71329-127-a,https://iiif.archive.org/image/iiif/3/hereafterfolowet00cath%2Fhereafterfolowet00cath_jp2.zip%2Fhereafterfolowet00cath_jp2%2Fhereafterfolowet00cath_0146.jp2
A71329-127-b,https://iiif.archive.org/image/iiif/3/hereafterfolowet00cath%2Fhereafterfolowet00cath_jp2.zip%2Fhereafterfolowet00cath_jp2%2Fhereafterfolowet00cath_0147.jp2
A71329-128-a,https://iiif.archive.org/image/iiif/3/hereafterfolowet00cath%2Fhereafterfolowet00cath_jp2.zip%2Fhereafterfolowet00cath_jp2%2Fhereafterfolowet00cath_0148.jp2
A71329-128-b,https://iiif.archive.org/image/iiif/3/hereafterfolowet00cath%2Fhereafterfolowet00cath_jp2.zip%2Fhereafterfolowet00cath_jp2%2Fhereafterfolowet00cath_0149.jp2
A71329-129-a,https://iiif.archive.org/image/iiif/3/hereafterfolowet00cath%2Fhereafterfolowet00cath_jp2.zip%2Fhereafterfolowet00cath_jp2%2Fhereafterfolowet00cath_0150.jp2
A71329-129-b,https://iiif.archive.org/image/iiif/3/hereafterfolowet00cath%2Fhereafterfolowet00cath_jp2.zip%2Fhereafterfolowet00cath_jp2%2Fhereafterfolowet00cath_0151.jp2
A71329-130-a,https://iiif.archive.org/image/iiif/3/hereafterfolowet00cath%2Fhereafterfolowet00cath_jp2.zip%2Fhereafterfolowet00cath_jp2%2Fhereafterfolowet00cath_0152.jp2
A71329-130-b,https://iiif.archive.org/image/iiif/3/hereafterfolowet00cath%2Fhereafterfolowet00cath_jp2.zip%2Fhereafterfolowet00cath_jp2%2Fhereafterfolowet00cath_0153.jp2
A71329-131-a,https://iiif.archive.org/image/iiif/3/hereafterfolowet00cath%2Fhereafterfolowet00cath_jp2.zip%2Fhereafterfolowet00cath_jp2%2Fhereafterfolowet00cath_0154.jp2
A71329-131-b,https://iiif.archive.org/image/iiif/3/hereafterfolowet00cath%2Fhereafterfolowet00cath_jp2.zip%2Fhereafterfolowet00cath_jp2%2Fhereafterfolowet00cath_0155.jp2
A71329-132-a,https://iiif.archive.org/image/iiif/3/hereafterfolowet00cath%2Fhereafterfolowet00cath_jp2.zip%2Fhereafterfolowet00cath_jp2%2Fhereafterfolowet00cath_0156.jp2
A71329-132-b,https://iiif.archive.org/image/iiif/3/hereafterfolowet00cath%2Fhereafterfolowet00cath_jp2.zip%2Fhereafterfolowet00cath_jp2%2Fhereafterfolowet00cath_0157.jp2
A71329-133-a,https://iiif.archive.org/image/iiif/3/hereafterfolowet00cath%2Fhereafterfolowet00cath_jp2.zip%2Fhereafterfolowet00cath_jp2%2Fhereafterfolowet00cath_0158.jp2
A71329-133-b,https://iiif.archive.org/image/iiif/3/hereafterfolowet00cath%2Fhereafterfolowet00cath_jp2.zip%2Fhereafterfolowet00cath_jp2%2Fhereafterfolowet00cath_0159.jp2
A71329-134-a,https://iiif.archive.org/image/iiif/3/hereafterfolowet00cath%2Fhereafterfolowet00cath_jp2.zip%2Fhereafterfolowet00cath_jp2%2Fhereafterfolowet00cath_0160.jp2
A71329-134-b,https://iiif.archive.org/image/iiif/3/hereafterfolowet00cath%2Fhereafterfolowet00cath_jp2.zip%2Fhereafterfolowet00cath_jp2%2Fhereafterfolowet00cath_0161.jp2
A71329-135-a,https://iiif.archive.org/image/iiif/3/hereafterfolowet00cath%2Fhereafterfolowet00cath_jp2.zip%2Fhereafterfolowet00cath_jp2%2Fhereafterfolowet00cath_0162.jp2
A71329-135-b,https://iiif.archive.org/image/iiif/3/hereafterfolowet00cath%2Fhereafterfolowet00cath_jp2.zip%2Fhereafterfolowet00cath_jp2%2Fhereafterfolowet00cath_0163.jp2
A71329-136-a,https://iiif.archive.org/image/iiif/3/hereafterfolowet00cath%2Fhereafterfolowet00cath_jp2.zip%2Fhereafterfolowet00cath_jp2%2Fhereafterfolowet00cath_0164.jp2
A71329-136-b,https://iiif.archive.org/image/iiif/3/hereafterfolowet00cath%2Fhereafterfolowet00cath_jp2.zip%2Fhereafterfolowet00cath_jp2%2Fhereafterfolowet00cath_0165.jp2
A71329-137-a,https://iiif.archive.org/image/iiif/3/hereafterfolowet00cath%2Fhereafterfolowet00cath_jp2.zip%2Fhereafterfolowet00cath_jp2%2Fhereafterfolowet00cath_0166.jp2
A71329-137-b,https://iiif.archive.org/image/iiif/3/hereafterfolowet00cath%2Fhereafterfolowet00cath_jp2.zip%2Fhereafterfolowet00cath_jp2%2Fhereafterfolowet00cath_0167.jp2
A71329-138-a,https://iiif.archive.org/image/iiif/3/hereafterfolowet00cath%2Fhereafterfolowet00cath_jp2.zip%2Fhereafterfolowet00cath_jp2%2Fhereafterfolowet00cath_0168.jp2
A71329-138-b,https://iiif.archive.org/image/iiif/3/hereafterfolowet00cath%2Fhereafterfolowet00cath_jp2.zip%2Fhereafterfolowet00cath_jp2%2Fhereafterfolowet00cath_0169.jp2
A71329-139-a,https://iiif.archive.org/image/iiif/3/hereafterfolowet00cath%2Fhereafterfolowet00cath_jp2.zip%2Fhereafterfolowet00cath_jp2%2Fhereafterfolowet00cath_0170.jp2
A71329-139-b,https://iiif.archive.org/image/iiif/3/hereafterfolowet00cath%2Fhereafterfolowet00cath_jp2.zip%2Fhereafterfolowet00cath_jp2%2Fhereafterfolowet00cath_0171.jp2
A71329-140-a,https://iiif.archive.org/image/iiif/3/hereafterfolowet00cath%2Fhereafterfolowet00cath_jp2.zip%2Fhereafterfolowet00cath_jp2%2Fhereafterfolowet00cath_0172.jp2
A71329-140-b,https://iiif.archive.org/image/iiif/3/hereafterfolowet00cath%2Fhereafterfolowet00cath_jp2.zip%2Fhereafterfolowet00cath_jp2%2Fhereafterfolowet00cath_0173.jp2
A71329-141-a,https://iiif.archive.org/image/iiif/3/hereafterfolowet00cath%2Fhereafterfolowet00cath_jp2.zip%2Fhereafterfolowet00cath_jp2%2Fhereafterfolowet00cath_0174.jp2
A71329-141-b,https://iiif.archive.org/image/iiif/3/hereafterfolowet00cath%2Fhereafterfolowet00cath_jp2.zip%2Fhereafterfolowet00cath_jp2%2Fhereafterfolowet00cath_0175.jp2
A71329-142-a,https://iiif.archive.org/image/iiif/3/hereafterfolowet00cath%2Fhereafterfolowet00cath_jp2.zip%2Fhereafterfolowet00cath_jp2%2Fhereafterfolowet00cath_0176.jp2
A71329-142-b,https://iiif.archive.org/image/iiif/3/hereafterfolowet00cath%2Fhereafterfolowet00cath_jp2.zip%2Fhereafterfolowet00cath_jp2%2Fhereafterfolowet00cath_0177.jp2
A71329-143-a,https://iiif.archive.org/image/iiif/3/hereafterfolowet00cath%2Fhereafterfolowet00cath_jp2.zip%2Fhereafterfolowet00cath_jp2%2Fhereafterfolowet00cath_0178.jp2
A71329-143-b,https://iiif.archive.org/image/iiif/3/hereafterfolowet00cath%2Fhereafterfolowet00cath_jp2.zip%2Fhereafterfolowet00cath_jp2%2Fhereafterfolowet00cath_0179.jp2
A71329-144-a,https://iiif.archive.org/image/iiif/3/hereafterfolowet00cath%2Fhereafterfolowet00cath_jp2.zip%2Fhereafterfolowet00cath_jp2%2Fhereafterfolowet00cath_0180.jp2
A71329-144-b,https://iiif.archive.org/image/iiif/3/hereafterfolowet00cath%2Fhereafterfolowet00cath_jp2.zip%2Fhereafterfolowet00cath_jp2%2Fhereafterfolowet00cath_0181.jp2
A71329-145-a,https://iiif.archive.org/image/iiif/3/hereafterfolowet00cath%2Fhereafterfolowet00cath_jp2.zip%2Fhereafterfolowet00cath_jp2%2Fhereafterfolowet00cath_0182.jp2
A71329-145-b,https://iiif.archive.org/image/iiif/3/hereafterfolowet00cath%2Fhereafterfolowet00cath_jp2.zip%2Fhereafterfolowet00cath_jp2%2Fhereafterfolowet00cath_0183.jp2
A71329-146-a,https://iiif.archive.org/image/iiif/3/hereafterfolowet00cath%2Fhereafterfolowet00cath_jp2.zip%2Fhereafterfolowet00cath_jp2%2Fhereafterfolowet00cath_0184.jp2
A71329-146-b,https://iiif.archive.org/image/iiif/3/hereafterfolowet00cath%2Fhereafterfolowet00cath_jp2.zip%2Fhereafterfolowet00cath_jp2%2Fhereafterfolowet00cath_0185.jp2
A71329-147-a,https://iiif.archive.org/image/iiif/3/hereafterfolowet00cath%2Fhereafterfolowet00cath_jp2.zip%2Fhereafterfolowet00cath_jp2%2Fhereafterfolowet00cath_0186.jp2
A71329-147-b,https://iiif.archive.org/image/iiif/3/hereafterfolowet00cath%2Fhereafterfolowet00cath_jp2.zip%2Fhereafterfolowet00cath_jp2%2Fhereafterfolowet00cath_0187.jp2
A71329-148-a,https://iiif.archive.org/image/iiif/3/hereafterfolowet00cath%2Fhereafterfolowet00cath_jp2.zip%2Fhereafterfolowet00cath_jp2%2Fhereafterfolowet00cath_0188.jp2
A71329-148-b,https://iiif.archive.org/image/iiif/3/hereafterfolowet00cath%2Fhereafterfolowet00cath_jp2.zip%2Fhereafterfolowet00cath_jp2%2Fhereafterfolowet00cath_0189.jp2
A71329-148-c,https://iiif.archive.org/image/iiif/3/hereafterfolowet00cath%2Fhereafterfolowet00cath_jp2.zip%2Fhereafterfolowet00cath_jp2%2Fhereafterfolowet00cath_0190.jp2
A71329-149-a,https://iiif.archive.org/image/iiif/3/hereafterfolowet00cath%2Fhereafterfolowet00cath_jp2.zip%2Fhereafterfolowet00cath_jp2%2Fhereafterfolowet00cath_0191.jp2
A71329-150-a,https://iiif.archive.org/image/iiif/3/hereafterfolowet00cath%2Fhereafterfolowet00cath_jp2.zip%2Fhereafterfolowet00cath_jp2%2Fhereafterfolowet00cath_0192.jp2
A71329-150-b,https://iiif.archive.org/image/iiif/3/hereafterfolowet00cath%2Fhereafterfolowet00cath_jp2.zip%2Fhereafterfolowet00cath_jp2%2Fhereafterfolowet00cath_0193.jp2
