A74940-001-a,https://iiif.archive.org/image/iiif/3/gpl_1757958%2Fgpl_1757958_jp2.zip%2Fgpl_1757958_jp2%2Fgpl_1757958_0011.jp2
A74940-002-a,https://iiif.archive.org/image/iiif/3/gpl_1757958%2Fgpl_1757958_jp2.zip%2Fgpl_1757958_jp2%2Fgpl_1757958_0012.jp2
A74940-002-b,https://iiif.archive.org/image/iiif/3/gpl_1757958%2Fgpl_1757958_jp2.zip%2Fgpl_1757958_jp2%2Fgpl_1757958_0013.jp2
A74940-003-a,https://iiif.archive.org/image/iiif/3/gpl_1757958%2Fgpl_1757958_jp2.zip%2Fgpl_1757958_jp2%2Fgpl_1757958_0014.jp2
A74940-003-b,https://iiif.archive.org/image/iiif/3/gpl_1757958%2Fgpl_1757958_jp2.zip%2Fgpl_1757958_jp2%2Fgpl_1757958_0015.jp2
A74940-004-a,https://iiif.archive.org/image/iiif/3/gpl_1757958%2Fgpl_1757958_jp2.zip%2Fgpl_1757958_jp2%2Fgpl_1757958_0016.jp2
A74940-004-b,https://iiif.archive.org/image/iiif/3/gpl_1757958%2Fgpl_1757958_jp2.zip%2Fgpl_1757958_jp2%2Fgpl_1757958_0017.jp2
A74940-005-a,https://iiif.archive.org/image/iiif/3/gpl_1757958%2Fgpl_1757958_jp2.zip%2Fgpl_1757958_jp2%2Fgpl_1757958_0018.jp2
A74940-005-b,https://iiif.archive.org/image/iiif/3/gpl_1757958%2Fgpl_1757958_jp2.zip%2Fgpl_1757958_jp2%2Fgpl_1757958_0019.jp2
A74940-006-a,https://iiif.archive.org/image/iiif/3/gpl_1757958%2Fgpl_1757958_jp2.zip%2Fgpl_1757958_jp2%2Fgpl_1757958_0020.jp2
A74940-006-b,https://iiif.archive.org/image/iiif/3/gpl_1757958%2Fgpl_1757958_jp2.zip%2Fgpl_1757958_jp2%2Fgpl_1757958_0021.jp2
A74940-007-a,https://iiif.archive.org/image/iiif/3/gpl_1757958%2Fgpl_1757958_jp2.zip%2Fgpl_1757958_jp2%2Fgpl_1757958_0022.jp2
A74940-007-b,https://iiif.archive.org/image/iiif/3/gpl_1757958%2Fgpl_1757958_jp2.zip%2Fgpl_1757958_jp2%2Fgpl_1757958_0023.jp2
A74940-008-a,https://iiif.archive.org/image/iiif/3/gpl_1757958%2Fgpl_1757958_jp2.zip%2Fgpl_1757958_jp2%2Fgpl_1757958_0024.jp2
A74940-008-b,https://iiif.archive.org/image/iiif/3/gpl_1757958%2Fgpl_1757958_jp2.zip%2Fgpl_1757958_jp2%2Fgpl_1757958_0025.jp2
A74940-009-a,https://iiif.archive.org/image/iiif/3/gpl_1757958%2Fgpl_1757958_jp2.zip%2Fgpl_1757958_jp2%2Fgpl_1757958_0026.jp2
A74940-009-b,https://iiif.archive.org/image/iiif/3/gpl_1757958%2Fgpl_1757958_jp2.zip%2Fgpl_1757958_jp2%2Fgpl_1757958_0027.jp2
A74940-010-a,https://iiif.archive.org/image/iiif/3/gpl_1757958%2Fgpl_1757958_jp2.zip%2Fgpl_1757958_jp2%2Fgpl_1757958_0028.jp2
A74940-010-b,https://iiif.archive.org/image/iiif/3/gpl_1757958%2Fgpl_1757958_jp2.zip%2Fgpl_1757958_jp2%2Fgpl_1757958_0029.jp2
A74940-011-a,https://iiif.archive.org/image/iiif/3/gpl_1757958%2Fgpl_1757958_jp2.zip%2Fgpl_1757958_jp2%2Fgpl_1757958_0030.jp2
A74940-011-b,https://iiif.archive.org/image/iiif/3/gpl_1757958%2Fgpl_1757958_jp2.zip%2Fgpl_1757958_jp2%2Fgpl_1757958_0031.jp2
A74940-012-a,https://iiif.archive.org/image/iiif/3/gpl_1757958%2Fgpl_1757958_jp2.zip%2Fgpl_1757958_jp2%2Fgpl_1757958_0032.jp2
A74940-012-b,https://iiif.archive.org/image/iiif/3/gpl_1757958%2Fgpl_1757958_jp2.zip%2Fgpl_1757958_jp2%2Fgpl_1757958_0033.jp2
A74940-013-a,https://iiif.archive.org/image/iiif/3/gpl_1757958%2Fgpl_1757958_jp2.zip%2Fgpl_1757958_jp2%2Fgpl_1757958_0034.jp2
A74940-013-b,https://iiif.archive.org/image/iiif/3/gpl_1757958%2Fgpl_1757958_jp2.zip%2Fgpl_1757958_jp2%2Fgpl_1757958_0035.jp2
A74940-014-a,https://iiif.archive.org/image/iiif/3/gpl_1757958%2Fgpl_1757958_jp2.zip%2Fgpl_1757958_jp2%2Fgpl_1757958_0036.jp2
A74940-014-b,https://iiif.archive.org/image/iiif/3/gpl_1757958%2Fgpl_1757958_jp2.zip%2Fgpl_1757958_jp2%2Fgpl_1757958_0037.jp2
A74940-015-a,https://iiif.archive.org/image/iiif/3/gpl_1757958%2Fgpl_1757958_jp2.zip%2Fgpl_1757958_jp2%2Fgpl_1757958_0038.jp2
A74940-015-b,https://iiif.archive.org/image/iiif/3/gpl_1757958%2Fgpl_1757958_jp2.zip%2Fgpl_1757958_jp2%2Fgpl_1757958_0039.jp2
A74940-016-a,https://iiif.archive.org/image/iiif/3/gpl_1757958%2Fgpl_1757958_jp2.zip%2Fgpl_1757958_jp2%2Fgpl_1757958_0040.jp2
A74940-016-b,https://iiif.archive.org/image/iiif/3/gpl_1757958%2Fgpl_1757958_jp2.zip%2Fgpl_1757958_jp2%2Fgpl_1757958_0041.jp2
A74940-017-a,https://iiif.archive.org/image/iiif/3/gpl_1757958%2Fgpl_1757958_jp2.zip%2Fgpl_1757958_jp2%2Fgpl_1757958_0042.jp2
A74940-017-b,https://iiif.archive.org/image/iiif/3/gpl_1757958%2Fgpl_1757958_jp2.zip%2Fgpl_1757958_jp2%2Fgpl_1757958_0043.jp2
A74940-018-a,https://iiif.archive.org/image/iiif/3/gpl_1757958%2Fgpl_1757958_jp2.zip%2Fgpl_1757958_jp2%2Fgpl_1757958_0044.jp2
A74940-018-b,https://iiif.archive.org/image/iiif/3/gpl_1757958%2Fgpl_1757958_jp2.zip%2Fgpl_1757958_jp2%2Fgpl_1757958_0045.jp2
A74940-019-a,https://iiif.archive.org/image/iiif/3/gpl_1757958%2Fgpl_1757958_jp2.zip%2Fgpl_1757958_jp2%2Fgpl_1757958_0046.jp2
A74940-019-b,https://iiif.archive.org/image/iiif/3/gpl_1757958%2Fgpl_1757958_jp2.zip%2Fgpl_1757958_jp2%2Fgpl_1757958_0047.jp2
A74940-020-a,https://iiif.archive.org/image/iiif/3/gpl_1757958%2Fgpl_1757958_jp2.zip%2Fgpl_1757958_jp2%2Fgpl_1757958_0048.jp2
A74940-020-b,https://iiif.archive.org/image/iiif/3/gpl_1757958%2Fgpl_1757958_jp2.zip%2Fgpl_1757958_jp2%2Fgpl_1757958_0049.jp2
A74940-021-a,https://iiif.archive.org/image/iiif/3/gpl_1757958%2Fgpl_1757958_jp2.zip%2Fgpl_1757958_jp2%2Fgpl_1757958_0050.jp2
A74940-021-b,https://iiif.archive.org/image/iiif/3/gpl_1757958%2Fgpl_1757958_jp2.zip%2Fgpl_1757958_jp2%2Fgpl_1757958_0051.jp2
A74940-022-a,https://iiif.archive.org/image/iiif/3/gpl_1757958%2Fgpl_1757958_jp2.zip%2Fgpl_1757958_jp2%2Fgpl_1757958_0052.jp2
A74940-022-b,https://iiif.archive.org/image/iiif/3/gpl_1757958%2Fgpl_1757958_jp2.zip%2Fgpl_1757958_jp2%2Fgpl_1757958_0053.jp2
A74940-023-a,https://iiif.archive.org/image/iiif/3/gpl_1757958%2Fgpl_1757958_jp2.zip%2Fgpl_1757958_jp2%2Fgpl_1757958_0054.jp2
