A75271-001-a,https://iiif.archive.org/iiif/fivetreatisesofp00pinn$7
A75271-002-b,https://iiif.archive.org/iiif/fivetreatisesofp00pinn$9
A75271-003-a,https://iiif.archive.org/iiif/fivetreatisesofp00pinn$10
A75271-003-b,https://iiif.archive.org/iiif/fivetreatisesofp00pinn$11
A75271-004-a,https://iiif.archive.org/iiif/fivetreatisesofp00pinn$12
A75271-004-b,https://iiif.archive.org/iiif/fivetreatisesofp00pinn$13
A75271-005-a,https://iiif.archive.org/iiif/fivetreatisesofp00pinn$14
A75271-005-b,https://iiif.archive.org/iiif/fivetreatisesofp00pinn$15
A75271-006-a,https://iiif.archive.org/iiif/fivetreatisesofp00pinn$16
A75271-006-b,https://iiif.archive.org/iiif/fivetreatisesofp00pinn$17
A75271-007-a,https://iiif.archive.org/iiif/fivetreatisesofp00pinn$18
A75271-007-b,https://iiif.archive.org/iiif/fivetreatisesofp00pinn$19
A75271-008-a,https://iiif.archive.org/iiif/fivetreatisesofp00pinn$20
A75271-008-b,https://iiif.archive.org/iiif/fivetreatisesofp00pinn$21
A75271-009-a,https://iiif.archive.org/iiif/fivetreatisesofp00pinn$22
A75271-009-b,https://iiif.archive.org/iiif/fivetreatisesofp00pinn$23
A75271-010-a,https://iiif.archive.org/iiif/fivetreatisesofp00pinn$24
A75271-010-b,https://iiif.archive.org/iiif/fivetreatisesofp00pinn$25
A75271-011-a,https://iiif.archive.org/iiif/fivetreatisesofp00pinn$26
A75271-011-b,https://iiif.archive.org/iiif/fivetreatisesofp00pinn$27
A75271-012-a,https://iiif.archive.org/iiif/fivetreatisesofp00pinn$28
A75271-012-b,https://iiif.archive.org/iiif/fivetreatisesofp00pinn$29
A75271-013-b,https://iiif.archive.org/iiif/fivetreatisesofp00pinn$31
A75271-014-a,https://iiif.archive.org/iiif/fivetreatisesofp00pinn$32
A75271-014-b,https://iiif.archive.org/iiif/fivetreatisesofp00pinn$33
A75271-015-a,https://iiif.archive.org/iiif/fivetreatisesofp00pinn$34
A75271-015-b,https://iiif.archive.org/iiif/fivetreatisesofp00pinn$35
A75271-016-a,https://iiif.archive.org/iiif/fivetreatisesofp00pinn$36
A75271-016-b,https://iiif.archive.org/iiif/fivetreatisesofp00pinn$37
A75271-017-a,https://iiif.archive.org/iiif/fivetreatisesofp00pinn$38
A75271-017-b,https://iiif.archive.org/iiif/fivetreatisesofp00pinn$39
A75271-018-a,https://iiif.archive.org/iiif/fivetreatisesofp00pinn$40
A75271-018-b,https://iiif.archive.org/iiif/fivetreatisesofp00pinn$41
A75271-019-a,https://iiif.archive.org/iiif/fivetreatisesofp00pinn$42
A75271-019-b,https://iiif.archive.org/iiif/fivetreatisesofp00pinn$43
A75271-020-a,https://iiif.archive.org/iiif/fivetreatisesofp00pinn$44
A75271-020-b,https://iiif.archive.org/iiif/fivetreatisesofp00pinn$45
A75271-021-a,https://iiif.archive.org/iiif/fivetreatisesofp00pinn$46
A75271-021-b,https://iiif.archive.org/iiif/fivetreatisesofp00pinn$47
A75271-022-a,https://iiif.archive.org/iiif/fivetreatisesofp00pinn$48
A75271-022-b,https://iiif.archive.org/iiif/fivetreatisesofp00pinn$49
A75271-023-a,https://iiif.archive.org/iiif/fivetreatisesofp00pinn$50
A75271-023-b,https://iiif.archive.org/iiif/fivetreatisesofp00pinn$51
A75271-024-a,https://iiif.archive.org/iiif/fivetreatisesofp00pinn$52
A75271-024-b,https://iiif.archive.org/iiif/fivetreatisesofp00pinn$53
A75271-025-a,https://iiif.archive.org/iiif/fivetreatisesofp00pinn$54
A75271-025-b,https://iiif.archive.org/iiif/fivetreatisesofp00pinn$55
A75271-026-a,https://iiif.archive.org/iiif/fivetreatisesofp00pinn$56
A75271-026-b,https://iiif.archive.org/iiif/fivetreatisesofp00pinn$57
A75271-027-a,https://iiif.archive.org/iiif/fivetreatisesofp00pinn$58
A75271-027-b,https://iiif.archive.org/iiif/fivetreatisesofp00pinn$59
A75271-028-a,https://iiif.archive.org/iiif/fivetreatisesofp00pinn$60
A75271-028-b,https://iiif.archive.org/iiif/fivetreatisesofp00pinn$61
A75271-029-a,https://iiif.archive.org/iiif/fivetreatisesofp00pinn$62
A75271-029-b,https://iiif.archive.org/iiif/fivetreatisesofp00pinn$63
A75271-030-a,https://iiif.archive.org/iiif/fivetreatisesofp00pinn$64
A75271-030-b,https://iiif.archive.org/iiif/fivetreatisesofp00pinn$65
A75271-031-a,https://iiif.archive.org/iiif/fivetreatisesofp00pinn$66
A75271-031-b,https://iiif.archive.org/iiif/fivetreatisesofp00pinn$67
A75271-032-a,https://iiif.archive.org/iiif/fivetreatisesofp00pinn$68
A75271-032-b,https://iiif.archive.org/iiif/fivetreatisesofp00pinn$69
A75271-033-a,https://iiif.archive.org/iiif/fivetreatisesofp00pinn$70
A75271-033-b,https://iiif.archive.org/iiif/fivetreatisesofp00pinn$71
A75271-034-a,https://iiif.archive.org/iiif/fivetreatisesofp00pinn$72
A75271-034-b,https://iiif.archive.org/iiif/fivetreatisesofp00pinn$73
A75271-035-a,https://iiif.archive.org/iiif/fivetreatisesofp00pinn$74
A75271-035-b,https://iiif.archive.org/iiif/fivetreatisesofp00pinn$75
A75271-036-a,https://iiif.archive.org/iiif/fivetreatisesofp00pinn$76
A75271-036-b,https://iiif.archive.org/iiif/fivetreatisesofp00pinn$77
A75271-037-a,https://iiif.archive.org/iiif/fivetreatisesofp00pinn$78
A75271-037-b,https://iiif.archive.org/iiif/fivetreatisesofp00pinn$79
A75271-038-a,https://iiif.archive.org/iiif/fivetreatisesofp00pinn$80
A75271-038-b,https://iiif.archive.org/iiif/fivetreatisesofp00pinn$81
A75271-039-a,https://iiif.archive.org/iiif/fivetreatisesofp00pinn$82
A75271-039-b,https://iiif.archive.org/iiif/fivetreatisesofp00pinn$83
A75271-040-a,https://iiif.archive.org/iiif/fivetreatisesofp00pinn$84
A75271-040-b,https://iiif.archive.org/iiif/fivetreatisesofp00pinn$85
A75271-041-a,https://iiif.archive.org/iiif/fivetreatisesofp00pinn$86
