A85462-001-a,https://iiif.archive.org/iiif/simplicitiesdefe00gort$7
A85462-002-b,https://iiif.archive.org/iiif/simplicitiesdefe00gort$9
A85462-003-a,https://iiif.archive.org/iiif/simplicitiesdefe00gort$10
A85462-003-b,https://iiif.archive.org/iiif/simplicitiesdefe00gort$11
A85462-004-a,https://iiif.archive.org/iiif/simplicitiesdefe00gort$12
A85462-004-b,https://iiif.archive.org/iiif/simplicitiesdefe00gort$13
A85462-005-a,https://iiif.archive.org/iiif/simplicitiesdefe00gort$14
A85462-005-b,https://iiif.archive.org/iiif/simplicitiesdefe00gort$15
A85462-006-a,https://iiif.archive.org/iiif/simplicitiesdefe00gort$16
A85462-006-b,https://iiif.archive.org/iiif/simplicitiesdefe00gort$17
A85462-007-a,https://iiif.archive.org/iiif/simplicitiesdefe00gort$18
A85462-007-b,https://iiif.archive.org/iiif/simplicitiesdefe00gort$19
A85462-008-a,https://iiif.archive.org/iiif/simplicitiesdefe00gort$20
A85462-008-b,https://iiif.archive.org/iiif/simplicitiesdefe00gort$21
A85462-009-a,https://iiif.archive.org/iiif/simplicitiesdefe00gort$22
A85462-009-b,https://iiif.archive.org/iiif/simplicitiesdefe00gort$23
A85462-010-a,https://iiif.archive.org/iiif/simplicitiesdefe00gort$24
A85462-010-b,https://iiif.archive.org/iiif/simplicitiesdefe00gort$25
A85462-011-a,https://iiif.archive.org/iiif/simplicitiesdefe00gort$26
A85462-011-b,https://iiif.archive.org/iiif/simplicitiesdefe00gort$27
A85462-012-a,https://iiif.archive.org/iiif/simplicitiesdefe00gort$28
A85462-012-b,https://iiif.archive.org/iiif/simplicitiesdefe00gort$29
A85462-013-a,https://iiif.archive.org/iiif/simplicitiesdefe00gort$30
A85462-013-b,https://iiif.archive.org/iiif/simplicitiesdefe00gort$31
A85462-014-a,https://iiif.archive.org/iiif/simplicitiesdefe00gort$32
A85462-014-b,https://iiif.archive.org/iiif/simplicitiesdefe00gort$33
A85462-015-a,https://iiif.archive.org/iiif/simplicitiesdefe00gort$34
A85462-015-b,https://iiif.archive.org/iiif/simplicitiesdefe00gort$35
A85462-016-a,https://iiif.archive.org/iiif/simplicitiesdefe00gort$36
A85462-016-b,https://iiif.archive.org/iiif/simplicitiesdefe00gort$37
A85462-017-a,https://iiif.archive.org/iiif/simplicitiesdefe00gort$38
A85462-017-b,https://iiif.archive.org/iiif/simplicitiesdefe00gort$39
A85462-018-a,https://iiif.archive.org/iiif/simplicitiesdefe00gort$40
A85462-018-b,https://iiif.archive.org/iiif/simplicitiesdefe00gort$41
A85462-019-a,https://iiif.archive.org/iiif/simplicitiesdefe00gort$42
A85462-019-b,https://iiif.archive.org/iiif/simplicitiesdefe00gort$43
A85462-020-a,https://iiif.archive.org/iiif/simplicitiesdefe00gort$44
A85462-020-b,https://iiif.archive.org/iiif/simplicitiesdefe00gort$45
A85462-021-a,https://iiif.archive.org/iiif/simplicitiesdefe00gort$46
A85462-021-b,https://iiif.archive.org/iiif/simplicitiesdefe00gort$47
A85462-022-a,https://iiif.archive.org/iiif/simplicitiesdefe00gort$48
A85462-022-b,https://iiif.archive.org/iiif/simplicitiesdefe00gort$49
A85462-023-a,https://iiif.archive.org/iiif/simplicitiesdefe00gort$50
A85462-023-b,https://iiif.archive.org/iiif/simplicitiesdefe00gort$51
A85462-024-a,https://iiif.archive.org/iiif/simplicitiesdefe00gort$52
A85462-024-b,https://iiif.archive.org/iiif/simplicitiesdefe00gort$53
A85462-025-a,https://iiif.archive.org/iiif/simplicitiesdefe00gort$54
A85462-025-b,https://iiif.archive.org/iiif/simplicitiesdefe00gort$55
A85462-026-a,https://iiif.archive.org/iiif/simplicitiesdefe00gort$56
A85462-026-b,https://iiif.archive.org/iiif/simplicitiesdefe00gort$57
A85462-027-a,https://iiif.archive.org/iiif/simplicitiesdefe00gort$58
A85462-027-b,https://iiif.archive.org/iiif/simplicitiesdefe00gort$59
A85462-028-a,https://iiif.archive.org/iiif/simplicitiesdefe00gort$60
A85462-028-b,https://iiif.archive.org/iiif/simplicitiesdefe00gort$61
A85462-029-a,https://iiif.archive.org/iiif/simplicitiesdefe00gort$62
A85462-029-b,https://iiif.archive.org/iiif/simplicitiesdefe00gort$63
A85462-030-a,https://iiif.archive.org/iiif/simplicitiesdefe00gort$64
A85462-030-b,https://iiif.archive.org/iiif/simplicitiesdefe00gort$65
A85462-031-a,https://iiif.archive.org/iiif/simplicitiesdefe00gort$66
A85462-031-b,https://iiif.archive.org/iiif/simplicitiesdefe00gort$67
A85462-032-a,https://iiif.archive.org/iiif/simplicitiesdefe00gort$68
A85462-032-b,https://iiif.archive.org/iiif/simplicitiesdefe00gort$69
A85462-033-a,https://iiif.archive.org/iiif/simplicitiesdefe00gort$70
A85462-033-b,https://iiif.archive.org/iiif/simplicitiesdefe00gort$71
A85462-034-a,https://iiif.archive.org/iiif/simplicitiesdefe00gort$72
A85462-034-b,https://iiif.archive.org/iiif/simplicitiesdefe00gort$73
A85462-035-a,https://iiif.archive.org/iiif/simplicitiesdefe00gort$74
A85462-035-b,https://iiif.archive.org/iiif/simplicitiesdefe00gort$75
A85462-036-a,https://iiif.archive.org/iiif/simplicitiesdefe00gort$76
A85462-036-b,https://iiif.archive.org/iiif/simplicitiesdefe00gort$77
A85462-037-a,https://iiif.archive.org/iiif/simplicitiesdefe00gort$78
A85462-037-b,https://iiif.archive.org/iiif/simplicitiesdefe00gort$79
A85462-038-a,https://iiif.archive.org/iiif/simplicitiesdefe00gort$80
A85462-038-b,https://iiif.archive.org/iiif/simplicitiesdefe00gort$81
A85462-039-a,https://iiif.archive.org/iiif/simplicitiesdefe00gort$82
A85462-039-b,https://iiif.archive.org/iiif/simplicitiesdefe00gort$83
A85462-040-a,https://iiif.archive.org/iiif/simplicitiesdefe00gort$84
A85462-040-b,https://iiif.archive.org/iiif/simplicitiesdefe00gort$85
A85462-041-a,https://iiif.archive.org/iiif/simplicitiesdefe00gort$86
A85462-041-b,https://iiif.archive.org/iiif/simplicitiesdefe00gort$87
A85462-042-a,https://iiif.archive.org/iiif/simplicitiesdefe00gort$88
A85462-042-b,https://iiif.archive.org/iiif/simplicitiesdefe00gort$89
A85462-043-a,https://iiif.archive.org/iiif/simplicitiesdefe00gort$90
A85462-043-b,https://iiif.archive.org/iiif/simplicitiesdefe00gort$91
A85462-044-a,https://iiif.archive.org/iiif/simplicitiesdefe00gort$92
A85462-044-b,https://iiif.archive.org/iiif/simplicitiesdefe00gort$93
A85462-045-a,https://iiif.archive.org/iiif/simplicitiesdefe00gort$94
A85462-045-b,https://iiif.archive.org/iiif/simplicitiesdefe00gort$95
A85462-046-a,https://iiif.archive.org/iiif/simplicitiesdefe00gort$96
A85462-046-b,https://iiif.archive.org/iiif/simplicitiesdefe00gort$97
A85462-047-a,https://iiif.archive.org/iiif/simplicitiesdefe00gort$98
A85462-047-b,https://iiif.archive.org/iiif/simplicitiesdefe00gort$99
A85462-048-a,https://iiif.archive.org/iiif/simplicitiesdefe00gort$100
A85462-048-b,https://iiif.archive.org/iiif/simplicitiesdefe00gort$101
A85462-049-a,https://iiif.archive.org/iiif/simplicitiesdefe00gort$102
A85462-049-b,https://iiif.archive.org/iiif/simplicitiesdefe00gort$103
A85462-050-a,https://iiif.archive.org/iiif/simplicitiesdefe00gort$104
A85462-050-b,https://iiif.archive.org/iiif/simplicitiesdefe00gort$105
A85462-051-a,https://iiif.archive.org/iiif/simplicitiesdefe00gort$106
A85462-051-b,https://iiif.archive.org/iiif/simplicitiesdefe00gort$107
A85462-052-a,https://iiif.archive.org/iiif/simplicitiesdefe00gort$108
A85462-052-b,https://iiif.archive.org/iiif/simplicitiesdefe00gort$109
A85462-053-a,https://iiif.archive.org/iiif/simplicitiesdefe00gort$110
A85462-053-b,https://iiif.archive.org/iiif/simplicitiesdefe00gort$111
A85462-054-a,https://iiif.archive.org/iiif/simplicitiesdefe00gort$112
A85462-054-b,https://iiif.archive.org/iiif/simplicitiesdefe00gort$113
A85462-055-a,https://iiif.archive.org/iiif/simplicitiesdefe00gort$114
A85462-055-b,https://iiif.archive.org/iiif/simplicitiesdefe00gort$115
A85462-056-a,https://iiif.archive.org/iiif/simplicitiesdefe00gort$116
A85462-056-b,https://iiif.archive.org/iiif/simplicitiesdefe00gort$117
A85462-057-a,https://iiif.archive.org/iiif/simplicitiesdefe00gort$118
A85462-057-b,https://iiif.archive.org/iiif/simplicitiesdefe00gort$119
A85462-058-a,https://iiif.archive.org/iiif/simplicitiesdefe00gort$120
A85462-058-b,https://iiif.archive.org/iiif/simplicitiesdefe00gort$121
A85462-059-a,https://iiif.archive.org/iiif/simplicitiesdefe00gort$122
A85462-059-b,https://iiif.archive.org/iiif/simplicitiesdefe00gort$123
A85462-060-a,https://iiif.archive.org/iiif/simplicitiesdefe00gort$124
A85462-060-b,https://iiif.archive.org/iiif/simplicitiesdefe00gort$125
A85462-061-a,https://iiif.archive.org/iiif/simplicitiesdefe00gort$126
A85462-061-b,https://iiif.archive.org/iiif/simplicitiesdefe00gort$127
A85462-062-a,https://iiif.archive.org/iiif/simplicitiesdefe00gort$128
A85462-062-b,https://iiif.archive.org/iiif/simplicitiesdefe00gort$129
A85462-063-a,https://iiif.archive.org/iiif/simplicitiesdefe00gort$130
A85462-063-b,https://iiif.archive.org/iiif/simplicitiesdefe00gort$131
A85462-064-a,https://iiif.archive.org/iiif/simplicitiesdefe00gort$132
A85462-064-b,https://iiif.archive.org/iiif/simplicitiesdefe00gort$133
