B07622-001-b,https://iiif.archive.org/iiif/iniunccionsgeuen00chur$9999
B07622-002-b,https://iiif.archive.org/iiif/iniunccionsgeuen00chur$9
B07622-003-a,https://iiif.archive.org/iiif/iniunccionsgeuen00chur$10
B07622-003-b,https://iiif.archive.org/iiif/iniunccionsgeuen00chur$11
B07622-004-a,https://iiif.archive.org/iiif/iniunccionsgeuen00chur$12
B07622-004-b,https://iiif.archive.org/iiif/iniunccionsgeuen00chur$13
B07622-005-a,https://iiif.archive.org/iiif/iniunccionsgeuen00chur$14
B07622-005-b,https://iiif.archive.org/iiif/iniunccionsgeuen00chur$15
B07622-006-a,https://iiif.archive.org/iiif/iniunccionsgeuen00chur$16
B07622-006-b,https://iiif.archive.org/iiif/iniunccionsgeuen00chur$17
B07622-007-a,https://iiif.archive.org/iiif/iniunccionsgeuen00chur$18
B07622-007-b,https://iiif.archive.org/iiif/iniunccionsgeuen00chur$19
B07622-008-a,https://iiif.archive.org/iiif/iniunccionsgeuen00chur$20
B07622-008-b,https://iiif.archive.org/iiif/iniunccionsgeuen00chur$21
B07622-009-a,https://iiif.archive.org/iiif/iniunccionsgeuen00chur$22
B07622-009-b,https://iiif.archive.org/iiif/iniunccionsgeuen00chur$23
B07622-010-a,https://iiif.archive.org/iiif/iniunccionsgeuen00chur$24
B07622-010-b,https://iiif.archive.org/iiif/iniunccionsgeuen00chur$25
B07622-011-a,https://iiif.archive.org/iiif/iniunccionsgeuen00chur$26
B07622-011-b,https://iiif.archive.org/iiif/iniunccionsgeuen00chur$27
B07622-012-a,https://iiif.archive.org/iiif/iniunccionsgeuen00chur$28
B07622-012-b,https://iiif.archive.org/iiif/iniunccionsgeuen00chur$29
B07622-013-a,https://iiif.archive.org/iiif/iniunccionsgeuen00chur$30
B07622-013-b,https://iiif.archive.org/iiif/iniunccionsgeuen00chur$31
B07622-014-a,https://iiif.archive.org/iiif/iniunccionsgeuen00chur$32
