B14289-001-a,https://cdm16003.contentdm.oclc.org/iiif/2/p15150coll3:4437
B14289-001-b,https://cdm16003.contentdm.oclc.org/iiif/2/p15150coll3:4438
B14289-002-a,9999
B14289-002-b,https://cdm16003.contentdm.oclc.org/iiif/2/p15150coll3:4439
B14289-003-a,https://cdm16003.contentdm.oclc.org/iiif/2/p15150coll3:4440
B14289-003-b,https://cdm16003.contentdm.oclc.org/iiif/2/p15150coll3:4441
B14289-004-a,https://cdm16003.contentdm.oclc.org/iiif/2/p15150coll3:4442
B14289-004-b,https://cdm16003.contentdm.oclc.org/iiif/2/p15150coll3:4443
B14289-005-a,https://cdm16003.contentdm.oclc.org/iiif/2/p15150coll3:4444
B14289-005-b,https://cdm16003.contentdm.oclc.org/iiif/2/p15150coll3:4445
B14289-006-a,https://cdm16003.contentdm.oclc.org/iiif/2/p15150coll3:4446
B14289-006-b,https://cdm16003.contentdm.oclc.org/iiif/2/p15150coll3:4447
B14289-007-a,https://cdm16003.contentdm.oclc.org/iiif/2/p15150coll3:4448
B14289-007-b,https://cdm16003.contentdm.oclc.org/iiif/2/p15150coll3:4449
B14289-008-a,https://cdm16003.contentdm.oclc.org/iiif/2/p15150coll3:4450
B14289-008-b,https://cdm16003.contentdm.oclc.org/iiif/2/p15150coll3:4451
B14289-009-a,https://cdm16003.contentdm.oclc.org/iiif/2/p15150coll3:4452
B14289-009-b,https://cdm16003.contentdm.oclc.org/iiif/2/p15150coll3:4453
B14289-010-a,https://cdm16003.contentdm.oclc.org/iiif/2/p15150coll3:4454
B14289-010-b,https://cdm16003.contentdm.oclc.org/iiif/2/p15150coll3:4455
B14289-011-a,https://cdm16003.contentdm.oclc.org/iiif/2/p15150coll3:4456
B14289-011-b,https://cdm16003.contentdm.oclc.org/iiif/2/p15150coll3:4457
B14289-012-a,https://cdm16003.contentdm.oclc.org/iiif/2/p15150coll3:4458
B14289-012-b,https://cdm16003.contentdm.oclc.org/iiif/2/p15150coll3:4459
B14289-013-a,https://cdm16003.contentdm.oclc.org/iiif/2/p15150coll3:4460
B14289-013-b,https://cdm16003.contentdm.oclc.org/iiif/2/p15150coll3:4461
B14289-014-a,https://cdm16003.contentdm.oclc.org/iiif/2/p15150coll3:4462
B14289-014-b,https://cdm16003.contentdm.oclc.org/iiif/2/p15150coll3:4463
B14289-015-a,https://cdm16003.contentdm.oclc.org/iiif/2/p15150coll3:4464
B14289-015-b,https://cdm16003.contentdm.oclc.org/iiif/2/p15150coll3:4465
B14289-016-a,https://cdm16003.contentdm.oclc.org/iiif/2/p15150coll3:4466
B14289-016-b,https://cdm16003.contentdm.oclc.org/iiif/2/p15150coll3:4467
B14289-017-a,https://cdm16003.contentdm.oclc.org/iiif/2/p15150coll3:4468
B14289-017-b,https://cdm16003.contentdm.oclc.org/iiif/2/p15150coll3:4469
B14289-018-a,https://cdm16003.contentdm.oclc.org/iiif/2/p15150coll3:4470
B14289-018-b,https://cdm16003.contentdm.oclc.org/iiif/2/p15150coll3:4471
B14289-019-a,https://cdm16003.contentdm.oclc.org/iiif/2/p15150coll3:4472
B14289-019-b,https://cdm16003.contentdm.oclc.org/iiif/2/p15150coll3:4473
B14289-020-a,https://cdm16003.contentdm.oclc.org/iiif/2/p15150coll3:4474
B14289-020-b,https://cdm16003.contentdm.oclc.org/iiif/2/p15150coll3:4475
B14289-021-a,https://cdm16003.contentdm.oclc.org/iiif/2/p15150coll3:4476
B14289-021-b,9999
