B14326-001-a,9999
B14326-001-b,https://iiif.bodleian.ox.ac.uk/iiif/image/9d03ba15-ea4b-4e1a-918b-4d20ddea02a6
B14326-002-a,https://iiif.bodleian.ox.ac.uk/iiif/image/7fcf12dc-cfa4-4440-881a-20a6c7cc83bb
B14326-002-b,https://iiif.bodleian.ox.ac.uk/iiif/image/32c27aa2-45cd-4448-991f-9933321e65ac
B14326-003-a,https://iiif.bodleian.ox.ac.uk/iiif/image/858f17bd-bed4-4fcd-bdcb-a2130cb2395d
B14326-003-b,https://iiif.bodleian.ox.ac.uk/iiif/image/2a534ef0-a08e-4904-b0c1-4d2c3eb5f838
B14326-004-a,https://iiif.bodleian.ox.ac.uk/iiif/image/51692cd7-58e6-459b-a371-5d97e8103219
B14326-004-b,https://iiif.bodleian.ox.ac.uk/iiif/image/94a5b4eb-1efa-4e45-9327-a88a72c72705
B14326-005-a,https://iiif.bodleian.ox.ac.uk/iiif/image/5ffb04ef-4565-4e5b-a926-3b39a1718934
B14326-005-b,https://iiif.bodleian.ox.ac.uk/iiif/image/cc96a5b4-61a1-4a88-9f7c-af690ecaecd4
B14326-006-a,https://iiif.bodleian.ox.ac.uk/iiif/image/cfceb577-7746-470f-b302-83f3aa7ab7ce
B14326-006-b,https://iiif.bodleian.ox.ac.uk/iiif/image/159822dd-8a9c-42d3-a72b-788ff39e0092
B14326-007-a,https://iiif.bodleian.ox.ac.uk/iiif/image/c0eb9fa2-f907-43f1-986b-5bea897aeed8
B14326-007-b,https://iiif.bodleian.ox.ac.uk/iiif/image/81c35f10-992f-4e75-af9e-750b91024f3b
B14326-008-a,https://iiif.bodleian.ox.ac.uk/iiif/image/986f3db4-2ef5-4fd4-bf58-f9e2bc6dd2f8
B14326-008-b,https://iiif.bodleian.ox.ac.uk/iiif/image/0a3b7156-a0bb-488b-ba65-9c3a2810fb71
B14326-009-a,https://iiif.bodleian.ox.ac.uk/iiif/image/98fe613e-ea4e-4706-9507-1d387a7aafde
B14326-009-b,https://iiif.bodleian.ox.ac.uk/iiif/image/f981a399-3585-41fa-8be8-161280e09063
B14326-010-a,https://iiif.bodleian.ox.ac.uk/iiif/image/10300afc-dfe3-4d97-8f2a-dc605ebb14a8
B14326-010-b,https://iiif.bodleian.ox.ac.uk/iiif/image/a33df5e3-68f0-4b7a-9042-d4e4a3a2c8d2
B14326-011-a,https://iiif.bodleian.ox.ac.uk/iiif/image/a063cb48-5cfd-4665-8390-0025da1f2ec3
B14326-011-b,https://iiif.bodleian.ox.ac.uk/iiif/image/b84178e6-f5da-4009-8743-2aafee65df31
B14326-012-a,https://iiif.bodleian.ox.ac.uk/iiif/image/096f252c-c7b5-46ab-a6d5-1710d6b1aea1
B14326-012-b,https://iiif.bodleian.ox.ac.uk/iiif/image/504e8f89-b243-4477-926d-4d9efdf663c2
B14326-013-a,https://iiif.bodleian.ox.ac.uk/iiif/image/450c9d1e-7e33-48be-a2ff-afd8f430fbf4
B14326-013-b,https://iiif.bodleian.ox.ac.uk/iiif/image/ec21b749-1f37-4b12-9711-da53e13b4aae
B14326-014-a,https://iiif.bodleian.ox.ac.uk/iiif/image/42f18a92-1a10-41c5-a6d8-cfb0780ddfc1
B14326-014-b,https://iiif.bodleian.ox.ac.uk/iiif/image/02c76166-d409-4d9f-8b2a-bab72b7159d3
B14326-015-a,https://iiif.bodleian.ox.ac.uk/iiif/image/d8d33db8-fdd5-42ee-afb9-8d0e7ecfb9fe
B14326-015-b,https://iiif.bodleian.ox.ac.uk/iiif/image/1fc90770-8a69-470b-92c3-3c98149b29c6
B14326-016-a,https://iiif.bodleian.ox.ac.uk/iiif/image/7365ae41-78b5-4cfc-8f9c-10773157922f
B14326-016-b,https://iiif.bodleian.ox.ac.uk/iiif/image/0447de00-9de8-4817-9e0a-bcd12267af58
B14326-017-a,https://iiif.bodleian.ox.ac.uk/iiif/image/dfd32f94-f0c0-4493-8f35-435f955e7a63
B14326-017-b,9999
